 9.096 0.1156 0 0.20255 0
 9.101 0.115649 0 0.205505 0
 9.106 0.116194 0 0.206472 0
 9.111 0.117361 0 0.204415 0
 9.116 0.119259 0 0.198636 0
 9.121 0.122011 0 0.189108 0
 9.126 0.125911 0 0.176592 0
 9.131 0.130924 0 0.163719 0
 9.136 0.136262 0 0.153661 0
 9.141 0.141137 0 0.146745 0
 9.146 0.145277 0 0.142014 0
 9.151 0.148735 0 0.138645 0
 9.156 0.151818 0 0.135992 0
 9.161 0.154777 0 0.133697 0
 9.166 0.15777 0 0.131587 0
 9.171 0.160868 0 0.129594 0
 9.176 0.164104 0 0.127692 0
 9.181 0.167487 0 0.125875 0
 9.186 0.171007 0 0.124146 0
 9.191 0.174645 0 0.12251 0
 9.196 0.179952 0 0.120542 0
 9.201 0.188147 0 0.11792 0
 9.206 0.194611 0 0.116423 0
 9.211 0.199554 0 0.115706 0
 9.216 0.203503 0 0.115448 0
 9.221 0.205916 0 0.11567 0
 9.226 0.205743 0 0.116486 0
 9.231 0.202116 0 0.117986 0
 9.236 0.194761 0 0.120237 0
 9.241 0.184259 0 0.123325 0
 9.246 0.171812 0 0.127521 0
 9.251 0.16023 0 0.132549 0
 9.256 0.151585 0 0.137588 0
 9.261 0.145581 0 0.142089 0
 9.266 0.141351 0 0.145925 0
 9.271 0.138262 0 0.149161 0
 9.276 0.135761 0 0.152098 0
 9.281 0.133539 0 0.154979 0
 9.286 0.131468 0 0.157925 0
 9.291 0.129499 0 0.160991 0
 9.296 0.127616 0 0.164196 0
 9.301 0.125852 0 0.167482 0
 9.306 0.1247 0 0.169819 0
 9.311 0.124499 0 0.170289 0
 9.316 0.124075 0 0.171226 0
 9.321 0.122975 0 0.173824 0
 9.326 0.121484 0 0.177754 0
 9.331 0.119898 0 0.182614 0
 9.336 0.118459 0 0.187941 0
 9.341 0.117397 0 0.193015 0
 9.346 0.116908 0 0.196843 0
 9.351 0.117121 0 0.198373 0
 9.356 0.118066 0 0.196925 0
 9.361 0.119678 0 0.192554 0
 9.366 0.12183 0 0.186067 0
 9.371 0.124412 0 0.178521 0
 9.376 0.127204 0 0.171152 0
 9.381 0.130034 0 0.164683 0
 9.386 0.132829 0 0.159194 0
 9.391 0.135576 0 0.154527 0
 9.396 0.138271 0 0.150514 0
 9.401 0.140908 0 0.147034 0
 9.406 0.143525 0 0.143944 0
 9.411 0.145805 0 0.141499 0
 9.416 0.146161 0 0.141135 0
 9.421 0.145371 0 0.141957 0
 9.426 0.142991 0 0.144651 0
 9.431 0.138611 0 0.150385 0
 9.436 0.135643 0 0.154948 0
 9.441 0.133129 0 0.159252 0
 9.446 0.130511 0 0.164189 0
 9.451 0.127748 0 0.169927 0
 9.456 0.125119 0 0.175803 0
 9.461 0.12295 0 0.180711 0
 9.466 0.121408 0 0.183898 0
 9.471 0.120462 0 0.185372 0
 9.476 0.119956 0 0.185678 0
 9.481 0.1197 0 0.185447 0
 9.486 0.119538 0 0.185154 0
 9.491 0.119352 0 0.185069 0
 9.496 0.119005 0 0.185563 0
 9.501 0.118535 0 0.186565 0
 9.506 0.118361 0 0.186891 0
 9.511 0.118958 0 0.185137 0
 9.516 0.120203 0 0.18154 0
 9.521 0.121812 0 0.177216 0
 9.526 0.123717 0 0.172606 0
 9.531 0.126179 0 0.167292 0
 9.536 0.130181 0 0.159959 0
 9.541 0.13571 0 0.152193 0
 9.546 0.13993 0 0.147344 0
 9.551 0.143093 0 0.144144 0
 9.556 0.145868 0 0.141575 0
 9.561 0.148567 0 0.139251 0
 9.566 0.151227 0 0.137099 0
 9.571 0.153639 0 0.13524 0
 9.576 0.155632 0 0.133751 0
 9.581 0.157194 0 0.132601 0
 9.586 0.158456 0 0.131683 0
 9.591 0.159595 0 0.130874 0
 9.596 0.160773 0 0.130072 0
 9.601 0.162107 0 0.129211 0
 9.606 0.163675 0 0.128254 0
 9.611 0.165537 0 0.127172 0
 9.616 0.167888 0 0.125887 0
 9.621 0.170583 0 0.124517 0
 9.626 0.173488 0 0.123144 0
 9.631 0.176512 0 0.121814 0
 9.636 0.179518 0 0.120582 0
 9.641 0.182258 0 0.119538 0
 9.646 0.182437 0 0.119544 0
 9.651 0.179464 0 0.120712 0
 9.656 0.175091 0 0.122479 0
 9.661 0.1699 0 0.124794 0
 9.666 0.162954 0 0.128324 0
 9.671 0.155198 0 0.133389 0
 9.676 0.150678 0 0.136959 0
 9.681 0.147697 0 0.139603 0
 9.686 0.1451 0 0.142112 0
 9.691 0.142482 0 0.144845 0
 9.696 0.139904 0 0.14775 0
 9.701 0.137578 0 0.15056 0
 9.706 0.135654 0 0.153012 0
 9.711 0.134154 0 0.154991 0
 9.716 0.132989 0 0.156556 0
 9.721 0.132026 0 0.157876 0
 9.726 0.131134 0 0.15914 0
 9.731 0.130226 0 0.160487 0
 9.736 0.1292 0 0.162082 0
 9.741 0.128018 0 0.16404 0
 9.746 0.126733 0 0.166315 0
 9.751 0.125397 0 0.168847 0
 9.756 0.124055 0 0.171573 0
 9.761 0.122763 0 0.174391 0
 9.766 0.121564 0 0.177199 0
 9.771 0.12044 0 0.180006 0
 9.776 0.119406 0 0.182762 0
 9.781 0.119448 0 0.182891 0
 9.786 0.120931 0 0.179072 0
 9.791 0.123345 0 0.173124 0
 9.796 0.127165 0 0.165202 0
 9.801 0.130112 0 0.160202 0
 9.806 0.132208 0 0.157054 0
 9.811 0.134045 0 0.154518 0
 9.816 0.135958 0 0.152052 0
 9.821 0.138031 0 0.149552 0
 9.826 0.140186 0 0.147117 0
 9.831 0.142287 0 0.144886 0
 9.836 0.144222 0 0.142941 0
 9.841 0.145959 0 0.141274 0
 9.846 0.147552 0 0.139805 0
 9.851 0.149109 0 0.138423 0
 9.856 0.150738 0 0.137038 0
 9.861 0.152582 0 0.135542 0
 9.866 0.154725 0 0.133903 0
 9.871 0.157142 0 0.132174 0
 9.876 0.159795 0 0.13041 0
 9.881 0.162634 0 0.128663 0
 9.886 0.165598 0 0.126977 0
 9.891 0.168604 0 0.125401 0
 9.896 0.171642 0 0.123926 0
 9.901 0.174727 0 0.122536 0
 9.906 0.17787 0 0.12122 0
 9.911 0.181079 0 0.119968 0
 9.916 0.182999 0 0.119324 0
 9.921 0.180626 0 0.120443 0
 9.926 0.179324 0 0.121048 0
 9.931 0.178402 0 0.121541 0
 9.936 0.177875 0 0.121918 0
 9.941 0.177723 0 0.122185 0
 9.946 0.177829 0 0.122386 0
 9.951 0.178029 0 0.122585 0
 9.956 0.17809 0 0.122861 0
 9.961 0.17772 0 0.123313 0
 9.966 0.176575 0 0.124048 0
 9.971 0.174307 0 0.125192 0
 9.976 0.170668 0 0.126877 0
 9.981 0.165652 0 0.129248 0
 9.986 0.159538 0 0.132422 0
 9.991 0.153362 0 0.136151 0
 9.996 0.14788 0 0.140099 0
 10.001 0.143309 0 0.144007 0
 10.006 0.139558 0 0.147742 0
 10.011 0.136462 0 0.151262 0
 10.016 0.133817 0 0.154643 0
 10.021 0.131467 0 0.157982 0
 10.026 0.12932 0 0.161352 0
 10.031 0.127331 0 0.164789 0
 10.036 0.125472 0 0.168317 0
 10.041 0.123729 0 0.171941 0
 10.046 0.122097 0 0.175652 0
 10.051 0.120095 0 0.181156 0
 10.056 0.117457 0 0.189766 0
 10.061 0.116027 0 0.196365 0
 10.066 0.115494 0 0.20085 0
 10.071 0.115425 0 0.204155 0
 10.076 0.115802 0 0.205959 0
 10.081 0.116704 0 0.205434 0
 10.086 0.118208 0 0.201831 0
 10.091 0.12038 0 0.194858 0
 10.096 0.123316 0 0.184894 0
 10.101 0.12726 0 0.172965 0
 10.106 0.132461 0 0.160719 0
 10.111 0.13811 0 0.150981 0
 10.116 0.143317 0 0.144214 0
 10.121 0.14775 0 0.139571 0
 10.126 0.151307 0 0.136392 0
 10.131 0.154333 0 0.133991 0
 10.136 0.157176 0 0.131945 0
 10.141 0.160041 0 0.130057 0
 10.146 0.163016 0 0.128257 0
 10.151 0.166137 0 0.126522 0
 10.156 0.169409 0 0.124851 0
 10.161 0.172376 0 0.123457 0
 10.166 0.173569 0 0.122871 0
 10.171 0.174629 0 0.122449 0
 10.176 0.178456 0 0.120962 0
 10.181 0.184402 0 0.118943 0
 10.186 0.190736 0 0.11725 0
 10.191 0.196833 0 0.116063 0
 10.196 0.202488 0 0.115329 0
 10.201 0.206695 0 0.115144 0
 10.206 0.208094 0 0.115649 0
 10.211 0.205519 0 0.116963 0
 10.216 0.198507 0 0.11915 0
 10.221 0.187667 0 0.122265 0
 10.226 0.174767 0 0.126363 0
 10.231 0.163206 0 0.131014 0
 10.236 0.154531 0 0.13564 0
 10.241 0.148298 0 0.139893 0
 10.246 0.143706 0 0.143698 0
 10.251 0.140151 0 0.147132 0
 10.256 0.137178 0 0.150398 0
 10.261 0.134535 0 0.153653 0
 10.266 0.132105 0 0.156985 0
 10.271 0.129841 0 0.160427 0
 10.276 0.12772 0 0.163997 0
 10.281 0.125875 0 0.167427 0
 10.286 0.124876 0 0.169428 0
 10.291 0.124122 0 0.171096 0
 10.296 0.122861 0 0.173999 0
 10.301 0.121187 0 0.178353 0
 10.306 0.119365 0 0.183903 0
 10.311 0.117671 0 0.19018 0
 10.316 0.116526 0 0.195954 0
 10.321 0.116006 0 0.200386 0
 10.326 0.116164 0 0.20256 0
 10.331 0.117061 0 0.201577 0
 10.336 0.118668 0 0.19723 0
 10.341 0.120891 0 0.190149 0
 10.346 0.123641 0 0.181517 0
 10.351 0.126764 0 0.172712 0
 10.356 0.130018 0 0.164947 0
 10.361 0.133254 0 0.158524 0
 10.366 0.136412 0 0.153254 0
 10.371 0.139481 0 0.148868 0
 10.376 0.142451 0 0.145163 0
 10.381 0.145358 0 0.141955 0
 10.386 0.148256 0 0.139095 0
 10.391 0.149851 0 0.137647 0
 10.396 0.149851 0 0.137647 0
 10.401 0.148624 0 0.13876 0
 10.406 0.144519 0 0.142931 0
 10.411 0.140947 0 0.147157 0
 10.416 0.138292 0 0.150699 0
 10.421 0.135631 0 0.154606 0
 10.426 0.132691 0 0.1594 0
 10.431 0.129714 0 0.164786 0
 10.436 0.127146 0 0.169766 0
 10.441 0.125283 0 0.173355 0
 10.446 0.12414 0 0.17527 0
 10.451 0.123542 0 0.175912 0
 10.456 0.123258 0 0.175895 0
 10.461 0.123096 0 0.175717 0
 10.466 0.122926 0 0.175663 0
 10.471 0.122589 0 0.176075 0
 10.476 0.122086 0 0.176988 0
 10.481 0.121842 0 0.177406 0
 10.486 0.12245 0 0.175857 0
 10.491 0.123565 0 0.173132 0
 10.496 0.124956 0 0.169979 0
 10.501 0.126599 0 0.166579 0
 10.506 0.128843 0 0.162386 0
 10.511 0.132628 0 0.156289 0
 10.516 0.138309 0 0.14911 0
 10.521 0.1429 0 0.144366 0
 10.526 0.146354 0 0.141235 0
 10.531 0.149373 0 0.138734 0
 10.536 0.152301 0 0.136472 0
 10.541 0.155186 0 0.134371 0
 10.546 0.157777 0 0.132561 0
 10.551 0.159837 0 0.131148 0
 10.556 0.16136 0 0.130099 0
 10.561 0.162506 0 0.129302 0
 10.566 0.16349 0 0.128628 0
 10.571 0.164498 0 0.127971 0
 10.576 0.16566 0 0.127261 0
 10.581 0.167057 0 0.126461 0
 10.586 0.168716 0 0.125564 0
 10.591 0.170956 0 0.124408 0
 10.596 0.173731 0 0.123082 0
 10.601 0.176807 0 0.121721 0
 10.606 0.180027 0 0.120398 0
 10.611 0.182944 0 0.119291 0
 10.616 0.182047 0 0.119694 0
 10.621 0.179427 0 0.120704 0
 10.626 0.175855 0 0.122136 0
 10.631 0.171645 0 0.123966 0
 10.636 0.16673 0 0.126334 0
 10.641 0.159664 0 0.130287 0
 10.646 0.151961 0 0.135864 0
 10.651 0.147347 0 0.139935 0
 10.656 0.144379 0 0.14289 0
 10.661 0.141931 0 0.145539 0
 10.666 0.139496 0 0.148375 0
 10.671 0.137107 0 0.151361 0
 10.676 0.134968 0 0.154202 0
 10.681 0.13323 0 0.156606 0
 10.686 0.131908 0 0.15847 0
 10.691 0.130906 0 0.159885 0
 10.696 0.130091 0 0.161048 0
 10.701 0.129337 0 0.162161 0
 10.706 0.128553 0 0.163384 0
 10.711 0.127677 0 0.16482 0
 10.716 0.126607 0 0.166691 0
 10.721 0.125415 0 0.168925 0
 10.726 0.124161 0 0.171442 0
 10.731 0.122897 0 0.174161 0
 10.736 0.121687 0 0.176953 0
 10.741 0.120583 0 0.179681 0
 10.746 0.119562 0 0.182363 0
 10.751 0.119222 0 0.183447 0
 10.756 0.120371 0 0.180537 0
 10.761 0.122343 0 0.175556 0
 10.766 0.125123 0 0.169204 0
 10.771 0.129603 0 0.160928 0
 10.776 0.132908 0 0.155959 0
 10.781 0.135225 0 0.152876 0
 10.786 0.137305 0 0.15033 0
 10.791 0.139527 0 0.147801 0
 10.796 0.141932 0 0.145249 0
 10.801 0.144376 0 0.142831 0
 10.806 0.146665 0 0.1407 0
 10.811 0.148669 0 0.138926 0
 10.816 0.150379 0 0.137469 0
 10.821 0.151889 0 0.136223 0
 10.826 0.15334 0 0.135067 0
 10.831 0.154863 0 0.133903 0
 10.836 0.156596 0 0.132637 0
 10.841 0.158675 0 0.131204 0
 10.846 0.161051 0 0.129672 0
 10.851 0.163673 0 0.128097 0
 10.856 0.166481 0 0.126531 0
 10.861 0.169373 0 0.125036 0
 10.866 0.172267 0 0.123649 0
 10.871 0.175172 0 0.122352 0
 10.876 0.178113 0 0.121126 0
 10.881 0.181108 0 0.119958 0
 10.886 0.183033 0 0.119292 0
 10.891 0.180275 0 0.120414 0
 10.896 0.175189 0 0.122483 0
 10.901 0.171399 0 0.124201 0
 10.906 0.168935 0 0.125449 0
 10.911 0.167174 0 0.126426 0
 10.916 0.165667 0 0.127321 0
 10.921 0.164215 0 0.128225 0
 10.926 0.162743 0 0.12917 0
 10.931 0.161237 0 0.130163 0
 10.936 0.159685 0 0.131209 0
 10.941 0.158044 0 0.132334 0
 10.946 0.156239 0 0.133591 0
 10.951 0.15418 0 0.135054 0
 10.956 0.151809 0 0.136798 0
 10.961 0.149037 0 0.13895 0
 10.966 0.145997 0 0.141491 0
 10.971 0.142901 0 0.144329 0
 10.976 0.1399 0 0.147373 0
 10.981 0.137089 0 0.15054 0
 10.986 0.134514 0 0.153758 0
 10.991 0.132181 0 0.156982 0
 10.996 0.130047 0 0.160229 0
 11.001 0.12807 0 0.163533 0
 11.006 0.126223 0 0.166911 0
 11.011 0.12449 0 0.170378 0
 11.016 0.12286 0 0.173936 0
 11.021 0.121326 0 0.177579 0
 11.026 0.119298 0 0.183562 0
 11.031 0.116985 0 0.19167 0
 11.036 0.115899 0 0.197323 0
 11.041 0.115456 0 0.201525 0
 11.046 0.115371 0 0.204898 0
 11.051 0.115696 0 0.206905 0
 11.056 0.116545 0 0.206553 0
 11.061 0.118018 0 0.202966 0
 11.066 0.120197 0 0.195773 0
 11.071 0.1232 0 0.185341 0
 11.076 0.127275 0 0.172853 0
 11.081 0.132696 0 0.160171 0
 11.086 0.138647 0 0.150156 0
 11.091 0.144139 0 0.143268 0
 11.096 0.148824 0 0.138564 0
 11.101 0.152689 0 0.135271 0
 11.106 0.155964 0 0.132807 0
 11.111 0.158989 0 0.130749 0
 11.116 0.16197 0 0.128894 0
 11.121 0.165016 0 0.127153 0
 11.126 0.168166 0 0.125495 0
 11.131 0.171437 0 0.12391 0
 11.136 0.174714 0 0.122448 0
 11.141 0.177131 0 0.12144 0
 11.146 0.179043 0 0.120725 0
 11.151 0.18339 0 0.119227 0
 11.156 0.188964 0 0.117646 0
 11.161 0.194737 0 0.11641 0
 11.166 0.200831 0 0.115438 0
 11.171 0.206551 0 0.114816 0
 11.176 0.210732 0 0.114688 0
 11.181 0.212116 0 0.115193 0
 11.186 0.209679 0 0.116435 0
 11.191 0.202845 0 0.118499 0
 11.196 0.191792 0 0.121499 0
 11.201 0.177652 0 0.125667 0
 11.206 0.164383 0 0.130642 0
 11.211 0.15462 0 0.135662 0
 11.216 0.147989 0 0.140153 0
 11.221 0.143409 0 0.143966 0
 11.226 0.140003 0 0.147281 0
 11.231 0.137213 0 0.150359 0
 11.236 0.134748 0 0.153389 0
 11.241 0.132471 0 0.156483 0
 11.246 0.130326 0 0.159697 0
 11.251 0.12829 0 0.163053 0
 11.256 0.126358 0 0.166557 0
 11.261 0.124531 0 0.170196 0
 11.266 0.122814 0 0.173948 0
 11.271 0.120509 0 0.179989 0
 11.276 0.11766 0 0.18903 0
 11.281 0.115982 0 0.196502 0
 11.286 0.11552 0 0.200877 0
 11.291 0.115643 0 0.20349 0
 11.296 0.116256 0 0.204256 0
 11.301 0.117339 0 0.202843 0
 11.306 0.118875 0 0.199089 0
 11.311 0.120848 0 0.193128 0
 11.316 0.123271 0 0.185393 0
 11.321 0.126336 0 0.176174 0
 11.326 0.129846 0 0.166964 0
 11.331 0.133499 0 0.159094 0
 11.336 0.137093 0 0.152802 0
 11.341 0.140453 0 0.147913 0
 11.346 0.143414 0 0.144215 0
 11.351 0.146169 0 0.141189 0
 11.356 0.148925 0 0.138488 0
 11.361 0.151785 0 0.135967 0
 11.366 0.154761 0 0.133599 0
 11.371 0.157444 0 0.131654 0
 11.376 0.157576 0 0.131501 0
 11.381 0.154661 0 0.133632 0
 11.386 0.153765 0 0.134341 0
 11.391 0.154297 0 0.133947 0
 11.396 0.155278 0 0.133246 0
 11.401 0.156216 0 0.13263 0
 11.406 0.156921 0 0.132229 0
 11.411 0.157325 0 0.132072 0
 11.416 0.157402 0 0.13216 0
 11.421 0.157118 0 0.132499 0
 11.426 0.156444 0 0.133099 0
 11.431 0.155381 0 0.133957 0
 11.436 0.15398 0 0.135049 0
 11.441 0.152342 0 0.136325 0
 11.446 0.15048 0 0.137799 0
 11.451 0.148534 0 0.139386 0
 11.456 0.146725 0 0.140921 0
 11.461 0.145738 0 0.141801 0
 11.466 0.145349 0 0.142179 0
 11.471 0.145641 0 0.141975 0
 11.476 0.147226 0 0.140745 0
 11.481 0.151599 0 0.137748 0
 11.486 0.159355 0 0.133272 0
 11.491 0.165672 0 0.13016 0
 11.496 0.170438 0 0.128014 0
 11.501 0.174882 0 0.126074 0
 11.506 0.179513 0 0.124089 0
 11.511 0.183999 0 0.122148 0
 11.516 0.187496 0 0.120514 0
 11.521 0.189474 0 0.119366 0
 11.526 0.190152 0 0.118678 0
 11.531 0.19014 0 0.118293 0
 11.536 0.189933 0 0.118056 0
 11.541 0.189781 0 0.11788 0
 11.546 0.189245 0 0.117893 0
 11.551 0.188083 0 0.118159 0
 11.556 0.185923 0 0.118803 0
 11.561 0.182212 0 0.120053 0
 11.566 0.176456 0 0.12218 0
 11.571 0.171057 0 0.124385 0
 11.576 0.168093 0 0.125839 0
 11.581 0.166181 0 0.126891 0
 11.586 0.164537 0 0.127865 0
 11.591 0.162902 0 0.128882 0
 11.596 0.161211 0 0.129972 0
 11.601 0.159479 0 0.131127 0
 11.606 0.157731 0 0.132331 0
 11.611 0.155963 0 0.133586 0
 11.616 0.154131 0 0.134925 0
 11.621 0.152161 0 0.136408 0
 11.626 0.14999 0 0.138107 0
 11.631 0.147496 0 0.140158 0
 11.636 0.14479 0 0.142537 0
 11.641 0.142012 0 0.145189 0
 11.646 0.139274 0 0.148053 0
 11.651 0.13666 0 0.151064 0
 11.656 0.13423 0 0.154148 0
 11.661 0.131995 0 0.15727 0
 11.666 0.129921 0 0.160449 0
 11.671 0.127979 0 0.163709 0
 11.676 0.126153 0 0.167063 0
 11.681 0.12443 0 0.17052 0
 11.686 0.122805 0 0.174077 0
 11.691 0.121056 0 0.178336 0
 11.696 0.118817 0 0.185155 0
 11.701 0.116485 0 0.193767 0
 11.706 0.115518 0 0.199389 0
 11.711 0.115194 0 0.20348 0
 11.716 0.11532 0 0.206282 0
 11.721 0.115923 0 0.207194 0
 11.726 0.117079 0 0.205384 0
 11.731 0.118853 0 0.200295 0
 11.736 0.121308 0 0.191926 0
 11.741 0.124564 0 0.180973 0
 11.746 0.128914 0 0.168677 0
 11.751 0.134429 0 0.156976 0
 11.756 0.140204 0 0.148059 0
 11.761 0.14545 0 0.141876 0
 11.766 0.149951 0 0.137553 0
 11.771 0.153673 0 0.134488 0
 11.776 0.156874 0 0.132145 0
 11.781 0.159879 0 0.130152 0
 11.786 0.162878 0 0.12833 0
 11.791 0.165958 0 0.126611 0
 11.796 0.169151 0 0.124972 0
 11.801 0.17211 0 0.123572 0
 11.806 0.174037 0 0.122697 0
 11.811 0.173304 0 0.12294 0
 11.816 0.174144 0 0.122618 0
 11.821 0.177843 0 0.121169 0
 11.826 0.183601 0 0.11918 0
 11.831 0.189812 0 0.117476 0
 11.836 0.195971 0 0.11622 0
 11.841 0.201909 0 0.115373 0
 11.846 0.206626 0 0.115046 0
 11.851 0.208701 0 0.115402 0
 11.856 0.206823 0 0.116583 0
 11.861 0.200337 0 0.118666 0
 11.866 0.189701 0 0.1217 0
 11.871 0.176654 0 0.125722 0
 11.876 0.16477 0 0.130302 0
 11.881 0.155801 0 0.134879 0
 11.886 0.149357 0 0.139103 0
 11.891 0.144614 0 0.142893 0
 11.896 0.140945 0 0.146324 0
 11.901 0.137879 0 0.149592 0
 11.906 0.135157 0 0.152852 0
 11.911 0.132657 0 0.156193 0
 11.916 0.130329 0 0.159649 0
 11.921 0.12815 0 0.163236 0
 11.926 0.126175 0 0.166834 0
 11.931 0.125 0 0.169169 0
 11.936 0.124208 0 0.170856 0
 11.941 0.122949 0 0.173728 0
 11.946 0.121277 0 0.178036 0
 11.951 0.119447 0 0.18355 0
 11.956 0.117735 0 0.18982 0
 11.961 0.116559 0 0.195644 0
 11.966 0.116003 0 0.200189 0
 11.971 0.116121 0 0.20253 0
 11.976 0.116981 0 0.201729 0
 11.981 0.11856 0 0.197527 0
 11.986 0.120768 0 0.190514 0
 11.991 0.12351 0 0.181892 0
 11.996 0.126662 0 0.172971 0
 12.001 0.12994 0 0.165113 0
 12.006 0.133165 0 0.158683 0
 12.011 0.136278 0 0.153461 0
 12.016 0.139273 0 0.149147 0
 12.021 0.142138 0 0.145533 0
 12.026 0.144931 0 0.142405 0
 12.031 0.147718 0 0.139603 0
 12.036 0.149731 0 0.137752 0
 12.041 0.150139 0 0.137394 0
 12.046 0.149414 0 0.138038 0
 12.051 0.146397 0 0.140948 0
 12.056 0.141895 0 0.145992 0
 12.061 0.13896 0 0.149808 0
 12.066 0.136392 0 0.153501 0
 12.071 0.133609 0 0.157919 0
 12.076 0.130638 0 0.163158 0
 12.081 0.127884 0 0.168454 0
 12.086 0.125731 0 0.172707 0
 12.091 0.124313 0 0.175293 0
 12.096 0.123522 0 0.176372 0
 12.101 0.123141 0 0.176526 0
 12.106 0.122957 0 0.176328 0
 12.111 0.122819 0 0.176145 0
 12.116 0.122566 0 0.176312 0
 12.121 0.122119 0 0.177043 0
 12.126 0.1218 0 0.177599 0
 12.131 0.122133 0 0.176679 0
 12.136 0.123116 0 0.174227 0
 12.141 0.124401 0 0.171218 0
 12.146 0.125965 0 0.167867 0
 12.151 0.127922 0 0.164062 0
 12.156 0.131061 0 0.158664 0
 12.161 0.136385 0 0.15134 0
 12.166 0.141395 0 0.145837 0
 12.171 0.145081 0 0.142344 0
 12.176 0.148189 0 0.139678 0
 12.181 0.151089 0 0.13737 0
 12.186 0.153956 0 0.135226 0
 12.191 0.156619 0 0.133326 0
 12.196 0.158817 0 0.131799 0
 12.201 0.160471 0 0.130652 0
 12.206 0.161703 0 0.129791 0
 12.211 0.162721 0 0.129084 0
 12.216 0.16372 0 0.128419 0
 12.221 0.164844 0 0.127715 0
 12.226 0.166186 0 0.126927 0
 12.231 0.167785 0 0.126043 0
 12.236 0.169822 0 0.124967 0
 12.241 0.172386 0 0.123704 0
 12.246 0.175268 0 0.122386 0
 12.251 0.178325 0 0.121086 0
 12.256 0.181443 0 0.11985 0
 12.261 0.183034 0 0.119297 0
 12.266 0.180931 0 0.120136 0
 12.271 0.177444 0 0.121499 0
 12.276 0.173186 0 0.123285 0
 12.281 0.168427 0 0.125496 0
 12.286 0.161951 0 0.128914 0
 12.291 0.153829 0 0.134389 0
 12.296 0.148725 0 0.138657 0
 12.301 0.145485 0 0.141751 0
 12.306 0.142909 0 0.144445 0
 12.311 0.14038 0 0.147303 0
 12.316 0.137874 0 0.150356 0
 12.321 0.135596 0 0.153326 0
 12.326 0.133718 0 0.155897 0
 12.331 0.132278 0 0.157918 0
 12.336 0.131195 0 0.159451 0
 12.341 0.130332 0 0.16068 0
 12.346 0.129559 0 0.161812 0
 12.351 0.128776 0 0.163021 0
 12.356 0.127921 0 0.164406 0
 12.361 0.126878 0 0.166202 0
 12.366 0.125701 0 0.168375 0
 12.371 0.124451 0 0.170845 0
 12.376 0.123183 0 0.173533 0
 12.381 0.121951 0 0.176329 0
 12.386 0.120825 0 0.179071 0
 12.391 0.119789 0 0.181757 0
 12.396 0.119166 0 0.183539 0
 12.401 0.120096 0 0.181258 0
 12.406 0.121911 0 0.176622 0
 12.411 0.12448 0 0.170629 0
 12.416 0.128749 0 0.162343 0
 12.421 0.132337 0 0.15677 0
 12.426 0.134772 0 0.153459 0
 12.431 0.136833 0 0.150894 0
 12.436 0.138984 0 0.148404 0
 12.441 0.141323 0 0.145879 0
 12.446 0.143731 0 0.143451 0
 12.451 0.146023 0 0.141281 0
 12.456 0.148055 0 0.139453 0
 12.461 0.149796 0 0.137948 0
 12.466 0.151326 0 0.136669 0
 12.471 0.152778 0 0.135496 0
 12.476 0.154292 0 0.134322 0
 12.481 0.155974 0 0.133073 0
 12.486 0.158004 0 0.131648 0
 12.491 0.160342 0 0.130112 0
 12.496 0.162935 0 0.128524 0
 12.501 0.165723 0 0.126938 0
 12.506 0.168631 0 0.125405 0
 12.511 0.171538 0 0.123986 0
 12.516 0.174448 0 0.122664 0
 12.521 0.177387 0 0.121418 0
 12.526 0.180374 0 0.120234 0
 12.531 0.182915 0 0.119306 0
 12.536 0.181261 0 0.120027 0
 12.541 0.176134 0 0.122026 0
 12.546 0.170844 0 0.124377 0
 12.551 0.167463 0 0.12609 0
 12.556 0.165134 0 0.127392 0
 12.561 0.163202 0 0.128552 0
 12.566 0.161342 0 0.129728 0
 12.571 0.159458 0 0.130973 0
 12.576 0.157557 0 0.132279 0
 12.581 0.155683 0 0.13362 0
 12.586 0.153858 0 0.134977 0
 12.591 0.152056 0 0.136364 0
 12.596 0.150214 0 0.137834 0
 12.601 0.148249 0 0.13946 0
 12.606 0.14611 0 0.141315 0
 12.611 0.143703 0 0.14353 0
 12.616 0.141144 0 0.146064 0
 12.621 0.138561 0 0.148851 0
 12.626 0.136047 0 0.151824 0
 12.631 0.133665 0 0.15492 0
 12.636 0.131463 0 0.158067 0
 12.641 0.129443 0 0.161234 0
 12.646 0.127571 0 0.164443 0
 12.651 0.12582 0 0.167717 0
 12.656 0.124174 0 0.171069 0
 12.661 0.122621 0 0.174506 0
 12.666 0.121155 0 0.178029 0
 12.671 0.119544 0 0.182614 0
 12.676 0.117495 0 0.189612 0
 12.681 0.116355 0 0.195009 0
 12.686 0.115881 0 0.19888 0
 12.691 0.115669 0 0.202274 0
 12.696 0.115728 0 0.205019 0
 12.701 0.11618 0 0.20627 0
 12.706 0.117155 0 0.205011 0
 12.711 0.118766 0 0.200467 0
 12.716 0.121122 0 0.192388 0
 12.721 0.124387 0 0.181301 0
 12.726 0.128938 0 0.168445 0
 12.731 0.134689 0 0.156398 0
 12.736 0.140548 0 0.147543 0
 12.741 0.1457 0 0.14159 0
 12.746 0.149988 0 0.137523 0
 12.751 0.153514 0 0.134632 0
 12.756 0.156605 0 0.132368 0
 12.761 0.159542 0 0.130408 0
 12.766 0.16248 0 0.128608 0
 12.771 0.165494 0 0.126907 0
 12.776 0.168621 0 0.125282 0
 12.781 0.171869 0 0.123724 0
 12.786 0.175233 0 0.122235 0
 12.791 0.178696 0 0.120819 0
 12.796 0.183372 0 0.119248 0
 12.801 0.189529 0 0.117553 0
 12.806 0.192969 0 0.116963 0
 12.811 0.195593 0 0.116717 0
 12.816 0.197836 0 0.116686 0
 12.821 0.199468 0 0.116906 0
 12.826 0.199826 0 0.117485 0
 12.831 0.19804 0 0.118561 0
 12.836 0.193337 0 0.120278 0
 12.841 0.18542 0 0.122797 0
 12.846 0.174581 0 0.126457 0
 12.851 0.162871 0 0.131258 0
 12.856 0.153353 0 0.136436 0
 12.861 0.146649 0 0.141206 0
 12.866 0.142054 0 0.145233 0
 12.871 0.138792 0 0.148573 0
 12.876 0.13622 0 0.151543 0
 12.881 0.133991 0 0.154391 0
 12.886 0.131933 0 0.157275 0
 12.891 0.12998 0 0.160264 0
 12.896 0.128108 0 0.163395 0
 12.901 0.12631 0 0.166679 0
 12.906 0.124591 0 0.170107 0
 12.911 0.122956 0 0.173663 0
 12.916 0.121048 0 0.178454 0
 12.921 0.118509 0 0.186188 0
 12.926 0.116407 0 0.194433 0
 12.931 0.115753 0 0.199222 0
 12.936 0.115729 0 0.202255 0
 12.941 0.116189 0 0.203599 0
 12.946 0.117112 0 0.202934 0
 12.951 0.118485 0 0.200019 0
 12.956 0.120292 0 0.19487 0
 12.961 0.122535 0 0.187796 0
 12.966 0.125375 0 0.179076 0
 12.971 0.128727 0 0.169808 0
 12.976 0.132293 0 0.161572 0
 12.981 0.135859 0 0.154861 0
 12.986 0.139258 0 0.149581 0
 12.991 0.142272 0 0.145592 0
 12.996 0.145044 0 0.142387 0
 13.001 0.147801 0 0.139556 0
 13.006 0.150661 0 0.136927 0
 13.011 0.153673 0 0.134435 0
 13.016 0.156735 0 0.132148 0
 13.021 0.158073 0 0.13117 0
 13.026 0.155688 0 0.132855 0
 13.031 0.155011 0 0.133379 0
 13.036 0.155925 0 0.132724 0
 13.041 0.157498 0 0.131654 0
 13.046 0.159177 0 0.130609 0
 13.051 0.160688 0 0.129773 0
 13.056 0.161859 0 0.129229 0
 13.061 0.162558 0 0.129019 0
 13.066 0.162681 0 0.129168 0
 13.071 0.162181 0 0.129675 0
 13.076 0.16109 0 0.130509 0
 13.081 0.159519 0 0.131614 0
 13.086 0.157641 0 0.132913 0
 13.091 0.155507 0 0.134397 0
 13.096 0.153293 0 0.135977 0
 13.101 0.151193 0 0.137534 0
 13.106 0.149837 0 0.138594 0
 13.111 0.149131 0 0.139192 0
 13.116 0.149192 0 0.139218 0
 13.121 0.150721 0 0.138221 0
 13.126 0.155244 0 0.135569 0
 13.131 0.163533 0 0.131434 0
 13.136 0.170477 0 0.128423 0
 13.141 0.175475 0 0.126415 0
 13.146 0.179995 0 0.124605 0
 13.151 0.184681 0 0.122719 0
 13.156 0.189217 0 0.120837 0
 13.161 0.192732 0 0.119214 0
 13.166 0.194616 0 0.118064 0
 13.171 0.195104 0 0.117377 0
 13.176 0.194838 0 0.11701 0
 13.181 0.193835 0 0.116981 0
 13.186 0.19224 0 0.117218 0
 13.191 0.189922 0 0.117762 0
 13.196 0.186484 0 0.118755 0
 13.201 0.181625 0 0.120351 0
 13.206 0.175338 0 0.12269 0
 13.211 0.167666 0 0.126003 0
 13.216 0.160604 0 0.129918 0
 13.221 0.15702 0 0.132255 0
 13.226 0.154555 0 0.134026 0
 13.231 0.152305 0 0.135761 0
 13.236 0.150034 0 0.137624 0
 13.241 0.147772 0 0.139594 0
 13.246 0.145633 0 0.14157 0
 13.251 0.143711 0 0.143444 0
 13.256 0.142028 0 0.145162 0
 13.261 0.14054 0 0.146744 0
 13.266 0.139156 0 0.148272 0
 13.271 0.13779 0 0.149842 0
 13.276 0.136334 0 0.151591 0
 13.281 0.134734 0 0.153622 0
 13.286 0.133033 0 0.155923 0
 13.291 0.131281 0 0.158468 0
 13.296 0.129528 0 0.161212 0
 13.301 0.127827 0 0.164095 0
 13.306 0.126224 0 0.167037 0
 13.311 0.124713 0 0.170034 0
 13.316 0.123281 0 0.173098 0
 13.321 0.121918 0 0.176238 0
 13.326 0.120619 0 0.17946 0
 13.331 0.119412 0 0.182686 0
 13.336 0.119417 0 0.183567 0
 13.341 0.11933 0 0.184496 0
 13.346 0.119286 0 0.185333 0
 13.351 0.119244 0 0.18633 0
 13.356 0.11916 0 0.187669 0
 13.361 0.119089 0 0.189214 0
 13.366 0.119141 0 0.190579 0
 13.371 0.119453 0 0.191186 0
 13.376 0.120168 0 0.190354 0
 13.381 0.121428 0 0.187434 0
 13.386 0.123387 0 0.182016 0
 13.391 0.126227 0 0.17422 0
 13.396 0.13019 0 0.164726 0
 13.401 0.134882 0 0.155726 0
 13.406 0.139629 0 0.14862 0
 13.411 0.144 0 0.143358 0
 13.416 0.147875 0 0.139436 0
 13.421 0.151311 0 0.13641 0
 13.426 0.15451 0 0.133897 0
 13.431 0.157633 0 0.13168 0
 13.436 0.160788 0 0.129641 0
 13.441 0.164023 0 0.127732 0
 13.446 0.167365 0 0.125929 0
 13.451 0.170819 0 0.124223 0
 13.456 0.174377 0 0.12261 0
 13.461 0.17832 0 0.120992 0
 13.466 0.184898 0 0.11882 0
 13.471 0.192816 0 0.116685 0
 13.476 0.197446 0 0.115962 0
 13.481 0.200777 0 0.115748 0
 13.486 0.203157 0 0.115892 0
 13.491 0.204053 0 0.116451 0
 13.496 0.202569 0 0.117536 0
 13.501 0.197882 0 0.119266 0
 13.506 0.189675 0 0.121772 0
 13.511 0.178442 0 0.12528 0
 13.516 0.165465 0 0.130199 0
 13.521 0.15425 0 0.13596 0
 13.526 0.146347 0 0.141495 0
 13.531 0.141043 0 0.146238 0
 13.536 0.137437 0 0.150089 0
 13.541 0.134829 0 0.153267 0
 13.546 0.132696 0 0.15615 0
 13.551 0.130783 0 0.158976 0
 13.556 0.128983 0 0.161873 0
 13.561 0.127254 0 0.164894 0
 13.566 0.125587 0 0.168061 0
 13.571 0.123981 0 0.171376 0
 13.576 0.122444 0 0.174824 0
 13.581 0.120961 0 0.178554 0
 13.586 0.118731 0 0.185195 0
 13.591 0.116902 0 0.192065 0
 13.596 0.116076 0 0.196992 0
 13.601 0.115655 0 0.201225 0
 13.606 0.115603 0 0.204561 0
 13.611 0.116019 0 0.206172 0
 13.616 0.117025 0 0.205012 0
 13.621 0.118732 0 0.200269 0
 13.626 0.121252 0 0.191704 0
 13.631 0.124812 0 0.179918 0
 13.636 0.129688 0 0.166587 0
 13.641 0.135216 0 0.155429 0
 13.646 0.140413 0 0.147687 0
 13.651 0.144816 0 0.142507 0
 13.656 0.148389 0 0.138962 0
 13.661 0.151443 0 0.136297 0
 13.666 0.154306 0 0.134045 0
 13.671 0.157169 0 0.131991 0
 13.676 0.160129 0 0.130048 0
 13.681 0.16323 0 0.128182 0
 13.686 0.166486 0 0.126387 0
 13.691 0.169891 0 0.124667 0
 13.696 0.173428 0 0.123028 0
 13.701 0.177681 0 0.12132 0
 13.706 0.185222 0 0.118743 0
 13.711 0.192615 0 0.116767 0
 13.716 0.197829 0 0.115875 0
 13.721 0.201875 0 0.115529 0
 13.726 0.204711 0 0.115618 0
 13.731 0.205493 0 0.116231 0
 13.736 0.203286 0 0.117467 0
 13.741 0.197548 0 0.119398 0
 13.746 0.188421 0 0.122102 0
 13.751 0.176763 0 0.125798 0
 13.756 0.164439 0 0.130599 0
 13.761 0.154525 0 0.135755 0
 13.766 0.14758 0 0.140506 0
 13.771 0.142783 0 0.144567 0
 13.776 0.139442 0 0.147878 0
 13.781 0.136876 0 0.150747 0
 13.786 0.134656 0 0.15349 0
 13.791 0.132595 0 0.156281 0
 13.796 0.130622 0 0.159202 0
 13.801 0.128715 0 0.162286 0
 13.806 0.126873 0 0.165541 0
 13.811 0.125123 0 0.168924 0
 13.816 0.123938 0 0.171416 0
 13.821 0.123176 0 0.173236 0
 13.826 0.121747 0 0.176747 0
 13.831 0.119883 0 0.182004 0
 13.836 0.118011 0 0.188361 0
 13.841 0.116645 0 0.194504 0
 13.846 0.11588 0 0.199715 0
 13.851 0.115715 0 0.203295 0
 13.856 0.116245 0 0.204156 0
 13.861 0.117522 0 0.201513 0
 13.866 0.119521 0 0.195374 0
 13.871 0.122176 0 0.186636 0
 13.876 0.125466 0 0.176594 0
 13.881 0.129068 0 0.167255 0
 13.886 0.132655 0 0.159697 0
 13.891 0.136069 0 0.153802 0
 13.896 0.139273 0 0.149138 0
 13.901 0.142256 0 0.14538 0
 13.906 0.145129 0 0.142186 0
 13.911 0.147998 0 0.139335 0
 13.916 0.150924 0 0.136718 0
 13.921 0.153609 0 0.134538 0
 13.926 0.15476 0 0.133665 0
 13.931 0.154482 0 0.133869 0
 13.936 0.151449 0 0.136259 0
 13.941 0.147858 0 0.139488 0
 13.946 0.145561 0 0.141776 0
 13.951 0.143429 0 0.144057 0
 13.956 0.140864 0 0.147016 0
 13.961 0.137917 0 0.150746 0
 13.966 0.134999 0 0.154813 0
 13.971 0.132554 0 0.158483 0
 13.976 0.130803 0 0.161175 0
 13.981 0.129702 0 0.162786 0
 13.986 0.129057 0 0.163604 0
 13.991 0.128647 0 0.164031 0
 13.996 0.128312 0 0.164362 0
 14.001 0.127844 0 0.164964 0
 14.006 0.127178 0 0.165995 0
 14.011 0.126337 0 0.167431 0
 14.016 0.125812 0 0.168358 0
 14.021 0.126214 0 0.167498 0
 14.026 0.127089 0 0.165731 0
 14.031 0.128314 0 0.163418 0
 14.036 0.129918 0 0.160621 0
 14.041 0.13256 0 0.156462 0
 14.046 0.137522 0 0.149998 0
 14.051 0.142669 0 0.14461 0
 14.056 0.146204 0 0.141415 0
 14.061 0.149102 0 0.139022 0
 14.066 0.151887 0 0.136873 0
 14.071 0.154787 0 0.134764 0
 14.076 0.157601 0 0.132816 0
 14.081 0.159997 0 0.131201 0
 14.086 0.161806 0 0.129982 0
 14.091 0.163098 0 0.129092 0
 14.096 0.16408 0 0.128405 0
 14.101 0.164975 0 0.127796 0
 14.106 0.165961 0 0.127168 0
 14.111 0.167155 0 0.126463 0
 14.116 0.168643 0 0.125632 0
 14.121 0.170651 0 0.124584 0
 14.126 0.173054 0 0.123418 0
 14.131 0.175727 0 0.122207 0
 14.136 0.178574 0 0.121003 0
 14.141 0.181424 0 0.119877 0
 14.146 0.183232 0 0.119228 0
 14.151 0.181424 0 0.119967 0
 14.156 0.177664 0 0.12143 0
 14.161 0.17289 0 0.123429 0
 14.166 0.167325 0 0.126042 0
 14.171 0.159449 0 0.130439 0
 14.176 0.152664 0 0.135321 0
 14.181 0.148715 0 0.138671 0
 14.186 0.145899 0 0.141327 0
 14.191 0.143273 0 0.144018 0
 14.196 0.140611 0 0.146975 0
 14.201 0.138057 0 0.150043 0
 14.206 0.13583 0 0.152899 0
 14.211 0.134049 0 0.155293 0
 14.216 0.132692 0 0.157163 0
 14.221 0.131645 0 0.158623 0
 14.226 0.130767 0 0.159868 0
 14.231 0.129937 0 0.161092 0
 14.236 0.129078 0 0.162421 0
 14.241 0.12807 0 0.16406 0
 14.246 0.126898 0 0.166099 0
 14.251 0.125628 0 0.168464 0
 14.256 0.124319 0 0.171079 0
 14.261 0.123019 0 0.173862 0
 14.266 0.121804 0 0.176657 0
 14.271 0.120697 0 0.179383 0
 14.276 0.119664 0 0.182086 0
 14.281 0.11927 0 0.183315 0
 14.286 0.120408 0 0.180452 0
 14.291 0.122375 0 0.175501 0
 14.296 0.125215 0 0.168993 0
 14.301 0.129593 0 0.160968 0
 14.306 0.132672 0 0.156313 0
 14.311 0.134882 0 0.153336 0
 14.316 0.13689 0 0.150841 0
 14.321 0.139027 0 0.148365 0
 14.326 0.141317 0 0.145885 0
 14.331 0.143624 0 0.143547 0
 14.336 0.145778 0 0.141488 0
 14.341 0.147677 0 0.139759 0
 14.346 0.149327 0 0.138312 0
 14.351 0.150826 0 0.137042 0
 14.356 0.152308 0 0.135832 0
 14.361 0.153884 0 0.134599 0
 14.366 0.155719 0 0.133229 0
 14.371 0.157891 0 0.131702 0
 14.376 0.160348 0 0.130089 0
 14.381 0.163037 0 0.128447 0
 14.386 0.165897 0 0.126828 0
 14.391 0.168824 0 0.125296 0
 14.396 0.171745 0 0.123879 0
 14.401 0.17468 0 0.122554 0
 14.406 0.177655 0 0.1213 0
 14.411 0.180686 0 0.120107 0
 14.416 0.183066 0 0.119253 0
 14.421 0.180744 0 0.12022 0
 14.426 0.175772 0 0.122222 0
 14.431 0.17193 0 0.123937 0
 14.436 0.169404 0 0.1252 0
 14.441 0.16757 0 0.126204 0
 14.446 0.166006 0 0.127123 0
 14.451 0.164503 0 0.128047 0
 14.456 0.162987 0 0.129012 0
 14.461 0.161441 0 0.130023 0
 14.466 0.159859 0 0.131084 0
 14.471 0.158205 0 0.132214 0
 14.476 0.15641 0 0.133463 0
 14.481 0.154383 0 0.134901 0
 14.486 0.15206 0 0.136605 0
 14.491 0.149357 0 0.138691 0
 14.496 0.146349 0 0.141184 0
 14.501 0.143255 0 0.143989 0
 14.506 0.140238 0 0.147014 0
 14.511 0.137402 0 0.150171 0
 14.516 0.134797 0 0.153388 0
 14.521 0.13244 0 0.156609 0
 14.526 0.130287 0 0.15985 0
 14.531 0.128293 0 0.163147 0
 14.536 0.12643 0 0.166521 0
 14.541 0.12468 0 0.169988 0
 14.546 0.123034 0 0.17355 0
 14.551 0.121485 0 0.177201 0
 14.556 0.119436 0 0.18319 0
 14.561 0.117009 0 0.191606 0
 14.566 0.115876 0 0.197455 0
 14.571 0.11543 0 0.201744 0
 14.576 0.115374 0 0.205073 0
 14.581 0.115747 0 0.206913 0
 14.586 0.116657 0 0.206283 0
 14.591 0.118199 0 0.202349 0
 14.596 0.120458 0 0.194805 0
 14.601 0.123555 0 0.184107 0
 14.606 0.127757 0 0.171518 0
 14.611 0.13331 0 0.158961 0
 14.616 0.139343 0 0.149178 0
 14.621 0.144864 0 0.14248 0
 14.626 0.149559 0 0.137901 0
 14.631 0.153431 0 0.134688 0
 14.636 0.156712 0 0.132279 0
 14.641 0.159743 0 0.130264 0
 14.646 0.162729 0 0.128446 0
 14.651 0.165778 0 0.126738 0
 14.656 0.168927 0 0.125113 0
 14.661 0.172192 0 0.12356 0
 14.666 0.17536 0 0.122172 0
 14.671 0.17756 0 0.121254 0
 14.676 0.179277 0 0.120628 0
 14.681 0.183421 0 0.119205 0
 14.686 0.18895 0 0.117628 0
 14.691 0.194687 0 0.116395 0
 14.696 0.200794 0 0.115411 0
 14.701 0.206583 0 0.114767 0
 14.706 0.210904 0 0.114608 0
 14.711 0.212498 0 0.115074 0
 14.716 0.21032 0 0.116271 0
 14.721 0.203757 0 0.118284 0
 14.726 0.192925 0 0.121215 0
 14.731 0.178864 0 0.125296 0
 14.736 0.165417 0 0.130202 0
 14.741 0.155409 0 0.1352 0
 14.746 0.148595 0 0.1397 0
 14.751 0.143904 0 0.143522 0
 14.756 0.140426 0 0.146844 0
 14.761 0.137583 0 0.149929 0
 14.766 0.135076 0 0.152966 0
 14.771 0.132763 0 0.156069 0
 14.776 0.130585 0 0.15929 0
 14.781 0.12852 0 0.162657 0
 14.786 0.12656 0 0.166173 0
 14.791 0.124709 0 0.169827 0
 14.796 0.122969 0 0.173598 0
 14.801 0.12063 0 0.179719 0
 14.806 0.117772 0 0.188748 0
 14.811 0.11603 0 0.196397 0
 14.816 0.115546 0 0.200851 0
 14.821 0.115676 0 0.203451 0
 14.826 0.116292 0 0.204191 0
 14.831 0.117356 0 0.202837 0
 14.836 0.118833 0 0.199322 0
 14.841 0.120693 0 0.19382 0
 14.846 0.122932 0 0.186733 0
 14.851 0.125719 0 0.178244 0
 14.856 0.128881 0 0.169579 0
 14.861 0.132175 0 0.161948 0
 14.866 0.135459 0 0.155649 0
 14.871 0.138582 0 0.150627 0
 14.876 0.141379 0 0.146761 0
 14.881 0.143995 0 0.143585 0
 14.886 0.146618 0 0.14075 0
 14.891 0.149347 0 0.138105 0
 14.896 0.152193 0 0.135619 0
 14.901 0.154518 0 0.133762 0
 14.906 0.153268 0 0.134707 0
 14.911 0.150428 0 0.137124 0
 14.916 0.14942 0 0.138031 0
 14.921 0.149389 0 0.138053 0
 14.926 0.149477 0 0.137971 0
 14.931 0.149328 0 0.13811 0
 14.936 0.148919 0 0.138488 0
 14.941 0.148362 0 0.139005 0
 14.946 0.14776 0 0.139569 0
 14.951 0.147144 0 0.140154 0
 14.956 0.146482 0 0.140785 0
 14.961 0.145734 0 0.141504 0
 14.966 0.144876 0 0.142332 0
 14.971 0.1439 0 0.143285 0
 14.976 0.14273 0 0.144446 0
 14.981 0.141814 0 0.145375 0
 14.986 0.141393 0 0.145813 0
 14.991 0.141427 0 0.14579 0
 14.996 0.141974 0 0.145263 0
 15.001 0.143638 0 0.143722 0
 15.006 0.147455 0 0.140605 0
 15.011 0.154326 0 0.135946 0
 15.016 0.160593 0 0.132323 0
 15.021 0.165048 0 0.130021 0
 15.026 0.168826 0 0.128146 0
 15.031 0.172607 0 0.126306 0
 15.036 0.17636 0 0.124492 0
 15.041 0.179565 0 0.122886 0
 15.046 0.181692 0 0.121685 0
 15.051 0.182742 0 0.120911 0
 15.056 0.183125 0 0.120442 0
 15.061 0.183298 0 0.12012 0
 15.066 0.183538 0 0.119836 0
 15.071 0.184003 0 0.119521 0
 15.076 0.184741 0 0.119148 0
 15.081 0.185694 0 0.118734 0
 15.086 0.186178 0 0.11852 0
 15.091 0.185417 0 0.118762 0
 15.096 0.182489 0 0.119802 0
 15.101 0.180433 0 0.120624 0
 15.106 0.179382 0 0.12109 0
 15.111 0.178629 0 0.121521 0
 15.116 0.177945 0 0.121974 0
 15.121 0.177304 0 0.122448 0
 15.126 0.176661 0 0.122952 0
 15.131 0.175914 0 0.12352 0
 15.136 0.174888 0 0.124212 0
 15.141 0.17333 0 0.125121 0
 15.146 0.170947 0 0.126368 0
 15.151 0.167516 0 0.128089 0
