<?xml version="1.0"?>
<VTKFile type="UnstructuredGrid" version="0.1" byte_order="LittleEndian">
  <UnstructuredGrid>
    <Piece NumberOfPoints="128" NumberOfCells="127">
      <PointData Scalars="W">
        <DataArray type="Float32" Name="W" NumberOfComponents="2">
          0 0 -0.24366645639692858 -0.53933233462087138 -0.371304953093894 -0.80922806839638384 -0.47119855571312091 -1.005949985940547 -0.5564963756097655 -1.1594371510475414 -0.63238981115740478 -1.2822285787308798 -0.70152795394048417 -1.3813312627742018 -0.76542058648362854 -1.4612558006486289 -0.82495369680029895 -1.5251277315052099 -0.88062248125531706 -1.5751982609788719 -0.93272001206207689 -1.6132357125673025 -0.98138514624142004 -1.6406355596661375 -1.0266761752833218 -1.6585675359667971 -1.0685397292316392 -1.6679421359869282 -1.1068505129474306 -1.6694987433511408 -1.1414601066887082 -1.6638937978080928 -1.1722480006436231 -1.6517762097197548 -1.1990516185246409 -1.633685595919373 -1.2216879091882398 -1.6100931757066446 -1.2400227212963566 -1.5814953948268253 -1.2539263476080387 -1.5483495692707585 -1.2632600532557532 -1.5110598691289434 -1.2679341218079079 -1.4700483850818755 -1.2678803181324549 -1.425716959600366 -1.2629967142009202 -1.3783869844068646 -1.2532941276082958 -1.3284619301482179 -1.238767327671898 -1.2762789299821675 -1.2193963687953324 -1.2221169362103601 -1.1952106200870858 -1.1662638275169568 -1.1665699901676843 -1.1092755512880159 -1.133338179626636 -1.0511765318438375 -1.095654599093278 -0.99222314886980256 -1.0536858145818042 -0.93265148234848627 -1.0076446084646291 -0.87269416303562108 -0.95775289608951009 -0.81254806834862625 -0.90428463034432471 -0.75241284307548717 -0.84746008046962618 -0.69240453934665758 -0.7876308178252921 -0.63271158414406492 -0.72517997633841758 -0.57351014083609131 -0.66039949477848059 -0.51487217837301935 -0.59362774447871036 -0.45688128035711123 -0.52523778294646828 -0.39962494670926346 -2.9769568499812546 -2.1854700885814742 -2.3688878223648637 -1.6463868994391306 -1.8953782532294248 -1.2609583733447505 -1.6140786201336677 -1.0357749855908196 -1.0652347519098959 -0.66493124276654381 -0.74173405657833935 -0.45441663658401188 -0.40613613413935806 -0.24586794208164281 -0.33975043956014034 -0.20409013606791424 0.0059355294646581923 0.003553135087378409 0.35989594721948809 0.21626372735725199 0.42242534388067399 0.25591105839219014 0.7800916468751089 0.47852629665401197 0.6607616320681613 0.41141515015982966 1.014574943836398 0.64273851213316047 1.0646972717542094 0.68908652500855971 1.0996039465857299 0.72767471850973464 1.1310550027431898 0.76579891860806948 1.1589623196093917 0.80330631015561582 1.1832490065225179 0.84002920360163247 1.5039419503701785 1.0974806566708488 1.8310481756691757 1.382658940696841 1.8304530661226008 1.4352289149956892 2.1319655203464181 1.741586602067339 2.4313083314497086 2.0830255999801413 2.4030564941423247 2.1667977714006952 2.3692061438647309 2.2488636758797105 2.3399680255419129 2.3391932949093581 2.2958307080412665 2.4183792925016996 2.2563095134598883 2.5060619828648436 2.4747020170334539 2.9102816651472976 2.4062924486836548 3.0095086614937827 2.323229512008925 3.0939678941729527 2.2439612875688564 3.1868621500436141 2.1509626025923803 3.2634010675579197 2.0621100949221005 3.3492120635101856 1.9603151272114661 3.4167108838028097 1.8624321546659433 3.4934380441292636 1.7602084857456934 3.5657395369114178 1.8231616785223639 4.0229434417016323 1.6873093000699229 4.0970266595253424 1.5415421057090277 4.1482152752140937 1.398941126491819 4.2085369108446367 1.2531844555725853 4.2622295497643856 1.1006283359160238 4.292047336993801 0.95116969176204624 4.3324702364629468 0.79673429727645828 4.3475496985166195 0.64508368027434004 4.3735339520951442 0.49241773236854741 4.3927435763275806 0.33801388890402267 4.3864303122825508 0.17403725036655032 3.9518026126103827 0.050894062817999561 3.95084258770944 -0.071189819567130747 3.9255052776548744 -0.19207381788249028 3.9148808276543141 -0.31208227734216493 3.8996575416790065 -0.37571124691165581 3.437233906369666 -0.46779818532328055 3.4167971400520147 -0.5550417550338006 3.3728244738540352 -0.56085315357259768 2.942390468396948 -0.62784546420204057 2.9184774338675172 -0.68825737671380727 2.8711455907528118 -0.75170434614905912 2.8431344834290004 -0.69299795673904285 2.4105917429221377 -0.73667014962783106 2.384555114732096 -0.77178891982354181 2.3356463004439219 -0.81257872869133008 2.3084050078861096 -0.84339648675040124 2.2571932405261452 -0.88063868351482688 2.2274213802678338 -0.90711615745568075 2.1745218802647321 -0.93026308719945228 2.1194591798823041 -0.96142951200172622 2.0866698180774468 -0.97951890522885798 2.029448468322876 -0.9936655507812413 1.9696518583098304 -1.1936253110207242 2.2596543666703326 -1.212694510008538 2.1890641402506739 -1.4209865838437659 2.4427242789828201 -1.4399827292509118 2.3546690391745821 -1.4139189064633564 2.2056870514995883 -1.6122437465183441 2.3988893276012986 -1.9140638995751675 2.7029928480602807 -1.7809844633902927 2.3874253922178008 -1.9469298588934234 2.4824780678110954 -2.324454713559609 2.8058322655822461 -2.5760335505387095 2.9279770624484045 -2.5677517166739734 2.7469033049027165 -4.3868228145153525 4.3396437050887178 0 0
        </DataArray>
        <DataArray type="Float32" Name="u" NumberOfComponents="1">
          0 0.007874015748031496 0.015748031496062992 0.023622047244094488 0.031496062992125984 0.03937007874015748 0.047244094488188976 0.055118110236220472 0.062992125984251968 0.070866141732283464 0.07874015748031496 0.086614173228346455 0.094488188976377951 0.10236220472440945 0.11023622047244094 0.11811023622047244 0.12598425196850394 0.13385826771653545 0.14173228346456693 0.14960629921259844 0.15748031496062992 0.16535433070866143 0.17322834645669291 0.18110236220472442 0.1889763779527559 0.19685039370078741 0.20472440944881889 0.2125984251968504 0.22047244094488189 0.2283464566929134 0.23622047244094488 0.24409448818897639 0.25196850393700787 0.25984251968503935 0.26771653543307089 0.27559055118110237 0.28346456692913385 0.29133858267716534 0.29921259842519687 0.30708661417322836 0.31496062992125984 0.32283464566929132 0.33070866141732286 0.33858267716535434 0.34645669291338582 0.3543307086614173 0.36220472440944884 0.37007874015748032 0.37795275590551181 0.38582677165354329 0.39370078740157483 0.40157480314960631 0.40944881889763779 0.41732283464566927 0.42519685039370081 0.43307086614173229 0.44094488188976377 0.44881889763779526 0.45669291338582679 0.46456692913385828 0.47244094488188976 0.48031496062992124 0.48818897637795278 0.49606299212598426 0.50393700787401574 0.51181102362204722 0.51968503937007871 0.52755905511811019 0.53543307086614178 0.54330708661417326 0.55118110236220474 0.55905511811023623 0.56692913385826771 0.57480314960629919 0.58267716535433067 0.59055118110236215 0.59842519685039375 0.60629921259842523 0.61417322834645671 0.62204724409448819 0.62992125984251968 0.63779527559055116 0.64566929133858264 0.65354330708661412 0.66141732283464572 0.6692913385826772 0.67716535433070868 0.68503937007874016 0.69291338582677164 0.70078740157480313 0.70866141732283461 0.71653543307086609 0.72440944881889768 0.73228346456692917 0.74015748031496065 0.74803149606299213 0.75590551181102361 0.76377952755905509 0.77165354330708658 0.77952755905511806 0.78740157480314965 0.79527559055118113 0.80314960629921262 0.8110236220472441 0.81889763779527558 0.82677165354330706 0.83464566929133854 0.84251968503937003 0.85039370078740162 0.8582677165354331 0.86614173228346458 0.87401574803149606 0.88188976377952755 0.88976377952755903 0.89763779527559051 0.90551181102362199 0.91338582677165359 0.92125984251968507 0.92913385826771655 0.93700787401574803 0.94488188976377951 0.952755905511811 0.96062992125984248 0.96850393700787396 0.97637795275590555 0.98425196850393704 0.99212598425196852 1
        </DataArray>
      </PointData>
      <CellData Scalars="P">
        <DataArray type="Float32" Name="P" NumberOfComponents="1">
          6.5046433793375163e-05 0.0013620441312539174 0.004784186147453684 0.010658920088023074 0.01901054671361295 0.029663924525335499 0.042302929746447636 0.056509366423615127 0.071790992293154776 0.087602913807258126 0.10336598545630728 0.11848195621241203 0.13234704195302782 0.14436318140009374 0.1539488149593303 0.16054934079669447 0.16364684511259675 0.16276844499911916 0.15749434107808943 0.14746496102252976 0.13238706166506742 0.11203929458030805 0.086276229964931242 0.055031463846070355 0.018321171645458122 -0.023756784038183765 -0.071022109577559944 -0.12321169579824341 -0.17998231394321676 -0.2409280926062525 -0.30556308169155122 -0.37333704934589473 -0.44364268141715474 -0.51582507012405221 -0.58919020536415467 -0.66301711954547426 -0.73656374967364968 -0.80908637165813735 -0.87985355340201399 -0.94815081677410196 -1.0132957240907592 -1.0746526505086471 -1.3318644233192187 -1.5349868610768942 -1.6963269255402416 -1.8329419349238423 -1.9214395585813191 -1.9818963258047431 -2.0134593568752974 -2.0397032079566757 -2.0367107612700224 -2.0042848540534606 -1.9675678027410204 -1.9021279893115639 -1.8479950213099925 -1.7666351189130103 -1.6831853085794304 -1.5991077926742465 -1.5149046394484802 -1.4310715363095197 -1.3480946803364739 -1.2448764452891334 -1.1220020404502138 -1.0029197029561805 -0.86763517876396101 -0.71712361912824152 -0.57292886172038349 -0.43547253756630577 -0.30451543472580073 -0.18094561155912622 -0.064472513567487288 0.058875782948177906 0.1736505632936565 0.27927749419464637 0.37615592937828807 0.46388358098572124 0.54292073460443235 0.61301336546165275 0.67464160822448405 0.72796953826312782 0.77893753090053164 0.82111472679609976 0.85467665251576974 0.88020726836168717 0.89812796223998614 0.90881680769944162 0.9128629417156493 0.91073942367469951 0.90301756668148658 0.89022687549523283 0.87294667499494649 0.85302490102171757 0.83009101903836269 0.80466273562636192 0.7770869783317863 0.74776647521312867 0.71968003654252455 0.69076216340243002 0.66140715360995506 0.63434531464869326 0.60721552543277646 0.58029360786317552 0.55355639306291504 0.52971061370982087 0.50617718490778307 0.48310892267326155 0.46036053562020551 0.43805718099240853 0.416032143087535 0.39438125737700086 0.37306676672431238 0.35189966656920862 0.33097058664628726 0.31024325741517345 0.28750089889300012 0.26489255816726021 0.24033011543325036 0.21598659995908701 0.19235337801343025 0.16727302825686025 0.14015571373412566 0.11537598190343848 0.090658910819645666 0.06529394708827764 0.041484715165284756 0.021792503049493973 0.0042592400174504769
        </DataArray>
      </CellData>
      <Points>
        <DataArray type="Float32" NumberOfComponents="3" format="ascii">
          6.9182727044331189 10.12997433215237 0
          6.9254565225207028 10.126748870499654 0
          6.9326252309912002 10.123489964234848 0
          6.939770914072958 10.120180877260227 0
          6.9468873759425822 10.116809411337394 0
          6.9539693255291661 10.1133660494946 0
          6.961012054694077 10.109843178462059 0
          6.9680112740344331 10.106234654160014 0
          6.9749630193253322 10.102535521989783 0
          6.9818635966389673 10.098741823009544 0
          6.9887095516945212 10.094850454322502 0
          6.9954976517399388 10.090859059402421 0
          7.0022248769947666 10.0867659415328 0
          7.0088884170866814 10.082569991237133 0
          7.0154856744094607 10.078270629777375 0
          7.0220142719376764 10.073867763255844 0
          7.0284720624714634 10.069361741853641 0
          7.0348571361462762 10.064753319529792 0
          7.0411678305462093 10.060043620492003 0
          7.0474027420818741 10.055234109903521 0
          7.053560734330814 10.050326563021819 0
          7.0596409460970104 10.045323036760538 0
          7.0656428000248921 10.040225844544684 0
          7.0715660081690546 10.035037530053625 0
          7.0774105762276545 10.029760842219606 0
          7.0831768098611212 10.024398715215446 0
          7.0888653140174469 10.018954243355108 0
          7.0944769932507139 10.013430660110304 0
          7.1000130529512342 10.007831320738081 0
          7.1054749975186944 10.002159684359352 0
          7.1108646080436957 9.9964192794222981 0
          7.1161839507577902 9.9906137021259571 0
          7.1214353683941916 9.9847466004683287 0
          7.1266214698712211 9.9788216595593049 0
          7.1317451171181112 9.972842587153826 0
          7.1368094113437257 9.9668131014081087 0
          7.1418176760893317 9.9607369184705252 0
          7.1467734436214156 9.9546177452615332 0
          7.1516804331960939 9.9484592677719643 0
          7.1565425273795462 9.942265140126894 0
          7.1613637540368016 9.9360389801149527 0
          7.166148265455802 9.9297843640023586 0
          7.1709003153352642 9.9235048211081001 0
          7.1754677368056603 9.9170897666515483 0
          7.1798882311000698 9.9105726464870916 0
          7.1841911591887735 9.9039773718182875 0
          7.1883939666671886 9.8973179093324202 0
          7.1925306850848285 9.8906172650132227 0
          7.1966213759586299 9.8838884945751815 0
          7.2006868502831614 9.8771445311578514 0
          7.2047312290027312 9.8703879591958508 0
          7.208775947401926 9.8636316549477172 0
          7.212842953259555 9.856888808140063 0
          7.216936127025285 9.850161870749055 0
          7.2210776453127403 9.8434646458937838 0
          7.2252601137164811 9.8367929631612956 0
          7.2295054692743612 9.8301611654262597 0
          7.2338168219163324 9.8235721211429237 0
          7.2381963380370271 9.8170282180558424 0
          7.2426459695620968 9.8105318157275896 0
          7.2471674485073958 9.8040852360092874 0
          7.2517622822344538 9.7976907525881547 0
          7.2564503532910347 9.791364328295499 0
          7.2612519417453711 9.7851236446912004 0
          7.2661670120642556 9.7789719580233729 0
          7.2712142575471344 9.7729282625099394 0
          7.2764122370822744 9.7670137269253843 0
          7.2817592004235481 9.7612335422002605 0
          7.2872530500771182 9.7555927940467004 0
          7.2928919743176897 9.7500970810675991 0
          7.2986732375540804 9.7447513113337063 0
          7.3045943902090169 9.7395609201005886 0
          7.3106689726722065 9.7345509687301739 0
          7.3168927443360232 9.7297276083900517 0
          7.3232605559252297 9.7250960749297821 0
          7.3297674932633035 9.7206621274154266 0
          7.3364077907331726 9.7164305110591567 0
          7.34317593965004 9.7124065460722111 0
          7.350065628771361 9.7085944174024323 0
          7.357070789321023 9.7049988822010267 0
          7.3641850833367464 9.7016244232501556 0
          7.3714124144420721 9.6984993870820375 0
          7.3787443597567401 9.6956283669670302 0
          7.386171881578357 9.6930145367334646 0
          7.3936861384934645 9.6906616364423943 0
          7.4012780934096298 9.6885729951404791 0
          7.4089382876169241 9.6867504616155777 0
          7.4166574544964279 9.6851965421358308 0
          7.4244260188442741 9.6839121716526506 0
          7.4322345781832828 9.6828989611838221 0
          7.4400736671174519 9.6821581017014893 0
          7.4479337124961305 9.6816892017438754 0
          7.4558045469576655 9.6814653142778369 0
          7.463678535860458 9.6814863796690069 0
          7.4715481102485404 9.6817508269204549 0
          7.4794057755963257 9.6822579972703995 0
          7.4872440916479137 9.683006946863884 0
          7.4950591138527365 9.6839690054265333 0
          7.5028451334210473 9.6851429060018042 0
          7.5105967417751858 9.6865259224573919 0
          7.5183135799659153 9.6880913682201637 0
          7.5259914951627982 9.6898377610562427 0
          7.5336267423604939 9.6917621667891005 0
          7.5412153880606034 9.6938628490989718 0
          7.5487610741464906 9.6961129911062969 0
          7.5562610930633634 9.6985109790002042 0
          7.5637132673383727 9.7010537808144193 0
          7.5711150673884058 9.7037397077930052 0
          7.5784645817190111 9.706565584871532 0
          7.5857595000276845 9.7095295660130585 0
          7.5929981793255825 9.7126283710906947 0
          7.6001791829063574 9.7158585856401274 0
          7.6073005764874893 9.7192181758588827 0
          7.6143612366922415 9.7227035930239065 0
          7.6213602846279374 9.7263111285999404 0
          7.6282853184127815 9.7300587604242068 0
          7.6351351550250888 9.7339421107811006 0
          7.6418968785185362 9.7379769049552429 0
          7.6485693129429499 9.742157683638565 0
          7.6551540774525622 9.7464752111833128 0
          7.6616388804093321 9.7509414687374782 0
          7.6680050177867312 9.7555753171431014 0
          7.6742607518056722 9.7603572007364754 0
          7.6803958103093448 9.7652930286691202 0
          7.686386812005332 9.7704028768375508 0
          7.6922181912854342 9.7756943595083765 0
          7.6978904993533215 9.7811563037912848 0
          7.7032906939650134 9.786887233671191 0
        </DataArray>
      </Points>
      <Cells>
        <DataArray type="Int32" Name="connectivity" format="ascii">
          0 1 1 2 2 3 3 4 4 5 5 6 6 7 7 8 8 9 9 10 10 11 11 12 12 13 13 14 14 15 15 16 16 17 17 18 18 19 19 20 20 21 21 22 22 23 23 24 24 25 25 26 26 27 27 28 28 29 29 30 30 31 31 32 32 33 33 34 34 35 35 36 36 37 37 38 38 39 39 40 40 41 41 42 42 43 43 44 44 45 45 46 46 47 47 48 48 49 49 50 50 51 51 52 52 53 53 54 54 55 55 56 56 57 57 58 58 59 59 60 60 61 61 62 62 63 63 64 64 65 65 66 66 67 67 68 68 69 69 70 70 71 71 72 72 73 73 74 74 75 75 76 76 77 77 78 78 79 79 80 80 81 81 82 82 83 83 84 84 85 85 86 86 87 87 88 88 89 89 90 90 91 91 92 92 93 93 94 94 95 95 96 96 97 97 98 98 99 99 100 100 101 101 102 102 103 103 104 104 105 105 106 106 107 107 108 108 109 109 110 110 111 111 112 112 113 113 114 114 115 115 116 116 117 117 118 118 119 119 120 120 121 121 122 122 123 123 124 124 125 125 126 126 127 
        </DataArray>
        <DataArray type="Int32" Name="offsets" format="ascii">
          2 4 6 8 10 12 14 16 18 20 22 24 26 28 30 32 34 36 38 40 42 44 46 48 50 52 54 56 58 60 62 64 66 68 70 72 74 76 78 80 82 84 86 88 90 92 94 96 98 100 102 104 106 108 110 112 114 116 118 120 122 124 126 128 130 132 134 136 138 140 142 144 146 148 150 152 154 156 158 160 162 164 166 168 170 172 174 176 178 180 182 184 186 188 190 192 194 196 198 200 202 204 206 208 210 212 214 216 218 220 222 224 226 228 230 232 234 236 238 240 242 244 246 248 250 252 254 
        </DataArray>
        <DataArray type="Int32" Name="types" format="ascii">
          3 3 3 3 3 3 3 3 3 3 3 3 3 3 3 3 3 3 3 3 3 3 3 3 3 3 3 3 3 3 3 3 3 3 3 3 3 3 3 3 3 3 3 3 3 3 3 3 3 3 3 3 3 3 3 3 3 3 3 3 3 3 3 3 3 3 3 3 3 3 3 3 3 3 3 3 3 3 3 3 3 3 3 3 3 3 3 3 3 3 3 3 3 3 3 3 3 3 3 3 3 3 3 3 3 3 3 3 3 3 3 3 3 3 3 3 3 3 3 3 3 3 3 3 3 3 3         </DataArray>
      </Cells>
    </Piece>
  </UnstructuredGrid>
</VTKFile>
