<?xml version="1.0"?>
<VTKFile type="UnstructuredGrid" version="0.1" byte_order="LittleEndian">
  <UnstructuredGrid>
    <Piece NumberOfPoints="128" NumberOfCells="127">
      <PointData Scalars="W">
        <DataArray type="Float32" Name="W" NumberOfComponents="2">
          0 0 0.3074989963508355 0.0047232783594503445 0.42655728067738646 0.0053188925820243293 0.50640832192417484 0.0044540967429256692 0.56211554396300134 0.0025790977505224088 0.6000478918002714 7.5027827146109032e-06 0.62391977458418291 -0.0029988863548287077 0.63615087005607718 -0.0062139490652442179 0.63846200849766821 -0.0094412842209323257 0.63206448026127393 -0.012509849969531568 0.61792439705500013 -0.015273291960488763 0.59681810491724863 -0.017609093938691076 0.56936684273494365 -0.019417304851134784 0.53603102942647474 -0.020617889234118867 0.49717690301844936 -0.021150810918473321 0.45312549503460831 -0.020977127881669784 0.40425733837613875 -0.020084121020311072 0.35082089702211527 -0.018476325644076863 0.29305948541148824 -0.016180405591877715 0.23124022244650139 -0.013246825850544647 0.16560314782452359 -0.0097467841846040452 0.096343813664101413 -0.0057703213003649579 0.023681317478990289 -0.0014295964851723201 -0.052148818896012583 0.003142249330819987 -0.13096664156138774 0.0077965259044655679 -0.21249371788494703 0.012361056698485582 -0.29651540634258888 0.016651596373467435 -0.3828857567983468 0.020473189063975845 -0.47136945255406676 0.023612787112469488 -0.56136763936798117 0.025830780416463736 -0.65296035051192292 0.026914708106381198 -0.74586055111240235 0.026627255369919521 -0.83978279867862182 0.024729322172754711 -0.93438777712202559 0.02098176515908497 -1.0293458222061718 0.015151502662563337 -1.1242864603666947 0.0070142574670273884 -1.2189204915891314 -0.0036408986725936887 -1.3127778131064998 -0.017008360515566038 -1.4053435935167293 -0.033255517681993321 -1.4962400012256329 -0.052522784426111975 -1.5850216226419742 -0.074918409617875339 -1.6711851113374734 -0.10051090885388539 -11.553493206031694 -1.3048042150077839 -11.45350741306391 -2.3733942355483815 7.7911592951981818 1.7338037871384429 7.8129764336183198 1.2318810303001091 7.8045851296442246 0.73863654660956446 7.7667495493394165 0.25547618552670648 7.7006034955233735 -0.21615696977302781 7.6069142533022092 -0.67481963350612295 7.4867351671658149 -1.119037172320859 4.7484931127778571 -0.94900613773771003 4.6496542750806027 -1.1140003831605325 4.4584990814801539 -1.2445616767660113 4.4193191398677465 -1.4093557385505242 4.306982609880543 -1.5478291642425677 4.193064561515838 -1.67872735300585 3.9894283664020578 -1.7613996853893976 3.6927626203798973 -1.7796877311525927 3.4876750337388072 -1.8189564521227146 3.280422785497175 -1.8393779380685815 3.076312219981435 -1.8438950521542694 2.7739918537684622 -1.7664901918046148 2.5708569640812766 -1.7295210811389452 2.2679268512669966 -1.6031761367151987 2.0690793987327694 -1.5289870273771622 1.9833738109250969 -1.5278809918658545 1.8987706252119134 -1.5224361533299375 1.8154882697008679 -1.5128760005592574 1.6301357753471197 -1.4082993413912701 1.5529957598598585 -1.3875708308809191 1.4774259634896767 -1.3635025310068298 1.4035089545702857 -1.3362841427592824 1.2279419673941654 -1.2033109899123473 1.1603755062055803 -1.1676419885996445 1.0945052576649272 -1.1296428018836171 1.0303626884758597 -1.0895120959353488 0.96796856171134171 -1.0474485175977415 0.80677953006605696 -0.89135760662936914 0.75217044374537501 -0.84653640743118475 0.69701002015932734 -0.79822639196266876 0.6434102563776104 -0.74894261461815326 0.59142212702125474 -0.69895491917374919 0.54100265554194837 -0.64842807114785284 0.39332178973204796 -0.47698032260816386 0.34719152449438834 -0.42500177860416521 0.30240046266442072 -0.37324917684494979 0.25895248005806903 -0.32193076111967012 0.21685359117127692 -0.2712521299662945 0.17413957505369096 -0.21892907330538744 0.034696211315574002 -0.043738725271809012 -0.0031044119690590262 0.0039150916430625883 -0.039627817127056306 0.049948365396472669 -0.0748293478957507 0.094177442277201109 -0.10856044434467424 0.13630533078404072 -0.14074412691086791 0.17614468778858264 -0.17125808926659986 0.21347208513657953 -0.30485872103511324 0.37768646890025381 -0.3324960160602507 0.40858398530860979 -0.35806658189960511 0.43616555564180864 -0.38132243985649639 0.4601849933936526 -0.40201947727753301 0.48043077400451117 -0.53154908192297801 0.62791033265495522 -0.54763735475950626 0.6383878446412049 -0.56012223845288511 0.6441933990889176 -0.56857903678009369 0.64507813502627687 -0.69181201762011901 0.77316990557400189 -0.69250016227729794 0.76137947360214731 -0.68741931699762682 0.74369225400006445 -0.67359921306536796 0.71734298372774086 -0.78251412976618528 0.81953147338118337 -0.75750678853232045 0.77958096874398386 -0.85555821591892856 0.86465778645814417 -0.81301040571538508 0.8065160405460573 -0.75602694390615044 0.73709613003626884 -0.83103822201758226 0.796259287597748 -0.89654573652320058 0.84303906369855663 -0.79723277726697317 0.73606876618552119 -0.83690718717512502 0.75928094537584978 -0.8666726043612496 0.77214386352541131 -0.28773811333432053 0.25323190113795624 -0.1738949156406242 0.15229566684300341 0.0033539938548771834 -0.002932109993405502 0.2350164614227139 -0.2059731644077534 0.42535538759965391 -0.37540527246382543 0.67383810208827877 -0.60169113114008022 0.1708502733706054 -0.15393453422273162 0 0
        </DataArray>
        <DataArray type="Float32" Name="u" NumberOfComponents="1">
          0 0.007874015748031496 0.015748031496062992 0.023622047244094488 0.031496062992125984 0.03937007874015748 0.047244094488188976 0.055118110236220472 0.062992125984251968 0.070866141732283464 0.07874015748031496 0.086614173228346455 0.094488188976377951 0.10236220472440945 0.11023622047244094 0.11811023622047244 0.12598425196850394 0.13385826771653545 0.14173228346456693 0.14960629921259844 0.15748031496062992 0.16535433070866143 0.17322834645669291 0.18110236220472442 0.1889763779527559 0.19685039370078741 0.20472440944881889 0.2125984251968504 0.22047244094488189 0.2283464566929134 0.23622047244094488 0.24409448818897639 0.25196850393700787 0.25984251968503935 0.26771653543307089 0.27559055118110237 0.28346456692913385 0.29133858267716534 0.29921259842519687 0.30708661417322836 0.31496062992125984 0.32283464566929132 0.33070866141732286 0.33858267716535434 0.34645669291338582 0.3543307086614173 0.36220472440944884 0.37007874015748032 0.37795275590551181 0.38582677165354329 0.39370078740157483 0.40157480314960631 0.40944881889763779 0.41732283464566927 0.42519685039370081 0.43307086614173229 0.44094488188976377 0.44881889763779526 0.45669291338582679 0.46456692913385828 0.47244094488188976 0.48031496062992124 0.48818897637795278 0.49606299212598426 0.50393700787401574 0.51181102362204722 0.51968503937007871 0.52755905511811019 0.53543307086614178 0.54330708661417326 0.55118110236220474 0.55905511811023623 0.56692913385826771 0.57480314960629919 0.58267716535433067 0.59055118110236215 0.59842519685039375 0.60629921259842523 0.61417322834645671 0.62204724409448819 0.62992125984251968 0.63779527559055116 0.64566929133858264 0.65354330708661412 0.66141732283464572 0.6692913385826772 0.67716535433070868 0.68503937007874016 0.69291338582677164 0.70078740157480313 0.70866141732283461 0.71653543307086609 0.72440944881889768 0.73228346456692917 0.74015748031496065 0.74803149606299213 0.75590551181102361 0.76377952755905509 0.77165354330708658 0.77952755905511806 0.78740157480314965 0.79527559055118113 0.80314960629921262 0.8110236220472441 0.81889763779527558 0.82677165354330706 0.83464566929133854 0.84251968503937003 0.85039370078740162 0.8582677165354331 0.86614173228346458 0.87401574803149606 0.88188976377952755 0.88976377952755903 0.89763779527559051 0.90551181102362199 0.91338582677165359 0.92125984251968507 0.92913385826771655 0.93700787401574803 0.94488188976377951 0.952755905511811 0.96062992125984248 0.96850393700787396 0.97637795275590555 0.98425196850393704 0.99212598425196852 1
        </DataArray>
      </PointData>
      <CellData Scalars="P">
        <DataArray type="Float32" Name="P" NumberOfComponents="1">
          0.024909533911239082 0.074992917393011352 0.12544969910317053 0.17622203686947532 0.227171699274648 0.27811579898986483 0.32885128077499304 0.37917321576858404 0.42888929410195803 0.47783159982495038 0.52586638122080509 0.57290194338513944 0.61889502321509426 0.66385619131650575 0.70785412857458307 0.75101853402525853 0.79354034816272989 0.83567297472205082 0.87773111984116237 0.9200876076372555 0.9631697968586157 1.0074555727208052 1.0534665595691561 1.1017600329285619 1.152922245549092 1.2075551447235624 1.2662679172869444 1.3296689371521278 1.3983499764950182 1.4728537883888924 1.5536951017697855 1.6413288921463842 1.7361362559597597 1.8384068996123273 1.9483255238257917 2.0659555165584571 2.1912313869954847 2.3239346215030827 2.4636794344627679 2.6099128853703291 2.7619029148136662 2.9187291503489088 3.7292419899491258 4.4827680819262552 4.0771744466752002 3.6889709281544132 3.3143205480433462 2.9495439504093337 2.5911297681718501 2.235784757170197 1.8804480267479933 1.6711274341010218 1.4620405464006121 1.2579506801474618 1.0493208307878739 0.83990015473221769 0.62932162212972553 0.42321469236615145 0.22829929075583022 0.039034464092667115 -0.14376671680159309 -0.31953896541753468 -0.47953826883956052 -0.63021348004272726 -0.76194126277721252 -0.88194538254361388 -0.99912336594908413 -1.1130092443776718 -1.2231709584912154 -1.3192724798490816 -1.4108239486092355 -1.4974717801745685 -1.5789001232007331 -1.6442865199886916 -1.7039786323833899 -1.7577733884670192 -1.8055119406671269 -1.8470792001684184 -1.8719324034078104 -1.8908875316535747 -1.9037391768514653 -1.9105453310235119 -1.9114131856618979 -1.9064878337637203 -1.8864173838505689 -1.8612568539470853 -1.8312731863326071 -1.7967682734660024 -1.7580749514159204 -1.7153926573715599 -1.6615493618924269 -1.6051034282481853 -1.546489336735321 -1.4861500942816344 -1.424536770049305 -1.3620960248241383 -1.2992652162465377 -1.2318980565213933 -1.1655133868788154 -1.1004993492101436 -1.0372054651626563 -0.97593368380898937 -0.91503015617646077 -0.8571726056711485 -0.80249028277207624 -0.75103131183317395 -0.7030798773523711 -0.65874858422213534 -0.61780780650025136 -0.57988443048168481 -0.54698385069918609 -0.51659476564830109 -0.49137362142828134 -0.46758810407981155 -0.44424321128219668 -0.42491389261013862 -0.40903633342483015 -0.39069659742499158 -0.37400024928059089 -0.35802795582413804 -0.32251920373807524 -0.2829574266475689 -0.23773894380513189 -0.18638279041391193 -0.13156857911373929 -0.074546830862947347 -0.02499228636312174
        </DataArray>
      </CellData>
      <Points>
        <DataArray type="Float32" NumberOfComponents="3" format="ascii">
          4.0263737956664114 9.3496092201185217 0
          4.0262433237165212 9.357482522464128 0
          4.0261319185938618 9.3653561121708666 0
          4.0260469625918081 9.37323002244894 0
          4.0259934068410752 9.3811041967037472 0
          4.0259747053415698 9.3889785161788204 0
          4.0259932098865283 9.396852819303124 0
          4.0260504003914077 9.4047269178822326 0
          4.0261470349430688 9.4126006111003431 0
          4.0262832565170612 9.4204736976903831 0
          4.0264586681008856 9.4283459865369945 0
          4.0266723926145831 9.4362173057511907 0
          4.0269231210641747 9.4440875102679236 0
          4.0272091510766179 9.4519564880445728 0
          4.0275284154618447 9.4598241650241377 0
          4.0278785049334775 9.4676905088576859 0
          4.0282566880244675 9.4755555313179798 0
          4.0286599346893972 9.4834192890863314 0
          4.0290849317154507 9.4912818834687087 0
          4.0295280978110926 9.4991434587389225 0
          4.0299856001673815 9.5070041990052765 0
          4.0304533693368949 9.5148643237909809 0
          4.0309271113508345 9.5227240824455439 0
          4.0314023212923127 9.5305837471841617 0
          4.0318742978842455 9.5384436048255612 0
          4.0323381546283317 9.5463039475651392 0
          4.0327888370461045 9.5541650622912559 0
          4.033221135961413 9.5620272191525153 0
          4.0336296965206619 9.5698906594601727 0
          4.0340090327506308 9.5777555824678764 0
          4.0343535646531494 9.5856221305033866 0
          4.0346576132057725 9.5934903757822596 0
          4.0349154181187146 9.6013603056790497 0
          4.0351211554913666 9.6092318078861023 0
          4.0352689588079214 9.6171046555676796 0
          4.0353529393339977 9.6249784928877933 0
          4.0353672090436268 9.6328528210814923 0
          4.0353058985075414 9.6407269853512823 0
          4.0351631859997168 9.6486001627859697 0
          4.0349333293799425 9.6564713519512111 0
          4.0346106894846345 9.6643393641499902 0
          4.0341897577119701 9.6722028166748455 0
          4.0336651872041536 9.6800601285214203 0
          4.0324241340524356 9.687836629550576 0
          4.0304727680287691 9.6954660545442319 0
          4.0290045608666896 9.7032031130647312 0
          4.0280208855916459 9.7110166864620435 0
          4.0275212431437479 9.7188761921972038 0
          4.0275033095605615 9.7267516708673725 0
          4.0279630060619018 9.7346138755700178 0
          4.028894546380001 9.7424343612836637 0
          4.0302905018080928 9.7501855762266612 0
          4.0319810115075523 9.7578779456714404 0
          4.0339599468703398 9.7655012342939109 0
          4.036215451357033 9.7730473382997545 0
          4.0387450973908683 9.7805060375504471 0
          4.0415419184465531 9.7878687411025549 0
          4.0445988497123722 9.795127327807549 0
          4.0479032587437755 9.8022766637476426 0
          4.0514367390447159 9.8093156044877929 0
          4.0551865658380786 9.8162417086393052 0
          4.0591398792110738 9.823053703950599 0
          4.0632840134717965 9.829751305026841 0
          4.0676002070352082 9.8363393037260831 0
          4.0720758531563428 9.842819988544786 0
          4.07669215093056 9.8492011875321683 0
          4.0814367587835605 9.8554874985514669 0
          4.0863043570928159 9.8616789914308054 0
          4.0912896947349493 9.8677760051610814 0
          4.0963876026496466 9.8737791340360435 0
          4.1015865770597024 9.8796948614602016 0
          4.1068818303005754 9.8855244747704543 0
          4.112268672310881 9.8912694684737126 0
          4.1177425157669649 9.8969315324759446 0
          4.1232924651435852 9.9025189117585537 0
          4.1289143277261875 9.9080338205814691 0
          4.1346040162985673 9.9134786177159633 0
          4.1403575511057458 9.9188557941191817 0
          4.1461710611523017 9.9241679606104718 0
          4.1520345453296565 9.9294247961588376 0
          4.1579446165837028 9.9346290828113801 0
          4.163897853968562 9.939783818880386 0
          4.1698909337088716 9.9448920630461775 0
          4.1759206323688272 9.949956917629919 0
          4.1819838241909064 9.9549815183817554 0
          4.1880713499887117 9.9599764968083679 0
          4.1941803513233964 9.9649450788708069 0
          4.2003080532289934 9.9698904765553475 0
          4.2064517644521402 9.9748158749796154 0
          4.2126088778229107 9.9797244196648158 0
          4.2187767484269676 9.9846193581575413 0
          4.2249467327755159 9.9895115549744737 0
          4.2311164921002886 9.9944039687294417 0
          4.2372837672368915 9.9992994577642822 0
          4.2434463813812018 10.004200768794863 0
          4.2496022492869656 10.009110518531202 0
          4.2557493820227146 10.014031182095128 0
          4.2618858945380262 10.018965079200369 0
          4.2680035110877279 10.023922397237147 0
          4.2741005262147365 10.028905058580833 0
          4.2801753628739965 10.033914780504453 0
          4.2862265877837 10.038953059941287 0
          4.2922529265382581 10.044021160391743 0
          4.2982463589945512 10.049128236552095 0
          4.3042058973467574 10.05427494826759 0
          4.3101307773195776 10.059461666356096 0
          4.316020484488627 10.064688457166636 0
          4.3218673908112208 10.0699632789471 0
          4.3276714640074925 10.075285414539065 0
          4.3334330295295951 10.08065378176655 0
          4.3391529547106114 10.086066761785924 0
          4.3448245000784027 10.091530713294576 0
          4.350449227002378 10.097043176495626 0
          4.3560210698216224 10.10260945321741 0
          4.3615426779064812 10.108225957757361 0
          4.3670175961547155 10.113888404745895 0
          4.3724411882541503 10.119600494359744 0
          4.3778094073632872 10.125365161825226 0
          4.3831284252612015 10.131175795296627 0
          4.3883957986118602 10.137033871766331 0
          4.3936096995385032 10.142940229678816 0
          4.3988060473355581 10.148862656301604 0
          4.4039919281970556 10.154794912869152 0
          4.4091783659362118 10.160727386177607 0
          4.4143797666948963 10.166647490058732 0
          4.419607983480109 10.172544730190843 0
          4.424878489577468 10.178405079702692 0
          4.4301601584068191 10.184256473819188 0
        </DataArray>
      </Points>
      <Cells>
        <DataArray type="Int32" Name="connectivity" format="ascii">
          0 1 1 2 2 3 3 4 4 5 5 6 6 7 7 8 8 9 9 10 10 11 11 12 12 13 13 14 14 15 15 16 16 17 17 18 18 19 19 20 20 21 21 22 22 23 23 24 24 25 25 26 26 27 27 28 28 29 29 30 30 31 31 32 32 33 33 34 34 35 35 36 36 37 37 38 38 39 39 40 40 41 41 42 42 43 43 44 44 45 45 46 46 47 47 48 48 49 49 50 50 51 51 52 52 53 53 54 54 55 55 56 56 57 57 58 58 59 59 60 60 61 61 62 62 63 63 64 64 65 65 66 66 67 67 68 68 69 69 70 70 71 71 72 72 73 73 74 74 75 75 76 76 77 77 78 78 79 79 80 80 81 81 82 82 83 83 84 84 85 85 86 86 87 87 88 88 89 89 90 90 91 91 92 92 93 93 94 94 95 95 96 96 97 97 98 98 99 99 100 100 101 101 102 102 103 103 104 104 105 105 106 106 107 107 108 108 109 109 110 110 111 111 112 112 113 113 114 114 115 115 116 116 117 117 118 118 119 119 120 120 121 121 122 122 123 123 124 124 125 125 126 126 127 
        </DataArray>
        <DataArray type="Int32" Name="offsets" format="ascii">
          2 4 6 8 10 12 14 16 18 20 22 24 26 28 30 32 34 36 38 40 42 44 46 48 50 52 54 56 58 60 62 64 66 68 70 72 74 76 78 80 82 84 86 88 90 92 94 96 98 100 102 104 106 108 110 112 114 116 118 120 122 124 126 128 130 132 134 136 138 140 142 144 146 148 150 152 154 156 158 160 162 164 166 168 170 172 174 176 178 180 182 184 186 188 190 192 194 196 198 200 202 204 206 208 210 212 214 216 218 220 222 224 226 228 230 232 234 236 238 240 242 244 246 248 250 252 254 
        </DataArray>
        <DataArray type="Int32" Name="types" format="ascii">
          3 3 3 3 3 3 3 3 3 3 3 3 3 3 3 3 3 3 3 3 3 3 3 3 3 3 3 3 3 3 3 3 3 3 3 3 3 3 3 3 3 3 3 3 3 3 3 3 3 3 3 3 3 3 3 3 3 3 3 3 3 3 3 3 3 3 3 3 3 3 3 3 3 3 3 3 3 3 3 3 3 3 3 3 3 3 3 3 3 3 3 3 3 3 3 3 3 3 3 3 3 3 3 3 3 3 3 3 3 3 3 3 3 3 3 3 3 3 3 3 3 3 3 3 3 3 3         </DataArray>
      </Cells>
    </Piece>
  </UnstructuredGrid>
</VTKFile>
