<?xml version="1.0"?>
<VTKFile type="UnstructuredGrid" version="0.1" byte_order="LittleEndian">
  <UnstructuredGrid>
    <Piece NumberOfPoints="128" NumberOfCells="127">
      <PointData Scalars="W">
        <DataArray type="Float32" Name="W" NumberOfComponents="2">
          0 0 0.099761879241555093 0.088163523733973029 0.19803628844111065 0.17556565426279866 0.28026080168293427 0.2497244632286684 0.35556968675612749 0.31897670092992747 0.42744853955420231 0.38667166074241083 0.49735005415910993 0.45437549208795985 0.56587389112102504 0.52291203086620497 0.63324798784889691 0.59278694905798146 0.69955734600535546 0.66439217207004797 0.76475407488168712 0.73801168232757541 0.82872289252794151 0.81387941049121626 0.89129686224663707 0.89219176795628219 0.95232628436776423 0.97317557257133347 1.0116731508494861 1.0570874409473212 1.0691598300036684 1.1441642550780811 1.1245274654416537 1.2345758385850243 1.1775380047526092 1.3285320609534039 1.227929234393184 1.4262380930401295 1.2753775695542071 1.5278500302470284 1.3195394355742527 1.6335188992461374 1.3600647719921872 1.7434088991427159 1.3965460857824403 1.857633576098578 1.4285338059438404 1.9762679181879332 1.4555974199845145 2.0994313457402192 1.4772028134420412 2.2271144476679545 1.4928226973906265 2.359324406772052 1.5019315768243846 2.4960865801040959 1.5039329615017363 2.6373260984022262 1.4980216249340128 2.7825759350820229 1.4837344411924402 2.9319547605571716 1.4603942712435123 3.0852102002540778 1.4272987055060071 3.2420074874163558 1.3837319260975198 3.4019336963610241 1.3289795412775849 3.5645141237948188 1.2623154540600765 3.7291551759033732 1.1830547222310044 3.8952707409811085 1.0904782018859958 4.062022363543913 0.98391333790463964 4.2284870651822271 0.86276314560673639 4.3937659013113235 0.72646765455225482 4.5568132041081473 0.5745289860126751 4.7164558203648497 -0.39322290160552353 -3.3776566539677448 -0.454081014322467 -3.1779072813127596 -0.51020120993593054 -3.0326625379318584 -0.54423954567560529 -2.82799808110207 -0.57757355371250729 -2.6801199491924965 -0.58719643764225415 -2.4736996869645878 -0.60046313490727865 -2.3269796357338901 -0.60587443736302427 -2.1814463704464422 -0.60402784485133465 -2.0375613182315564 -0.59553907585863497 -1.8957318451371601 -0.58102186961055524 -1.7562760670296922 -0.56109140359748311 -1.6194646550957648 -0.53634717189314418 -1.4854930666249122 -0.52885271595528016 -1.4108286987019583 -0.49789401143217538 -1.2837043677840454 -0.44059920616197884 -1.1028235786540899 -0.37839357175011046 -0.92395982254353326 -0.33745253117408336 -0.80696908355530816 -0.26946226472989609 -0.63340036719971771 -0.19886100887914612 -0.46142681552096088 -0.15431583755088912 -0.35464519277537859 -0.082316695197639456 -0.18797961159432797 0.020121503569288803 0.045873491459802844 0.063128805818586348 0.14424288369798655 0.10446344449189865 0.23976437098143363 0.17436238136929064 0.40323124526337978 0.21069273894038371 0.49242895290449468 0.2448755015477839 0.57965702109323336 0.2763629505098355 0.66400483007668198 0.30501089238643153 0.74541766427870793 0.33032274051386068 0.82287586208882113 0.38179748390235696 0.97243028961374878 0.40002487127663128 1.0449339822234693 0.41493217971550017 1.1140866302697603 0.42651202774933017 1.1797536800737194 0.43444684489346425 1.2408137964585531 0.43946261811239817 1.2990229143743424 0.44126474913131924 1.3532190385030354 0.43994753623549676 1.4032237781595338 0.45886976778270216 1.5279447576929139 0.44969992792162317 1.5695515865653284 0.43748005334673418 1.6053016096297663 0.42297923493875444 1.6370186856472213 0.40612120746763652 1.6634793909804344 0.38714586874771972 1.6844706902927757 0.36631425030804948 1.6997960684706146 0.34389416632793568 1.7092193225742207 0.32017737291337994 1.7125528996860775 0.29528569881281386 1.7085272599903232 0.26991212172378698 1.6990911678797802 0.23284810150391899 1.6013404869231775 0.20914285892995707 1.5781312254780835 0.18563361384240268 1.5479491490092114 0.16261049418874426 1.5106117421087166 0.14035441238318544 1.4659365284652579 0.11904575503746966 1.4126328797092829 0.099131025110425 1.3527169796137326 0.080723997834426853 1.2848865468367667 0.064021940511387973 1.2089285246460837 0.04918849084835334 1.1246292460930707 0.036308247817914308 1.0305431167306629 0.025546122641842188 0.92872962892606825 0.016865026951781954 0.81773063547023039 0.010218078941717021 0.69715755611188834 0.0054757769723276801 0.56542048439702619 0.0024562216287434108 0.4244776186587893 0.00096459271576611728 0.35498333849695324 0.00010852048164738738 0.19027115157965321 -5.7041466934480195e-05 0.099772529317735031 5.465584062416223e-05 -0.088994669369120413 -0.00026068188258345366 -0.29295022668436588 -0.0015660484144138676 -0.42245602148625877 -0.0043054441877203881 -0.5664109582796143 -0.010673377283091272 -0.81770411639776752 -0.020099518441899812 -0.99524531367419822 -0.034305283167685871 -1.1906550316481979 -0.059452364509754121 -1.5068427324836915 -0.091057107093141423 -1.7414085272362427 -0.16309500573837873 -2.3773716954232462 -0.11790502973824944 -1.409554793041591 -0.11054871428927104 -1.1766381430846959 -0.17155631109136701 -1.631132065472563 -0.32748763044980395 -2.674133819929934 -0.67070433023711795 -4.4340189301780688 -0.89055098070042582 -4.7149562371631975 0 0
        </DataArray>
        <DataArray type="Float32" Name="u" NumberOfComponents="1">
          0 0.007874015748031496 0.015748031496062992 0.023622047244094488 0.031496062992125984 0.03937007874015748 0.047244094488188976 0.055118110236220472 0.062992125984251968 0.070866141732283464 0.07874015748031496 0.086614173228346455 0.094488188976377951 0.10236220472440945 0.11023622047244094 0.11811023622047244 0.12598425196850394 0.13385826771653545 0.14173228346456693 0.14960629921259844 0.15748031496062992 0.16535433070866143 0.17322834645669291 0.18110236220472442 0.1889763779527559 0.19685039370078741 0.20472440944881889 0.2125984251968504 0.22047244094488189 0.2283464566929134 0.23622047244094488 0.24409448818897639 0.25196850393700787 0.25984251968503935 0.26771653543307089 0.27559055118110237 0.28346456692913385 0.29133858267716534 0.29921259842519687 0.30708661417322836 0.31496062992125984 0.32283464566929132 0.33070866141732286 0.33858267716535434 0.34645669291338582 0.3543307086614173 0.36220472440944884 0.37007874015748032 0.37795275590551181 0.38582677165354329 0.39370078740157483 0.40157480314960631 0.40944881889763779 0.41732283464566927 0.42519685039370081 0.43307086614173229 0.44094488188976377 0.44881889763779526 0.45669291338582679 0.46456692913385828 0.47244094488188976 0.48031496062992124 0.48818897637795278 0.49606299212598426 0.50393700787401574 0.51181102362204722 0.51968503937007871 0.52755905511811019 0.53543307086614178 0.54330708661417326 0.55118110236220474 0.55905511811023623 0.56692913385826771 0.57480314960629919 0.58267716535433067 0.59055118110236215 0.59842519685039375 0.60629921259842523 0.61417322834645671 0.62204724409448819 0.62992125984251968 0.63779527559055116 0.64566929133858264 0.65354330708661412 0.66141732283464572 0.6692913385826772 0.67716535433070868 0.68503937007874016 0.69291338582677164 0.70078740157480313 0.70866141732283461 0.71653543307086609 0.72440944881889768 0.73228346456692917 0.74015748031496065 0.74803149606299213 0.75590551181102361 0.76377952755905509 0.77165354330708658 0.77952755905511806 0.78740157480314965 0.79527559055118113 0.80314960629921262 0.8110236220472441 0.81889763779527558 0.82677165354330706 0.83464566929133854 0.84251968503937003 0.85039370078740162 0.8582677165354331 0.86614173228346458 0.87401574803149606 0.88188976377952755 0.88976377952755903 0.89763779527559051 0.90551181102362199 0.91338582677165359 0.92125984251968507 0.92913385826771655 0.93700787401574803 0.94488188976377951 0.952755905511811 0.96062992125984248 0.96850393700787396 0.97637795275590555 0.98425196850393704 0.99212598425196852 1
        </DataArray>
      </PointData>
      <CellData Scalars="P">
        <DataArray type="Float32" Name="P" NumberOfComponents="1">
          -0.012035567967846361 -0.035991178543653239 -0.059560327481424563 -0.082485180945430545 -0.10448210502953906 -0.1252311315264821 -0.14437284547485313 -0.16150777286515994 -0.17619642823630205 -0.18795896550090752 -0.19627600989526961 -0.20058949139918453 -0.20030388365184257 -0.19478594907417179 -0.18336410480596727 -0.16532924321257467 -0.13993786156555885 -0.10641160912378585 -0.06393839372804129 -0.011675881831669463 0.051246525197725219 0.1257266207197236 0.21268462968469415 0.3130584008778185 0.42780352718433495 0.55788207460638095 0.70426002366683071 0.8679051224827149 1.0497757829898571 1.2507851728911807 1.4718422060137184 1.7138175338829258 1.9775307957239714 2.2637375598616094 2.5731172192589895 2.906255112219613 3.263636103745843 3.6456127840781765 4.0523888769024916 4.4840135858214998 4.9403587005237206 5.4210971648385318 5.0338703309737749 4.6543365443148028 4.2788999420119946 3.9174717592560233 3.5653087043244849 3.232200197741145 2.9122126745916006 2.6067751918495881 2.3170713092549722 2.0440474441891578 1.7884281314493744 1.5507271848837423 1.3312641723657326 1.1221774548414944 0.93133500652474821 0.76658238495234443 0.62766119176817825 0.50589031653231287 0.40875504503294768 0.33548973036478935 0.27690488150405707 0.24006634908237531 0.2322084534624714 0.23548880009582274 0.24879966845047383 0.27884969811147364 0.31623379138568536 0.35986694163520905 0.4085664084840599 0.46115661920562795 0.51639469332216303 0.57928533001769633 0.6422740252338115 0.70428392738093637 0.76428666727853445 0.82125099409754043 0.87432848828887877 0.92267485047015463 0.96552131552451725 1.005180096850629 1.0376150294243331 1.0622951732272079 1.0788489048695233 1.0869733955519314 1.0864706589333557 1.0772497580783966 1.0593277498886624 1.0328305097002919 0.99800088066560422 0.95517572714164622 0.90620416238657353 0.85058478385912029 0.78893597156153272 0.72196588850284571 0.65046662482856299 0.57534791338479874 0.49751188756741777 0.41795803829391898 0.33773747114141472 0.25794183200059745 0.17975346004236489 0.1042564523276034 0.032595245480326725 -0.034092831497688658 -0.094626136627079513 -0.14800150876543122 -0.19808050186931203 -0.23900285564646806 -0.27504681895956434 -0.30037317359370086 -0.31429494235904221 -0.32151043654269318 -0.32164913156020158 -0.30955821673321693 -0.29034597602643547 -0.26434627452117881 -0.22757735375548696 -0.1861619962758608 -0.1272232799211202 -0.088973539724180289 -0.067062921534833939 -0.043543221896489702 -0.013537212723684878 0.011285462558768396 0.012709339795030259
        </DataArray>
      </CellData>
      <Points>
        <DataArray type="Float32" NumberOfComponents="3" format="ascii">
          5.7948821106168644 10.622507707837897 0
          5.8000933331527635 10.616604689953473 0
          5.8053107366816841 10.610707143493219 0
          5.8105404122269722 10.604820490042279 0
          5.8157874564921741 10.59894932905376 0
          5.8210565378970829 10.593097955099532 0
          5.8263521125571778 10.587270565694219 0
          5.8316785142774963 10.58147135849703 0
          5.8370399916839109 10.575704582460926 0
          5.8424407223220411 10.569974569240625 0
          5.8478848179033909 10.564285757539697 0
          5.8533763213183807 10.558642710759729 0
          5.8589191994756673 10.553050131542559 0
          5.8645173329421514 10.547512873983672 0
          5.8701745066541475 10.542035957728812 0
          5.8758944013552012 10.536624583916508 0
          5.8816805825784479 10.531284149895763 0
          5.887536484593844 10.526020259785028 0
          5.893465395645678 10.520838737513097 0
          5.8994704416921797 10.515745639567898 0
          5.9055545663399194 10.510747264701882 0
          5.9117205095383287 10.505850163322508 0
          5.9179707858713879 10.501061147698804 0
          5.9243076592874875 10.496387299026853 0
          5.9307331152192191 10.491835972104058 0
          5.9372488338833884 10.487414802757637 0
          5.9438561571559889 10.483131707284794 0
          5.9505560558685202 10.478994882920976 0
          5.9573490972135543 10.475012809434201 0
          5.9642354077463438 10.471194244504312 0
          5.971214623441826 10.467548194786314 0
          5.9782858609603053 10.464083923287124 0
          5.9854476756412813 10.460810933735349 0
          5.9926980179277898 10.457738949840849 0
          6.0000341889566311 10.454877889706303 0
          6.007452796234289 10.452237836406225 0
          6.0149497085843189 10.449829001191834 0
          6.0225200136438666 10.447661687157311 0
          6.0301579732368245 10.445746237256341 0
          6.0378569816332393 10.444092977074318 0
          6.0456095284922569 10.442712159087328 0
          6.0534071640981093 10.441613897819531 0
          6.0612404684443693 10.440808097091361 0
          6.0690493877247356 10.439792848159659 0
          6.076830146097346 10.438580537922224 0
          6.0845792631158719 10.437180173333324 0
          6.0922946261683437 10.435604446293331 0
          6.0999741679071562 10.433862527164052 0
          6.1076172898283474 10.431967216861644 0
          6.1152231690762573 10.42992761397845 0
          6.1227914699351604 10.427752743482655 0
          6.1303223067694042 10.425451528102675 0
          6.1378162058351595 10.423032763064663 0
          6.145274067215178 10.420505096365286 0
          6.1526971266655428 10.417877011986997 0
          6.160086918435236 10.415156817777868 0
          6.167443908504131 10.41234914346995 0
          6.1747700164439854 10.409461872210693 0
          6.1820687935036238 10.406506221007422 0
          6.189344095434306 10.403493281780644 0
          6.1965984608047062 10.400430309216954 0
          6.2038361040425611 10.397328066800352 0
          6.2110614014662904 10.394197219031012 0
          6.2182771151376404 10.391044387342948 0
          6.2254877080571065 10.387879906906958 0
          6.2326995292030078 10.384718279447126 0
          6.2399152453428863 10.381565604404035 0
          6.247137419508344 10.378427804544206 0
          6.2543703844902447 10.37531501610885 0
          6.261616393086392 10.372232769489141 0
          6.2688775649150807 10.369186472870645 0
          6.2761558524793788 10.366181355766303 0
          6.2834530322355855 10.363222465628047 0
          6.2907706738276614 10.360314604622738 0
          6.2981119679918587 10.357467045479963 0
          6.305478045267682 10.354684282926794 0
          6.3128698304013255 10.351970603852774 0
          6.3202880419004828 10.349330078975159 0
          6.3277331723683412 10.346766493318645 0
          6.3352055335057287 10.344283455105 0
          6.3427052378714777 10.341884323711845 0
          6.3502322047423609 10.339572198622971 0
          6.3577876077918249 10.337354811962893 0
          6.3653708798603112 10.335234742430519 0
          6.3729812648611865 10.333214205617914 0
          6.3806178654649131 10.331295167109095 0
          6.3882796383911993 10.329479266639371 0
          6.3959654092955578 10.327767804902066 0
          6.4036738889658427 10.326161731379397 0
          6.4114036899390747 10.324661629712342 0
          6.4191533446023508 10.323267706086199 0
          6.426921312754728 10.321979710532219 0
          6.4347060245876353 10.320797057761968 0
          6.4425051852794644 10.319713687138719 0
          6.4503173287987421 10.318728159699313 0
          6.458141001562768 10.317838604295432 0
          6.4659747804394874 10.317042706278057 0
          6.4738172901788396 10.316337696180499 0
          6.4816672145976719 10.315720269689759 0
          6.4895233243057762 10.315186712638299 0
          6.4973844837666519 10.314732820241991 0
          6.505249663547346 10.314353883863106 0
          6.5131179504847649 10.314044677726802 0
          6.5209885529263589 10.313799369241078 0
          6.5288608110233604 10.313611646638014 0
          6.5367341944325164 10.313474628492344 0
          6.5446082994297745 10.313380839541585 0
          6.5524828408653928 10.313322111992473 0
          6.5603576409670881 10.313289706826628 0
          6.5682326199764063 10.313279315438848 0
          6.5761077356457038 10.313280723913673 0
          6.5839829923240485 10.313288320222439 0
          6.5918584092451358 10.313290397092642 0
          6.5997339795874979 10.313274304004295 0
          6.6076096395309101 10.31323200682378 0
          6.6154852373699828 10.313154573940457 0
          6.6233603927507829 10.313026413741078 0
          6.6312345405292623 10.312836507289974 0
          6.639106819796802 10.312572724740415 0
          6.646975685523393 10.312215439983866 0
          6.6548391977316657 10.311750086998703 0
          6.6626928835594841 10.311137189112873 0
          6.6705384257235956 10.310436898318667 0
          6.6783764235468661 10.309663676291418 0
          6.6862031934071267 10.308789341039255 0
          6.6940091466154223 10.307749221293221 0
          6.7017736602786337 10.306434098059565 0
          6.7094831126464252 10.304826527939534 0
        </DataArray>
      </Points>
      <Cells>
        <DataArray type="Int32" Name="connectivity" format="ascii">
          0 1 1 2 2 3 3 4 4 5 5 6 6 7 7 8 8 9 9 10 10 11 11 12 12 13 13 14 14 15 15 16 16 17 17 18 18 19 19 20 20 21 21 22 22 23 23 24 24 25 25 26 26 27 27 28 28 29 29 30 30 31 31 32 32 33 33 34 34 35 35 36 36 37 37 38 38 39 39 40 40 41 41 42 42 43 43 44 44 45 45 46 46 47 47 48 48 49 49 50 50 51 51 52 52 53 53 54 54 55 55 56 56 57 57 58 58 59 59 60 60 61 61 62 62 63 63 64 64 65 65 66 66 67 67 68 68 69 69 70 70 71 71 72 72 73 73 74 74 75 75 76 76 77 77 78 78 79 79 80 80 81 81 82 82 83 83 84 84 85 85 86 86 87 87 88 88 89 89 90 90 91 91 92 92 93 93 94 94 95 95 96 96 97 97 98 98 99 99 100 100 101 101 102 102 103 103 104 104 105 105 106 106 107 107 108 108 109 109 110 110 111 111 112 112 113 113 114 114 115 115 116 116 117 117 118 118 119 119 120 120 121 121 122 122 123 123 124 124 125 125 126 126 127 
        </DataArray>
        <DataArray type="Int32" Name="offsets" format="ascii">
          2 4 6 8 10 12 14 16 18 20 22 24 26 28 30 32 34 36 38 40 42 44 46 48 50 52 54 56 58 60 62 64 66 68 70 72 74 76 78 80 82 84 86 88 90 92 94 96 98 100 102 104 106 108 110 112 114 116 118 120 122 124 126 128 130 132 134 136 138 140 142 144 146 148 150 152 154 156 158 160 162 164 166 168 170 172 174 176 178 180 182 184 186 188 190 192 194 196 198 200 202 204 206 208 210 212 214 216 218 220 222 224 226 228 230 232 234 236 238 240 242 244 246 248 250 252 254 
        </DataArray>
        <DataArray type="Int32" Name="types" format="ascii">
          3 3 3 3 3 3 3 3 3 3 3 3 3 3 3 3 3 3 3 3 3 3 3 3 3 3 3 3 3 3 3 3 3 3 3 3 3 3 3 3 3 3 3 3 3 3 3 3 3 3 3 3 3 3 3 3 3 3 3 3 3 3 3 3 3 3 3 3 3 3 3 3 3 3 3 3 3 3 3 3 3 3 3 3 3 3 3 3 3 3 3 3 3 3 3 3 3 3 3 3 3 3 3 3 3 3 3 3 3 3 3 3 3 3 3 3 3 3 3 3 3 3 3 3 3 3 3         </DataArray>
      </Cells>
    </Piece>
  </UnstructuredGrid>
</VTKFile>
