<?xml version="1.0"?>
<VTKFile type="UnstructuredGrid" version="0.1" byte_order="LittleEndian">
  <UnstructuredGrid>
    <Piece NumberOfPoints="128" NumberOfCells="127">
      <PointData Scalars="W">
        <DataArray type="Float32" Name="W" NumberOfComponents="2">
          0 0 0.40797485429617847 0.61785951357322821 0.636773091391858 0.98031712011559446 0.79541821049707317 1.2530216209107763 0.91349726664145825 1.4802353960644752 1.0032197259817617 1.6798528795674199 1.070918529175847 1.860886562806561 1.120353134910715 2.0284689042276924 1.1539813907748235 2.1857758390710025 1.1735678607689002 2.3349683105932968 1.1803849757666534 2.477471255428827 1.1754044997668622 2.6142670944188984 1.1593961509857098 2.7460464958441735 1.1330055224035498 2.8733490879265458 1.0967775981008827 2.9966067171827002 1.0511551026799386 3.1161208848897846 0.9964811434793388 3.2320278060584449 0.9330606837376848 3.3444488540195891 0.86115107628572019 3.4534628093830531 0.78095149710467504 3.5590399556849617 0.69263594324148581 3.6611415930535598 0.5963510413377946 3.7597164509967458 0.49220937428951345 3.8546486622310967 0.380298767192911 3.9457607210386803 0.26069630334540245 4.0329190726942885 0.13345404529979851 4.1158512805404586 -0.0013797507536280737 4.1943179763300344 -0.14377067592498557 4.2681270038658612 -0.29369785830252881 4.3369755496144515 -0.45110030126592937 4.4001604927232094 -0.61596242297664328 4.4576555956483972 -0.78825629973252054 4.5090401280480172 -0.96794571245874561 4.5538663239346855 -1.1549773811672537 4.5916345437931865 -1.3492837991830451 4.6218279392098225 -1.5507687509440617 4.6438710919750719 -1.7593406242130913 4.6572393098067524 -1.9748235216797276 4.6612172181740501 -2.1969967815255589 4.6550762111629336 -2.4256534431827741 4.6381843010408872 -2.660526757855918 4.6098275607850434 -2.9012762067250284 4.5692204258494877 0.79153156299430194 -1.2045209272384045 0.67799242406288862 -1.0560090749145632 0.62336953203581624 -0.99164869740240735 0.51349189644706206 -0.8324139296676879 0.40553536405237972 -0.66771731427929493 0.35875244414026386 -0.59851895744687689 0.31320577338264388 -0.52870943306596718 0.21146899130917843 -0.36030419856909868 0.17055232599367418 -0.29258282078665931 0.071795674412450952 -0.12370434873693523 0.03494900568820062 -0.06033370693474753 -9.3481947568323511e-05 0.00016148306772892024 0.025863152438806956 -0.044697562237392019 -0.19111428303183678 0.32930491804699163 -9.2677531258064949 13.760490890475358 0.1706867545608329 -0.2212981221174512 0.13981919272804322 -0.18203106070869809 0.17106182007358234 -0.22363608289465883 0.14325014876215511 -0.18807034177041979 0.11729625836209534 -0.15453860663407187 0.092557303597668866 -0.12229182945296553 0.070518489464482373 -0.093379343421585853 -0.010131204868409313 0.013426573579087882 -0.028734534578035469 0.038060883999114996 -0.044457584524012363 0.058828647571034259 -0.058811529370636127 0.077713601314595024 -0.070978964017966523 0.093626893033626479 -0.080929139549639373 0.10653288340064371 -0.027528698474424636 0.036184974909578602 -0.032780965042669731 0.04305375517309537 -0.035704941427074428 0.046850771242221985 -0.03625992792375804 0.047532916540079295 -0.034439782525946497 0.045103971486074382 -0.030236821880478538 0.039565156101916805 -0.023649010161640088 0.030922549535488755 -0.014692880528169824 0.019201965066949132 -0.0033634203469091037 0.0043945520089618932 0.010305378105817102 -0.013465976823079739 0.085452207678486783 -0.11180363746122939 0.10352485810124676 -0.13579429914123886 0.12298475250220926 -0.16181362025733251 0.14531076390249181 -0.19188368948957735 0.16964591894816039 -0.22497850069476205 0.19590063695830659 -0.26109483538243838 0.28018894340235223 -0.3758795044159744 0.30938948541534589 -0.41844411591036013 0.33935247074901104 -0.46313053807287768 0.37139807651458673 -0.51194867818801104 0.40463071611845047 -0.56393155525549021 0.49134232266222266 -0.69364612192567632 0.52541097286558036 -0.75279870191041642 0.55931699656702183 -0.81433258080876603 0.59420609318416406 -0.8802709566416389 0.67750071525780586 -1.0234416960677017 0.7108485619919015 -1.0974618247376839 0.74361787984605376 -1.1752339530849569 0.77553004166548689 -1.2568570941936847 0.80629104785566563 -1.3424404873561624 0.87803716867060022 -1.5060139500873875 0.90290164606444179 -1.6000914382034379 0.92603084205116981 -1.6995892094330238 0.94645057547704003 -1.8036598886479929 0.96430006441151195 -1.9135764547819372 0.9780859395577326 -2.0274806954935252 0.98790796208640397 -2.1466556131584942 0.99328879567958828 -2.2714146516123694 0.99371183156525555 -2.4021319064875346 0.9886106385494241 -2.5392541015457897 0.94948680551944031 -2.6041254005996617 0.93511633312001241 -2.7546803447484085 0.91381351122260202 -2.9151140031473819 0.86066819118336169 -2.9992225256179892 0.82599027082142384 -3.1786355034377989 0.76207269705948555 -3.283925774682122 -0.79450132259546635 3.4154029048228347 -0.85688535976879465 3.2776942513144709 -0.92679833843898429 3.1971070353296667 -0.92280699364645302 2.9081094708620339 -0.92761466404453541 2.7034290780446484 -0.87335678362795222 2.3794917954659334 -0.82721657292349671 2.1280940565448589 -0.58727896821729464 1.445659650420597 -0.29925585850332631 0.71763936625792135 0.19261692461997487 -0.46048933627284566 2.180701333570247 -5.6141984400255058 0 0
        </DataArray>
        <DataArray type="Float32" Name="u" NumberOfComponents="1">
          0 0.007874015748031496 0.015748031496062992 0.023622047244094488 0.031496062992125984 0.03937007874015748 0.047244094488188976 0.055118110236220472 0.062992125984251968 0.070866141732283464 0.07874015748031496 0.086614173228346455 0.094488188976377951 0.10236220472440945 0.11023622047244094 0.11811023622047244 0.12598425196850394 0.13385826771653545 0.14173228346456693 0.14960629921259844 0.15748031496062992 0.16535433070866143 0.17322834645669291 0.18110236220472442 0.1889763779527559 0.19685039370078741 0.20472440944881889 0.2125984251968504 0.22047244094488189 0.2283464566929134 0.23622047244094488 0.24409448818897639 0.25196850393700787 0.25984251968503935 0.26771653543307089 0.27559055118110237 0.28346456692913385 0.29133858267716534 0.29921259842519687 0.30708661417322836 0.31496062992125984 0.32283464566929132 0.33070866141732286 0.33858267716535434 0.34645669291338582 0.3543307086614173 0.36220472440944884 0.37007874015748032 0.37795275590551181 0.38582677165354329 0.39370078740157483 0.40157480314960631 0.40944881889763779 0.41732283464566927 0.42519685039370081 0.43307086614173229 0.44094488188976377 0.44881889763779526 0.45669291338582679 0.46456692913385828 0.47244094488188976 0.48031496062992124 0.48818897637795278 0.49606299212598426 0.50393700787401574 0.51181102362204722 0.51968503937007871 0.52755905511811019 0.53543307086614178 0.54330708661417326 0.55118110236220474 0.55905511811023623 0.56692913385826771 0.57480314960629919 0.58267716535433067 0.59055118110236215 0.59842519685039375 0.60629921259842523 0.61417322834645671 0.62204724409448819 0.62992125984251968 0.63779527559055116 0.64566929133858264 0.65354330708661412 0.66141732283464572 0.6692913385826772 0.67716535433070868 0.68503937007874016 0.69291338582677164 0.70078740157480313 0.70866141732283461 0.71653543307086609 0.72440944881889768 0.73228346456692917 0.74015748031496065 0.74803149606299213 0.75590551181102361 0.76377952755905509 0.77165354330708658 0.77952755905511806 0.78740157480314965 0.79527559055118113 0.80314960629921262 0.8110236220472441 0.81889763779527558 0.82677165354330706 0.83464566929133854 0.84251968503937003 0.85039370078740162 0.8582677165354331 0.86614173228346458 0.87401574803149606 0.88188976377952755 0.88976377952755903 0.89763779527559051 0.90551181102362199 0.91338582677165359 0.92125984251968507 0.92913385826771655 0.93700787401574803 0.94488188976377951 0.952755905511811 0.96062992125984248 0.96850393700787396 0.97637795275590555 0.98425196850393704 0.99212598425196852 1
        </DataArray>
      </PointData>
      <CellData Scalars="P">
        <DataArray type="Float32" Name="P" NumberOfComponents="1">
          -0.033978631739291998 -0.09965661787377425 -0.16086748800768619 -0.21671651981555928 -0.2667736238322978 -0.31084193020002454 -0.34885548327976701 -0.38082405608095948 -0.40679943767625448 -0.42685166471361552 -0.44105498376900704 -0.44947746586231396 -0.45217342729132071 -0.44917662040844358 -0.44049497567404572 -0.42610777588782489 -0.40596527597841953 -0.37998551091557659 -0.34805240286036632 -0.31001624268403205 -0.26569178386615711 -0.21485655019321848 -0.15725083189726657 -0.092577804766428851 -0.020500251740391776 0.059356677174131921 0.14740834739627814 0.24411445413630889 0.3499772579108229 0.4655274049914388 0.59135242311671776 0.7280837025613941 0.87639742643098428 1.0370142536616032 1.2107004246675028 1.3982666439649123 1.6005725934222454 1.8185179805417955 2.0530418331163416 2.3051288006786641 2.57580463388897 2.8661308156530247 2.7156154845153928 2.574684217836928 2.4374556788746107 2.3134842203035104 2.2040990977446406 2.1010549200353705 2.0046537326884803 1.9237272667947503 1.8490867027878646 1.7890318976019663 1.734053818522268 1.6834980900713574 1.6290695581903227 1.6004285355490793 2.4359406567331834 2.3672048226795193 2.3012415882970121 2.2329038344867564 2.1669810351427441 2.1031447590651418 2.0410952178835893 1.9804264183121716 1.9241732357449171 1.8682752869922969 1.8123640128116385 1.7561777781030903 1.6994561617095134 1.6419837152138814 1.582515805558669 1.5224201866943274 1.4616266831196973 1.4001149903440946 1.3379146912846955 1.2751038819937868 1.2118069864000616 1.1481914309478198 1.0844645452581316 1.0208683542177577 0.9602343782657291 0.90060522487291805 0.84223926497739343 0.78548683696838839 0.73066800914811592 0.67810406199742612 0.6320842030226993 0.58913724332179995 0.54948437305873654 0.5134383651704254 0.4812324723569083 0.45764446555502131 0.438374371235424 0.4234885798383764 0.41313988445742472 0.41205985534555367 0.41562113653620353 0.42379861337192209 0.43652977911903418 0.45371549383769477 0.47971233588612328 0.5097753094720503 0.54378495265098448 0.58154043824830215 0.62288766295457654 0.66754841607754067 0.71530506419693041 0.76595135408923321 0.81930336200389586 0.87521196376729926 0.92995279053319102 0.9872013887100487 1.0470253055882617 1.1059987524915258 1.1679494823561385 1.2298794999728972 1.0589649785831328 0.8958919417284984 0.74047594851298126 0.60119106693923619 0.47548764337809685 0.36627121426243203 0.27030868466626384 0.19322045892969159 0.12938901847029641 0.075252158950611894 0.030416221587497832
        </DataArray>
      </CellData>
      <Points>
        <DataArray type="Float32" NumberOfComponents="3" format="ascii">
          4.9679862782296178 9.9829078901187582 0
          4.9745466451248586 9.9785485328313328 0
          4.981132332070807 9.9742275036207744 0
          4.9877575393841092 9.9699672873141907 0
          4.9944321140274983 9.9657848012677412 0
          5.0011633856888471 9.9616941412318951 0
          5.0079569244479236 9.957707691447764 0
          5.014816933759195 9.953836683738551 0
          5.0217464837284504 9.9500915158962187 0
          5.0287476636123269 9.9464819486909199 0
          5.0358216912918934 9.9430172399131003 0
          5.0429689922047771 9.9397062327540784 0
          5.0501892596178566 9.9365574167324393 0
          5.0574815023611226 9.9335789705189761 0
          5.0648440848585716 9.9307787953900419 0
          5.0722747609161001 9.9281645419928246 0
          5.0797707011646542 9.9257436290221026 0
          5.0873285143229703 9.9235232516399225 0
          5.0949442660946094 9.9215103889728855 0
          5.1026134951124815 9.9197118089650207 0
          5.1103312252754032 9.9181340664966697 0
          5.1180919765245418 9.9167835009442395 0
          5.125889773924067 9.9156662329582836 0
          5.1337181546321755 9.9147881572315875 0
          5.1415701733388817 9.9141549314407627 0
          5.1494384070407433 9.9137719679137373 0
          5.1573149582666282 9.9136444166775881 0
          5.1651914580712415 9.9137771505572001 0
          5.1730590681735471 9.9141747532028361 0
          5.1809084822595581 9.9148415002500059 0
          5.188729929780111 9.9157813156365009 0
          5.1965131769353121 9.9169977699250005 0
          5.2042475284302094 9.9184940541446949 0
          5.211921829750807 9.9202729519556243 0
          5.2195244705048092 9.9223368085947676 0
          5.2270433886514196 9.9246874987556719 0
          5.2344660765191797 9.9273263908353719 0
          5.241779586544709 9.9302543143321333 0
          5.2489705422489221 9.9334715154129771 0
          5.256025151998367 9.9369776116644513 0
          5.2629292219232351 9.9407715528449021 0
          5.2696681725527892 9.9448515765579444 0
          5.2762270600358532 9.9492151594876272 0
          5.282834892611902 9.9535038764020367 0
          5.2894846177163961 9.9577269471332066 0
          5.2961728456032979 9.9618883725185849 0
          5.3028927535310517 9.9659980363636578 0
          5.3096376395745581 9.9700661605187797 0
          5.3164046041411437 9.9740970443752595 0
          5.323190825088723 9.9780950247438014 0
          5.3299899904345764 9.9820705514452417 0
          5.3367995674762145 9.98602783074233 0
          5.3436134319045729 9.989977340441996 0
          5.3504293055607404 9.9939230160644801 0
          5.3572450227787636 9.9978686144976887 0
          5.364062205386813 10.00181136053685 0
          5.3708673937664022 10.005774447141475 0
          5.3770978063919435 10.010590894860609 0
          5.3833387025734236 10.015393540355431 0
          5.3895881742051133 10.02018482439658 0
          5.3958481671570198 10.02496217430021 0
          5.4021169628533467 10.029727800939273 0
          5.4083929581379344 10.034483788930469 0
          5.4146746253569935 10.039232143085487 0
          5.4209606044589256 10.043974661388402 0
          5.4272459000513118 10.048717970449166 0
          5.4335293657235662 10.053463602966289 0
          5.4398100336998647 10.058212851865976 0
          5.4460870210745531 10.062966893283814 0
          5.4523595804750373 10.067726719067755 0
          5.4586271019338977 10.07249313456747 0
          5.4648929034141043 10.077261783517374 0
          5.4711566656367205 10.082033096608368 0
          5.4774182135430953 10.08680731399275 0
          5.4836775187939581 10.091584482597202 0
          5.4899347001282779 10.096364456339646 0
          5.4961900238202706 10.101146896184581 0
          5.5024439037888122 10.10593127049721 0
          5.508696900558296 10.11071685661911 0
          5.5149497215575254 10.115502740292685 0
          5.5212032190030511 10.120287817723598 0
          5.5274620554178773 10.125065993976467 0
          5.5337273553279109 10.129835784300354 0
          5.5400003290324422 10.134595577856103 0
          5.5462823642607511 10.139343512281672 0
          5.5525749730513363 10.144077537296237 0
          5.5588797861965258 10.148795414875488 0
          5.5652020308263443 10.153490026866974 0
          5.5715435196980145 10.158158734286822 0
          5.5779061126042642 10.162798766173044 0
          5.5842917981809173 10.167407094894232 0
          5.5907026383956779 10.171980496123188 0
          5.597144008936203 10.176510922734668 0
          5.6036180229149819 10.180994704686334 0
          5.6101267831014381 10.185428023868857 0
          5.6166724529003655 10.189806788594266 0
          5.6232601946968845 10.194122114996123 0
          5.6298920755672546 10.198369409303609 0
          5.6365701263859531 10.202543844739548 0
          5.6432963245382659 10.206640355410263 0
          5.6500725756805448 10.210653629566369 0
          5.6569033240895799 10.214573516214152 0
          5.6637901089504901 10.218394176483702 0
          5.6707343614435324 10.222109435241128 0
          5.6777373443691985 10.225712833728419 0
          5.684800160747586 10.229197550643464 0
          5.6919236612984845 10.232556517510087 0
          5.6991084506098417 10.235782339142817 0
          5.7063548575631655 10.238867274275508 0
          5.7136629033325583 10.241803212429318 0
          5.7210322663046105 10.244581646276204 0
          5.7284605179923194 10.247198551700896 0
          5.7359467618474786 10.24964458897753 0
          5.7434896713655403 10.251909806214028 0
          5.7510859489464004 10.25398898733819 0
          5.758733439105554 10.255871004259646 0
          5.7664281770186969 10.257549327878809 0
          5.7740731241550955 10.259439360561755 0
          5.7816645228769223 10.261532549489692 0
          5.7891981475979826 10.263823897142265 0
          5.7966743471475626 10.266295493585815 0
          5.8040929224317601 10.26893466845744 0
          5.8114573305366557 10.271721365759163 0
          5.8187705194620083 10.27464003330881 0
          5.8260474520325634 10.277648399217938 0
          5.833306073999843 10.28070136534949 0
          5.8405769854425058 10.283725920354792 0
          5.8479830655957779 10.286402294047271 0
        </DataArray>
      </Points>
      <Cells>
        <DataArray type="Int32" Name="connectivity" format="ascii">
          0 1 1 2 2 3 3 4 4 5 5 6 6 7 7 8 8 9 9 10 10 11 11 12 12 13 13 14 14 15 15 16 16 17 17 18 18 19 19 20 20 21 21 22 22 23 23 24 24 25 25 26 26 27 27 28 28 29 29 30 30 31 31 32 32 33 33 34 34 35 35 36 36 37 37 38 38 39 39 40 40 41 41 42 42 43 43 44 44 45 45 46 46 47 47 48 48 49 49 50 50 51 51 52 52 53 53 54 54 55 55 56 56 57 57 58 58 59 59 60 60 61 61 62 62 63 63 64 64 65 65 66 66 67 67 68 68 69 69 70 70 71 71 72 72 73 73 74 74 75 75 76 76 77 77 78 78 79 79 80 80 81 81 82 82 83 83 84 84 85 85 86 86 87 87 88 88 89 89 90 90 91 91 92 92 93 93 94 94 95 95 96 96 97 97 98 98 99 99 100 100 101 101 102 102 103 103 104 104 105 105 106 106 107 107 108 108 109 109 110 110 111 111 112 112 113 113 114 114 115 115 116 116 117 117 118 118 119 119 120 120 121 121 122 122 123 123 124 124 125 125 126 126 127 
        </DataArray>
        <DataArray type="Int32" Name="offsets" format="ascii">
          2 4 6 8 10 12 14 16 18 20 22 24 26 28 30 32 34 36 38 40 42 44 46 48 50 52 54 56 58 60 62 64 66 68 70 72 74 76 78 80 82 84 86 88 90 92 94 96 98 100 102 104 106 108 110 112 114 116 118 120 122 124 126 128 130 132 134 136 138 140 142 144 146 148 150 152 154 156 158 160 162 164 166 168 170 172 174 176 178 180 182 184 186 188 190 192 194 196 198 200 202 204 206 208 210 212 214 216 218 220 222 224 226 228 230 232 234 236 238 240 242 244 246 248 250 252 254 
        </DataArray>
        <DataArray type="Int32" Name="types" format="ascii">
          3 3 3 3 3 3 3 3 3 3 3 3 3 3 3 3 3 3 3 3 3 3 3 3 3 3 3 3 3 3 3 3 3 3 3 3 3 3 3 3 3 3 3 3 3 3 3 3 3 3 3 3 3 3 3 3 3 3 3 3 3 3 3 3 3 3 3 3 3 3 3 3 3 3 3 3 3 3 3 3 3 3 3 3 3 3 3 3 3 3 3 3 3 3 3 3 3 3 3 3 3 3 3 3 3 3 3 3 3 3 3 3 3 3 3 3 3 3 3 3 3 3 3 3 3 3 3         </DataArray>
      </Cells>
    </Piece>
  </UnstructuredGrid>
</VTKFile>
