<?xml version="1.0"?>
<VTKFile type="UnstructuredGrid" version="0.1" byte_order="LittleEndian">
  <UnstructuredGrid>
    <Piece NumberOfPoints="128" NumberOfCells="127">
      <PointData Scalars="W">
        <DataArray type="Float32" Name="W" NumberOfComponents="2">
          0 0 -0.42973248283871618 0.21631716473549858 -0.72021921034370517 0.3579845792510043 -0.94907427250772392 0.46309965658518304 -1.1461907028607787 0.54634561879513166 -1.3237563523835174 0.61361967284657182 -1.4879492995410286 0.66786118633218672 -1.6423780294988701 0.71076041503225884 -1.7893219671273011 0.74337250962929202 -1.9303538795863757 0.76641820659512028 -2.0665194468302333 0.78037832792077222 -2.1985936196509965 0.78561089913871263 -2.3271350245321472 0.78237829980155027 -2.4525294526814867 0.77087023869522364 -2.5750755699740355 0.75123702611251786 -2.694977459276314 0.72358870941601094 -2.8122727597554382 0.68798269185808192 -2.9270235287559578 0.64448034608155991 -3.0391854811358012 0.59311361620322545 -3.1486329328848535 0.53389972306489175 -3.2552053003469625 0.46685552639015043 -3.3587308142178145 0.39200182632838598 -3.4589881452610127 0.30935887359004127 -3.5557211736879806 0.2189521284912567 -3.6486462385059819 0.12081551665032259 -3.7373960916911688 0.01499429940023281 -3.821629239394527 -0.098446645942145694 -3.9010390209152908 -0.21942974728222661 -3.9751965710472104 -0.34785688718249358 -4.0433536821486324 -0.48356100482449704 -4.1054327116298239 -0.62641029646101065 -4.1609647145232289 -0.7762261613899667 -4.2094652015161023 -0.93279524873801556 -4.2504316095564052 -1.0958648196654268 -4.2833659946885945 -1.2651445691778129 -4.3077839800938857 -1.4403088152628638 -4.323277901797284 -1.6210221780398413 -4.3293008921598606 -1.8068615285752774 -4.3252943550107377 -1.9973380239218046 -4.310845072261503 -2.1919700713191514 -4.2855190559093961 -2.3902204865183223 -4.248875835564367 -2.5914923386573414 3.9241099476731627 2.4013936360904964 3.9370105511019449 2.219075522217397 3.9387927646121565 2.0405714438468321 3.9395944709791553 1.8708903166205717 3.9220213497900986 1.7016389535346839 3.9055110892723595 1.5417946263499831 3.8714788077554556 1.3837630098248899 3.8404367442142098 1.2352942215192955 3.8033304670790713 1.0925909794922681 3.7608291724107228 0.95581712831726762 3.7135760550639754 0.82507108609603652 3.6621839390970887 0.70039297553225466 3.6072464205636523 0.58177374584003372 3.5271166352771153 0.46653862358234977 3.4551458551907723 0.36002029314237 3.3808259781410404 0.26014666451304186 3.2916595900250951 0.16627092923335818 3.2136463674849347 0.079834318880454197 3.1346846833908475 -0.00050450073121087837 3.0551779996105739 -0.074973283573033761 2.9599529122684163 -0.14288201767622363 2.8799075875526885 -0.2055959672731249 2.7833872309695518 -0.26140904063146431 2.7035965142990581 -0.31329190606164992 2.6429322610522701 -0.36324372261506532 2.5836383719789846 -0.41002090434570204 2.5084146605386199 -0.45054803802732546 2.4528710278846417 -0.49110165550350665 2.3995681836403535 -0.5293522604149079 2.3299370617205897 -0.56088575013201147 2.280957478271906 -0.59446757110079007 2.2345084605929224 -0.6265269408383991 2.1902367332832737 -0.65719097246539993 2.1299294027128455 -0.68066285220339595 2.0910262135594939 -0.70878227729238719 2.0544363152266083 -0.73620720166040154 2.0204005433051946 -0.76322898557837082 1.9891704685321148 -0.79016492832830487 1.9417929747070759 -0.80916446695408772 1.9157733697678851 -0.83570669016167731 1.8923449000090269 -0.86273498771967638 1.8717115215315581 -0.89056933140559846 1.8534155063046032 -0.91922054466171466 1.8192381190279496 -0.93930549491828441 1.806508237546018 -0.96996133370295401 1.7960162595442128 -1.0020727806122935 1.7879422896591497 -1.0359774636154464 1.7824554540125208 -1.0720402831282887 1.7608641109194694 -1.0986777624818036 1.7600431281187769 -1.138747722267756 1.7616002608792571 -1.1817058711929695 1.7649810358549252 -1.2275041397856559 1.7703078447029461 -1.2765536474068488 1.7597500940053787 -1.3156488794753214 1.7692804441523209 -1.3715878007105504 1.7801286304030517 -1.4314637721854251 1.7925824504890102 -1.4959613088406369 1.7887318278058641 -1.5498061329016146 1.8036675240957529 -1.6233373416554246 1.8195597513371418 -1.7025585513239379 1.8356717386646288 -1.787452583967484 1.8356054876529881 -1.8617600009135553 1.8523389118995959 -1.9590189457386682 1.8684799033030655 -2.0635015293884487 1.8678753513145832 -2.1571840074897066 1.8824479731356789 -2.2772200056726244 1.8946911082619167 -2.4058870687022411 1.8893542407885728 -2.5237893968427989 1.8962970972792896 -2.6714160691880608 1.8847211734484055 -2.8082638188921143 1.8833816618926393 -2.9781804770349516 1.8618895944617893 -3.1368870337447774 1.8478621919849774 -3.3324595108344912 1.812228068767292 -3.5177240402549081 1.7678165379552429 -3.7171710632728749 1.7129767314283812 -3.9323254305361814 1.6972242597967107 -4.3025992192454279 1.6091058005750936 -4.5716991867070833 -0.95080185835244746 2.7680055161989117 -1.0868293110257523 2.9343508953823205 -1.7101201097874097 4.2205702321063834 -2.1669707868754235 4.8051099882008819 -3.5599922303806717 6.9210924558791866 -3.4848377379023212 5.9102926226448975 -1.7678115092565545 2.7421676897313438 0 0
        </DataArray>
        <DataArray type="Float32" Name="u" NumberOfComponents="1">
          0 0.007874015748031496 0.015748031496062992 0.023622047244094488 0.031496062992125984 0.03937007874015748 0.047244094488188976 0.055118110236220472 0.062992125984251968 0.070866141732283464 0.07874015748031496 0.086614173228346455 0.094488188976377951 0.10236220472440945 0.11023622047244094 0.11811023622047244 0.12598425196850394 0.13385826771653545 0.14173228346456693 0.14960629921259844 0.15748031496062992 0.16535433070866143 0.17322834645669291 0.18110236220472442 0.1889763779527559 0.19685039370078741 0.20472440944881889 0.2125984251968504 0.22047244094488189 0.2283464566929134 0.23622047244094488 0.24409448818897639 0.25196850393700787 0.25984251968503935 0.26771653543307089 0.27559055118110237 0.28346456692913385 0.29133858267716534 0.29921259842519687 0.30708661417322836 0.31496062992125984 0.32283464566929132 0.33070866141732286 0.33858267716535434 0.34645669291338582 0.3543307086614173 0.36220472440944884 0.37007874015748032 0.37795275590551181 0.38582677165354329 0.39370078740157483 0.40157480314960631 0.40944881889763779 0.41732283464566927 0.42519685039370081 0.43307086614173229 0.44094488188976377 0.44881889763779526 0.45669291338582679 0.46456692913385828 0.47244094488188976 0.48031496062992124 0.48818897637795278 0.49606299212598426 0.50393700787401574 0.51181102362204722 0.51968503937007871 0.52755905511811019 0.53543307086614178 0.54330708661417326 0.55118110236220474 0.55905511811023623 0.56692913385826771 0.57480314960629919 0.58267716535433067 0.59055118110236215 0.59842519685039375 0.60629921259842523 0.61417322834645671 0.62204724409448819 0.62992125984251968 0.63779527559055116 0.64566929133858264 0.65354330708661412 0.66141732283464572 0.6692913385826772 0.67716535433070868 0.68503937007874016 0.69291338582677164 0.70078740157480313 0.70866141732283461 0.71653543307086609 0.72440944881889768 0.73228346456692917 0.74015748031496065 0.74803149606299213 0.75590551181102361 0.76377952755905509 0.77165354330708658 0.77952755905511806 0.78740157480314965 0.79527559055118113 0.80314960629921262 0.8110236220472441 0.81889763779527558 0.82677165354330706 0.83464566929133854 0.84251968503937003 0.85039370078740162 0.8582677165354331 0.86614173228346458 0.87401574803149606 0.88188976377952755 0.88976377952755903 0.89763779527559051 0.90551181102362199 0.91338582677165359 0.92125984251968507 0.92913385826771655 0.93700787401574803 0.94488188976377951 0.952755905511811 0.96062992125984248 0.96850393700787396 0.97637795275590555 0.98425196850393704 0.99212598425196852 1
        </DataArray>
      </PointData>
      <CellData Scalars="P">
        <DataArray type="Float32" Name="P" NumberOfComponents="1">
          -0.006902761707211707 -0.019659728972578953 -0.030003491567645559 -0.037071223137225953 -0.040192416986072822 -0.038805482576068355 -0.032422202028708144 -0.020608104262012948 -0.002970645470722919 0.020849536163517625 0.051183100779399048 0.088336583218645473 0.13259523866129599 0.18422467387490887 0.24347306206060165 0.31057215222921614 0.38573507611252267 0.46915895944926578 0.56102314330899727 0.66148742873409028 0.77069141667409347 0.8887544947453041 1.0157741997518068 1.1518248528063659 1.2969562799673144 1.4511898910704955 1.6145192086966458 1.7869110169012394 1.9682991916813974 2.1585680008040251 2.3575837232490535 2.5651751491733723 2.7811317128701702 3.0052013896416949 3.2370897396075886 3.4764594720673627 3.7229337880037199 3.9760871598648801 4.2354429728888494 4.5004809063083524 4.7706344565167198 5.0452891218262428 4.7698586294638217 4.4871015501887808 4.1989537896509495 3.906545657395994 3.6122465399670793 3.3169089299260772 3.0227364969761528 2.730305525008208 2.4408229464744973 2.1553850410033539 1.87497972787422 1.6004898650229216 1.3326962792050911 1.073921671334078 0.82393530183323294 0.58323410933952202 0.35313570384930809 0.1330569784930089 -0.076768554913820078 -0.27618241118329079 -0.46410696385143096 -0.64150348201338891 -0.80739888949214778 -0.9628727253894801 -1.1090636454814964 -1.2460722181957857 -1.37314856789016 -1.491391293977556 -1.6009866705870779 -1.7013416027670787 -1.793486304766694 -1.8776331302607825 -1.9539804749531116 -2.0221664896229457 -2.0830346006490275 -2.1367765117850905 -2.183583016794616 -2.2236398440525305 -2.2568322859371412 -2.2836680733781543 -2.3042924575979087 -2.3188376489366838 -2.3274178379481292 -2.330154541877866 -2.327179563525358 -2.3185627879209312 -2.3043588585300347 -2.284604607500655 -2.2596452828151947 -2.229240131951737 -2.1933840715182265 -2.1520717853292464 -2.1052846987890739 -2.0535853995556042 -1.9964014697125043 -1.9337067883354961 -1.865458782178764 -1.7924149494582098 -1.7138186088191154 -1.6296453253155416 -1.5399080578003348 -1.4455436307294696 -1.3457119974990366 -1.2404869388163176 -1.1309783367206052 -1.0163418419820391 -0.89679060820274259 -0.77362974272251428 -0.64613773604034852 -0.5157775331800778 -0.3819399893793694 -0.246295928951548 -0.10841655080822185 0.029840405776743541 0.16757388233115614 0.30374699346357886 0.44183083524523653 0.57582844283370993 0.48729226672795556 0.40177341142878503 0.29517238329707018 0.19158681286208734 0.082693822074314277 0.015999155827287947 0.00018525254578530839
        </DataArray>
      </CellData>
      <Points>
        <DataArray type="Float32" NumberOfComponents="3" format="ascii">
          4.153795115129908 6.0186053005097166 0
          4.1573488106099052 6.0256318482936688 0
          4.1608758625342688 6.0326718086709095 0
          4.1643582605916336 6.0397339656096944 0
          4.1677818156277535 6.0468248366897654 0
          4.1711343062686428 6.0539495835294295 0
          4.1744047232699621 6.0611123774386515 0
          4.1775828864741973 6.0683165816723443 0
          4.1806592210834594 6.0755648562326554 0
          4.1836246163345763 6.082859223291595 0
          4.1864703279872835 6.0902011118781711 0
          4.1891879134922441 6.0975913876896666 0
          4.1917691839445368 6.1050303752888144 0
          4.1942061694495365 6.1125178743704049 0
          4.1964910952049133 6.1200531715219704 0
          4.1986163629846427 6.127635049541543 0
          4.2005745384874631 6.1352617942589927 0
          4.2023583490052934 6.142931198093331 0
          4.2039606795778779 6.1506405638561752 0
          4.2053745757410557 6.1583867067307096 0
          4.206593251322114 6.1661659553379167 0
          4.2076100983991918 6.173974152780624 0
          4.2084186979543983 6.1818066579321123 0
          4.2090128335999211 6.1896583466909423 0
          4.2093865074613532 6.1975236135591061 0
          4.2095339577687367 6.2053963737454056 0
          4.2094496816302494 6.2132700659720363 0
          4.2091284562091111 6.2211376564978353 0
          4.2085653577407305 6.228991643929052 0
          4.2077557881267085 6.2368240653044023 0
          4.2066955213286636 6.2446265064552211 0
          4.205380708185336 6.2523901101800279 0
          4.2038079054910327 6.2601055873210427 0
          4.2019741060375342 6.2677632299956896 0
          4.1998767697762336 6.275352927270613 0
          4.1975138546934287 6.2828641831652057 0
          4.1948838468439211 6.2902861368488825 0
          4.1919857856276819 6.2976075834398522 0
          4.1888192976968712 6.3048170002446744 0
          4.1853846315894208 6.3119025770723081 0
          4.1816826833481819 6.3188522460985945 0
          4.1777150234271776 6.3256537151774497 0
          4.1734839239991155 6.3322945048562431 0
          4.1694961306144815 6.3390841824611757 0
          4.1657524428239201 6.3460114434064208 0
          4.1622529707771223 6.353065219614864 0
          4.1589977637485909 6.3602349901954724 0
          4.1559857317650559 6.3675102608368928 0
          4.1532158506870731 6.3748811206347771 0
          4.1506860100066776 6.3823377710123106 0
          4.14839428456599 6.3898710064612185 0
          4.1463383732170715 6.3974719789931855 0
          4.144515640317235 6.4051322082978253 0
          4.1429231556119968 6.4128435878437138 0
          4.1415577322347135 6.4205983873646488 0
          4.1404159635137363 6.428389252296931 0
          4.1394928808648199 6.4362090377490793 0
          4.1387840215659839 6.4440511394325926 0
          4.1382847772653131 6.4519093650877286 0
          4.1379896191366168 6.4597778942844464 0
          4.1378937098762076 6.4676513679777861 0
          4.1379921534038901 6.4755248052407417 0
          4.1382800198813854 6.4833935891420973 0
          4.1387514049497325 6.4912535094398089 0
          4.1394013454456422 6.499100678117486 0
          4.1402238567806764 6.5069316349868069 0
          4.1412139916642703 6.514743163671298 0
          4.1423679887121105 6.5225321676305681 0
          4.1436821715525483 6.5302957471692222 0
          4.1451518762022088 6.5380313900685501 0
          4.1467736589061159 6.5457365825411058 0
          4.148544214887111 6.553408953595139 0
          4.1504592270565306 6.5610465486930787 0
          4.1525156587784622 6.5686472863362821 0
          4.1547106303581591 6.576209179417245 0
          4.1570413971373688 6.5837303273355818 0
          4.1595042203009385 6.5912092754292901 0
          4.1620966881329045 6.5986442808686467 0
          4.1648165323823516 6.6060336438705223 0
          4.1676616431935729 6.613375689630919 0
          4.1706300847015427 6.6206687486485292 0
          4.1737189199677953 6.6279116435481678 0
          4.1769265362597423 6.6351027292157596 0
          4.1802514815293561 6.6422403303727204 0
          4.1836924770564083 6.6493227217331157 0
          4.1872483890688112 6.6563481273321408 0
          4.1909170992387264 6.6633153024275416 0
          4.1946978189678266 6.6702223467087851 0
          4.1985898984366026 6.6770672695744517 0
          4.2025928377689299 6.6838479691939403 0
          4.2067062975155203 6.6905622098774185 0
          4.2109289398687881 6.6972083404685359 0
          4.2152607147306371 6.7037838767407552 0
          4.2197017194677384 6.7102861553315316 0
          4.2242521645354865 6.7167123367241359 0
          4.2289123810638216 6.7230593797509792 0
          4.2336817155000919 6.7293248606124045 0
          4.238560759653466 6.7355053108483078 0
          4.243550187058168 6.7415970178149358 0
          4.248650770811385 6.7475959822317737 0
          4.2538622733371598 6.7534988655244446 0
          4.2591856216669921 6.759301108134383 0
          4.2646218021463085 6.7649977976030407 0
          4.2701718147574566 6.7705836696396586 0
          4.2758356566767066 6.776054116575791 0
          4.2816143664609339 6.781403107239127 0
          4.2875089459383888 6.7866241624445447 0
          4.2935193590010492 6.7917114728766812 0
          4.2996465102670953 6.7966575947142633 0
          4.3058911599211722 6.801454548836019 0
          4.3122529785220589 6.8060950237959439 0
          4.3187323976480538 6.8105698645767356 0
          4.3253287010857626 6.8148705847081725 0
          4.3320418068903859 6.818986646711048 0
          4.3388703840833038 6.822908208380146 0
          4.3458135640278455 6.8266231410009235 0
          4.3528691389296643 6.830119955153001 0
          4.3600343568183142 6.8333862817325128 0
          4.3673058191836276 6.8364087773561302 0
          4.3746825477349569 6.8391644780651593 0
          4.3821590799861641 6.8416366947912133 0
          4.3895769020793152 6.8442806487784047 0
          4.3969276309969461 6.8471066973211139 0
          4.4041727146615903 6.8501946908255098 0
          4.4112839070221224 6.8535809912209311 0
          4.4181740450786728 6.857396526466661 0
          4.424847808389992 6.8615785563860516 0
          4.4314116313250613 6.8659304840796791 0
        </DataArray>
      </Points>
      <Cells>
        <DataArray type="Int32" Name="connectivity" format="ascii">
          0 1 1 2 2 3 3 4 4 5 5 6 6 7 7 8 8 9 9 10 10 11 11 12 12 13 13 14 14 15 15 16 16 17 17 18 18 19 19 20 20 21 21 22 22 23 23 24 24 25 25 26 26 27 27 28 28 29 29 30 30 31 31 32 32 33 33 34 34 35 35 36 36 37 37 38 38 39 39 40 40 41 41 42 42 43 43 44 44 45 45 46 46 47 47 48 48 49 49 50 50 51 51 52 52 53 53 54 54 55 55 56 56 57 57 58 58 59 59 60 60 61 61 62 62 63 63 64 64 65 65 66 66 67 67 68 68 69 69 70 70 71 71 72 72 73 73 74 74 75 75 76 76 77 77 78 78 79 79 80 80 81 81 82 82 83 83 84 84 85 85 86 86 87 87 88 88 89 89 90 90 91 91 92 92 93 93 94 94 95 95 96 96 97 97 98 98 99 99 100 100 101 101 102 102 103 103 104 104 105 105 106 106 107 107 108 108 109 109 110 110 111 111 112 112 113 113 114 114 115 115 116 116 117 117 118 118 119 119 120 120 121 121 122 122 123 123 124 124 125 125 126 126 127 
        </DataArray>
        <DataArray type="Int32" Name="offsets" format="ascii">
          2 4 6 8 10 12 14 16 18 20 22 24 26 28 30 32 34 36 38 40 42 44 46 48 50 52 54 56 58 60 62 64 66 68 70 72 74 76 78 80 82 84 86 88 90 92 94 96 98 100 102 104 106 108 110 112 114 116 118 120 122 124 126 128 130 132 134 136 138 140 142 144 146 148 150 152 154 156 158 160 162 164 166 168 170 172 174 176 178 180 182 184 186 188 190 192 194 196 198 200 202 204 206 208 210 212 214 216 218 220 222 224 226 228 230 232 234 236 238 240 242 244 246 248 250 252 254 
        </DataArray>
        <DataArray type="Int32" Name="types" format="ascii">
          3 3 3 3 3 3 3 3 3 3 3 3 3 3 3 3 3 3 3 3 3 3 3 3 3 3 3 3 3 3 3 3 3 3 3 3 3 3 3 3 3 3 3 3 3 3 3 3 3 3 3 3 3 3 3 3 3 3 3 3 3 3 3 3 3 3 3 3 3 3 3 3 3 3 3 3 3 3 3 3 3 3 3 3 3 3 3 3 3 3 3 3 3 3 3 3 3 3 3 3 3 3 3 3 3 3 3 3 3 3 3 3 3 3 3 3 3 3 3 3 3 3 3 3 3 3 3         </DataArray>
      </Cells>
    </Piece>
  </UnstructuredGrid>
</VTKFile>
