<?xml version="1.0"?>
<VTKFile type="UnstructuredGrid" version="0.1" byte_order="LittleEndian">
  <UnstructuredGrid>
    <Piece NumberOfPoints="128" NumberOfCells="127">
      <PointData Scalars="W">
        <DataArray type="Float32" Name="W" NumberOfComponents="2">
          0 0 0.76915050913133165 -0.20699725244665529 1.1541069697097441 -0.32033932199540738 1.4332090685077437 -0.41420658976388541 1.6527098463474972 -0.50042654591770996 1.8315923479130793 -0.58345179723263563 1.9800228310050358 -0.66536136624088904 2.1041796422453172 -0.74717132329391822 2.2081672431561303 -0.82935534082398832 2.2948248393910831 -0.9120557113143607 2.3662785941239006 -0.99524013489852237 2.4241290225526742 -1.07874376503481 2.4696196232077505 -1.162311928233434 2.5037549227889579 -1.2456322234857089 2.527353128018774 -1.328343575209759 2.5411132931019607 -1.4100569201660464 2.5457297371009449 -1.4904130520300969 2.5417635799304561 -1.5690086411908983 2.529762362860787 -1.6454567616822315 2.5102808901604607 -1.7194033419603405 2.4838445676051726 -1.7905057385016749 2.4509418231824749 -1.8584241929479222 2.4120639995641167 -1.9228490065500405 2.3677063333020634 -1.983504645178066 2.3183416550207996 -2.0401297407556047 2.2644963929518154 -2.0925460403060132 2.2066423034546703 -2.1405686569569649 2.1452056415915584 -2.1840043564873644 2.0806741350435987 -2.2227583864624196 2.0137373285756919 -2.2570182789647397 1.9445952382724252 -2.2864952533482614 1.8737012444644605 -2.3112046372739226 1.8014897419539773 -2.3311956443520265 1.7283875526528896 -2.3465679855753447 1.6547965083472294 -2.3574522545971908 1.5810978203473571 -2.36401619450226 1.5075882397665898 -2.36636373757664 1.4346316292393493 -2.3647623880894675 1.3625735927573834 -2.3595352267285747 1.2916580311572186 -2.3509116611150751 1.2221243122362169 -2.3391778482139798 1.1542029936531233 -2.3246786167492166 -3.3134906090661982 6.3811744942865749 -3.6886861700777285 6.2140580385347821 -4.0652889643978627 6.0348862816638995 -4.4305441485262911 5.8247442045110231 -4.7970496225086734 5.6021192341516715 -5.1493702759218296 5.3486983600943496 -5.4933160209501564 5.0736138785997529 -5.8378944535770394 4.7842806002147906 -6.1633609952013693 4.4640359236952447 -6.4771543148609929 4.1209995223344622 -6.7778639947543766 3.7547740137524226 -7.0507074221838746 3.3591897846679175 10.4335934360039 -5.1656784059009384 9.8218417764765178 -6.0352875399533472 9.1413528177817884 -6.8253722160401118 1.3317089217563218 -1.106096305634481 0.98658156435576749 -0.83951065400903513 0.89610633212595558 -0.77775089853997226 0.55460833335761428 -0.48878069371750499 0.20984945230638352 -0.18644487284092873 -0.1414015583730325 0.12572219818988828 -0.21319490917334441 0.18884335809785588 -0.86788184735633522 0.76002144478401734 -0.94524169207391384 0.81211351847277169 -1.0229781960210469 0.860970774252654 -1.1008039165212831 0.90619730319606406 -1.5022750599873254 1.2037950359323979 -1.587478938905641 1.2321755171438071 -1.6728187643582269 1.2556590900212947 -1.7581099630845414 1.2741139537964472 -1.8431584520133786 1.2874348488671965 -1.9363551301754598 1.3012042528682142 -2.0205113095943061 1.3037184199216942 -2.1037886299802731 1.3009159882830046 -2.5558877379872453 1.5057797524163561 -2.646158234315207 1.4759414082471514 -2.7346085109286653 1.4400042879014507 -2.8209554342746443 1.3980749704381659 -2.9049203624738538 1.3502845787478619 -2.9954154845801111 1.3006363213493404 -3.0740204856241555 1.2411346205433176 -3.1494526837026782 1.1762852607966554 -3.2214755652315943 1.1063057450909259 -3.2898665938306748 1.0314300894943396 -3.3542994723677158 0.95187495669027855 -3.4241763808985004 0.87021264157166356 -3.4806058692046347 0.78166871876204902 -3.5326457804654847 0.68927929514478115 -3.5801478030332552 0.59333340665823386 -3.6322180908391291 0.49525070943227123 -3.6702040391905899 0.39253429866145267 -3.7033872442930229 0.2871699891539744 -3.7315529171069173 0.17944823330168252 -3.7636117280813326 0.069713924440691799 -4.222684644460811 -0.054598062160632378 -4.2343552891170146 -0.19597131064164638 -4.239218502325377 -0.33851756070402483 -4.2461174973416158 -0.48297236081186973 -4.237584841415754 -0.62724889881111068 -4.2222954123621061 -0.77148323048164635 -4.2002471920384217 -0.91526012596830997 -4.1714354156037912 -1.0581551113191872 -4.5718774596782055 -1.335127660214626 -4.5197896360485208 -1.5060725729611371 -4.4593526263035876 -1.6742651454775834 -4.8221336286209171 -2.030406574289505 -4.7298623802705411 -2.2251035900982878 -4.6274837623555802 -2.4141763388852051 -4.9331648816577012 -2.8498310381392598 -4.7896889535298186 -3.0611044651666779 -5.0336812902728072 -3.5583084540826362 -4.8406420376561181 -3.7866006917326698 -4.6283942088937637 -3.995253337043557 -4.7811566740481952 -4.5645568037065942 -3.5729960757433945 -3.7430661417225704 -3.3631242710640272 -3.8211621843662722 -3.447871627680906 -4.2629117582564238 -3.1435818939888627 -4.2425012337197501 -2.8967336203497864 -4.2652052618410323 -2.8595872964753317 -4.6130380631496291 -2.785229546916336 -4.966275431483238 -2.4133674238793987 -4.7792981848077893 -2.4646476186383843 -5.4766969731204291 -2.2959044960756829 -5.8411408675406795 -1.6248497858552005 -4.7430252775920199 0 0
        </DataArray>
        <DataArray type="Float32" Name="u" NumberOfComponents="1">
          0 0.007874015748031496 0.015748031496062992 0.023622047244094488 0.031496062992125984 0.03937007874015748 0.047244094488188976 0.055118110236220472 0.062992125984251968 0.070866141732283464 0.07874015748031496 0.086614173228346455 0.094488188976377951 0.10236220472440945 0.11023622047244094 0.11811023622047244 0.12598425196850394 0.13385826771653545 0.14173228346456693 0.14960629921259844 0.15748031496062992 0.16535433070866143 0.17322834645669291 0.18110236220472442 0.1889763779527559 0.19685039370078741 0.20472440944881889 0.2125984251968504 0.22047244094488189 0.2283464566929134 0.23622047244094488 0.24409448818897639 0.25196850393700787 0.25984251968503935 0.26771653543307089 0.27559055118110237 0.28346456692913385 0.29133858267716534 0.29921259842519687 0.30708661417322836 0.31496062992125984 0.32283464566929132 0.33070866141732286 0.33858267716535434 0.34645669291338582 0.3543307086614173 0.36220472440944884 0.37007874015748032 0.37795275590551181 0.38582677165354329 0.39370078740157483 0.40157480314960631 0.40944881889763779 0.41732283464566927 0.42519685039370081 0.43307086614173229 0.44094488188976377 0.44881889763779526 0.45669291338582679 0.46456692913385828 0.47244094488188976 0.48031496062992124 0.48818897637795278 0.49606299212598426 0.50393700787401574 0.51181102362204722 0.51968503937007871 0.52755905511811019 0.53543307086614178 0.54330708661417326 0.55118110236220474 0.55905511811023623 0.56692913385826771 0.57480314960629919 0.58267716535433067 0.59055118110236215 0.59842519685039375 0.60629921259842523 0.61417322834645671 0.62204724409448819 0.62992125984251968 0.63779527559055116 0.64566929133858264 0.65354330708661412 0.66141732283464572 0.6692913385826772 0.67716535433070868 0.68503937007874016 0.69291338582677164 0.70078740157480313 0.70866141732283461 0.71653543307086609 0.72440944881889768 0.73228346456692917 0.74015748031496065 0.74803149606299213 0.75590551181102361 0.76377952755905509 0.77165354330708658 0.77952755905511806 0.78740157480314965 0.79527559055118113 0.80314960629921262 0.8110236220472441 0.81889763779527558 0.82677165354330706 0.83464566929133854 0.84251968503937003 0.85039370078740162 0.8582677165354331 0.86614173228346458 0.87401574803149606 0.88188976377952755 0.88976377952755903 0.89763779527559051 0.90551181102362199 0.91338582677165359 0.92125984251968507 0.92913385826771655 0.93700787401574803 0.94488188976377951 0.952755905511811 0.96062992125984248 0.96850393700787396 0.97637795275590555 0.98425196850393704 0.99212598425196852 1
        </DataArray>
      </PointData>
      <CellData Scalars="P">
        <DataArray type="Float32" Name="P" NumberOfComponents="1">
          -0.016510217213465791 -0.047296026375855033 -0.074007291587928875 -0.095970969005533854 -0.11300799217227048 -0.12523823210329674 -0.13298334536556825 -0.13670974555157664 -0.1369905478122172 -0.13447904417972364 -0.12988710231029088 -0.1239685222582961 -0.11750481584870029 -0.11129240600441206 -0.10613120596406464 -0.10281367749352703 -0.10211345085336333 -0.10477672950710919 -0.11151278898940953 -0.12298515597704184 -0.13980403217160076 -0.16251940026134942 -0.19161454369187825 -0.2275004824811899 -0.27051128189607565 -0.32090052844393385 -0.37883854212042323 -0.4444098704071387 -0.51761292052080665 -0.59836503132403074 -0.68649476246232588 -0.78174780554181622 -0.88378991773995264 -0.99221113409426143 -1.1065302425748509 -1.2262000804523796 -1.3506098670952151 -1.4790956786984943 -1.610948111220105 -1.7454143367646999 -1.8817056581514298 -2.0190052608394842 -1.7915346559321128 -1.5463545808675194 -1.2794219042621437 -0.98785647365664608 -0.66795642472707106 -0.3174209747625874 0.066298425428771693 0.48622983305437734 0.94353612249493046 1.4397072198899672 1.9758007720671797 2.5512194088383828 1.508213911936656 0.40917602902618999 -0.7194297028894453 -0.90776352534841431 -1.0550577709247215 -1.192889054102428 -1.2865768137662059 -1.3349520203509946 -1.3374750273800227 -1.3319487593440513 -1.2443146541375965 -1.1512238344444543 -1.0535286086789912 -0.9521364058237225 -0.81191493794504832 -0.67089405810197067 -0.53000311921326027 -0.39014371963718231 -0.25218213015976848 -0.11619795528622334 0.016254052178127469 0.14444916229144664 0.294344698197396 0.43730459165605728 0.57287254798965037 0.70067184083688205 0.82040395320610393 0.93230259502756696 1.0357311034747625 1.1306123041265288 1.2169335503629695 1.2947412947518662 1.3641312908461265 1.4255271950108399 1.4788167752872798 1.5242231155660524 1.5619951044895068 1.5925764160998921 1.6160472305295259 1.6326964637506023 1.6428077411914888 1.6467559864696433 1.6488876229720066 1.6444939078094136 1.6340017926734236 1.617857351204339 1.5963744871263073 1.5698885765481325 1.5386916473648893 1.5030279084245632 1.4627286628978802 1.417839255419808 1.3686790769722372 1.3138024815775677 1.2547718966789962 1.1920249493415511 1.1230788678398573 1.0509204863455019 0.9727148029730105 0.89242475704585056 0.81105255102736906 0.72546661454157335 0.65122555852157415 0.57863838165434689 0.50455021204676498 0.43346714660769065 0.36512036487748578 0.29745737791605814 0.23130206179853238 0.17053235505757453 0.1118393978249724 0.060599785279749782 0.018237809342251252
        </DataArray>
      </CellData>
      <Points>
        <DataArray type="Float32" NumberOfComponents="3" format="ascii">
          3.9281252755908418 6.8536641720715119 0
          3.9301481869676147 6.861275869924083 0
          3.9322188135247518 6.8688747447004088 0
          3.9343610363383905 6.8764537714605138 0
          3.9365921696490713 6.884007129328519 0
          3.9389258301925563 6.8915294694069065 0
          3.9413731147332722 6.8990156392568682 0
          3.9439432306248805 6.9064605543305149 0
          3.9466438789803142 6.9138591352225989 0
          3.9494815091971907 6.9212062785139707 0
          3.9524614950071069 6.9284968481446461 0
          3.9555882663083803 6.9357256776037426 0
          3.9588654084096939 6.9428875803341885 0
          3.9622957391472822 6.9499773657046173 0
          3.9658813711994529 6.9569898585571943 0
          3.9696237628656319 6.9639199217694685 0
          3.9735237614765389 6.9707624805447983 0
          3.9775816465324931 6.9775125448409669 0
          3.9817971646000805 6.9841652345236307 0
          3.9861695633858867 6.9907158034875669 0
          3.9906976262779432 6.9971596617230576 0
          3.99537970507826 7.0034923966544556 0
          4.0002137504535247 7.0097097942790336 0
          4.0051973425752552 7.0158078584192696 0
          4.0103277220066627 7.021782827833186 0
          4.0156018192014837 7.0276311924227937 0
          4.0210162873250042 7.0333497042646655 0
          4.0265675316787135 7.0389353890297812 0
          4.032251736294401 7.0443855578998162 0
          4.0380648943287198 7.0496978133563921 0
          4.0440028509577877 7.0548700374481177 0
          4.0500613158971648 7.0599004095807452 0
          4.0562358916150902 7.0647874054359328 0
          4.0625221003475112 7.069529793779604 0
          4.0689154106214174 7.0741266301328478 0
          4.0754112622062015 7.078577248524943 0
          4.0820050897637579 7.0828812509427204 0
          4.0886923412394909 7.0870385007388572 0
          4.095468500392947 7.0910491059031484 0
          4.1023291081757751 7.0949133988955371 0
          4.1092697777848972 7.0986319222963328 0
          4.1162862094173596 7.1022054109486401 0
          4.1233742044634525 7.1056347704750999 0
          4.1302567791389828 7.1094597738487639 0
          4.13691068405178 7.1136700724157089 0
          4.1433125805722941 7.1182545736974978 0
          4.1494398312528702 7.1232002686814022 0
          4.155269717951847 7.128493377823216 0
          4.1607803985358318 7.1341182156660539 0
          4.1659505459274246 7.1400577568244552 0
          4.1707587886726092 7.146294095283821 0
          4.1751849349755616 7.1528074113610964 0
          4.1792095105157347 7.1595764746653447 0
          4.1828138451033796 7.1665786190372343 0
          4.1859809889105453 7.1737893599369533 0
          4.1897954331666769 7.1806799417578651 0
          4.1942193177296376 7.1871964089976297 0
          4.1992105210291104 7.1932897245121135 0
          4.2042842501204429 7.1993143067844612 0
          4.2094190872192785 7.2052866945802814 0
          4.2146094249473576 7.2112107318672578 0
          4.2198340740997722 7.2171043438671454 0
          4.2250716453180024 7.2229862836744605 0
          4.2303003488204487 7.2288759129013194 0
          4.2355157414953952 7.2347771568976373 0
          4.2406772063042366 7.2407254278337048 0
          4.2457799581636779 7.2467239654278028 0
          4.2508191879170116 7.2527758080761338 0
          4.2557900801568236 7.25888376837446 0
          4.2606677392332291 7.2650662985603809 0
          4.2654468927027525 7.2713251655551838 0
          4.2701222587965804 7.2776618321746049 0
          4.2746885578940779 7.2840774489963991 0
          4.2791405245918721 7.2905728478723182 0
          4.2834723872830995 7.2971488879111766 0
          4.2876789343848971 7.3038057302236945 0
          4.2917550081012728 7.310543205987952 0
          4.2956725754908769 7.3173740145382196 0
          4.2994260450337398 7.324296310366571 0
          4.303009937345772 7.3313078696192369 0
          4.3064189027914033 7.3384060967397913 0
          4.3096477388139851 7.3455880326391032 0
          4.3126908373070192 7.3528506027811096 0
          4.3155433269773367 7.3601901218191941 0
          4.3182005327637007 7.3676025728511636 0
          4.320657990525417 7.3750836209597761 0
          4.3229114608537413 7.3826286277782218 0
          4.3249569493062774 7.3902326649812595 0
          4.3267901233660773 7.3978906736428174 0
          4.3284074838891504 7.4055971686054933 0
          4.3298058033815874 7.4133464265990163 0
          4.3309821351515634 7.4211325041932836 0
          4.3319332485858233 7.4289493256362285 0
          4.3326567857361464 7.4367905284365561 0
          4.3331506856945214 7.4446495862880404 0
          4.3334131978406312 7.4525198270525976 0
          4.3334423292187711 7.4603944538498119 0
          4.3332096066965731 7.4682657536245118 0
          4.3327143001009594 7.476124966920068 0
          4.3319561003448435 7.4839632614256475 0
          4.3309345710409684 7.4917716859358103 0
          4.3296502316721783 7.4995413001452889 0
          4.3281040196771574 7.5072631657724944 0
          4.32629729063484 7.5149283721115374 0
          4.3242318186563731 7.5225280621418982 0
          4.3218827593239917 7.530045044116692 0
          4.3192533301149529 7.5374687174110333 0
          4.3163472660881599 7.5447886503701316 0
          4.3131420599490271 7.5519827321254027 0
          4.309643423476194 7.5590388823574024 0
          4.3058576963224695 7.5659453674477106 0
          4.3017659192506779 7.5726751356380717 0
          4.2973769867975573 7.5792150720567042 0
          4.2926757748118014 7.5855343031539535 0
          4.2876742605733078 7.5916186562435586 0
          4.2823856161332312 7.5974551764162506 0
          4.2768003932465 7.6030085173279023 0
          4.2709935030755792 7.608329676371679 0
          4.2649779773701999 7.613413794881505 0
          4.258748595321733 7.6182334410025252 0
          4.2523242528831959 7.6227898736418345 0
          4.2457202905041314 7.6270816758150026 0
          4.2389390615678062 7.631087255617083 0
          4.2319852325538001 7.6347846946280891 0
          4.2248819026645661 7.6381856018399885 0
          4.2176259647030525 7.6412467236266233 0
          4.2102272266982652 7.643945721333286 0
          4.2027272872427845 7.6463506537629735 0
        </DataArray>
      </Points>
      <Cells>
        <DataArray type="Int32" Name="connectivity" format="ascii">
          0 1 1 2 2 3 3 4 4 5 5 6 6 7 7 8 8 9 9 10 10 11 11 12 12 13 13 14 14 15 15 16 16 17 17 18 18 19 19 20 20 21 21 22 22 23 23 24 24 25 25 26 26 27 27 28 28 29 29 30 30 31 31 32 32 33 33 34 34 35 35 36 36 37 37 38 38 39 39 40 40 41 41 42 42 43 43 44 44 45 45 46 46 47 47 48 48 49 49 50 50 51 51 52 52 53 53 54 54 55 55 56 56 57 57 58 58 59 59 60 60 61 61 62 62 63 63 64 64 65 65 66 66 67 67 68 68 69 69 70 70 71 71 72 72 73 73 74 74 75 75 76 76 77 77 78 78 79 79 80 80 81 81 82 82 83 83 84 84 85 85 86 86 87 87 88 88 89 89 90 90 91 91 92 92 93 93 94 94 95 95 96 96 97 97 98 98 99 99 100 100 101 101 102 102 103 103 104 104 105 105 106 106 107 107 108 108 109 109 110 110 111 111 112 112 113 113 114 114 115 115 116 116 117 117 118 118 119 119 120 120 121 121 122 122 123 123 124 124 125 125 126 126 127 
        </DataArray>
        <DataArray type="Int32" Name="offsets" format="ascii">
          2 4 6 8 10 12 14 16 18 20 22 24 26 28 30 32 34 36 38 40 42 44 46 48 50 52 54 56 58 60 62 64 66 68 70 72 74 76 78 80 82 84 86 88 90 92 94 96 98 100 102 104 106 108 110 112 114 116 118 120 122 124 126 128 130 132 134 136 138 140 142 144 146 148 150 152 154 156 158 160 162 164 166 168 170 172 174 176 178 180 182 184 186 188 190 192 194 196 198 200 202 204 206 208 210 212 214 216 218 220 222 224 226 228 230 232 234 236 238 240 242 244 246 248 250 252 254 
        </DataArray>
        <DataArray type="Int32" Name="types" format="ascii">
          3 3 3 3 3 3 3 3 3 3 3 3 3 3 3 3 3 3 3 3 3 3 3 3 3 3 3 3 3 3 3 3 3 3 3 3 3 3 3 3 3 3 3 3 3 3 3 3 3 3 3 3 3 3 3 3 3 3 3 3 3 3 3 3 3 3 3 3 3 3 3 3 3 3 3 3 3 3 3 3 3 3 3 3 3 3 3 3 3 3 3 3 3 3 3 3 3 3 3 3 3 3 3 3 3 3 3 3 3 3 3 3 3 3 3 3 3 3 3 3 3 3 3 3 3 3 3         </DataArray>
      </Cells>
    </Piece>
  </UnstructuredGrid>
</VTKFile>
