<?xml version="1.0"?>
<VTKFile type="UnstructuredGrid" version="0.1" byte_order="LittleEndian">
  <UnstructuredGrid>
    <Piece NumberOfPoints="128" NumberOfCells="127">
      <PointData Scalars="W">
        <DataArray type="Float32" Name="W" NumberOfComponents="2">
          0 0 0.24792701884108642 0.07520270321656107 0.34134966007393797 0.10263754073510441 0.40555154510670105 0.12058587584541718 0.45241478914868027 0.13278756357523597 0.48689542635352751 0.14087316064874258 0.51183025174025065 0.14582108621438694 0.52900872519412268 0.14828264045620479 0.5396603076118941 0.14872957543123794 0.54462169773585656 0.14750684727631908 0.5445586039890401 0.14489762820112323 0.53995539114856461 0.14112261268978019 0.53118196864348288 0.13636029838782041 0.51851092570049906 0.13075319539323513 0.502129816236628 0.12441257446444326 0.48220792936503165 0.11743607869124935 0.45895871950068257 0.10992239310782896 0.43248544759136903 0.10193371218133382 0.40292008205053692 0.093529894270486025 0.37041255058467792 0.084765075273595447 0.3350859929157064 0.075677136985508764 0.29704440093619816 0.066289813354206403 0.25639558572113463 0.056617959860177598 0.21325777950928546 0.04666889909993216 0.16773087110784976 0.036436136572740391 0.11998617344747908 0.02591897259879734 0.070134951440094823 0.015094093758471334 0.018235940414661613 0.0039178581596219664 -0.035563718701155288 -0.0076432004610042575 -0.090789937347192776 -0.019560518364196311 -0.14763828689339084 -0.031956784620080725 -0.20594051663510554 -0.044883702170782983 -0.26553053507015945 -0.05839980051974477 -0.3262065457754495 -0.072561091296593272 -0.38778720149734569 -0.087432186978710483 -0.45006227579034735 -0.10307412888935449 -0.5129078620968277 -0.11956961688157378 -0.57604464894580176 -0.13696610835858453 -0.63915756233380006 -0.15529942222742743 -0.70205396110472118 -0.17463027478006432 -0.76450815584908105 -0.19500664655411787 -0.82623347214862441 -0.2164536530424509 5.469646498173411 1.3235797030939136 5.3436825279269025 1.0488823309046893 5.3550863997937572 0.81508692447711573 5.2030851940939247 0.56996961705289584 5.1577662729432543 0.35201101860126627 5.1035200962292055 0.14131988934298037 5.040909010832908 -0.061854730142992108 4.8476573200825133 -0.2485788017115669 4.7693997262720425 -0.4265664949811403 4.80645565359419 -0.6143831637525784 4.7147142092119321 -0.78523434390392099 4.2442583497699378 -0.86437482949190281 3.8800838667911983 -0.92352629779214745 3.5009372014186142 -0.94502790423345395 3.2641605307202264 -0.97886060058538671 2.8673868957532789 -0.93956123924611257 2.6236969648584303 -0.92657174366114814 2.3783494312800388 -0.89642855541120259 1.9551353219407637 -0.77804748372786336 1.7031840625662666 -0.70865221064498707 1.2558955110489836 -0.54128024290930754 0.99423452161565395 -0.43994897757202184 0.51615479494770622 -0.23242798893622385 0.2364514642052799 -0.10740169025387616 0.1739312288222303 -0.079376332608544251 -0.11553720404307062 0.052762549322732097 -0.17571623258930721 0.079977138583405952 -0.23887125493943612 0.10820563849497548 -0.53481618165406142 0.24011499652891952 -0.59934787057900196 0.26557441761741579 -0.66134024098931909 0.28876395694616031 -0.97212234643709106 0.41637910133311906 -1.0393572860037421 0.43463868014547735 -1.1038575130348529 0.44981769306460412 -1.1718438765730017 0.46437954753018806 -1.4983178041888541 0.57428600440571476 -1.5658590632386786 0.57714129421270721 -1.6368636338654268 0.57850952962609359 -1.9789512250543142 0.66607069598523916 -2.0492642526671432 0.65187529403830069 -2.1227469476550294 0.63528229551090909 -2.1958759200700007 0.61503452642413914 -2.5508361877413201 0.66149499615289187 -2.6250378055962389 0.62222395760506355 -2.6978878014150798 0.57857215954666408 -3.0655816306236798 0.5835473089615657 -3.1371504238491319 0.51689811951928011 -3.2060012630978658 0.44538096084873813 -3.2678678838438029 0.36868318592619231 -3.6447987854874575 0.31053826445881916 -3.7040879724894085 0.20759239778321559 -3.7542050954610828 0.099854703399465797 -3.8030239663756222 -0.012051211876205673 -4.1717746303611536 -0.14431141079278692 -4.2024892285466038 -0.2845186014699384 -4.2298128323277879 -0.42834525671100399 -4.5821668206807145 -0.62645843530766376 -4.5836912529643641 -0.79817370924165509 -4.5792246106407548 -0.97199578112466645 -4.5639839529909771 -1.1465338589784788 -4.8661733894147412 -1.4236351525647868 -4.8197581992379561 -1.6218838087835203 -5.0898763011559573 -1.9513426368714133 -5.0049000805733161 -2.1695832623397933 -4.9006801398993582 -2.3792464432990901 -5.1105575693921708 -2.7675047281497043 -4.9601157952245956 -2.9867633721619664 -5.1100016106907962 -3.414089109557497 -4.9120429220809854 -3.6365028199311942 -4.9963894971499982 -4.0968627646163487 -4.7377310386158262 -4.3039003286321762 -4.7482193263045964 -4.7845841005698651 -4.7105628027316531 -5.2942802350371778 -4.610699277693997 -5.8202085821632092 -3.2200214868027071 -4.5214321202261889 -3.1271605470023793 -4.8328704526195887 -2.7501410093392558 -4.6914948584845755 -2.6423022409630956 -4.9955610093020502 -2.4821916590577375 -5.2538525801046418 -2.2913819015907668 -5.4958600260879926 -2.0235055566629705 -5.5747976798799259 -1.8636909405159969 -6.0256056014891071 -1.73290080229791 -6.8668663283385332 -1.2680482693824338 -6.4793783589388605 -0.6730984259517746 -4.4710184590641022 0 0
        </DataArray>
        <DataArray type="Float32" Name="u" NumberOfComponents="1">
          0 0.007874015748031496 0.015748031496062992 0.023622047244094488 0.031496062992125984 0.03937007874015748 0.047244094488188976 0.055118110236220472 0.062992125984251968 0.070866141732283464 0.07874015748031496 0.086614173228346455 0.094488188976377951 0.10236220472440945 0.11023622047244094 0.11811023622047244 0.12598425196850394 0.13385826771653545 0.14173228346456693 0.14960629921259844 0.15748031496062992 0.16535433070866143 0.17322834645669291 0.18110236220472442 0.1889763779527559 0.19685039370078741 0.20472440944881889 0.2125984251968504 0.22047244094488189 0.2283464566929134 0.23622047244094488 0.24409448818897639 0.25196850393700787 0.25984251968503935 0.26771653543307089 0.27559055118110237 0.28346456692913385 0.29133858267716534 0.29921259842519687 0.30708661417322836 0.31496062992125984 0.32283464566929132 0.33070866141732286 0.33858267716535434 0.34645669291338582 0.3543307086614173 0.36220472440944884 0.37007874015748032 0.37795275590551181 0.38582677165354329 0.39370078740157483 0.40157480314960631 0.40944881889763779 0.41732283464566927 0.42519685039370081 0.43307086614173229 0.44094488188976377 0.44881889763779526 0.45669291338582679 0.46456692913385828 0.47244094488188976 0.48031496062992124 0.48818897637795278 0.49606299212598426 0.50393700787401574 0.51181102362204722 0.51968503937007871 0.52755905511811019 0.53543307086614178 0.54330708661417326 0.55118110236220474 0.55905511811023623 0.56692913385826771 0.57480314960629919 0.58267716535433067 0.59055118110236215 0.59842519685039375 0.60629921259842523 0.61417322834645671 0.62204724409448819 0.62992125984251968 0.63779527559055116 0.64566929133858264 0.65354330708661412 0.66141732283464572 0.6692913385826772 0.67716535433070868 0.68503937007874016 0.69291338582677164 0.70078740157480313 0.70866141732283461 0.71653543307086609 0.72440944881889768 0.73228346456692917 0.74015748031496065 0.74803149606299213 0.75590551181102361 0.76377952755905509 0.77165354330708658 0.77952755905511806 0.78740157480314965 0.79527559055118113 0.80314960629921262 0.8110236220472441 0.81889763779527558 0.82677165354330706 0.83464566929133854 0.84251968503937003 0.85039370078740162 0.8582677165354331 0.86614173228346458 0.87401574803149606 0.88188976377952755 0.88976377952755903 0.89763779527559051 0.90551181102362199 0.91338582677165359 0.92125984251968507 0.92913385826771655 0.93700787401574803 0.94488188976377951 0.952755905511811 0.96062992125984248 0.96850393700787396 0.97637795275590555 0.98425196850393704 0.99212598425196852 1
        </DataArray>
      </PointData>
      <CellData Scalars="P">
        <DataArray type="Float32" Name="P" NumberOfComponents="1">
          0.01324315472418915 0.039917693923223911 0.066867551123404936 0.094077422564949942 0.12148379035579719 0.14899455505404 0.1765014456558183 0.20388865238382378 0.23103944684549882 0.25784144106742335 0.28419108701855317 0.30999740424308531 0.33518524988770576 0.35969823707536824 0.38350144582930717 0.40658368080645524 0.42895882248655415 0.45066775452758184 0.47177912653758286 0.49238951712609069 0.51262361322221872 0.53263402759709844 0.55260039264002192 0.57272779568067411 0.59324532246281159 0.61440196372910005 0.63646503419270462 0.65971860341993704 0.68445737255422401 0.71097058184639905 0.73955974687590353 0.7705219896054305 0.80414446296714781 0.84069684721134919 0.88042584235699073 0.92354730938774576 0.97024376904141529 1.0206501701781177 1.0748448007527316 1.1328486617832787 1.1946173839825851 1.2600317387928481 0.98696854631017139 0.71985228044074234 0.4501960964706202 0.18671727908362745 -0.077225427669736474 -0.34160623867675932 -0.60637597775518048 -0.86404394017609509 -1.1217472880132326 -1.3869258563933495 -1.6519033191247958 -1.8923673194634767 -2.1144180920888478 -2.3162514259716032 -2.5066813567054433 -2.6739000484363546 -2.8276928210143288 -2.967219738646901 -3.0786753093026 -3.1737126434919363 -3.2368815074058883 -3.281388187879227 -3.2900182465113774 -3.2775083708004749 -3.2605130240149975 -3.2212936502901472 -3.1777306726816499 -3.1296553462797769 -3.0591673085766256 -2.9844110993559485 -2.9057674661425299 -2.8047563960397319 -2.7001769349671498 -2.5925262360370116 -2.4818564532306153 -2.3503515866199942 -2.2169500377596085 -2.0818028840118146 -1.9276284772908647 -1.7731053440016027 -1.6184834200380542 -1.4642337618198429 -1.2946542893942643 -1.1269428369285972 -0.96165331302046508 -0.78433970609652925 -0.61119521058839665 -0.44283157064460354 -0.28000547817388782 -0.11025326442104617 0.052188817914899981 0.2065776119570292 0.35252699444239538 0.49945988640110106 0.63587122136900964 0.76142477441922707 0.88316222616498807 0.99209820817239114 1.088026359418985 1.1707534443366467 1.243827159449908 1.3024482382949543 1.3484376226311459 1.3790842921880737 1.3947657124528972 1.3947830134308932 1.3799387366643545 1.3479320853030035 1.301928704276093 1.2382133150466188 1.1624706381533867 1.0697349144459098 0.96024945488989988 0.83490810524725956 0.74001770615298412 0.63774711616277413 0.54114498685031076 0.4416450091196058 0.34307957440388021 0.24883904183119684 0.16520021615114405 0.089513191059201733 0.0226626421760379 -0.010291442259958287 -0.0096731730304705013
        </DataArray>
      </CellData>
      <Points>
        <DataArray type="Float32" NumberOfComponents="3" format="ascii">
          4.00361294727103 7.0051465142140215 0
          4.0013196403122722 7.0126793794114874 0
          3.9990417061805843 7.0202169056654578 0
          3.9967849377494273 7.027760792760418 0
          3.9945533160400433 7.0353121524383484 0
          3.9923497469744809 7.0428717402068886 0
          3.9901763686738878 7.050440056416126 0
          3.9880347273524008 7.0580174069184345 0
          3.9859258882711175 7.0656039434538949 0
          3.9838505119696217 7.0731996929076546 0
          3.9818089061448241 7.0808045787082614 0
          3.9798010669278812 7.0884184383970288 0
          3.9778267089173691 7.0960410373249587 0
          3.9758852881160411 7.103672079734344 0
          3.9739760188336231 7.1113112176097735 0
          3.9720978853173396 7.1189580575927156 0
          3.9702496522499859 7.1266121670515759 0
          3.9684298779861971 7.1342730802165457 0
          3.9666369209563257 7.1419403020520003 0
          3.9648689478498405 7.149613311984 0
          3.9631239429116589 7.1572915672727637 0
          3.961399715576861 7.1649745053769838 0
          3.9596939069173112 7.1726615454404152 0
          3.9580039963239559 7.1803520892273598 0
          3.9563273088339233 7.1880455215902801 0
          3.9546610213188051 7.19574121007975 0
          3.9530021730995344 7.2034385049125511 0
          3.9513476728363739 7.2111367375363669 0
          3.9496943021600011 7.2188352179325923 0
          3.9480387247815263 7.2265332325483183 0
          3.9463775158710797 7.2342300460722706 0
          3.9447071499149136 7.2419248938308813 0
          3.9430240111270733 7.2496169785830959 0
          3.9413244037247424 7.2573054668893411 0
          3.9396045644149629 7.2649894856336843 0
          3.9378606736112509 7.2726681180095438 0
          3.9360888684387323 7.2803403997234764 0
          3.9342852503854009 7.2880053138523015 0
          3.9324459025874887 7.2956617878813876 0
          3.9305669093315556 7.3033086914604075 0
          3.9286443679648988 7.3109448326110948 0
          3.9266744028552907 7.3185689547199484 0
          3.9246531831331573 7.3261797349441453 0
          3.9229711322887781 7.333872589931909 0
          3.9216204396822967 7.3416304843670748 0
          3.9206018120739117 7.3494389230802524 0
          3.9199058242478282 7.3572827049064751 0
          3.9195296659321235 7.3651483157750564 0
          3.9194699735062151 7.3730226922719142 0
          3.9197228648658622 7.3808932370734208 0
          3.9202763568782242 7.3887483697395426 0
          3.9211255972466903 7.3965770547118019 0
          3.9222728849495661 7.4043676501017721 0
          3.9237125323476958 7.4121095628199098 0
          3.9254153655820452 7.4197978768193176 0
          3.927358800831763 7.4274289184827449 0
          3.9295193250969187 7.4350013486385711 0
          3.9318822543519794 7.442513067384807 0
          3.9344229817581509 7.4499665057552811 0
          3.9371263942226493 7.4573624674819259 0
          3.9399772759097274 7.4647028200780978 0
          3.9429493802010431 7.4719948984679769 0
          3.9460270820359482 7.4792430044802138 0
          3.9491826425391965 7.4864575111031657 0
          3.9523998354410863 7.4936447009153015 0
          3.9556490139657505 7.5008174369071199 0
          3.9589128346182116 7.5079834715653266 0
          3.9621874225792872 7.5151445469362281 0
          3.9654548298930612 7.5223088567159291 0
          3.9687113273986179 7.5294780926384908 0
          3.971953001330272 7.5366540089558569 0
          3.9751615032996255 7.5438447854941613 0
          3.9783328344627091 7.551052004794812 0
          3.981463153273654 7.5582771083959326 0
          3.984533192159915 7.5655280103632085 0
          3.9875387845855772 7.5728058466003878 0
          3.9904759333379025 7.580111561740642 0
          3.9933404248170468 7.5874460618507298 0
          3.9961120188203747 7.5948161638318377 0
          3.9987865291386613 7.6022220480601908 0
          4.0013595545365206 7.6096638024138175 0
          4.003809886552955 7.6171468593120553 0
          4.0061331663852355 7.6246703418257127 0
          4.00832483836977 7.632233224059771 0
          4.0103803684519104 7.6398342531990933 0
          4.0122777490160972 7.6474763145043054 0
          4.0140123788045621 7.6551569758256601 0
          4.0155797400223685 7.6628735330332693 0
          4.0169570342239131 7.6706263003393724 0
          4.0181398221097631 7.6784111478144519 0
          4.0191238325624719 7.6862236432773425 0
          4.0199052272108808 7.6940590328455318 0
          4.0204606324133243 7.7019137182399309 0
          4.0207863684264904 7.7097813181218973 0
          4.0208793239515259 7.7176551534690736 0
          4.0207364679769091 7.7255282864150523 0
          4.0203349307421385 7.7333925240004913 0
          4.0196728023547159 7.7412391732057007 0
          4.0187483829916664 7.7490593161534589 0
          4.0175398160203883 7.7568406771128586 0
          4.0160469995513752 7.7645726083420552 0
          4.0142702029905406 7.772244330983904 0
          4.0122103636785047 7.7798450212350634 0
          4.0098487300299261 7.7873575049611699 0
          4.0071881701618066 7.7947694872293969 0
          4.0042119164132606 7.8020605467522293 0
          4.0009252251384764 7.8092171474823928 0
          3.9973345458515706 7.8162262843052597 0
          3.9934268387190519 7.8230638874946186 0
          3.9892114158332652 7.8297163545773252 0
          3.9846789501415394 7.8361571898997342 0
          3.979841695657341 7.8423725919613849 0
          3.9746943804850989 7.8483340113503015 0
          3.9692530176438381 7.8540285947705675 0
          3.9635169047825705 7.8594265243978425 0
          3.9574883158888632 7.864496176018978 0
          3.95117337310973 7.8692049089870206 0
          3.9446584049152529 7.8736332272852758 0
          3.9379491146438386 7.8777617986146531 0
          3.9310688626174399 7.8815993704096794 0
          3.9240242658414575 7.8851270595630512 0
          3.9168251754710171 7.8883288132635387 0
          3.9094833338202597 7.891189578094429 0
          3.9020152627919051 7.8937044081795129 0
          3.8944307194655887 7.8958452596388566 0
          3.8867375857546316 7.8975598065500598 0
          3.8789664586125503 7.898871717395072 0
          3.8711542872299183 7.8999058392563084 0
        </DataArray>
      </Points>
      <Cells>
        <DataArray type="Int32" Name="connectivity" format="ascii">
          0 1 1 2 2 3 3 4 4 5 5 6 6 7 7 8 8 9 9 10 10 11 11 12 12 13 13 14 14 15 15 16 16 17 17 18 18 19 19 20 20 21 21 22 22 23 23 24 24 25 25 26 26 27 27 28 28 29 29 30 30 31 31 32 32 33 33 34 34 35 35 36 36 37 37 38 38 39 39 40 40 41 41 42 42 43 43 44 44 45 45 46 46 47 47 48 48 49 49 50 50 51 51 52 52 53 53 54 54 55 55 56 56 57 57 58 58 59 59 60 60 61 61 62 62 63 63 64 64 65 65 66 66 67 67 68 68 69 69 70 70 71 71 72 72 73 73 74 74 75 75 76 76 77 77 78 78 79 79 80 80 81 81 82 82 83 83 84 84 85 85 86 86 87 87 88 88 89 89 90 90 91 91 92 92 93 93 94 94 95 95 96 96 97 97 98 98 99 99 100 100 101 101 102 102 103 103 104 104 105 105 106 106 107 107 108 108 109 109 110 110 111 111 112 112 113 113 114 114 115 115 116 116 117 117 118 118 119 119 120 120 121 121 122 122 123 123 124 124 125 125 126 126 127 
        </DataArray>
        <DataArray type="Int32" Name="offsets" format="ascii">
          2 4 6 8 10 12 14 16 18 20 22 24 26 28 30 32 34 36 38 40 42 44 46 48 50 52 54 56 58 60 62 64 66 68 70 72 74 76 78 80 82 84 86 88 90 92 94 96 98 100 102 104 106 108 110 112 114 116 118 120 122 124 126 128 130 132 134 136 138 140 142 144 146 148 150 152 154 156 158 160 162 164 166 168 170 172 174 176 178 180 182 184 186 188 190 192 194 196 198 200 202 204 206 208 210 212 214 216 218 220 222 224 226 228 230 232 234 236 238 240 242 244 246 248 250 252 254 
        </DataArray>
        <DataArray type="Int32" Name="types" format="ascii">
          3 3 3 3 3 3 3 3 3 3 3 3 3 3 3 3 3 3 3 3 3 3 3 3 3 3 3 3 3 3 3 3 3 3 3 3 3 3 3 3 3 3 3 3 3 3 3 3 3 3 3 3 3 3 3 3 3 3 3 3 3 3 3 3 3 3 3 3 3 3 3 3 3 3 3 3 3 3 3 3 3 3 3 3 3 3 3 3 3 3 3 3 3 3 3 3 3 3 3 3 3 3 3 3 3 3 3 3 3 3 3 3 3 3 3 3 3 3 3 3 3 3 3 3 3 3 3         </DataArray>
      </Cells>
    </Piece>
  </UnstructuredGrid>
</VTKFile>
