<?xml version="1.0"?>
<VTKFile type="UnstructuredGrid" version="0.1" byte_order="LittleEndian">
  <UnstructuredGrid>
    <Piece NumberOfPoints="128" NumberOfCells="127">
      <PointData Scalars="W">
        <DataArray type="Float32" Name="W" NumberOfComponents="2">
          0 0 -0.013959177551965091 0.104792454187993 -0.028795228290568589 0.21409530456101386 -0.04080773798383585 0.29879917716368487 -0.05170265427240002 0.37119796458646764 -0.062183139025956805 0.43618970625330178 -0.072590377310597143 0.49602050036295081 -0.083114272246714985 0.551857249685065 -0.093869050812271176 0.60435482034495669 -0.10494455003088345 0.65401566489677798 -0.1163975021416615 0.70113962589369871 -0.12827001430906859 0.74595113986670558 -0.14059357231400668 0.78862518224287892 -0.15340423409410966 0.82936990151187195 -0.16674321034064676 0.86841565712725588 -0.18064830551273214 0.90596116215287437 -0.19514288781857494 0.94212165874058706 -0.21026170217869455 0.97706000870183296 -0.22604039815484719 1.0109268058387242 -0.24250535637952331 1.0438162119321364 -0.2596926649089577 1.0758522957540619 -0.27764764133424386 1.1071782134327846 -0.29641429923128848 1.1379095417899081 -0.31603230049481013 1.1681263577082959 -0.33655978905643619 1.1979583987189615 -0.3580332560657713 1.2274371960203614 -0.38051019646699469 1.2566531755431796 -0.40407696177129687 1.2857662070971754 -0.42880922086536649 1.3148692736992469 -0.45466291584708046 1.3436830422735568 -0.48181621705935729 1.3725903353082347 -0.51034879912930442 1.4016324540048466 -0.54035209659111005 1.430861553392027 -0.57191481311130621 1.4602998821229625 -0.60514202447047549 1.4899898861301091 -0.64013352342485452 1.5199372125416211 -0.67703311257825627 1.5502266381335841 -0.71593524545139575 1.5808002892733377 -0.7569344880983816 1.6115874266807995 -0.80020118317866806 1.6426579441019971 -0.84588865950350167 1.6740098961291987 -0.89415030748684321 1.7056119553000968 -6.154854125060166 10.320149200209942 -7.1244163301221821 9.7190419776021422 -8.0378987667588842 9.0247954298950361 -8.8844700030132575 8.2409600700293826 -9.6558108391245625 7.3747336305286719 -10.341594873861819 6.4322100459685494 -10.934868679134894 5.4227212160462051 -11.426577283409236 4.3548903566054165 -11.811812106609226 3.239913247940732 -12.083502875153268 2.0886314327047688 -12.239426326882546 0.91360052764639677 -12.275191861066741 -0.27267038665055815 -12.18868269288299 -1.4565219856549938 -3.0283958631900934 -0.5492330919322318 -2.7228740320760227 -0.55897780099437699 -2.7271268172435925 -0.62255585145837977 -2.088117313354052 -0.51969039021383279 -1.413047872747587 -0.37310532497504828 -0.31313936563246209 -0.085042152018674669 0.47456369048718833 0.12854631195621044 0.85771663844337342 0.22734078515124639 1.2552661866863553 0.3211919489723582 2.6653380906384276 0.63704728071217165 2.6426738556184879 0.57204562125858882 3.1445234832243472 0.6045035586461186 3.6645524981735718 0.60151931459869823 3.6099827270731488 0.48566607521947469 3.565737539702031 0.37676179648329766 4.0884581001484133 0.3072444600790209 4.028262670962742 0.1732657996305243 4.5546464808803133 0.041769807225264258 4.4732677559054839 -0.11808267231538992 4.9766380140186746 -0.31722731079768213 4.8708056502870445 -0.50144384850004486 4.7544854628000826 -0.6738589152925093 5.2530395934099046 -0.95996858475262825 5.1042171584682317 -1.1543328702146081 5.5595481817895909 -1.5131636723843456 5.3818211431713596 -1.7281802797172769 5.1977896485516313 -1.9258097112331416 5.009290180578283 -2.1065179231514835 4.8180071339005739 -2.2709453200446634 4.6248612644890619 -2.4195464747404101 4.4324508337105382 -2.5538439390047523 4.2233943432607974 -2.6627397959729726 4.0355968224115983 -2.769596952025958 3.8510585272168614 -2.8651638585322687 3.6699790498594185 -2.9501620753752702 3.4940174340707815 -3.026606102563743 3.307050017279785 -3.0798274629990905 3.142507882912652 -3.1408002217406512 2.983057597178262 -3.1959283080483534 2.8296914683081855 -3.2472932633884874 2.6819201887909712 -3.295557651307552 2.525997365778256 -3.3232490652617153 2.3898101584190479 -3.3671099427916782 2.2589920595646613 -3.4115702367725276 2.1327688460454737 -3.4571056218787821 2.0106772001457442 -3.5046553381149153 1.881329738419746 -3.5339524875644357 1.7668768343868444 -3.5869984309330838 1.6549995318189872 -3.6452552225208716 1.5355137737427818 -3.686139392461683 1.4271853113441653 -3.7555582350600432 1.3185206531879459 -3.832025692518144 1.2013115723234651 -3.8917990230381632 1.0901612819860866 -3.9839402919639535 0.97506635018155319 -4.0851422200010505 0.84981719229507457 -4.1706884344799979 0.72389198368903906 -4.2913107692885495 0.58904825574543029 -4.4225301433980286 0.44110247102086592 -4.5381535619849247 0.28387011645422933 -4.6912301315506948 0.11066572555962893 -4.8279998832682409 -0.077973819203357442 -4.9727102021211733 -0.29462597320089878 -5.2565273727407176 -0.53831420363120375 -5.4577478497436376 -0.80824840126611142 -5.6397726281269209 -1.1151394474790841 -5.8538476932449006 0.35677712790922783 1.7176629243999824 0.48184559815368433 2.5365411558234512 0.63710759622525082 3.8981878579140021 0.76729849199445521 6.2829663298088638 0.47615388951757559 6.8259860647898183 0.10346430464890542 3.6566810416664404 0 0
        </DataArray>
        <DataArray type="Float32" Name="u" NumberOfComponents="1">
          0 0.007874015748031496 0.015748031496062992 0.023622047244094488 0.031496062992125984 0.03937007874015748 0.047244094488188976 0.055118110236220472 0.062992125984251968 0.070866141732283464 0.07874015748031496 0.086614173228346455 0.094488188976377951 0.10236220472440945 0.11023622047244094 0.11811023622047244 0.12598425196850394 0.13385826771653545 0.14173228346456693 0.14960629921259844 0.15748031496062992 0.16535433070866143 0.17322834645669291 0.18110236220472442 0.1889763779527559 0.19685039370078741 0.20472440944881889 0.2125984251968504 0.22047244094488189 0.2283464566929134 0.23622047244094488 0.24409448818897639 0.25196850393700787 0.25984251968503935 0.26771653543307089 0.27559055118110237 0.28346456692913385 0.29133858267716534 0.29921259842519687 0.30708661417322836 0.31496062992125984 0.32283464566929132 0.33070866141732286 0.33858267716535434 0.34645669291338582 0.3543307086614173 0.36220472440944884 0.37007874015748032 0.37795275590551181 0.38582677165354329 0.39370078740157483 0.40157480314960631 0.40944881889763779 0.41732283464566927 0.42519685039370081 0.43307086614173229 0.44094488188976377 0.44881889763779526 0.45669291338582679 0.46456692913385828 0.47244094488188976 0.48031496062992124 0.48818897637795278 0.49606299212598426 0.50393700787401574 0.51181102362204722 0.51968503937007871 0.52755905511811019 0.53543307086614178 0.54330708661417326 0.55118110236220474 0.55905511811023623 0.56692913385826771 0.57480314960629919 0.58267716535433067 0.59055118110236215 0.59842519685039375 0.60629921259842523 0.61417322834645671 0.62204724409448819 0.62992125984251968 0.63779527559055116 0.64566929133858264 0.65354330708661412 0.66141732283464572 0.6692913385826772 0.67716535433070868 0.68503937007874016 0.69291338582677164 0.70078740157480313 0.70866141732283461 0.71653543307086609 0.72440944881889768 0.73228346456692917 0.74015748031496065 0.74803149606299213 0.75590551181102361 0.76377952755905509 0.77165354330708658 0.77952755905511806 0.78740157480314965 0.79527559055118113 0.80314960629921262 0.8110236220472441 0.81889763779527558 0.82677165354330706 0.83464566929133854 0.84251968503937003 0.85039370078740162 0.8582677165354331 0.86614173228346458 0.87401574803149606 0.88188976377952755 0.88976377952755903 0.89763779527559051 0.90551181102362199 0.91338582677165359 0.92125984251968507 0.92913385826771655 0.93700787401574803 0.94488188976377951 0.952755905511811 0.96062992125984248 0.96850393700787396 0.97637795275590555 0.98425196850393704 0.99212598425196852 1
        </DataArray>
      </PointData>
      <CellData Scalars="P">
        <DataArray type="Float32" Name="P" NumberOfComponents="1">
          0.0042910563146192297 0.012963841360831709 0.02191034052852139 0.031246373869033815 0.041062906291602724 0.051437039718979553 0.062435687315179345 0.074117342630015473 0.086533157025349888 0.099728543992211968 0.11374382351161565 0.1286151939296272 0.14437567269489063 0.16105665582089332 0.17868947609549138 0.19730646351309755 0.21694133551436143 0.23763089914637447 0.25941617914342835 0.28234295951837868 0.30646336967785542 0.33183745640766799 0.35853417028755108 0.3866321956579713 0.41622214053770012 0.44740641752790822 0.48030169354213781 0.51504189427856306 0.55177890625839165 0.59067656385143585 0.63192598261878019 0.67574099635496498 0.72236061178251221 0.77205063201812563 0.82510666807422406 0.88185581199682239 0.94266191353771589 1.007924360389616 1.0780803451640473 1.1536130859807363 1.2350533097475604 1.3229820814635549 1.8288177578925737 2.3504722604366668 2.8821175660808001 3.4175088643974383 3.9502022631270068 4.4734864335465776 4.9806235203574039 5.4647995927709374 5.9193748115912701 6.3378529808253168 6.7141276931335181 7.042470306643807 7.317693676280622 7.3880176544630229 7.4527232613381065 7.5185629892512056 7.5733352251800357 7.6159510665490666 7.6349871472219899 7.6336501316382135 7.6189112357067339 7.5874145232834662 7.4983123494869259 7.3972287014454139 7.260065517310033 7.0804623156120776 6.8849035147782329 6.6737981199267793 6.4111866188007971 6.1329703437922829 5.7971568728101088 5.4473969772007349 5.037654828848658 4.6178771673275021 4.1920788759910526 3.7062647333285423 3.2207202027676471 2.7420830804152541 2.2726965244489779 1.816310721329734 1.3761307096772593 0.9548440165049672 0.55471322563434056 0.17743065032902158 -0.17393531264811649 -0.50022189018761265 -0.80079167913938354 -1.0752498364270882 -1.3235467135681822 -1.5445175860293787 -1.7398563350960996 -1.9099696148794767 -2.0554447399795372 -2.1769234893952603 -2.2744109489989262 -2.3494806320405313 -2.4029255416452684 -2.4355315987792086 -2.4480864114004275 -2.4412706079734749 -2.4160818215545725 -2.3732703877453765 -2.313805902897109 -2.2382954026211461 -2.1474565346153538 -2.0425496244342627 -1.9238921460513749 -1.7922739297818897 -1.6493026761262126 -1.4952465340989101 -1.3311776233381698 -1.1592320279767259 -0.97999387764210044 -0.79610997067163813 -0.60969194579608399 -0.41887934350021799 -0.22972868048314307 -0.046592239281681457 0.12712774567836005 0.10765235434686064 0.079835864235785065 0.041941032056488151 -0.0068479861712598114 -0.029144680490257133 -0.014122556802842979
        </DataArray>
      </CellData>
      <Points>
        <DataArray type="Float32" NumberOfComponents="3" format="ascii">
          4.5607446587709743 10.032608326589825 0
          4.5685501656622485 10.033644775165426 0
          4.5763548069161617 10.034687720868057 0
          4.584157662598721 10.035743940478236 0
          4.5919579878700123 10.036818685639021 0
          4.5997551072079288 10.037916445078483 0
          4.6075483708111982 10.039041248289109 0
          4.615337133447353 10.040196804786959 0
          4.6231207426813938 10.041386576460887 0
          4.6308985317970963 10.042613818175781 0
          4.6386698142310268 10.04388160892649 0
          4.6464338800594289 10.045192870430268 0
          4.6541899933921531 10.046550381044426 0
          4.6619373904253303 10.047956786617799 0
          4.6696752772107004 10.049414613399385 0
          4.6774028271055315 10.050926282324498 0
          4.6851191784337125 10.052494121339347 0
          4.6928234330418022 10.054120372550871 0
          4.7005146541495355 10.055807202329516 0
          4.7081918641439762 10.057556710651912 0
          4.7158540429479752 10.059370936945273 0
          4.7235001257862859 10.061251867786558 0
          4.7311290003788722 10.063201445785596 0
          4.7387395042143527 10.065221576758779 0
          4.7463304220924387 10.067314134702249 0
          4.7539004825195148 10.069480969844564 0
          4.7614483554456353 10.071723910610917 0
          4.768972648698047 10.074044769239274 0
          4.7764719026242082 10.076445351702477 0
          4.7839445853956279 10.07892746348363 0
          4.7913890957333463 10.081492892267361 0
          4.798803751853101 10.08414343168595 0
          4.8061867865154388 10.086880883890666 0
          4.8135363413445713 10.089707062795927 0
          4.8208504613143583 10.092623795468931 0
          4.8281270882167941 10.095632924771147 0
          4.8353640544555851 10.098736309717523 0
          4.8425590741083182 10.101935830741279 0
          4.8497097370458055 10.105233386112671 0
          4.8568135030417272 10.108630887558487 0
          4.8638676911809009 10.112130264599962 0
          4.8708694703195929 10.115733464434348 0
          4.8778158495391208 10.119442449992286 0
          4.8843806171753847 10.123791406886749 0
          4.8905036457157287 10.128743076059171 0
          4.8961282822942538 10.134254422836841 0
          4.9012020202080482 10.140276856693001 0
          4.9056770147491244 10.146756677215739 0
          4.9095107234750399 10.153635451532562 0
          4.9126663374104336 10.160850592589757 0
          4.9151133425584534 10.168335893361691 0
          4.916827824370352 10.176022220673069 0
          4.9177929062917851 10.183838186904019 0
          4.9179988878091523 10.191710928094137 0
          4.9174435169763724 10.199566878994331 0
          4.9161321220680696 10.207332619453085 0
          4.9146329373150586 10.215064046462068 0
          4.9129649262238342 10.222760571283974 0
          4.9111278341293154 10.230418279241714 0
          4.90916130021425 10.238043557581928 0
          4.9071071927744079 10.245645508641182 0
          4.9050337178579806 10.253242004099093 0
          4.9029897103334497 10.26084631432683 0
          4.9009989139259966 10.268464605246095 0
          4.8990859633867254 10.276102739894416 0
          4.8973382696954451 10.283780350491115 0
          4.8957544142164453 10.291493468816572 0
          4.8943655039579577 10.299244173492886 0
          4.8932037810427795 10.307032353028447 0
          4.892265870680232 10.314850889773227 0
          4.8915490453927877 10.322693092750246 0
          4.891085745382183 10.330554730588142 0
          4.8908722732635779 10.338427554268083 0
          4.8909413258400178 10.346303492718892 0
          4.8912879141794434 10.354172686323999 0
          4.8919433437253828 10.362022866065187 0
          4.8929011324448366 10.369842644956032 0
          4.8941541514763021 10.377621358678132 0
          4.8957334633914877 10.385341328045367 0
          4.8976299515106883 10.392990527754161 0
          4.8998715094983112 10.400545076056861 0
          4.9024470252482226 10.407991689960834 0
          4.9053450077932581 10.415318169862136 0
          4.9085537008492262 10.422513368757134 0
          4.9120611866919344 10.429567150859169 0
          4.9158554424566256 10.436470361949723 0
          4.9199245004807768 10.443214733809283 0
          4.9242553683161869 10.449793570812194 0
          4.9288363807135411 10.456200301721626 0
          4.9336560811338339 10.462429052073578 0
          4.9387032331345395 10.468474599024608 0
          4.9439669223826384 10.474332246224414 0
          4.9494355553275122 10.47999873285135 0
          4.9550989328337209 10.485470313850263 0
          4.9609471738664794 10.49074360257147 0
          4.9669707764324391 10.495815441874335 0
          4.9731605866817352 10.500682863235046 0
          4.9795069457926884 10.505344170125371 0
          4.9860014194494156 10.509796660589869 0
          4.9926359063244945 10.514037592644121 0
          4.999402589812175 10.518064155051075 0
          5.0062939091061942 10.521873409358017 0
          5.0133018529416988 10.525463546670336 0
          5.0204193330954014 10.528831283926714 0
          5.0276394203563326 10.531973013395053 0
          5.0349547131211692 10.534886203078621 0
          5.0423585008562863 10.537566550640875 0
          5.0498440514659535 10.54000931569262 0
          5.0574041025823879 10.542210792058938 0
          5.065031766733525 10.544165265934963 0
          5.0727199112637624 10.545866461088389 0
          5.0804607736796221 10.547309071461569 0
          5.0882465488374446 10.548485615660658 0
          5.0960688781702856 10.549387954800695 0
          5.1039185907634641 10.550008916618715 0
          5.1117859391976115 10.550339006185203 0
          5.1196601859103072 10.55036973926503 0
          5.1275296361611629 10.550092138810646 0
          5.1353808554848719 10.549488602090667 0
          5.1431987344168819 10.548546647345043 0
          5.1509665363648143 10.547254982467752 0
          5.1586652322023152 10.545600327502587 0
          5.1663863041303157 10.544052132098065 0
          5.1741376021326264 10.542661173876237 0
          5.1819288954556493 10.5415119074076 0
          5.1897684892818745 10.540752291430991 0
          5.1976374193797321 10.54041613721389 0
          5.2055124453437704 10.540306817945739 0
        </DataArray>
      </Points>
      <Cells>
        <DataArray type="Int32" Name="connectivity" format="ascii">
          0 1 1 2 2 3 3 4 4 5 5 6 6 7 7 8 8 9 9 10 10 11 11 12 12 13 13 14 14 15 15 16 16 17 17 18 18 19 19 20 20 21 21 22 22 23 23 24 24 25 25 26 26 27 27 28 28 29 29 30 30 31 31 32 32 33 33 34 34 35 35 36 36 37 37 38 38 39 39 40 40 41 41 42 42 43 43 44 44 45 45 46 46 47 47 48 48 49 49 50 50 51 51 52 52 53 53 54 54 55 55 56 56 57 57 58 58 59 59 60 60 61 61 62 62 63 63 64 64 65 65 66 66 67 67 68 68 69 69 70 70 71 71 72 72 73 73 74 74 75 75 76 76 77 77 78 78 79 79 80 80 81 81 82 82 83 83 84 84 85 85 86 86 87 87 88 88 89 89 90 90 91 91 92 92 93 93 94 94 95 95 96 96 97 97 98 98 99 99 100 100 101 101 102 102 103 103 104 104 105 105 106 106 107 107 108 108 109 109 110 110 111 111 112 112 113 113 114 114 115 115 116 116 117 117 118 118 119 119 120 120 121 121 122 122 123 123 124 124 125 125 126 126 127 
        </DataArray>
        <DataArray type="Int32" Name="offsets" format="ascii">
          2 4 6 8 10 12 14 16 18 20 22 24 26 28 30 32 34 36 38 40 42 44 46 48 50 52 54 56 58 60 62 64 66 68 70 72 74 76 78 80 82 84 86 88 90 92 94 96 98 100 102 104 106 108 110 112 114 116 118 120 122 124 126 128 130 132 134 136 138 140 142 144 146 148 150 152 154 156 158 160 162 164 166 168 170 172 174 176 178 180 182 184 186 188 190 192 194 196 198 200 202 204 206 208 210 212 214 216 218 220 222 224 226 228 230 232 234 236 238 240 242 244 246 248 250 252 254 
        </DataArray>
        <DataArray type="Int32" Name="types" format="ascii">
          3 3 3 3 3 3 3 3 3 3 3 3 3 3 3 3 3 3 3 3 3 3 3 3 3 3 3 3 3 3 3 3 3 3 3 3 3 3 3 3 3 3 3 3 3 3 3 3 3 3 3 3 3 3 3 3 3 3 3 3 3 3 3 3 3 3 3 3 3 3 3 3 3 3 3 3 3 3 3 3 3 3 3 3 3 3 3 3 3 3 3 3 3 3 3 3 3 3 3 3 3 3 3 3 3 3 3 3 3 3 3 3 3 3 3 3 3 3 3 3 3 3 3 3 3 3 3         </DataArray>
      </Cells>
    </Piece>
  </UnstructuredGrid>
</VTKFile>
