<?xml version="1.0"?>
<VTKFile type="UnstructuredGrid" version="0.1" byte_order="LittleEndian">
  <UnstructuredGrid>
    <Piece NumberOfPoints="128" NumberOfCells="127">
      <PointData Scalars="W">
        <DataArray type="Float32" Name="W" NumberOfComponents="2">
          0 0 -0.18248412533924668 -0.49659253483721094 -0.28246119870583175 -0.75634357905423855 -0.36665090280003904 -0.96054100285599875 -0.44404547295106656 -1.1331313393463718 -0.5183979340825362 -1.2839935208406807 -0.59179746913155884 -1.4185667681580085 -0.66557968274252055 -1.540266126540744 -0.74065595466144041 -1.6513561676642445 -0.81765621945487932 -1.7533452613403919 -0.89706260474889632 -1.8473284597123734 -0.97923346366709096 -1.9340659541180216 -1.0644549961765855 -2.0141131944262698 -1.1529046819169344 -2.0877732625974987 -1.244676705139198 -2.1551790465122909 -1.3398188813310274 -2.2163808326195564 -1.4383740894979897 -2.2714213065997679 -1.5403136705184342 -2.3202311349555709 -1.6455480181018347 -2.3626668706453451 -1.7539892284376688 -2.3986115806203059 -1.8655078216752912 -2.4279110748213149 -1.9799158647015307 -2.4503624082562241 -2.0970204821031722 -2.4657895506714138 -2.2165971398262014 -2.4740084716269415 -2.3383312985896496 -2.4747711921386162 -2.4619658186257225 -2.467932782055811 -2.587172060113422 -2.453306321538816 -2.7135481227428246 -2.4306782543320482 -2.840683696933473 -2.3998775195507553 -2.9684734326076549 -2.36101295533736 -3.0962300131511862 -2.3137386492810128 -3.2235057025042009 -2.2579727181405955 -3.3498340689314956 -2.1936597689368069 -3.4747516150657303 -2.1207845843863544 -3.5977668575863926 -2.0393509911657657 -3.7184083493771469 -1.949410356189609 -3.8361048447689066 -1.8509987831509871 -3.9504082518642307 -1.7442537737391159 -4.0608818666998658 -1.6293399920087643 -4.1669586216283383 -1.5063978254118131 -4.2681008881743656 -1.3756224560308934 -4.363799708051614 -1.237256561276775 4.0147530501227102 1.1320701632246462 5.1489196396741965 1.6639463131612657 5.0183974368155875 1.86005529850699 4.8805929671493109 2.0454305448482479 4.736501781817366 2.2199685795916002 4.5870844504643769 2.3836595918830032 4.4330829031612167 2.5364737210822699 4.2754420545056977 2.6785740699038647 4.1148209964986506 2.8100445213959366 3.9520733422139123 2.9311728887405528 3.7877090062627419 3.0420826405150736 3.6224831977717518 3.1431465743764022 3.0492837579295875 2.8404675127539729 2.8985777218222459 2.881589080029396 2.7639287366919856 2.9291294797087692 2.6045084601777435 2.939370605329219 2.4483242923491488 2.9391398792910786 2.2957573252286911 2.9287158047363708 2.1471452667486788 2.9083664882199387 2.0027853900099282 2.8783475463632699 1.8815239362207759 2.8680764335553839 1.7461955867453067 2.8225604251628567 1.6156809052061345 2.768061742874723 1.5056491334471851 2.7337345108399536 1.4009104365174225 2.6962885584950977 1.3001396235317753 2.6535618926177325 1.2195904822830943 2.6418525750149526 1.1270763650753082 2.5938724510382185 1.0536314428172409 2.5793794397801926 0.96966815321966393 2.5287509262062913 0.90293187042254708 2.5126021840355093 0.82607017193670584 2.4575493400792068 0.76569351617046577 2.4407261720289388 0.69612946110682428 2.3836262111151894 0.64202502407525064 2.368512339021597 0.57926787546278624 2.3103133730914287 0.53009918011252399 2.2948161071850319 0.48261710288721671 2.2803153526189472 0.42856750852574477 2.2226763202187465 0.38589472206714831 2.2118747092651629 0.33738413165295711 2.1549880174946776 0.29836960500864534 2.1454723402300218 0.26031570004357707 2.1377106687861267 0.21845558126048245 2.0839007067711082 0.18358767630159994 2.0814898630569578 0.14586653489059781 2.0299760833071554 0.11323291085121817 2.0302726171942109 0.080748943603493675 2.0329831560745784 0.047420865865322355 1.9867366944477216 0.01633068853644078 1.9963301822072721 -0.01521632025692316 2.0069812142778094 -0.045710501444064938 1.9673102253694523 -0.077005686883524174 1.9839387384662308 -0.10933967863955643 2.0037834839955622 -0.13878739943110513 1.9736948776933014 -0.17224531031025764 2.0003146172166884 -0.201271531869263 1.9739339010148016 -0.23679871993811111 2.007997081740629 -0.27496070772796161 2.0476865081461626 -0.3063993131413017 2.0314053451894729 -0.34828303089116586 2.0776972409678138 -0.38245012316118809 2.0703459430837063 -0.4297894314623622 2.125720279712211 -0.46745445942328145 2.1243085751424391 -0.52242805444035512 2.1913943144773755 -0.56570874016227657 2.198618520213063 -0.62965006869956575 2.2744802938569832 -0.6812624423156145 2.2931649436792618 -0.73562313984285166 2.3143117893094862 -0.81770993300285955 2.4082303452323308 -0.88489342612060939 2.4425478182020424 -0.95708297715064916 2.4802911244262607 -1.0367707417086729 2.5258935432152581 -1.1244418512946275 2.5778604562545553 -1.1838407191004092 2.5577609750707149 -1.2835643960170409 2.616610863816359 -1.307536322689695 2.5194934112039018 -1.3226860230081701 2.4169568343695782 -1.5457947294305698 2.6764618934190656 -1.3619450184266613 2.2402348359216626 -1.2696075654525112 1.9988003437625452 -0.92398688318736721 1.4046776157136152 -0.16728240817534329 0.25003611652338703 1.1932281722672728 -1.8122303084660849 1.4741510256445736 -2.3364604800030473 0 0
        </DataArray>
        <DataArray type="Float32" Name="u" NumberOfComponents="1">
          0 0.007874015748031496 0.015748031496062992 0.023622047244094488 0.031496062992125984 0.03937007874015748 0.047244094488188976 0.055118110236220472 0.062992125984251968 0.070866141732283464 0.07874015748031496 0.086614173228346455 0.094488188976377951 0.10236220472440945 0.11023622047244094 0.11811023622047244 0.12598425196850394 0.13385826771653545 0.14173228346456693 0.14960629921259844 0.15748031496062992 0.16535433070866143 0.17322834645669291 0.18110236220472442 0.1889763779527559 0.19685039370078741 0.20472440944881889 0.2125984251968504 0.22047244094488189 0.2283464566929134 0.23622047244094488 0.24409448818897639 0.25196850393700787 0.25984251968503935 0.26771653543307089 0.27559055118110237 0.28346456692913385 0.29133858267716534 0.29921259842519687 0.30708661417322836 0.31496062992125984 0.32283464566929132 0.33070866141732286 0.33858267716535434 0.34645669291338582 0.3543307086614173 0.36220472440944884 0.37007874015748032 0.37795275590551181 0.38582677165354329 0.39370078740157483 0.40157480314960631 0.40944881889763779 0.41732283464566927 0.42519685039370081 0.43307086614173229 0.44094488188976377 0.44881889763779526 0.45669291338582679 0.46456692913385828 0.47244094488188976 0.48031496062992124 0.48818897637795278 0.49606299212598426 0.50393700787401574 0.51181102362204722 0.51968503937007871 0.52755905511811019 0.53543307086614178 0.54330708661417326 0.55118110236220474 0.55905511811023623 0.56692913385826771 0.57480314960629919 0.58267716535433067 0.59055118110236215 0.59842519685039375 0.60629921259842523 0.61417322834645671 0.62204724409448819 0.62992125984251968 0.63779527559055116 0.64566929133858264 0.65354330708661412 0.66141732283464572 0.6692913385826772 0.67716535433070868 0.68503937007874016 0.69291338582677164 0.70078740157480313 0.70866141732283461 0.71653543307086609 0.72440944881889768 0.73228346456692917 0.74015748031496065 0.74803149606299213 0.75590551181102361 0.76377952755905509 0.77165354330708658 0.77952755905511806 0.78740157480314965 0.79527559055118113 0.80314960629921262 0.8110236220472441 0.81889763779527558 0.82677165354330706 0.83464566929133854 0.84251968503937003 0.85039370078740162 0.8582677165354331 0.86614173228346458 0.87401574803149606 0.88188976377952755 0.88976377952755903 0.89763779527559051 0.90551181102362199 0.91338582677165359 0.92125984251968507 0.92913385826771655 0.93700787401574803 0.94488188976377951 0.952755905511811 0.96062992125984248 0.96850393700787396 0.97637795275590555 0.98425196850393704 0.99212598425196852 1
        </DataArray>
      </PointData>
      <CellData Scalars="P">
        <DataArray type="Float32" Name="P" NumberOfComponents="1">
          -0.0001405713509457004 0.00051840077121760402 0.0031234399427767898 0.0083814986775926324 0.016880114603140407 0.029133564353659141 0.045605775815431432 0.066723606816133471 0.092884449939495017 0.12445980518326993 0.16179839539274449 0.2052270944759278 0.25505180799980853 0.31155513789812722 0.37499384797788138 0.44559733623210324 0.52356787216457712 0.6090771021356014 0.70226277811718019 0.80322883782790944 0.9120430962501801 1.0287339552910642 1.1532902470651243 1.285659629539575 1.4257436907811232 1.5734018693691576 1.7284478821489895 1.8906462971624074 2.0597131839249383 2.2353348794498835 2.4171351216286019 2.6046910126908309 2.7975336607286199 2.9951501809700041 3.1969840742261488 3.4024383938094527 3.6108725609574326 3.8216113878751417 4.0339476908651957 4.2471378542481135 4.4604061239839412 4.6729487431783525 4.4530813978021193 4.1950928036848163 3.9304076034330615 3.6602346036854256 3.3857475301564603 3.1080798856834289 2.8283326965830979 2.5475561137358973 2.2667631344697297 1.9869114323576755 1.7089238344588995 1.433666419641892 1.1961220503864651 0.96408169099715957 0.73692067841306419 0.51754639947865844 0.30651591554138863 0.10432252308720753 -0.088603157380901743 -0.27189217326155207 -0.44711568902088006 -0.61223255943996646 -0.76704212173679798 -0.91304833542226205 -1.0502960073199865 -1.1787294419555996 -1.3001178526323764 -1.4128102600858699 -1.5185483175756853 -1.6158742669573325 -1.7064096546264473 -1.7887791474568018 -1.8645834658968858 -1.9326000012098308 -1.994361482460107 -2.0487629042386422 -2.097154427355314 -2.1396277978875577 -2.1754051264661434 -2.2055950212131679 -2.2295781461029596 -2.248240616820095 -2.2616597604796307 -2.2695570843627091 -2.2724872687453073 -2.2703718674668898 -2.2635149334214217 -2.2519530443716285 -2.2359541436755017 -2.2154188483973387 -2.1903599302278791 -2.161386202773953 -2.1280029724385012 -2.0901821216290206 -2.048844314116085 -2.0031119100709001 -1.9541730415246523 -1.9008430158604885 -1.8430050225657217 -1.782226392967267 -1.7169447038700176 -1.6488613246541293 -1.576224160858023 -1.5010216216685244 -1.4211692660028878 -1.3389413176103684 -1.2521483481214428 -1.1631473219604773 -1.0722206877809768 -0.97699329931691858 -0.880161826500787 -0.78211427768477004 -0.68313461329234004 -0.58364562962181599 -0.4870657327746703 -0.39130073823802175 -0.3026764833735997 -0.22196127118036857 -0.13872215010096919 -0.074436334414791847 -0.022883770507288747 0.009427541307462383 0.017654592909138331 0.0026593989579209928 -0.0041356833482193156
        </DataArray>
      </CellData>
      <Points>
        <DataArray type="Float32" NumberOfComponents="3" format="ascii">
          6.9435844896129337 10.09673183372707 0
          6.9509809327738301 10.094031317102717 0
          6.958366061655231 10.091300011748213 0
          6.9657336775592711 10.088521813101549 0
          6.973078560675412 10.085684060913989 0
          6.9803959125384036 10.082776054567343 0
          6.9876811233278042 10.079788440580911 0
          6.9949296423292449 10.076712875380057 0
          7.0021368951192198 10.07354181356361 0
          7.0092982270528781 10.07026836750074 0
          7.0164088642022095 10.066886213812548 0
          7.0234638834589607 10.063389525479586 0
          7.030458190312233 10.059772924710986 0
          7.0373865011002357 10.056031448507802 0
          7.0442433320033722 10.052160529873396 0
          7.0510229932023334 10.048155989575992 0
          7.0577195859117268 10.044014033032687 0
          7.0643269997204285 10.039731247664735 0
          7.0708389143679939 10.035304607198048 0
          7.077248805300397 10.030731480558682 0
          7.0835499491208198 10.026009639124306 0
          7.0897354316186991 10.021137266285418 0
          7.095798159423329 10.016112970029134 0
          7.10173087196429 10.010935793853939 0
          7.1075261553950089 10.005605228180107 0
          7.1131764620968667 10.000121225724572 0
          7.1186741266246072 9.9944842104863625 0
          7.1240113860847778 9.9886950893350441 0
          7.129180405056224 9.9827552652502192 0
          7.1341733010317538 9.976666647926022 0
          7.1389821509519624 9.9704316470215026 0
          7.1435990338207622 9.9640531936054462 0
          7.148016058466462 9.9575347452311966 0
          7.1522253924615145 9.950880289368996 0
          7.1562192908598936 9.9440943443474428 0
          7.1599901266691299 9.9371819591143282 0
          7.1635304200796686 9.930148710050096 0
          7.1668328738813623 9.9230006987278898 0
          7.1698904012440678 9.9157445433871416 0
          7.1726961527919002 9.908387368723373 0
          7.1752435517598689 9.9009367971834514 0
          7.17752632732513 9.8934009368638343 0
          7.1795385461606038 9.885788366464352 0
          7.1817997279036723 9.8782458361541696 0
          7.1843801564789596 9.8708064753428406 0
          7.1872717391755492 9.8634824431604216 0
          7.1904659318031525 9.8562852331907944 0
          7.1939538004232508 9.8492256670633349 0
          7.1977260809100452 9.8423138938521184 0
          7.2017732249525421 9.8355593882343797 0
          7.2060854586427245 9.8289709606095848 0
          7.2106528233389779 9.8225567623095298 0
          7.2154652285914844 9.8163243034488072 0
          7.2205124837536347 9.8102804605888565 0
          7.2257843448045804 9.8044314998563635 0
          7.2312452666055149 9.7987586598196508 0
          7.236885904733378 9.7932644896704559 0
          7.2426979105816809 9.7879519364226812 0
          7.2486713992885976 9.7828216348296841 0
          7.2547966866297413 9.7778735703709483 0
          7.2610643126431968 9.7731070965195332 0
          7.2674650625655257 9.7685209513643905 0
          7.2739899852618652 9.7641132734579106 0
          7.2806315620900675 9.759883425540254 0
          7.2873814018827066 9.7558285853277944 0
          7.2942314119131337 9.7519453735893702 0
          7.3011747697504328 9.7482316615853168 0
          7.3082049811709711 9.744685127215039 0
          7.3153157979662113 9.7413031209833321 0
          7.3225022260782477 9.7380849163739764 0
          7.3297585292557557 9.7350275382103675 0
          7.3370801539353279 9.73213008743509 0
          7.3444618940714985 9.7293894246964427 0
          7.3518996120662106 9.7268045483246528 0
          7.3593885422004375 9.7243720446869322 0
          7.366924941204382 9.7220908703359452 0
          7.3745044958614585 9.7199574847379626 0
          7.3821238518261776 9.7179709504538625 0
          7.3897791179671737 9.7161276588310894 0
          7.3974672459842346 9.7144266486935198 0
          7.4051852921544592 9.7128670206735617 0
          7.4129299053097677 9.7114452008715979 0
          7.420698439964819 9.7101605192960854 0
          7.4284878884567034 9.7090094487142 0
          7.436295832166202 9.7079913988957927 0
          7.4441199120470367 9.707105888383202 0
          7.4519575329092858 9.7063495807486078 0
          7.4598065333236461 9.7057223263247483 0
          7.4676645748451937 9.7052209310850213 0
          7.4755296346567155 9.7048454132679023 0
          7.4833996992430958 9.7045959408109681 0
          7.4912727027337205 9.7044696463430942 0
          7.4991467181392792 9.7044671246100869 0
          7.5070197901721176 9.704589035964128 0
          7.5148900289001617 9.7048329208283999 0
          7.522755494774108 9.7051998102493915 0
          7.5306141838687672 9.7056909347313987 0
          7.5384642713978094 9.7063044289678189 0
          7.5463036838865882 9.7070419436392275 0
          7.55413062290922 9.7079018434761917 0
          7.5619428868375005 9.708886240814369 0
          7.5697381107007322 9.7099975969041665 0
          7.577514346812328 9.7112349029398448 0
          7.5852689995975657 9.7126010297512675 0
          7.5929999524323755 9.7140955224492398 0
          7.6007042716156601 9.7157218152608351 0
          7.6083796239071955 9.717479821888757 0
          7.6160226023571331 9.7193737030272995 0
          7.62363052577762 9.7214039082295702 0
          7.6311994312934948 9.7235751427614172 0
          7.6387261213135726 9.7258885672556996 0
          7.6462072280389686 9.7283454953519772 0
          7.6536376635879568 9.7309517527857619 0
          7.661013265196555 9.7337094705375051 0
          7.6683295598612835 9.7366209924909626 0
          7.6755816097178826 9.739689150356492 0
          7.6827639819582183 9.7429171710859084 0
          7.6898729987042422 9.746303814562955 0
          7.6969024802693182 9.7498527362414737 0
          7.7038509485439741 9.7535579234256478 0
          7.7107174738822248 9.7574130291403911 0
          7.7174882214000897 9.7614341528666131 0
          7.7241746142233279 9.7655942645428517 0
          7.730782398829005 9.7698784137554604 0
          7.7373330479896971 9.7742497897076053 0
          7.7438735667787899 9.7786368372823436 0
          7.7504884885549243 9.7829117316194356 0
          7.7571953649022367 9.787041997416102 0
        </DataArray>
      </Points>
      <Cells>
        <DataArray type="Int32" Name="connectivity" format="ascii">
          0 1 1 2 2 3 3 4 4 5 5 6 6 7 7 8 8 9 9 10 10 11 11 12 12 13 13 14 14 15 15 16 16 17 17 18 18 19 19 20 20 21 21 22 22 23 23 24 24 25 25 26 26 27 27 28 28 29 29 30 30 31 31 32 32 33 33 34 34 35 35 36 36 37 37 38 38 39 39 40 40 41 41 42 42 43 43 44 44 45 45 46 46 47 47 48 48 49 49 50 50 51 51 52 52 53 53 54 54 55 55 56 56 57 57 58 58 59 59 60 60 61 61 62 62 63 63 64 64 65 65 66 66 67 67 68 68 69 69 70 70 71 71 72 72 73 73 74 74 75 75 76 76 77 77 78 78 79 79 80 80 81 81 82 82 83 83 84 84 85 85 86 86 87 87 88 88 89 89 90 90 91 91 92 92 93 93 94 94 95 95 96 96 97 97 98 98 99 99 100 100 101 101 102 102 103 103 104 104 105 105 106 106 107 107 108 108 109 109 110 110 111 111 112 112 113 113 114 114 115 115 116 116 117 117 118 118 119 119 120 120 121 121 122 122 123 123 124 124 125 125 126 126 127 
        </DataArray>
        <DataArray type="Int32" Name="offsets" format="ascii">
          2 4 6 8 10 12 14 16 18 20 22 24 26 28 30 32 34 36 38 40 42 44 46 48 50 52 54 56 58 60 62 64 66 68 70 72 74 76 78 80 82 84 86 88 90 92 94 96 98 100 102 104 106 108 110 112 114 116 118 120 122 124 126 128 130 132 134 136 138 140 142 144 146 148 150 152 154 156 158 160 162 164 166 168 170 172 174 176 178 180 182 184 186 188 190 192 194 196 198 200 202 204 206 208 210 212 214 216 218 220 222 224 226 228 230 232 234 236 238 240 242 244 246 248 250 252 254 
        </DataArray>
        <DataArray type="Int32" Name="types" format="ascii">
          3 3 3 3 3 3 3 3 3 3 3 3 3 3 3 3 3 3 3 3 3 3 3 3 3 3 3 3 3 3 3 3 3 3 3 3 3 3 3 3 3 3 3 3 3 3 3 3 3 3 3 3 3 3 3 3 3 3 3 3 3 3 3 3 3 3 3 3 3 3 3 3 3 3 3 3 3 3 3 3 3 3 3 3 3 3 3 3 3 3 3 3 3 3 3 3 3 3 3 3 3 3 3 3 3 3 3 3 3 3 3 3 3 3 3 3 3 3 3 3 3 3 3 3 3 3 3         </DataArray>
      </Cells>
    </Piece>
  </UnstructuredGrid>
</VTKFile>
