<?xml version="1.0"?>
<VTKFile type="UnstructuredGrid" version="0.1" byte_order="LittleEndian">
  <UnstructuredGrid>
    <Piece NumberOfPoints="128" NumberOfCells="127">
      <PointData Scalars="W">
        <DataArray type="Float32" Name="W" NumberOfComponents="2">
          0 0 -0.30328915182002719 0.1062385481653003 -0.5241879590567099 0.18158928483294823 -0.70106634046374017 0.2388660554829721 -0.85600748618501743 0.28549092346050597 -0.99799628532342866 0.32434622901028676 -1.1315208847476099 0.35676034985964389 -1.2591996044443752 0.38341774481665697 -1.382686960174291 0.40467263884621757 -1.50314742057547 0.42070865972928817 -1.6213673018915431 0.43158106994238354 -1.7379403866661236 0.43727667372062096 -1.8533065685966559 0.43772760902619257 -1.967836582865879 0.43283437179826934 -2.0818374527707197 0.42246601939342682 -2.195517684069916 0.4064538473815929 -2.3089500096104207 0.38459029921570631 -2.4222362662448136 0.35666220341174121 -2.5353896761362558 0.32242924281474394 -2.6483458862735381 0.28163142169514166 -2.7610134248650042 0.23399873774771487 -2.8732742384700805 0.17925104334317951 -2.9849522080578801 0.11709684528985416 -3.0958022826321403 0.047237376316094155 -3.2055683122130127 -0.030628606749253853 -3.3138682938775808 -0.11680175131767791 -3.4203345958909059 -0.21157710945831965 -3.5246053258503882 -0.31524962422892638 -3.6261847685115578 -0.42810169089787625 -3.7241918370340534 -0.55034410736639472 -3.8183665122783479 -0.68224408271013259 -3.9080406624939661 -0.82401239710546481 -3.9925038081861079 -0.97582722395414878 -4.0709547506301478 -1.1378158323358776 -4.1425652352502489 -1.3100609063069999 -4.2064378449405888 -1.492582649437491 -4.261697887653626 -1.6853643913679175 -4.3072834341883661 -1.8882653998617189 -4.3420777779611957 -2.1010409520350088 -4.3650560632549427 -2.3234062403120124 -4.3751311603783885 -2.5549669414038227 -4.3711488890191852 -2.7951937367171902 2.9205903680708412 1.8953890624043674 2.8317859838410402 1.7318027050625733 2.731004539029831 1.5759861272381577 2.6565815917560478 1.4480621814517995 2.5369881946341648 1.3076248079967681 2.4484241603965335 1.1946619085819865 2.3542240422183816 1.0882768478415801 2.2155930439344531 0.97159065201970962 2.1128109538485575 0.88019167697044232 2.0072656850461645 0.79526254397205765 1.8996304180404262 0.71659776448325996 1.8316058062086649 0.65836765121235419 1.7220180416952302 0.59028890122937916 1.6115981076023616 0.52762156342109567 1.5428550983320539 0.48293058400724531 1.3938676705147279 0.41785485613840534 1.2440984750451118 0.35832381300479699 1.0939669545008266 0.30377899951999987 0.98886631447283069 0.26556006786590164 0.84078425390305256 0.21908835145864983 0.69334844438918397 0.1760592259427966 0.54743414449931205 0.1360760554262995 0.35096113131551854 0.085882123953575876 0.25808723727757399 0.062480665101787125 0.16924819494857371 0.040663536845463644 0.08326336920355025 0.019914821617109051 0.00095649827756151215 0.00022842926426517606 -0.077544527328254759 -0.018544463609255012 -0.20500266298876996 -0.049273572223295127 -0.27546415376312461 -0.066776694664723524 -0.3417369203360674 -0.083747747284153171 -0.40372590964112831 -0.10023379919360483 -0.46131351812739518 -0.11625206985733745 -0.5137120640346835 -0.13162273883355383 -0.61734566997611129 -0.16120533285857433 -0.66107822930022209 -0.17630610508056913 -0.70004868528966213 -0.19086742136708082 -0.73419764891873129 -0.20480588661195082 -0.76274910192831202 -0.21781352074809504 -0.7870705680768445 -0.23017548091899703 -0.80639398666305218 -0.24156479151355972 -0.82066997901340188 -0.25183988026241139 -0.82986357171802871 -0.26085271288030781 -0.83391368856027737 -0.26843808906618633 -0.83205536497432819 -0.27418847924800932 -0.82574077327995499 -0.2784199544260394 -0.81417468064520659 -0.28071972971675341 -0.79733317208253451 -0.28092102011228876 -0.7751806394945282 -0.27885609127721378 -0.7476895772253076 -0.27436593546743965 -0.71479538748950533 -0.26728662705471173 -0.67570850984089648 -0.25718705878947951 -0.63187308740752113 -0.24449984632557359 -0.58247509990198243 -0.22882887699246848 -0.52740642408171701 -0.21006091985496159 -0.46657415524466306 -0.18811487721578518 -0.39986376774396054 -0.16293194666744992 -0.32633392306907999 -0.13414781609614862 -0.19472249800913705 -0.080551145041842478 -0.10935636385564307 -0.045403662751358674 -0.017250183090859409 -0.0071730210792670746 0.081930163939314321 0.034041940621622309 0.13666276591569926 0.05663404022128276 0.25100817487954963 0.10353418758650811 0.37360753122380191 0.15294214219949817 0.50582030353573426 0.20486106464283213 0.59188369594507018 0.2365138019008044 0.74257480493973693 0.29187341668830252 0.90503668914460589 0.3484770716470767 1.0213445187857599 0.38377290934180353 1.2072849851716123 0.44079358852442108 1.3486702973600133 0.47613432541550815 1.5636969847806195 0.53079747297151303 1.7346930793039446 0.56249064601252641 1.9218800459314553 0.59127119491705815 2.1933852159297849 0.63440646513615373 2.4228373911634242 0.65148745786006201 2.6730390602464928 0.65968846631111921 3.2075976426979236 0.71114413976224466 -3.2811567139185787 -0.72847597207016535 -3.2970705812759387 -0.82467069565765383 -2.8216811335209573 -0.78093947166950062 -1.9488535819942074 -0.58058746542593476 -0.58642927306648718 -0.18138062038099645 5.7676878211495328 1.6507730315932885 0 0
        </DataArray>
        <DataArray type="Float32" Name="u" NumberOfComponents="1">
          0 0.007874015748031496 0.015748031496062992 0.023622047244094488 0.031496062992125984 0.03937007874015748 0.047244094488188976 0.055118110236220472 0.062992125984251968 0.070866141732283464 0.07874015748031496 0.086614173228346455 0.094488188976377951 0.10236220472440945 0.11023622047244094 0.11811023622047244 0.12598425196850394 0.13385826771653545 0.14173228346456693 0.14960629921259844 0.15748031496062992 0.16535433070866143 0.17322834645669291 0.18110236220472442 0.1889763779527559 0.19685039370078741 0.20472440944881889 0.2125984251968504 0.22047244094488189 0.2283464566929134 0.23622047244094488 0.24409448818897639 0.25196850393700787 0.25984251968503935 0.26771653543307089 0.27559055118110237 0.28346456692913385 0.29133858267716534 0.29921259842519687 0.30708661417322836 0.31496062992125984 0.32283464566929132 0.33070866141732286 0.33858267716535434 0.34645669291338582 0.3543307086614173 0.36220472440944884 0.37007874015748032 0.37795275590551181 0.38582677165354329 0.39370078740157483 0.40157480314960631 0.40944881889763779 0.41732283464566927 0.42519685039370081 0.43307086614173229 0.44094488188976377 0.44881889763779526 0.45669291338582679 0.46456692913385828 0.47244094488188976 0.48031496062992124 0.48818897637795278 0.49606299212598426 0.50393700787401574 0.51181102362204722 0.51968503937007871 0.52755905511811019 0.53543307086614178 0.54330708661417326 0.55118110236220474 0.55905511811023623 0.56692913385826771 0.57480314960629919 0.58267716535433067 0.59055118110236215 0.59842519685039375 0.60629921259842523 0.61417322834645671 0.62204724409448819 0.62992125984251968 0.63779527559055116 0.64566929133858264 0.65354330708661412 0.66141732283464572 0.6692913385826772 0.67716535433070868 0.68503937007874016 0.69291338582677164 0.70078740157480313 0.70866141732283461 0.71653543307086609 0.72440944881889768 0.73228346456692917 0.74015748031496065 0.74803149606299213 0.75590551181102361 0.76377952755905509 0.77165354330708658 0.77952755905511806 0.78740157480314965 0.79527559055118113 0.80314960629921262 0.8110236220472441 0.81889763779527558 0.82677165354330706 0.83464566929133854 0.84251968503937003 0.85039370078740162 0.8582677165354331 0.86614173228346458 0.87401574803149606 0.88188976377952755 0.88976377952755903 0.89763779527559051 0.90551181102362199 0.91338582677165359 0.92125984251968507 0.92913385826771655 0.93700787401574803 0.94488188976377951 0.952755905511811 0.96062992125984248 0.96850393700787396 0.97637795275590555 0.98425196850393704 0.99212598425196852 1
        </DataArray>
      </PointData>
      <CellData Scalars="P">
        <DataArray type="Float32" Name="P" NumberOfComponents="1">
          -0.014567522687190833 -0.043211548795082842 -0.07062961350683418 -0.096282149094989722 -0.11968045234976007 -0.14034888199923423 -0.15781018042139072 -0.17157766342641378 -0.18115096391390337 -0.1860126656045612 -0.18562723728455857 -0.17943963856379833 -0.16687475463649915 -0.14733610548337678 -0.12020490617612134 -0.084840612747656738 -0.040583554791618577 0.013246686180982339 0.077349129618161788 0.15243880138222637 0.239245472993628 0.33851227569581077 0.45099268975249118 0.57744642815426894 0.71863765413192893 0.87532685880078887 1.0482693976590038 1.2382139356043664 1.4458921901744 1.6719897044473224 1.9171824859045183 2.1821070491231707 2.467352636550062 2.7734489692225952 3.1008580031195829 3.4499615746310921 3.8210564036322787 4.2143292347229693 4.6298415017808559 5.0675280489375485 5.5271805657065158 6.0084286147474213 5.6390201955641528 5.2715817680322239 4.9097303138214885 4.5518473796474597 4.2054831260514858 3.867898268284744 3.5410343483077376 3.2319215759083488 2.9365390332657491 2.65594701790583 2.3909676869523029 2.1367335352574992 1.8991245257381546 1.6784125008361186 1.4693079877175663 1.2820453875598368 1.1163587858423669 0.9718001587694538 0.84246277957020044 0.73284055434446804 0.64205856676654105 0.56905891523943553 0.51811407676215948 0.47742934096320094 0.4459254591694759 0.42263737405828516 0.40652591202687399 0.39655601661655876 0.39583551890285629 0.39897653671387373 0.40500363341112294 0.41298093893193083 0.42201753915289192 0.43123824128804933 0.44259150486634175 0.45238920707763242 0.45998902668429453 0.46482488917835452 0.46639011456222673 0.46430469072698627 0.45824971997040459 0.44799306477614853 0.43339042018127849 0.414385271045488 0.39101003832108838 0.36338426627906473 0.33170938270720635 0.29626821560413419 0.25742148900401945 0.21560329991691515 0.17131689543345108 0.12515279570361312 0.077712097262452914 0.029666678005285885 -0.018268522991359965 -0.065344852425582869 -0.11078870860017609 -0.1537690710742062 -0.19066288841471588 -0.22342900880732935 -0.25130150777783494 -0.2735361327903057 -0.29259041826532417 -0.3046851300988464 -0.30919985699620928 -0.30553398225380429 -0.29671006088161267 -0.2789137097362609 -0.25182242776464181 -0.21881104460963072 -0.17636115263672544 -0.12799805251902979 -0.070592195265638674 -0.00791957164461159 0.05945032603213081 0.13387871967368162 0.21116357717682382 0.28990012865791448 0.37791377833963014 0.26177804169626234 0.15703697607163103 0.077408467328833053 0.026684564437486694 0.0016724216706055913 0.011731573483993639
        </DataArray>
      </CellData>
      <Points>
        <DataArray type="Float32" NumberOfComponents="3" format="ascii">
          4.0412611077491194 6.7528615989636203 0
          4.0438735986067664 6.7602895876227853 0
          4.0464672855156456 6.7677241631318896 0
          4.0490284727867341 6.7751699974367092 0
          4.0515461940482291 6.7826306420474651 0
          4.0540108430737556 6.790108988199381 0
          4.0564136167043525 6.7976074455472846 0
          4.0587462365677807 6.8051280245137074 0
          4.06100078672669 6.8126723787138355 0
          4.0631696110824853 6.820241826905888 0
          4.0652452411621605 6.8278373643644308 0
          4.0672203473508288 6.8354596662948826 0
          4.0690877020617258 6.8431090870033877 0
          4.0708401524478557 6.8507856556770363 0
          4.0724705974020781 6.8584890702018653 0
          4.0739719685080642 6.8662186890311574 0
          4.0753372171002011 6.8739735207119042 0
          4.076559309742489 6.8817522110017606 0
          4.0776312219040038 6.8895530296371765 0
          4.0785459371297357 6.8973738554177242 0
          4.0792964510225094 6.9052121600695742 0
          4.0798757769077358 6.9130649914877802 0
          4.0802769531478233 6.9209289563487797 0
          4.080493054058441 6.9288002020187358 0
          4.0805172051005583 6.9366743980101919 0
          4.0803425987625817 6.94454671728462 0
          4.0799625182478785 6.9524118175914085 0
          4.079370360273459 6.9602638231534133 0
          4.0785596575150329 6.9680963063590315 0
          4.0775241093520318 6.9759022702322167 0
          4.076257636510352 6.9836741353420582 0
          4.074754397198241 6.991403723214936 0
          4.0730088285497974 6.999082243246165 0
          4.0710156906969575 7.0067002816343145 0
          4.0687701164693246 7.014247793473074 0
          4.0662676627742993 7.0217140976091628 0
          4.0635043662683046 7.0290878753762494 0
          4.0604767976212415 7.0363571716174169 0
          4.0571821273934017 7.0435094034028598 0
          4.0536181953111692 7.0505313751987231 0
          4.0497835738488615 7.0574092965245825 0
          4.0456776356734041 7.0641288064052379 0
          4.0413006252477537 7.0706750061970887 0
          4.0371047268909326 7.0773387351709749 0
          4.0330844343337597 7.084109847143174 0
          4.0292334984417089 7.0909786777002584 0
          4.0255473039140428 7.0979372930681217 0
          4.0220184348694943 7.10497698253476 0
          4.0186413989578522 7.1120907401687434 0
          4.0154103543181821 7.1192719679875021 0
          4.0123167043737737 7.1265134282710321 0
          4.0093540750334782 7.1338094524771734 0
          4.006515920879445 7.1411547733357228 0
          4.0037955669204095 7.148544512105075 0
          4.0011887940470583 7.1559750582477726 0
          3.998688806306816 7.1634421895832885 0
          3.9962887561900735 7.1709420195507514 0
          3.9939843802284334 7.1784717772936606 0
          3.9917664398301267 7.1860274261527035 0
          3.989625647964715 7.1936052733849056 0
          3.9875526951864311 7.2012019355477177 0
          3.9855410640626503 7.2088150425723319 0
          3.9835815723678252 7.2164417118523518 0
          3.981665078027445 7.2240792743960727 0
          3.9797825333938528 7.2317252502585996 0
          3.9779217562625901 7.2393765256448717 0
          3.976076987706449 7.2470316500874832 0
          3.974242719050336 7.2546892714745344 0
          3.9724136186634293 7.262348104038101 0
          3.9705845830217412 7.2700069279890123 0
          3.9687507446273447 7.2776645802894651 0
          3.9669042007293669 7.2853191560435047 0
          3.9650405823809072 7.2929695712776521 0
          3.9631557803640169 7.3006147751233863 0
          3.9612459510702944 7.3082537468979929 0
          3.9593075237794939 7.3158854950359951 0
          3.9573372494823911 7.3235090682415462 0
          3.955328702625752 7.3311226338356015 0
          3.9532791714214746 7.3387252575968862 0
          3.9511862392789587 7.3463160388568811 0
          3.9490477884758746 7.3538941156657716 0
          3.9468620482608299 7.3614586838830807 0
          3.9446275100587127 7.3690089794882478 0
          3.9423429750824268 7.3765442988494643 0
          3.9400075573885736 7.3840640074941737 0
          3.9376206860418925 7.3915675492798112 0
          3.935182108900209 7.3990544566284111 0
          3.9326919400446614 7.4065243757811583 0
          3.9301505697450558 7.4139770472008779 0
          3.9275587137709733 7.4214123311540989 0
          3.924917414882787 7.4288302180440464 0
          3.9222280450505491 7.4362308388028469 0
          3.9194923071734191 7.4436144747433417 0
          3.9167122391020723 7.4509815677161413 0
          3.9138902626186223 7.458332746822526 0
          3.9110290939110999 7.4656688016073627 0
          3.9081317940746398 7.4729907066060024 0
          3.9052017758452426 7.4802996283618963 0
          3.9022428093928601 7.4875969304534307 0
          3.8992590294581033 7.4948841771394674 0
          3.8962549937682973 7.5021631559310551 0
          3.8932388622942877 7.5094371916032721 0
          3.8902159272019694 7.5167084660941299 0
          3.8871918988436125 7.5239793524954646 0
          3.8841729265241396 7.5312524089242787 0
          3.881162402912838 7.5385290401701601 0
          3.8781674182912331 7.5458121569277212 0
          3.8751955752150868 7.553104825367452 0
          3.8722550728897196 7.5604102673026112 0
          3.8693512482113044 7.5677304495996278 0
          3.8664934472929771 7.5750688074741461 0
          3.8636917468854697 7.5824288531922752 0
          3.8609533610585478 7.5898127796692476 0
          3.8582898239912069 7.5972241250046482 0
          3.8557099063313158 7.6046650849534618 0
          3.8532269478070602 7.6121390512766984 0
          3.8508515571336859 7.6196479935332171 0
          3.8485953480874091 7.6271937007444288 0
          3.8464751663333736 7.6347788494277147 0
          3.8445052492229679 7.6424045029241308 0
          3.8427011222402716 7.650071174124955 0
          3.8410959542781473 7.6577820467931215 0
          3.8392873687935345 7.6654472244093741 0
          3.8372743955471229 7.6730608345494602 0
          3.8350865298825467 7.6806256610035959 0
          3.8327779019474106 7.6881541894627725 0
          3.8304329857478816 7.6956712313112972 0
          3.8284456818838319 7.7032906733598256 0
        </DataArray>
      </Points>
      <Cells>
        <DataArray type="Int32" Name="connectivity" format="ascii">
          0 1 1 2 2 3 3 4 4 5 5 6 6 7 7 8 8 9 9 10 10 11 11 12 12 13 13 14 14 15 15 16 16 17 17 18 18 19 19 20 20 21 21 22 22 23 23 24 24 25 25 26 26 27 27 28 28 29 29 30 30 31 31 32 32 33 33 34 34 35 35 36 36 37 37 38 38 39 39 40 40 41 41 42 42 43 43 44 44 45 45 46 46 47 47 48 48 49 49 50 50 51 51 52 52 53 53 54 54 55 55 56 56 57 57 58 58 59 59 60 60 61 61 62 62 63 63 64 64 65 65 66 66 67 67 68 68 69 69 70 70 71 71 72 72 73 73 74 74 75 75 76 76 77 77 78 78 79 79 80 80 81 81 82 82 83 83 84 84 85 85 86 86 87 87 88 88 89 89 90 90 91 91 92 92 93 93 94 94 95 95 96 96 97 97 98 98 99 99 100 100 101 101 102 102 103 103 104 104 105 105 106 106 107 107 108 108 109 109 110 110 111 111 112 112 113 113 114 114 115 115 116 116 117 117 118 118 119 119 120 120 121 121 122 122 123 123 124 124 125 125 126 126 127 
        </DataArray>
        <DataArray type="Int32" Name="offsets" format="ascii">
          2 4 6 8 10 12 14 16 18 20 22 24 26 28 30 32 34 36 38 40 42 44 46 48 50 52 54 56 58 60 62 64 66 68 70 72 74 76 78 80 82 84 86 88 90 92 94 96 98 100 102 104 106 108 110 112 114 116 118 120 122 124 126 128 130 132 134 136 138 140 142 144 146 148 150 152 154 156 158 160 162 164 166 168 170 172 174 176 178 180 182 184 186 188 190 192 194 196 198 200 202 204 206 208 210 212 214 216 218 220 222 224 226 228 230 232 234 236 238 240 242 244 246 248 250 252 254 
        </DataArray>
        <DataArray type="Int32" Name="types" format="ascii">
          3 3 3 3 3 3 3 3 3 3 3 3 3 3 3 3 3 3 3 3 3 3 3 3 3 3 3 3 3 3 3 3 3 3 3 3 3 3 3 3 3 3 3 3 3 3 3 3 3 3 3 3 3 3 3 3 3 3 3 3 3 3 3 3 3 3 3 3 3 3 3 3 3 3 3 3 3 3 3 3 3 3 3 3 3 3 3 3 3 3 3 3 3 3 3 3 3 3 3 3 3 3 3 3 3 3 3 3 3 3 3 3 3 3 3 3 3 3 3 3 3 3 3 3 3 3 3         </DataArray>
      </Cells>
    </Piece>
  </UnstructuredGrid>
</VTKFile>
