<?xml version="1.0"?>
<VTKFile type="UnstructuredGrid" version="0.1" byte_order="LittleEndian">
  <UnstructuredGrid>
    <Piece NumberOfPoints="128" NumberOfCells="127">
      <PointData Scalars="W">
        <DataArray type="Float32" Name="W" NumberOfComponents="2">
          0 0 0.42727671198892292 0.27297349862780834 0.64127172606076865 0.40520276125121174 0.80760254105644647 0.50272738627862301 0.94961472161890437 0.58047401508421015 1.0768536344680437 0.64453814047481095 1.1945014825792339 0.69820313602360806 1.3057284927755166 0.74344011899087681 1.4126471751277569 0.78151721119689754 1.5166743443256165 0.81323998467780778 1.6188688563353615 0.83916239775947865 1.7200046643746212 0.85963997127401826 1.8206483107295308 0.8748835396233875 1.921169314678155 0.88497765776585458 2.0218084433289003 0.88992619120319238 2.1227335158439824 0.88968565086912832 2.224119321333534 0.88420112291844755 2.3260020943697546 0.87334851257688972 2.4283906868807588 0.85698768714998774 2.5312778910573561 0.83496709638877897 2.6346037107998121 0.8071125215322329 2.7382430898953665 0.77322866928959677 2.8420567046767302 0.73311870449058281 2.945893403706028 0.68658460488519402 3.0495138581173857 0.63341162652954097 3.1527419513584314 0.57340502640407198 3.2553139979030963 0.50635626314601712 3.3568558028608395 0.43205156539474787 3.4570367085397606 0.35030108374838675 3.5558469536846933 0.26094592003498246 3.6525663577523271 0.1637685014428146 3.7467849667062234 0.058613124874163695 3.8380423795431109 -0.054659316894942141 3.9258839410027897 -0.17616828768232445 4.0098025230281698 -0.30601204992871361 4.0892747018204059 -0.44426502101388793 4.1636425073381877 -0.5909585129489624 4.2323764555254533 -0.74610648656521572 4.2949463628801876 -0.90970466565095154 4.3506321953810323 -1.0816833389209535 4.3987265602675132 -1.2619291595827888 4.4385307081552314 -1.4502871005613125 -0.10887653518373701 0.037750812988362713 0.13861655110866122 -0.048081844036367567 0.2163687158708569 -0.075410845468327131 0.4674073344844753 -0.16440316490030302 0.72118844670524662 -0.2577010016196255 0.79280136174460414 -0.28897285843314202 1.0441959494820385 -0.3897575772699064 1.2971774473950775 -0.49882064999466713 1.3538642640600953 -0.53812254301721851 1.8014559378413386 -0.74416752249037188 2.0498569897424455 -0.88658897719041041 2.9742666002800373 -1.3637080848163081 13.600134310806661 -7.500613283544542 12.66057566802818 -9.1696055093787283 11.504656216122983 -10.727057640879664 0.46872406010280165 -0.49745411003790957 0.49282536169720431 -0.5288720601715946 0.51617153869973176 -0.56046227043946295 0.54083442732041187 -0.59455772073767188 0.56398372971842126 -0.6281492033584084 0.58664557054332389 -0.66240847053906438 0.60971952300484566 -0.69844170222554092 0.73756454354499146 -0.85885058010512727 0.75619268994160005 -0.89688910714664816 0.77328289493660629 -0.9348472388162371 0.78862154870509316 -0.97246138969112461 0.80074196599940373 -1.0078427935816148 0.81216961095823825 -1.0440811101198235 0.82156500585316572 -1.0794701840822485 0.82874440009071304 -1.1136775381859458 0.73507242631712544 -1.0095205144685104 0.74073185619496273 -1.0388411765867078 0.74432085828553718 -1.0666031160143739 0.74570625872563812 -1.0924632411127488 0.74494913983140831 -1.116331661747386 0.74093422012078991 -1.1362820574173846 0.73600441441412912 -1.1556518772492221 0.72904281621445055 -1.1725600761954365 0.63715773168720213 -1.0486364830967452 0.62919469024254304 -1.0584842043739047 0.61946028996291769 -1.0655070288071815 0.60696579062605527 -1.0676891198086282 0.5939461441295123 -1.0686575780217296 0.57939684045934692 -1.066443480522882 0.49088101373489795 -0.92299740128069441 0.47596886862701981 -0.91286902113464274 0.4597691190182901 -0.89934204413522578 0.4424076271484858 -0.8824331098996232 0.42384967492981701 -0.86184848482606857 0.33910203679007522 -0.70161849517851349 0.32029777279192095 -0.67299224590949025 0.30038534916749582 -0.64057007158923174 0.21852400747258069 -0.47192109420615008 0.19777529034280358 -0.43153689844135995 0.17581265110657077 -0.38723209126426783 0.1526526131543226 -0.33904400756669661 0.070851599901566656 -0.15826924232801226 0.045502844255465837 -0.10195150414138911 0.018542075424355382 -0.0416136726484619 -0.010119289064076869 0.022715529857232412 -0.040759335369836773 0.091374620013580918 -0.12836130846600305 0.28650531608043578 -0.16411351602617844 0.3635669465937611 -0.2027674008648781 0.44504265559059619 -0.24462015313398014 0.53094267554006203 -0.29020077649839754 0.62167187204750074 -0.33986248753419407 0.71712764631583847 -0.33470294820293262 0.69513900271748608 -0.3925228936180914 0.80174087553513751 -0.45601535810681226 0.91392034038140835 -0.46152592645632745 0.90667138554651239 -0.53645343079624774 1.0318567868728021 -0.62048934884237905 1.1655064001768034 -0.64212937795305836 1.1762769832355946 -0.74305735307798515 1.3254481842060017 -0.77845770300716421 1.3499684166035788 -0.81969807315111098 1.3814103803669535 -0.86923229488163412 1.4227656006558216 -0.92749363478827906 1.4733034513631067 -1.4274486233205348 2.1835802786651839 -1.5880109420325794 2.319525460096568 -1.6840404958209556 2.3450851994908564 -1.9833156536758283 2.6246151435573744 -2.1179039575653174 2.6543882675367367 -1.8490204119914557 2.2034361766856314 0 0
        </DataArray>
        <DataArray type="Float32" Name="u" NumberOfComponents="1">
          0 0.007874015748031496 0.015748031496062992 0.023622047244094488 0.031496062992125984 0.03937007874015748 0.047244094488188976 0.055118110236220472 0.062992125984251968 0.070866141732283464 0.07874015748031496 0.086614173228346455 0.094488188976377951 0.10236220472440945 0.11023622047244094 0.11811023622047244 0.12598425196850394 0.13385826771653545 0.14173228346456693 0.14960629921259844 0.15748031496062992 0.16535433070866143 0.17322834645669291 0.18110236220472442 0.1889763779527559 0.19685039370078741 0.20472440944881889 0.2125984251968504 0.22047244094488189 0.2283464566929134 0.23622047244094488 0.24409448818897639 0.25196850393700787 0.25984251968503935 0.26771653543307089 0.27559055118110237 0.28346456692913385 0.29133858267716534 0.29921259842519687 0.30708661417322836 0.31496062992125984 0.32283464566929132 0.33070866141732286 0.33858267716535434 0.34645669291338582 0.3543307086614173 0.36220472440944884 0.37007874015748032 0.37795275590551181 0.38582677165354329 0.39370078740157483 0.40157480314960631 0.40944881889763779 0.41732283464566927 0.42519685039370081 0.43307086614173229 0.44094488188976377 0.44881889763779526 0.45669291338582679 0.46456692913385828 0.47244094488188976 0.48031496062992124 0.48818897637795278 0.49606299212598426 0.50393700787401574 0.51181102362204722 0.51968503937007871 0.52755905511811019 0.53543307086614178 0.54330708661417326 0.55118110236220474 0.55905511811023623 0.56692913385826771 0.57480314960629919 0.58267716535433067 0.59055118110236215 0.59842519685039375 0.60629921259842523 0.61417322834645671 0.62204724409448819 0.62992125984251968 0.63779527559055116 0.64566929133858264 0.65354330708661412 0.66141732283464572 0.6692913385826772 0.67716535433070868 0.68503937007874016 0.69291338582677164 0.70078740157480313 0.70866141732283461 0.71653543307086609 0.72440944881889768 0.73228346456692917 0.74015748031496065 0.74803149606299213 0.75590551181102361 0.76377952755905509 0.77165354330708658 0.77952755905511806 0.78740157480314965 0.79527559055118113 0.80314960629921262 0.8110236220472441 0.81889763779527558 0.82677165354330706 0.83464566929133854 0.84251968503937003 0.85039370078740162 0.8582677165354331 0.86614173228346458 0.87401574803149606 0.88188976377952755 0.88976377952755903 0.89763779527559051 0.90551181102362199 0.91338582677165359 0.92125984251968507 0.92913385826771655 0.93700787401574803 0.94488188976377951 0.952755905511811 0.96062992125984248 0.96850393700787396 0.97637795275590555 0.98425196850393704 0.99212598425196852 1
        </DataArray>
      </PointData>
      <CellData Scalars="P">
        <DataArray type="Float32" Name="P" NumberOfComponents="1">
          -0.03730908720788579 -0.11110812467878084 -0.18333558068004063 -0.25353469904432319 -0.32134159532826162 -0.38643224645792118 -0.44849782193176613 -0.50723216962953721 -0.56232475564893325 -0.6134577298484658 -0.66030334002053193 -0.70252314551004569 -0.73976804906711846 -0.7716798239458259 -0.79789257292026095 -0.81803373105665111 -0.83172333406851862 -0.83857743723560008 -0.83820907946569034 -0.83022895764362714 -0.81424736748050175 -0.78987688827595737 -0.75673350595629174 -0.7144375851098862 -0.66261798350708512 -0.60091010908579556 -0.528960105343113 -0.4464307006904164 -0.35300029222055296 -0.24834731138426183 -0.13218582155609016 -0.0042516846420968856 0.13569384871729842 0.28786352846525259 0.45244022105020859 0.62957493614330484 0.8193772786677328 1.021921969748079 1.2372480018303367 1.4653447500124637 1.7061507016094766 1.9595519670774371 1.8889697769772988 1.8379906573089351 1.7931825941196766 1.7680695584735588 1.7620857951729791 1.7600451303478013 1.7745012432879452 1.8036883173573328 1.8320385423595307 1.8837572964201517 1.9427241491811253 2.0443673214637923 2.6589171397510203 3.2092103503655571 3.7191713010343745 3.6778592477447609 3.6395266973256692 3.6039091588352719 3.5708400190414502 3.5399468216993215 3.5108941007303436 3.4833822098513143 3.4639080187983118 3.4449402428933884 3.4259995159631229 3.4065953055007046 3.3861577064548771 3.3642837159689711 3.3405079185012543 3.3143802011848553 3.2807646754517275 3.2444440829324144 3.2050491948960222 3.1622428506410238 3.1157325570495926 3.0652428034257122 3.0106137432355746 2.9517022643767619 2.8875927933631118 2.8195733885942871 2.7476213303274153 2.6717744087395277 2.5921130191312112 2.5087700500393808 2.4238304821879146 2.3360414972049148 2.2456255337604403 2.1528425706954324 2.0579937561265313 1.9651086349270683 1.8711637203593727 1.7764980742468706 1.685910150078042 1.5955737966953885 1.5058366256292515 1.417050986811641 1.3347188871204139 1.2542118676496998 1.1758517583265822 1.099948858404195 1.0268129800850145 0.96221126306759075 0.90099303995085334 0.84338945218808059 0.78960285015607512 0.73982022661112445 0.69418510461112237 0.64719437022517046 0.60459145397462954 0.56639822473922952 0.52705569537144659 0.49210448990100714 0.46143261430014215 0.42951037885513954 0.40139457825148073 0.37169203695809316 0.34020779275977436 0.30673364094285038 0.27088802005559903 0.24875110095286077 0.22244349743308051 0.18842136692611935 0.14946259242901677 0.10010528235490972 0.036805761468108815
        </DataArray>
      </CellData>
      <Points>
        <DataArray type="Float32" NumberOfComponents="3" format="ascii">
          3.8715268705742063 8.4352606324010289 0
          3.8672742679715002 8.4418878980518581 0
          3.8630481476581391 8.4485321070642314 0
          3.8588617725940608 8.455201468492227 0
          3.8547254518589238 8.4619020379831351 0
          3.8506479875445825 8.4686386444017021 0
          3.8466372664141688 8.4754152681746682 0
          3.8427005811687569 8.482235245042963 0
          3.8388448270231108 8.4891013883502282 0
          3.835076632727346 8.4960160676930876 0
          3.8314024484664047 8.5029812588629916 0
          3.8278286115714852 8.5099985781696521 0
          3.8243613945686383 8.517069304448615 0
          3.821007040366577 8.5241943920888943 0
          3.8177717852253461 8.5313744762234318 0
          3.8146618737377462 8.5386098729103601 0
          3.8116835692831113 8.5459005763728992 0
          3.8088431649094936 8.553246255526755 0
          3.8061469856177164 8.5606462462129063 0
          3.8036013889416451 8.5680995424321118 0
          3.801212764526809 8.5756047868679115 0
          3.7989875304288026 8.5831602600003745 0
          3.7969321253695303 8.5907638679096117 0
          3.7950530001017935 8.5984131299809103 0
          3.7933566080335996 8.6061051665337782 0
          3.7918493903749484 8.6138366854115578 0
          3.7905377651998191 8.6216039698103089 0
          3.789428111068295 8.6294028652501851 0
          3.7885267437842218 8.6372287662212326 0
          3.787839895847076 8.6450766043128304 0
          3.7873737158129512 8.6529408382640387 0
          3.7871342235614511 8.6608154403726516 0
          3.7871272848072741 8.6686938867441548 0
          3.7873585824748095 8.6765691485717316 0
          3.7878335884238687 8.6844336846366872 0
          3.7885575319133746 8.6922794351262755 0
          3.7895353670489182 8.7000978169330416 0
          3.7907717318731655 8.7078797216318709 0
          3.7922709154290413 8.7156155145357594 0
          3.7940368247775997 8.7232950348849752 0
          3.7960729402259945 8.7309076000998349 0
          3.7983822713374753 8.7384420127433344 0
          3.8009673134762481 8.7458865700720239 0
          3.8035455190203535 8.7533332551041791 0
          3.8061322530499804 8.7607767255033213 0
          3.8087323437024776 8.7682152875007056 0
          3.81136137286668 8.7756434052253187 0
          3.8140350903157172 8.7830552771512771 0
          3.816757939212986 8.790448968244446 0
          3.8195455173872066 8.7978182150968642 0
          3.8224135184998751 8.805156242267822 0
          3.8253654553296053 8.8124606201275384 0
          3.8284290902831311 8.8197185437716055 0
          3.8316198244727229 8.8269211744792155 0
          3.8349949855042631 8.8340388647078498 0
          3.8392141660597652 8.8406912384560545 0
          3.8442191088638604 8.846774697976187 0
          3.8499381244527684 8.8521925569076796 0
          3.8556861063702494 8.8575794291642289 0
          3.8614645502222675 8.8629333687549448 0
          3.8672749047736295 8.8682524192852181 0
          3.8731187003493694 8.8735344690307656 0
          3.878997373379482 8.8787774378188367 0
          3.8849123299926469 8.883979204228158 0
          3.8908650017624069 8.8891375368898622 0
          3.8968633135842969 8.89424248256433 0
          3.902908421023509 8.8992916867954648 0
          3.9090013842579214 8.9042828002898613 0
          3.9151431548528732 8.9092134952607438 0
          3.9213344848854894 8.9140815826412041 0
          3.9275760834728199 8.9188848202796613 0
          3.9338685337820611 8.9236210188295857 0
          3.9402122816680971 8.9282880623616716 0
          3.946601523582975 8.9328924207628209 0
          3.9530366113785731 8.9374322804736366 0
          3.9595177686536207 8.9419059246887453 0
          3.9660450825290727 8.9463117546238404 0
          3.9726185074616818 8.9506482950706943 0
          3.9792377961646137 8.9549143138745251 0
          3.9859026448150408 8.9591086148647641 0
          3.9926126238746202 8.9632301545329334 0
          3.9993620416369571 8.9672866244837941 0
          4.0061504068080449 8.9712774183264834 0
          4.0129771185548888 8.9752021048278756 0
          4.0198414052600144 8.9790605529133654 0
          4.0267424630417272 8.9828527066966757 0
          4.0336793935324824 8.9865787075806249 0
          4.0406467146440859 8.9902474548681628 0
          4.0476435058626885 8.9938595800693335 0
          4.0546687672096198 8.9974159253762984 0
          4.0617214270606645 9.0009175426249115 0
          4.0688003400110073 9.0043657115036897 0
          4.0759002580054497 9.0077703701049785 0
          4.0830200206900633 9.0111332962905095 0
          4.0901583994043156 9.0144565032695976 0
          4.09731032499056 9.017750450311528 0
          4.1044745172181676 9.0210176440750498 0
          4.1116496209831714 9.0242608343719066 0
          4.1188342073363735 9.0274830118759475 0
          4.126023210822213 9.0306953874057321 0
          4.1332150669921663 9.033901455833746 0
          4.1404081118112366 9.0371049615094989 0
          4.147600576157858 9.0403098965263045 0
          4.1547905685640778 9.0435205217625736 0
          4.1619726636295749 9.0467489392802385 0
          4.1691446528980238 9.0499999317315094 0
          4.1763041482300007 9.0532785559999205 0
          4.1834485633334086 9.0565901439199692 0
          4.1905750808984523 9.0599403274720309 0
          4.1976806306317407 9.0633350325255044 0
          4.2047655459630962 9.066772904541974 0
          4.2118262513453439 9.0702605624665757 0
          4.2188588192663028 9.0738049722720451 0
          4.2258629231065266 9.077405696607725 0
          4.2328339262310655 9.0810705106752359 0
          4.2397666263357889 9.0848077161898004 0
          4.2466596970528903 9.0886179976829595 0
          4.2535068872459938 9.0925106232240349 0
          4.2603060168561129 9.0964871338938718 0
          4.2670545437712581 9.1005495022626164 0
          4.2737494112141361 9.1047003181650243 0
          4.2803870206304717 9.1089427437140262 0
          4.286936318411124 9.1133208582378398 0
          4.2933873437069332 9.1178431271881148 0
          4.2997341467973165 9.122511174059543 0
          4.3059581415722503 9.1273423776453662 0
          4.3120509804487659 9.132338632273111 0
          4.3180294078999051 9.1374720264172371 0
        </DataArray>
      </Points>
      <Cells>
        <DataArray type="Int32" Name="connectivity" format="ascii">
          0 1 1 2 2 3 3 4 4 5 5 6 6 7 7 8 8 9 9 10 10 11 11 12 12 13 13 14 14 15 15 16 16 17 17 18 18 19 19 20 20 21 21 22 22 23 23 24 24 25 25 26 26 27 27 28 28 29 29 30 30 31 31 32 32 33 33 34 34 35 35 36 36 37 37 38 38 39 39 40 40 41 41 42 42 43 43 44 44 45 45 46 46 47 47 48 48 49 49 50 50 51 51 52 52 53 53 54 54 55 55 56 56 57 57 58 58 59 59 60 60 61 61 62 62 63 63 64 64 65 65 66 66 67 67 68 68 69 69 70 70 71 71 72 72 73 73 74 74 75 75 76 76 77 77 78 78 79 79 80 80 81 81 82 82 83 83 84 84 85 85 86 86 87 87 88 88 89 89 90 90 91 91 92 92 93 93 94 94 95 95 96 96 97 97 98 98 99 99 100 100 101 101 102 102 103 103 104 104 105 105 106 106 107 107 108 108 109 109 110 110 111 111 112 112 113 113 114 114 115 115 116 116 117 117 118 118 119 119 120 120 121 121 122 122 123 123 124 124 125 125 126 126 127 
        </DataArray>
        <DataArray type="Int32" Name="offsets" format="ascii">
          2 4 6 8 10 12 14 16 18 20 22 24 26 28 30 32 34 36 38 40 42 44 46 48 50 52 54 56 58 60 62 64 66 68 70 72 74 76 78 80 82 84 86 88 90 92 94 96 98 100 102 104 106 108 110 112 114 116 118 120 122 124 126 128 130 132 134 136 138 140 142 144 146 148 150 152 154 156 158 160 162 164 166 168 170 172 174 176 178 180 182 184 186 188 190 192 194 196 198 200 202 204 206 208 210 212 214 216 218 220 222 224 226 228 230 232 234 236 238 240 242 244 246 248 250 252 254 
        </DataArray>
        <DataArray type="Int32" Name="types" format="ascii">
          3 3 3 3 3 3 3 3 3 3 3 3 3 3 3 3 3 3 3 3 3 3 3 3 3 3 3 3 3 3 3 3 3 3 3 3 3 3 3 3 3 3 3 3 3 3 3 3 3 3 3 3 3 3 3 3 3 3 3 3 3 3 3 3 3 3 3 3 3 3 3 3 3 3 3 3 3 3 3 3 3 3 3 3 3 3 3 3 3 3 3 3 3 3 3 3 3 3 3 3 3 3 3 3 3 3 3 3 3 3 3 3 3 3 3 3 3 3 3 3 3 3 3 3 3 3 3         </DataArray>
      </Cells>
    </Piece>
  </UnstructuredGrid>
</VTKFile>
