<?xml version="1.0"?>
<VTKFile type="UnstructuredGrid" version="0.1" byte_order="LittleEndian">
  <UnstructuredGrid>
    <Piece NumberOfPoints="128" NumberOfCells="127">
      <PointData Scalars="W">
        <DataArray type="Float32" Name="W" NumberOfComponents="2">
          0 0 -0.15193931175904279 -0.33260613011256807 -0.23146485085270696 -0.50188395539534858 -0.30002050541132624 -0.64212775628061203 -0.36360685477443244 -0.7659448592450635 -0.42480105346886549 -0.87851365954244864 -0.48514010775324645 -0.98276235192645067 -0.54568037717321227 -1.080566752406686 -0.60718903216425146 -1.1731605557921223 -0.67022528835806761 -1.2613189488411309 -0.73524948656508815 -1.3455871716852614 -0.80262768254581673 -1.4262994697165168 -0.87267494508826204 -1.503669216106164 -0.9456093474126217 -1.5777206299414943 -1.0215758937344044 -1.6483518567186131 -1.1006837937906935 -1.7154109910897175 -1.1830458758455245 -1.7787614841813042 -1.2687059370910696 -1.838173238141078 -1.3576500740455217 -1.8933562917808282 -1.4498681606059109 -1.9440556002673683 -1.5453081180862045 -1.9899870905673966 -1.643857352791056 -2.0308233070344333 -1.7453946808500147 -2.0662668033420566 -1.8497625912767244 -2.0960160430214678 -1.9567073303463658 -2.1197068591262638 -2.0660247336231632 -2.1370817408484282 -2.1774303586231554 -2.1478436098204821 -2.2905570095438659 -2.1516700886283986 -2.4050187869248907 -2.1482854216728526 -2.5207143411308683 -2.1377088736694754 -2.6369606714717753 -2.119495734576375 -2.7532968958994823 -2.0934791168795792 -2.8692304981269832 -2.0595277532897871 -2.9842579915010843 -2.0175619011122246 -3.0978367896939365 -1.9675336299428969 -3.2094313880579359 -1.9094583177834588 -3.3183997264959881 -1.8433480273485932 -3.4242102884045922 -1.7693409589168305 -3.5263350097634683 -1.6876237065311226 -3.6241152220709578 -1.5983722690799345 -3.7169174966949234 -1.5018400905632077 -3.8041370290350103 -1.3983525661238145 5.5861826821998806 2.1013697079977613 5.4393232377169856 2.3422511786555766 5.2836289217019941 2.5723394541909395 5.1194911849580791 2.7912800128275421 4.9476666209944238 2.9988975733753396 4.7689139332193857 3.1950728632429795 4.5836686807928508 3.3794967199499593 4.3928211104806048 3.5521921304050221 4.1968288565489233 3.7128930829176081 3.9965849376915585 3.8617203474680646 3.7924618049195562 3.9983503116463499 3.5853487855021706 4.1229773405758703 2.699273214404168 3.3565065594728432 2.5343364029203452 3.3776762795869355 2.3945799016372464 3.4214858234132293 2.2132589460381493 3.3910972861534541 2.0369855782545652 3.3457833037947569 1.8663580428649655 3.2856754224751206 1.7019183522482177 3.2109043153943198 1.544148307287966 3.1215976347515508 1.4210136610295738 3.0796989285776117 1.2765397524318876 2.9676153359168489 1.1396481394603599 2.8412830162443248 1.0323998527375158 2.7612431239613193 0.93223397612739434 2.6776752340387899 0.83729268505967691 2.5856974088870639 0.76927017366417316 2.5597721068810464 0.68452590063294139 2.4603758225565229 0.62438501943056923 2.4308800030819082 0.55032740397953817 2.3281450900087823 0.49770403260693863 2.2961965722562692 0.43260876212643468 2.1854000957650594 0.38725722876417684 2.1519960717052831 0.33147843958447348 2.0370332965054452 0.29335434566691593 2.0060724440867617 0.24630332566451082 1.8879921182923785 0.21398365627571606 1.8544894015442142 0.18336103041932744 1.8216162460490433 0.14737264267592232 1.7017091161046032 0.12247426189702069 1.6734643219406782 0.093765902595594974 1.5524298204919411 0.073484037597861207 1.5234535343832822 0.054325737393907149 1.4959565847557885 0.034386062455753721 1.3758890531383958 0.019286177939885105 1.354964584148852 0.0049830874713259849 1.2354978987653586 -0.0068272686406120556 1.2155108136880626 -0.018111390587607471 1.1978385907132982 -0.026075343897392217 1.0819224585653382 -0.03496863559866898 1.0728322356208719 -0.043614382941458217 1.0632052971806791 -0.046657737446844982 0.95255117013919088 -0.05363521631525791 0.94928233631565495 -0.060788244110024495 0.94955760108943632 -0.060427446723124861 0.84931789730533547 -0.066791866655382434 0.85715479619020352 -0.063950354750005961 0.7581972239753173 -0.070070095302832203 0.77468659278942786 -0.077319668739198308 0.79934913062284552 -0.073049646717499306 0.71085634471177628 -0.080609603805705587 0.74239454048214781 -0.075943857994229508 0.66486562133833926 -0.084793982037854376 0.70814258554522647 -0.079536571702605988 0.6355256283231242 -0.09082536761877559 0.69586379917747287 -0.08608587773537997 0.63347185927792227 -0.099671882147643096 0.7052970669234 -0.096767833492682698 0.6589200375802694 -0.093258437146694073 0.61339588587652982 -0.11218477405189371 0.71253042590125171 -0.11208877918921792 0.68694700355934069 -0.11205136748790899 0.6641637173385273 -0.11375515804481566 0.65328437070072198 -0.11690210612113573 0.65123846736121926 -0.090421056881745648 0.49080821931433388 -0.092296553843844276 0.490171569552038 -0.027354969332702914 0.14327668570300778 0.044964883108693808 -0.23598791253341936 -0.032078447097645325 0.16860410040816456 0.18712620673850314 -1.0017304635390121 0.31449627728574758 -1.7945867294083084 0.53390844877881849 -3.4747210980191414 0.74368427416488747 -6.5812829931877701 0.45963147224639239 -9.061982054152967 -0.0010363157434063696 -3.8569188207031933 0 0
        </DataArray>
        <DataArray type="Float32" Name="u" NumberOfComponents="1">
          0 0.007874015748031496 0.015748031496062992 0.023622047244094488 0.031496062992125984 0.03937007874015748 0.047244094488188976 0.055118110236220472 0.062992125984251968 0.070866141732283464 0.07874015748031496 0.086614173228346455 0.094488188976377951 0.10236220472440945 0.11023622047244094 0.11811023622047244 0.12598425196850394 0.13385826771653545 0.14173228346456693 0.14960629921259844 0.15748031496062992 0.16535433070866143 0.17322834645669291 0.18110236220472442 0.1889763779527559 0.19685039370078741 0.20472440944881889 0.2125984251968504 0.22047244094488189 0.2283464566929134 0.23622047244094488 0.24409448818897639 0.25196850393700787 0.25984251968503935 0.26771653543307089 0.27559055118110237 0.28346456692913385 0.29133858267716534 0.29921259842519687 0.30708661417322836 0.31496062992125984 0.32283464566929132 0.33070866141732286 0.33858267716535434 0.34645669291338582 0.3543307086614173 0.36220472440944884 0.37007874015748032 0.37795275590551181 0.38582677165354329 0.39370078740157483 0.40157480314960631 0.40944881889763779 0.41732283464566927 0.42519685039370081 0.43307086614173229 0.44094488188976377 0.44881889763779526 0.45669291338582679 0.46456692913385828 0.47244094488188976 0.48031496062992124 0.48818897637795278 0.49606299212598426 0.50393700787401574 0.51181102362204722 0.51968503937007871 0.52755905511811019 0.53543307086614178 0.54330708661417326 0.55118110236220474 0.55905511811023623 0.56692913385826771 0.57480314960629919 0.58267716535433067 0.59055118110236215 0.59842519685039375 0.60629921259842523 0.61417322834645671 0.62204724409448819 0.62992125984251968 0.63779527559055116 0.64566929133858264 0.65354330708661412 0.66141732283464572 0.6692913385826772 0.67716535433070868 0.68503937007874016 0.69291338582677164 0.70078740157480313 0.70866141732283461 0.71653543307086609 0.72440944881889768 0.73228346456692917 0.74015748031496065 0.74803149606299213 0.75590551181102361 0.76377952755905509 0.77165354330708658 0.77952755905511806 0.78740157480314965 0.79527559055118113 0.80314960629921262 0.8110236220472441 0.81889763779527558 0.82677165354330706 0.83464566929133854 0.84251968503937003 0.85039370078740162 0.8582677165354331 0.86614173228346458 0.87401574803149606 0.88188976377952755 0.88976377952755903 0.89763779527559051 0.90551181102362199 0.91338582677165359 0.92125984251968507 0.92913385826771655 0.93700787401574803 0.94488188976377951 0.952755905511811 0.96062992125984248 0.96850393700787396 0.97637795275590555 0.98425196850393704 0.99212598425196852 1
        </DataArray>
      </PointData>
      <CellData Scalars="P">
        <DataArray type="Float32" Name="P" NumberOfComponents="1">
          0.007844432906911317 0.023944560187100068 0.040948179315595933 0.059300171614404179 0.079442450425753458 0.10182078917206934 0.12688738921553244 0.15510158241152414 0.18692884313785516 0.22283799116969999 0.26329884017735811 0.30877848145921216 0.35973777264249529 0.41662497306543966 0.47986902169015866 0.54987370701851979 0.62701354608902693 0.711625916644686 0.80400328323101455 0.90438873928769281 1.0129691837219126 1.1298674105666757 1.2551374929121286 1.3887588281332475 1.530626703174931 1.6805525790720022 1.8382565830456736 2.0033604044494533 2.1753850902632403 2.3537687951532784 2.5378292637172222 2.726779779239588 2.9197292070858998 3.1156841800086745 3.3135504470161341 3.5121378901231459 3.7101600790929568 3.9062471256844691 4.0989526428942735 4.2867551529954806 4.468069152462796 4.641256950610118 4.4346177881698603 4.2285942767716396 4.0227131512164638 3.8165580785674327 3.6097578029619752 3.4019881934759879 3.1929906819751537 2.9825523829063436 2.7705299497701348 2.5568274414007908 2.3414271968475617 2.1243599981608616 1.9559011122563399 1.7891626929086455 1.6226681740557505 1.4603667480086397 1.3028541267684408 1.1507465278884479 1.0046755602343183 0.86528253267168331 0.73001937890546109 0.60247271560449234 0.48327508400481461 0.37004312078134632 0.26295481110191049 0.16241816219184591 0.065303785367023137 -0.024870925638310632 -0.11131298246466996 -0.19067587616967727 -0.26608284503959556 -0.33413685995001857 -0.3981062340252392 -0.45471090270182213 -0.50730559320865976 -0.55265628991970117 -0.59393404649762926 -0.63112492547283749 -0.66146908448327657 -0.68798999631481428 -0.70809463195100086 -0.72452202012174705 -0.73731909408590923 -0.74449383801545632 -0.74842172580058275 -0.74740560122111377 -0.74342861608198574 -0.73655636841243621 -0.72579802038781849 -0.71254020134293883 -0.69679695991268209 -0.67827543124103329 -0.65760004415450779 -0.63478196199097803 -0.61025301969074752 -0.58381472848816729 -0.55642550067291163 -0.52727914405018683 -0.4962255590825474 -0.4650275513436864 -0.43194710919372886 -0.39914732817746856 -0.36430835957785696 -0.33017195893680029 -0.29361159000122694 -0.25793708052440567 -0.2195137679156946 -0.18188079030675075 -0.14524781438342885 -0.10512569025393176 -0.065652615258415217 -0.026920854271096268 0.011295850004338038 0.04912514221304061 0.081242110751271454 0.11282609619408311 0.13332160083958042 0.14294950938508219 0.163923114930275 0.15732111048972733 0.13824600493346847 0.098017718600309445 0.032281452633075275 -0.02080599402012848 -0.012426126054471062
        </DataArray>
      </CellData>
      <Points>
        <DataArray type="Float32" NumberOfComponents="3" format="ascii">
          6.9518503528398536 10.080021061503009 0
          6.9590173787306746 10.076759523184762 0
          6.9661749788804643 10.073477364252968 0
          6.9733182197784442 10.070164090127037 0
          6.9804428490055743 10.066811006126818 0
          6.9875449228298745 10.063410435924611 0
          6.9946206462626686 10.059955400527045 0
          7.001666277672399 10.056439436746814 0
          7.0086780632289587 10.052856480911913 0
          7.0156521892939123 10.049200792381345 0
          7.0225847477135677 10.045466905485588 0
          7.029471707248427 10.041649595721839 0
          7.0363088908526112 10.037743859029826 0
          7.0430919561175855 10.033744898560874 0
          7.0498163817320787 10.029648123174168 0
          7.0564774584741778 10.02544915374926 0
          7.0630702824241807 10.021143832601455 0
          7.0695897479543355 10.016728231944903 0
          7.0760305449996235 10.012198668155836 0
          7.0823871599069594 10.007551719747401 0
          7.0886538760510218 10.002784243179796 0
          7.0948247770519073 9.9978933904704004 0
          7.1008937537454582 9.9928766294938782 0
          7.1068545116868087 9.9877317624220119 0
          7.112700580906842 9.9824569444174198 0
          7.1184253316362796 9.9770507062107097 0
          7.124021986955773 9.9715119700652348 0
          7.1294836404237421 9.9658400681953534 0
          7.134803278835407 9.9600347627535033 0
          7.1399738061418843 9.954096262926944 0
          7.1449880497275355 9.9480252237433984 0
          7.1498388027501099 9.941822773643306 0
          7.1545188527097654 9.9354905248271308 0
          7.1590210119796494 9.9290305813942155 0
          7.1633381490167967 9.922445544287033 0
          7.1674632219972434 9.9157385142629693 0
          7.1713893120120478 9.9089130909407235 0
          7.175109662869624 9.9019733720520389 0
          7.1786177140440559 9.8949239448725059 0
          7.1819071334088882 9.8877698746515197 0
          7.1849718580679358 9.8805166936987199 0
          7.1878061336205095 9.8731703856682991 0
          7.1904045516510617 9.8657373653817633 0
          7.193349327517164 9.8584346199470509 0
          7.196631358163323 9.8512770839777186 0
          7.2002409929410334 9.844279023052442 0
          7.2041680578746883 9.8374540117587497 0
          7.2084019025655639 9.830814922847523 0
          7.212931447223796 9.8243739198609497 0
          7.2177452096572008 9.8181424379918756 0
          7.2228313604523011 9.8121311855305606 0
          7.2281777513224252 9.806350127398245 0
          7.2337719704527261 9.8008084926537329 0
          7.2396013655546749 9.795514754452892 0
          7.2456530989736185 9.7904766421124023 0
          7.2518722139969345 9.7856466457544347 0
          7.2582484842481652 9.7810260791019275 0
          7.2647732452473326 9.7766176592822518 0
          7.2714352536735092 9.7724195036674946 0
          7.2782235788186256 9.7684288041318315 0
          7.285127639672285 9.7646418351772333 0
          7.292137238525207 9.7610539620062333 0
          7.2992425908452248 9.7576596484096534 0
          7.3064360608011896 9.7544562970880069 0
          7.3137086877250352 9.7514369592965728 0
          7.3210519807422836 9.7485938026102499 0
          7.3284592881441846 9.7459218644300378 0
          7.3359243973047459 9.7434159632766164 0
          7.3434414193773216 9.7410703961145018 0
          7.3510061361927566 9.7388835550881812 0
          7.3586132910506068 9.7368492770379209 0
          7.3662591544225471 9.7349657326247065 0
          7.373939132223013 9.7332265515272489 0
          7.3816499610209014 9.7316297522370068 0
          7.3893876023478562 9.7301684644565238 0
          7.3971492436785473 9.7288406163430832 0
          7.4049314242447144 9.7276390791577807 0
          7.412731779780203 9.7265619324718475 0
          7.4205473907785153 9.7256018541640277 0
          7.4283762529270154 9.7247567661570091 0
          7.4362164671705999 9.7240246294179027 0
          7.4440658001932274 9.7233980085172256 0
          7.4519227081108008 9.7228751513841107 0
          7.4597854092720945 9.7224485526957718 0
          7.4676526462290083 9.7221164150483244 0
          7.4755232312799862 9.7218770327909745 0
          7.4833959269864581 9.7217229606534925 0
          7.4912697976646792 9.721652900562189 0
          7.4991439558430573 9.7216594446133513 0
          7.5070176701578264 9.7217413529519199 0
          7.5148902420076276 9.7218975293025398 0
          7.5227611777915708 9.7221207861385626 0
          7.5306299276783095 9.7224105594238228 0
          7.5384959573120645 9.7227662519101958 0
          7.5463590791842261 9.7231810026197092 0
          7.5542188629705587 9.7236546086913886 0
          7.5620748676542346 9.7241870870829867 0
          7.5699271179962748 9.7247722228663491 0
          7.5777752225487252 9.7254105020385602 0
          7.5856193608657883 9.7260957894310085 0
          7.5934591574196455 9.7268291077392579 0
          7.6012941668431946 9.727611986517168 0
          7.6091246587666674 9.7284389398395152 0
          7.6169501693900949 9.7293119238550645 0
          7.6247709940877098 9.7302261327241588 0
          7.6325865899066105 9.7311842507635831 0
          7.6403972902570372 9.7321817770427526 0
          7.6482024018080503 9.733222454132747 0
          7.656002227260136 9.7343024154937883 0
          7.6637959317633451 9.7354261164928797 0
          7.6715837056181355 9.7365906840851597 0
          7.6793657778298936 9.7377932983868405 0
          7.6871409839818456 9.7390401092348693 0
          7.6949093429094448 9.7403295339688185 0
          7.7026708711357426 9.7416601639893354 0
          7.7104254783790251 9.7430313293221182 0
          7.7181729862008801 9.7444429083365343 0
          7.7259150613197205 9.745884958456573 0
          7.7336516089875129 9.747357446482912 0
          7.7413866962614675 9.7488388662545447 0
          7.7491248564943689 9.7503057021462034 0
          7.7568613263081092 9.7517830540623507 0
          7.7646098066896103 9.7531983348716373 0
          7.772378303011811 9.754502356872166 0
          7.7801806143784891 9.7555908584437674 0
          7.7880300973035048 9.7562709812066881 0
          7.7959079216449947 9.756388567733671 0
          7.803785172566017 9.7562667557103264 0
        </DataArray>
      </Points>
      <Cells>
        <DataArray type="Int32" Name="connectivity" format="ascii">
          0 1 1 2 2 3 3 4 4 5 5 6 6 7 7 8 8 9 9 10 10 11 11 12 12 13 13 14 14 15 15 16 16 17 17 18 18 19 19 20 20 21 21 22 22 23 23 24 24 25 25 26 26 27 27 28 28 29 29 30 30 31 31 32 32 33 33 34 34 35 35 36 36 37 37 38 38 39 39 40 40 41 41 42 42 43 43 44 44 45 45 46 46 47 47 48 48 49 49 50 50 51 51 52 52 53 53 54 54 55 55 56 56 57 57 58 58 59 59 60 60 61 61 62 62 63 63 64 64 65 65 66 66 67 67 68 68 69 69 70 70 71 71 72 72 73 73 74 74 75 75 76 76 77 77 78 78 79 79 80 80 81 81 82 82 83 83 84 84 85 85 86 86 87 87 88 88 89 89 90 90 91 91 92 92 93 93 94 94 95 95 96 96 97 97 98 98 99 99 100 100 101 101 102 102 103 103 104 104 105 105 106 106 107 107 108 108 109 109 110 110 111 111 112 112 113 113 114 114 115 115 116 116 117 117 118 118 119 119 120 120 121 121 122 122 123 123 124 124 125 125 126 126 127 
        </DataArray>
        <DataArray type="Int32" Name="offsets" format="ascii">
          2 4 6 8 10 12 14 16 18 20 22 24 26 28 30 32 34 36 38 40 42 44 46 48 50 52 54 56 58 60 62 64 66 68 70 72 74 76 78 80 82 84 86 88 90 92 94 96 98 100 102 104 106 108 110 112 114 116 118 120 122 124 126 128 130 132 134 136 138 140 142 144 146 148 150 152 154 156 158 160 162 164 166 168 170 172 174 176 178 180 182 184 186 188 190 192 194 196 198 200 202 204 206 208 210 212 214 216 218 220 222 224 226 228 230 232 234 236 238 240 242 244 246 248 250 252 254 
        </DataArray>
        <DataArray type="Int32" Name="types" format="ascii">
          3 3 3 3 3 3 3 3 3 3 3 3 3 3 3 3 3 3 3 3 3 3 3 3 3 3 3 3 3 3 3 3 3 3 3 3 3 3 3 3 3 3 3 3 3 3 3 3 3 3 3 3 3 3 3 3 3 3 3 3 3 3 3 3 3 3 3 3 3 3 3 3 3 3 3 3 3 3 3 3 3 3 3 3 3 3 3 3 3 3 3 3 3 3 3 3 3 3 3 3 3 3 3 3 3 3 3 3 3 3 3 3 3 3 3 3 3 3 3 3 3 3 3 3 3 3 3         </DataArray>
      </Cells>
    </Piece>
  </UnstructuredGrid>
</VTKFile>
