<?xml version="1.0"?>
<VTKFile type="UnstructuredGrid" version="0.1" byte_order="LittleEndian">
  <UnstructuredGrid>
    <Piece NumberOfPoints="128" NumberOfCells="127">
      <PointData Scalars="W">
        <DataArray type="Float32" Name="W" NumberOfComponents="2">
          0 0 -0.19790607913494904 0.28691184153565363 -0.32696990058291886 0.47036064644798431 -0.4285278323778452 0.60968095150397139 -0.51693890230054851 0.72548777402800568 -0.59810629029371454 0.82617775073702948 -0.67503364533299559 0.91595495557337192 -0.74950934750795106 0.99726260752401885 -0.82269190126018887 1.0716296938395538 -0.89541963447635053 1.1401120503967814 -0.96828473476344579 1.2034067945579583 -1.0417556977227707 1.2620227557598882 -1.1162178890174337 1.3163368926597865 -1.1919950930775109 1.3666246583736454 -1.2693746210216819 1.4130922880824319 -1.3486104956649567 1.4558819022608367 -1.4298671562437513 1.495016014521845 -1.5133419045772676 1.5305342658538974 -1.5991918782594836 1.5624138592173848 -1.6875253681873528 1.5905674371270879 -1.7784397898870512 1.6148849451505334 -1.8720376378249406 1.6352476213359624 -1.9683963654546694 1.6515003115152955 -2.0675681419159364 1.6634545857059806 -2.1696073256995403 1.6709127275639024 -2.2744896695305976 1.6736071888886417 -2.3822220929330626 1.6712897483408713 -2.4928421455999126 1.6637224148707286 -2.6062925294487647 1.6505913268713068 -2.7222124666275644 1.6314019181123465 -2.8408101147200711 1.6060162284122319 -2.9619549392510418 1.5740667204894889 -3.0854909414457059 1.535172353878361 -3.2112178754387748 1.4889315216938659 -3.3389016753908822 1.4349311811147361 -3.4682675240769969 1.3727466031920774 -3.5991078599074244 1.3019820675124367 -3.7310227352048146 1.2221711568244047 -3.863536874838529 1.1328428911381982 -3.9962596999635216 1.0335700421272129 -4.1287120654969369 0.92390937781164018 -4.2603229263693141 0.80341266686126478 -1.4302468247357811 0.23608832809738264 -1.768747923868323 0.26882274777058857 -2.1212472405689566 0.28886538481203544 -2.4807826899385574 0.2917502399103814 -2.8541969619016565 0.27463497753739591 -3.5192566778769399 0.24932491853092442 -3.919167600329498 0.16224116602198768 -4.6468498719245348 0.03537147995479633 -5.7581285477899877 -0.19235075273946051 -15.209450371723857 -1.7791399380560298 -15.032445449003628 -3.6432205338392341 -14.617738471702932 -5.507443015833684 3.7788600179453162 1.6230798155138693 3.7246173143081163 1.4606232244538824 3.6555150565944161 1.3040839978546568 0.75767671455005803 0.25464764802154644 0.54088796898747726 0.17854621114080313 0.41647732704591878 0.13564734677297099 0.18993704837426992 0.061335481788521891 -0.041777300779012719 -0.013462652971097874 -0.27769886222608131 -0.089893610992494752 -0.40355104110398221 -0.13189270997562391 -0.75563588430243234 -0.25099369785655712 -0.87798096288094796 -0.29826668260874878 -0.99784475891398572 -0.34770970253731343 -1.1145586845757787 -0.3994479911760167 -1.3470724040598667 -0.49853036544788992 -1.4548323709308055 -0.55801145033185084 -1.557606021060747 -0.62031430670277798 -1.6548779011236672 -0.68539190062628519 -1.7461546809404382 -0.75313906269660591 -1.8338617084843161 -0.82471900822428645 -1.9117263913643572 -0.89734171223489179 -1.9822705500897675 -0.97195326988820219 -2.1621045661628284 -1.1095782714111733 -2.2146273914809322 -1.1915928605460315 -2.2585647485593672 -1.2744878853423003 -2.293696991980084 -1.3577063175003841 -2.31986051416966 -1.440640570424881 -2.3395156252983065 -1.5243490684173784 -2.3474231210383074 -1.6048373776106466 -2.3462419735257818 -1.6829785703243807 -2.3360689661017169 -1.7580281128898347 -2.3170701081346436 -1.829226777547996 -2.2894513377919541 -1.895784635601713 -2.2557996823849042 -1.9589657662863034 -2.211907653588117 -2.0141420291882661 -2.1605179911665968 -2.0624517361896499 -2.1021144631596771 -2.1031893976895955 -2.039193167473683 -2.1377909027382795 -1.9682806582875998 -2.1614763823312124 -1.8920920474713603 -2.1757263260750612 -1.8112321799850803 -2.1799809379219814 -1.7280507613462324 -2.1759583012780781 -1.7210169358562553 -2.26852772612042 -1.625219816609724 -2.243643121549217 -1.527381250734418 -2.2068207730167702 -1.4296638090879907 -2.1601529429887618 -1.32964303771883 -2.0989812065929829 -1.2294234373762716 -2.0253857810534872 -1.1294810104518831 -1.9392962713711883 -1.0302045104174671 -1.8406783146412868 -0.99776415966647691 -1.8542614494664571 -0.8968607984556578 -1.7324918302782641 -0.79762772417926331 -1.5979530331419416 -0.76251624364430692 -1.5824665470470949 -0.66331534979924245 -1.4240007418839207 -0.56594332352164933 -1.252715093691857 -0.53001458981187544 -1.207137263879182 -0.43268954123893449 -1.0115320433712753 -0.39482069670805048 -0.94477660564920762 -0.29672170088383804 -0.72447666916931575 -0.19726605080498036 -0.48881873792473629 -0.15689745985426493 -0.39301764578520343 0.10701742416899489 0.26848322977322986 0.22227690283000437 0.55204867074925379 0.29036149016904 0.71012577492055617 0.43848669922540384 1.0498411345776004 0.59266050690708905 1.3785225241001045 0.71596933490545789 1.6081102755814067 0.85979867098346174 1.8558002905769964 1.112783251282939 2.2922045876343025 1.2694134371436352 2.4807882233194882 1.5297682209924826 2.8230999281114042 1.5514441347947316 2.7002684618276627 0 0
        </DataArray>
        <DataArray type="Float32" Name="u" NumberOfComponents="1">
          0 0.007874015748031496 0.015748031496062992 0.023622047244094488 0.031496062992125984 0.03937007874015748 0.047244094488188976 0.055118110236220472 0.062992125984251968 0.070866141732283464 0.07874015748031496 0.086614173228346455 0.094488188976377951 0.10236220472440945 0.11023622047244094 0.11811023622047244 0.12598425196850394 0.13385826771653545 0.14173228346456693 0.14960629921259844 0.15748031496062992 0.16535433070866143 0.17322834645669291 0.18110236220472442 0.1889763779527559 0.19685039370078741 0.20472440944881889 0.2125984251968504 0.22047244094488189 0.2283464566929134 0.23622047244094488 0.24409448818897639 0.25196850393700787 0.25984251968503935 0.26771653543307089 0.27559055118110237 0.28346456692913385 0.29133858267716534 0.29921259842519687 0.30708661417322836 0.31496062992125984 0.32283464566929132 0.33070866141732286 0.33858267716535434 0.34645669291338582 0.3543307086614173 0.36220472440944884 0.37007874015748032 0.37795275590551181 0.38582677165354329 0.39370078740157483 0.40157480314960631 0.40944881889763779 0.41732283464566927 0.42519685039370081 0.43307086614173229 0.44094488188976377 0.44881889763779526 0.45669291338582679 0.46456692913385828 0.47244094488188976 0.48031496062992124 0.48818897637795278 0.49606299212598426 0.50393700787401574 0.51181102362204722 0.51968503937007871 0.52755905511811019 0.53543307086614178 0.54330708661417326 0.55118110236220474 0.55905511811023623 0.56692913385826771 0.57480314960629919 0.58267716535433067 0.59055118110236215 0.59842519685039375 0.60629921259842523 0.61417322834645671 0.62204724409448819 0.62992125984251968 0.63779527559055116 0.64566929133858264 0.65354330708661412 0.66141732283464572 0.6692913385826772 0.67716535433070868 0.68503937007874016 0.69291338582677164 0.70078740157480313 0.70866141732283461 0.71653543307086609 0.72440944881889768 0.73228346456692917 0.74015748031496065 0.74803149606299213 0.75590551181102361 0.76377952755905509 0.77165354330708658 0.77952755905511806 0.78740157480314965 0.79527559055118113 0.80314960629921262 0.8110236220472441 0.81889763779527558 0.82677165354330706 0.83464566929133854 0.84251968503937003 0.85039370078740162 0.8582677165354331 0.86614173228346458 0.87401574803149606 0.88188976377952755 0.88976377952755903 0.89763779527559051 0.90551181102362199 0.91338582677165359 0.92125984251968507 0.92913385826771655 0.93700787401574803 0.94488188976377951 0.952755905511811 0.96062992125984248 0.96850393700787396 0.97637795275590555 0.98425196850393704 0.99212598425196852 1
        </DataArray>
      </PointData>
      <CellData Scalars="P">
        <DataArray type="Float32" Name="P" NumberOfComponents="1">
          -0.045271253003782229 -0.13533828619571692 -0.22434496176178684 -0.31193263714214459 -0.39780811920360215 -0.4817005269421028 -0.56334411917199878 -0.64246938090009487 -0.71879832200394866 -0.7920411499589225 -0.86189522475394942 -0.92804391167605516 -0.99015583300661458 -1.0478844613260416 -1.1008676059133193 -1.1487271573814357 -1.1910711001866869 -1.2274918398389028 -1.2575669750271323 -1.2808607340423215 -1.2969241588748486 -1.3052945677698191 -1.3054962643488837 -1.2970413666727663 -1.2794293353507069 -1.2521506076446745 -1.2146847959596148 -1.1664984705412083 -1.107049826199745 -1.0358066281759528 -0.95221245759531314 -0.85570587236725937 -0.74572164067517432 -0.62169327146183884 -0.48305499898022825 -0.32924436068041307 -0.15969704920833758 0.026139639464676224 0.22880088329569018 0.44881042985786362 0.68667371606198602 0.94287014884850362 0.9890385692201078 1.0679531567297138 1.1810031140132307 1.3287313295157195 1.5122036953772067 1.7581149779995409 2.0422583672301289 2.3957775564196613 2.8564307027697216 4.1499961488315869 5.465801089360629 6.8212470771610887 6.3242213318168723 5.7998449788051039 5.2579019085553931 5.0806293657526211 4.9295704269829672 4.793885907429555 4.6891002828471615 4.6169446786695847 4.5784728357070978 4.5577992174181672 4.5868986994796028 4.6320319255244584 4.6919442488521801 4.7651238994718943 4.865864573596868 4.9757129144151877 5.0925694432208246 5.2142236549057168 5.3383857860382768 5.4630426788125179 5.5854980775397518 5.7034163788896022 5.8254875439469087 5.9375684420315169 6.0375921993283468 6.123643921935801 6.1939859585224797 6.2472282664409082 6.2818822153703113 6.2968710684026616 6.2913708166277953 6.2648209012193048 6.216930803994356 6.1476977345777195 6.0573425544607842 5.9463924816433886 5.8156343911563715 5.6660390744087552 5.4989171278664051 5.3157477125431667 5.1182002789317469 4.9079865469183188 4.6805456333517768 4.4439727673517613 4.2005885855014675 3.9525879712582714 3.7024900667485436 3.4526358266252428 3.2053061374498961 2.9626910653143486 2.7168302129985662 2.4795738152682869 2.2528025545758132 2.0276383186667237 1.8161601282787621 1.619656170134935 1.4286283969201734 1.2545448081618562 1.0878095710339977 0.93896660344192917 0.8079499755959183 0.68486432920609985 0.60108482286549647 0.53129344251029054 0.46695496319085283 0.41423042786672265 0.36925280594657511 0.32535905653915981 0.28051825566070787 0.23606458450619205 0.18322128503221793 0.12159069730457103 0.045020826166610288
        </DataArray>
      </CellData>
      <Points>
        <DataArray type="Float32" NumberOfComponents="3" format="ascii">
          4.1113965466248947 7.0639710246565857 0
          4.1178844994087438 7.0684331583576014 0
          4.1243601974797448 7.0729130930907322 0
          4.1308156474381725 7.0774222101792965 0
          4.1372445596333378 7.0819691540688234 0
          4.1436414588060071 7.0865611112626148 0
          4.1500013183714479 7.0912043312163293 0
          4.1563193742757774 7.0959043871332064 0
          4.1625910141167139 7.1006663275186748 0
          4.168811705277923 7.1054947710186331 0
          4.17497694289459 7.1103939719036067 0
          4.1810822130702512 7.1153678632999435 0
          4.1871229637577709 7.1204200887390412 0
          4.1930945807924358 7.1255540255245329 0
          4.1989923677427736 7.130772801801224 0
          4.2048115280229874 7.1360793093283945 0
          4.2105471490700612 7.1414762122741458 0
          4.2161941920776291 7.1469659485887815 0
          4.2217474796924499 7.1525507324375308 0
          4.2272016862027177 7.1582325527577684 0
          4.2325513307570404 7.1640131678085091 0
          4.2377907712588652 7.1698940983085411 0
          4.2429141979464182 7.1758766200309676 0
          4.2479156285263659 7.1819617541365686 0
          4.2527889048763416 7.1881502554389378 0
          4.2575276896116154 7.1944426000894603 0
          4.2621254675289428 7.2008389689251162 0
          4.2665755451165861 7.2073392320106944 0
          4.2708710481627428 7.2139429338113326 0
          4.2750049252487319 7.2206492736519348 0
          4.2789699700773181 7.2274570749551543 0
          4.2827588084907511 7.2343647766054051 0
          4.2863639065063275 7.2413704100591652 0
          4.2897775799311733 7.2484715756100808 0
          4.2929920067222014 7.2556654173698636 0
          4.2959992414439059 7.2629485975307828 0
          4.298791232254362 7.2703172698935044 0
          4.3013598337127075 7.277767055186394 0
          4.303696831529237 7.2852930119843116 0
          4.3057939719919078 7.2928896073314107 0
          4.307642986131162 7.3005506900673796 0
          4.3092356193819112 7.3082694631450593 0
          4.3105636669510226 7.3160384556209168 0
          4.3118028163087603 7.3238217886490817 0
          4.3129320517532435 7.3316214797790771 0
          4.3139294936465102 7.3394387584724159 0
          4.314772831369825 7.3472737896305063 0
          4.3154388987091696 7.3551254968929793 0
          4.315886427340498 7.3629922741488061 0
          4.316090624315458 7.3708687052600803 0
          4.3160063584758852 7.3787468842551966 0
          4.3155647086194042 7.3866126271732009 0
          4.3141790263149034 7.3943681900065208 0
          4.3118602056052771 7.4018978658899934 0
          4.3086338927458359 7.4090859188523703 0
          4.3056420645542879 7.4163749741521121 0
          4.3028813757447306 7.4237549594090551 0
          4.3003475584795696 7.4312161675024289 0
          4.2978607751161499 7.4386932174326814 0
          4.2954075694119869 7.4461813726576729 0
          4.2929802181612091 7.4536779655731218 0
          4.2905646593645494 7.4611783697170599 0
          4.2881465098310905 7.4686779278563549 0
          4.2857111254242639 7.476171880898165 0
          4.2832506937050114 7.4836576163928044 0
          4.2807433620199724 7.4911277162863792 0
          4.278181536874528 7.4985792407534957 0
          4.2755577793323587 7.5060091152113193 0
          4.2728648465654713 7.5134141225897846 0
          4.2700883104666092 7.5207880971745773 0
          4.2672214858456003 7.5281273417130512 0
          4.2642579977793238 7.5354279839879963 0
          4.26119181362556 7.5426859798042551 0
          4.258017273653337 7.5498971195892723 0
          4.254728940580141 7.5570569560457299 0
          4.2513219887519496 7.5641609778698795 0
          4.2477920476491642 7.5712045508742163 0
          4.2441279682087929 7.5781791219165129 0
          4.2403265005874102 7.5850795994045974 0
          4.2363849283996391 7.5919008379831032 0
          4.2323010822481564 7.5986376731770502 0
          4.2280733497598195 7.6052849591634857 0
          4.2237005228834086 7.6118375029771306 0
          4.2191821226698618 7.6182903127879031 0
          4.2145182341976595 7.6246385435574711 0
          4.2097095003978451 7.6308775432473164 0
          4.20475711157576 7.6370028999181994 0
          4.1996627924488008 7.6430104907144649 0
          4.1944286415692194 7.6488964032685454 0
          4.1890573919677578 7.6546572230306484 0
          4.1835522409074377 7.6602899624105971 0
          4.1779168196986713 7.6657921044329527 0
          4.1721550387997075 7.6711615134552753 0
          4.1662713029308422 7.6763967317192785 0
          4.1602703426181851 7.6814968872437479 0
          4.154157176562955 7.6864617283799062 0
          4.1479369659006391 7.6912915170261034 0
          4.1416101513210002 7.6959805223564777 0
          4.1351826726914762 7.7005303012366086 0
          4.1286605945963615 7.7049431505857271 0
          4.1220499723044215 7.7092219774294346 0
          4.1153570020213976 7.7133705877020526 0
          4.1085878905143547 7.7173935570665666 0
          4.1017488256798611 7.7212962351731322 0
          4.0948459525433849 7.7250847477125628 0
          4.0878812719633766 7.7287582622744724 0
          4.0808610263588951 7.7323243390010408 0
          4.0737913533396624 7.7357913288641758 0
          4.0666744139242876 7.7391602007610301 0
          4.0595163408836807 7.7424407880372765 0
          4.0523231528561352 7.7456437182123237 0
          4.0450970570102545 7.7487718248712163 0
          4.037844067191517 7.7518372428082847 0
          4.0305665082246289 7.7548441185360684 0
          4.023270440835482 7.7578061181318647 0
          4.0159620103367004 7.7607378604162385 0
          4.008643694504423 7.763645294187457 0
          4.0013318502375395 7.7665694429276906 0
          3.9940336084829631 7.7695279004080806 0
          3.9867531710176674 7.7725304820591505 0
          3.9794997113161856 7.7755982681909535 0
          3.9722827800201803 7.7787516582477041 0
          3.965110011022706 7.7820049105935647 0
          3.9579903136159582 7.7853734097934639 0
          3.950939381383785 7.7888842472426996 0
          3.9439669203205678 7.7925491508059279 0
          3.9370890832354659 7.7963893870627778 0
          3.9303071839766952 7.8003973825618225 0
        </DataArray>
      </Points>
      <Cells>
        <DataArray type="Int32" Name="connectivity" format="ascii">
          0 1 1 2 2 3 3 4 4 5 5 6 6 7 7 8 8 9 9 10 10 11 11 12 12 13 13 14 14 15 15 16 16 17 17 18 18 19 19 20 20 21 21 22 22 23 23 24 24 25 25 26 26 27 27 28 28 29 29 30 30 31 31 32 32 33 33 34 34 35 35 36 36 37 37 38 38 39 39 40 40 41 41 42 42 43 43 44 44 45 45 46 46 47 47 48 48 49 49 50 50 51 51 52 52 53 53 54 54 55 55 56 56 57 57 58 58 59 59 60 60 61 61 62 62 63 63 64 64 65 65 66 66 67 67 68 68 69 69 70 70 71 71 72 72 73 73 74 74 75 75 76 76 77 77 78 78 79 79 80 80 81 81 82 82 83 83 84 84 85 85 86 86 87 87 88 88 89 89 90 90 91 91 92 92 93 93 94 94 95 95 96 96 97 97 98 98 99 99 100 100 101 101 102 102 103 103 104 104 105 105 106 106 107 107 108 108 109 109 110 110 111 111 112 112 113 113 114 114 115 115 116 116 117 117 118 118 119 119 120 120 121 121 122 122 123 123 124 124 125 125 126 126 127 
        </DataArray>
        <DataArray type="Int32" Name="offsets" format="ascii">
          2 4 6 8 10 12 14 16 18 20 22 24 26 28 30 32 34 36 38 40 42 44 46 48 50 52 54 56 58 60 62 64 66 68 70 72 74 76 78 80 82 84 86 88 90 92 94 96 98 100 102 104 106 108 110 112 114 116 118 120 122 124 126 128 130 132 134 136 138 140 142 144 146 148 150 152 154 156 158 160 162 164 166 168 170 172 174 176 178 180 182 184 186 188 190 192 194 196 198 200 202 204 206 208 210 212 214 216 218 220 222 224 226 228 230 232 234 236 238 240 242 244 246 248 250 252 254 
        </DataArray>
        <DataArray type="Int32" Name="types" format="ascii">
          3 3 3 3 3 3 3 3 3 3 3 3 3 3 3 3 3 3 3 3 3 3 3 3 3 3 3 3 3 3 3 3 3 3 3 3 3 3 3 3 3 3 3 3 3 3 3 3 3 3 3 3 3 3 3 3 3 3 3 3 3 3 3 3 3 3 3 3 3 3 3 3 3 3 3 3 3 3 3 3 3 3 3 3 3 3 3 3 3 3 3 3 3 3 3 3 3 3 3 3 3 3 3 3 3 3 3 3 3 3 3 3 3 3 3 3 3 3 3 3 3 3 3 3 3 3 3         </DataArray>
      </Cells>
    </Piece>
  </UnstructuredGrid>
</VTKFile>
