<?xml version="1.0"?>
<VTKFile type="UnstructuredGrid" version="0.1" byte_order="LittleEndian">
  <UnstructuredGrid>
    <Piece NumberOfPoints="128" NumberOfCells="127">
      <PointData Scalars="W">
        <DataArray type="Float32" Name="W" NumberOfComponents="2">
          0 0 0.59294500035810915 0.13956647978048586 0.89072382635734437 0.20402851915039355 1.1242624037259374 0.24792023864901561 1.3235697962885256 0.27821888372617615 1.5009758872301779 0.29776389964007799 1.6631435602741944 0.30806332974604145 1.8141499395518619 0.31000781025199725 1.9566844773617345 0.30414786388471654 2.0925023406108152 0.29081018786680285 2.2228747074332222 0.27019592256367475 2.3486960942637394 0.24241125407918251 2.470576728608036 0.20749417228701059 2.5888770636775646 0.16543335331783865 2.7037709967999066 0.1161887198426101 2.8153178586080143 0.059707032884934327 2.9235819366539348 -0.0040713755953711702 3.0284542993878238 -0.075212945522290839 3.1297629104359781 -0.15377838944794531 3.227327454570637 -0.23982221558989433 3.3208787904647612 -0.33338612180011856 3.4100756593387116 -0.43449074724873049 3.4945678680763872 -0.54313714167681892 3.573997851539072 -0.65930773027203005 3.6479093994479777 -0.78294626149100588 3.7159126286187099 -0.91398452506382022 3.7775353630542639 -1.0523124490201905 3.8321989547058974 -1.1977551227058463 3.8793809623417652 -1.3501096918740021 3.9188956359116456 -1.5092692233417702 3.9498903147713009 -1.6748560579139999 3.9718342991601543 -1.8465430837539141 3.9841798303236406 -2.0239467701685134 3.9864149249261187 -2.2066490376371659 3.9780068506310333 -2.3941666359460352 3.9584552695707305 -2.5859746249935194 3.9272013040354312 -2.7814410958210218 3.883840611784827 -2.9799652788275699 3.8279958439139121 -3.1809100011366587 3.7591857005787737 -3.3834783615397979 3.6770289285430229 -3.5868571740328594 3.5812151863047581 -3.7902038270446732 -2.9990218279001635 3.1949516367725814 -3.0395961839329848 3.0243510049919928 -3.0680579907201873 2.8553261118354185 -3.0852741372514569 2.6890321096201242 -3.1040667674579976 2.5358544815297472 -3.1014169179429096 2.3764771071814828 -3.1026662786317485 2.230956421452976 -3.0964010107681692 2.0895769663208839 -3.0832497932491227 1.9526987315704056 -3.0638418148994533 1.8206103510414451 -3.0387871994672877 1.6935268106095775 -3.0086965627123736 1.57160986420728 -2.9744715155847365 1.4551102342808877 -2.9509423877272964 1.3503499339032763 -2.8797825184160026 1.231315910226835 -2.8194374235842918 1.1253488956873468 -2.7556828527403572 1.0254213926226259 -2.6894286939809464 0.93158681072370886 -2.6207182613070774 0.84355970080597975 -2.5504477574484867 0.7613353850253477 -2.4785441900686456 0.68458798383225572 -2.3850004402952352 0.6081590346101704 -2.2883619547966694 0.53756105776061369 -2.235596648963198 0.48227297475383374 -2.1606987238816782 0.42629569251017035 -2.1099307654199113 0.37889442402122497 -2.0605935066486638 0.3347029851439457 -2.013218712179484 0.29355859613401786 -1.9429184289774848 0.25217747823564918 -1.8989529196072057 0.21710218301718903 -1.8574963215875004 0.18441854626478274 -1.818017212630554 0.15385528016882866 -1.7809902923697862 0.1252573406603793 -1.7214612496925503 0.097188564788259754 -1.6896563793450643 0.072616269310535067 -1.6606598222132716 0.049421138489938711 -1.6345655151885541 0.027420668159508225 -1.6118195745713169 0.0064341575202225684 -1.5654814499071856 -0.013334456083127028 -1.5486340273125614 -0.032184521264352929 -1.5350300966126369 -0.050558587917220885 -1.5251229055471613 -0.068649330435157752 -1.5182362429410232 -0.08660226413817762 -1.514808058368327 -0.10460392970780408 -1.4881617819565698 -0.12050740680922838 -1.4918957140589861 -0.13851292229981946 -1.4992833152032203 -0.15711490095397862 -1.5103777912165757 -0.17650573213776186 -1.5252455362308384 -0.19688788654188555 -1.5443279051817069 -0.21853014370197257 -1.5668849600840284 -0.24154847398226761 -1.5656331882411081 -0.26141672322752252 -1.5962063353791687 -0.28729665777329733 -1.6312008263715037 -0.31541631829892114 -1.6698592605295468 -0.34591394755372745 -1.7126144011513262 -0.37916821219804842 -1.7599001058522972 -0.41561339152465299 -1.782738587203097 -0.4481228424639192 -1.83812057760921 -0.49093569719534419 -1.8976870605750644 -0.53799238170060815 -1.9618405519821056 -0.58988998089762379 -2.0297049999778518 -0.64689475404507624 -2.073229962716117 -0.69981374178122613 -2.1499912124975111 -0.7681428955883679 -2.2303042516737444 -0.84336681135493918 -2.2861115918797572 -0.9147026974428949 -2.3744512502198467 -1.0051638878076883 -2.4663498448074779 -1.1050866300358728 -2.5330749585921803 -1.2015837077926128 -2.6324147757399392 -1.3225142640434309 -2.7340383988346377 -1.4560509469248544 -2.8096451271652523 -1.5873550702492183 -2.9162463968318129 -1.74950277746697 -2.9958192745052301 -1.9106831649953686 -3.0766681442495361 -2.0885144471326225 -3.1860392961310482 -2.3059508997470357 -3.2669616274886906 -2.5263419489768797 -3.4548684272515864 -2.8641076705075847 3.7163140722296681 3.0725983641924652 4.2537041889727458 3.23919068968278 5.1176901850557126 3.5408351416013617 6.3058612358062804 3.8799438719632056 5.9223089532042676 3.2039853623074124 5.1689757537564214 2.4766579489148954 1.330229228676701 0.59167785204481949 0 0
        </DataArray>
        <DataArray type="Float32" Name="u" NumberOfComponents="1">
          0 0.007874015748031496 0.015748031496062992 0.023622047244094488 0.031496062992125984 0.03937007874015748 0.047244094488188976 0.055118110236220472 0.062992125984251968 0.070866141732283464 0.07874015748031496 0.086614173228346455 0.094488188976377951 0.10236220472440945 0.11023622047244094 0.11811023622047244 0.12598425196850394 0.13385826771653545 0.14173228346456693 0.14960629921259844 0.15748031496062992 0.16535433070866143 0.17322834645669291 0.18110236220472442 0.1889763779527559 0.19685039370078741 0.20472440944881889 0.2125984251968504 0.22047244094488189 0.2283464566929134 0.23622047244094488 0.24409448818897639 0.25196850393700787 0.25984251968503935 0.26771653543307089 0.27559055118110237 0.28346456692913385 0.29133858267716534 0.29921259842519687 0.30708661417322836 0.31496062992125984 0.32283464566929132 0.33070866141732286 0.33858267716535434 0.34645669291338582 0.3543307086614173 0.36220472440944884 0.37007874015748032 0.37795275590551181 0.38582677165354329 0.39370078740157483 0.40157480314960631 0.40944881889763779 0.41732283464566927 0.42519685039370081 0.43307086614173229 0.44094488188976377 0.44881889763779526 0.45669291338582679 0.46456692913385828 0.47244094488188976 0.48031496062992124 0.48818897637795278 0.49606299212598426 0.50393700787401574 0.51181102362204722 0.51968503937007871 0.52755905511811019 0.53543307086614178 0.54330708661417326 0.55118110236220474 0.55905511811023623 0.56692913385826771 0.57480314960629919 0.58267716535433067 0.59055118110236215 0.59842519685039375 0.60629921259842523 0.61417322834645671 0.62204724409448819 0.62992125984251968 0.63779527559055116 0.64566929133858264 0.65354330708661412 0.66141732283464572 0.6692913385826772 0.67716535433070868 0.68503937007874016 0.69291338582677164 0.70078740157480313 0.70866141732283461 0.71653543307086609 0.72440944881889768 0.73228346456692917 0.74015748031496065 0.74803149606299213 0.75590551181102361 0.76377952755905509 0.77165354330708658 0.77952755905511806 0.78740157480314965 0.79527559055118113 0.80314960629921262 0.8110236220472441 0.81889763779527558 0.82677165354330706 0.83464566929133854 0.84251968503937003 0.85039370078740162 0.8582677165354331 0.86614173228346458 0.87401574803149606 0.88188976377952755 0.88976377952755903 0.89763779527559051 0.90551181102362199 0.91338582677165359 0.92125984251968507 0.92913385826771655 0.93700787401574803 0.94488188976377951 0.952755905511811 0.96062992125984248 0.96850393700787396 0.97637795275590555 0.98425196850393704 0.99212598425196852 1
        </DataArray>
      </PointData>
      <CellData Scalars="P">
        <DataArray type="Float32" Name="P" NumberOfComponents="1">
          -0.0077249100259885245 -0.021918439617365264 -0.033628371173085106 -0.042061425327642059 -0.046587614342963671 -0.046667834737578344 -0.041818582413638367 -0.031592110778404681 -0.015564221527686087 0.0066717454770399481 0.035510332527480259 0.071336777468215207 0.11452824236676451 0.16545313480640816 0.22446975450013978 0.29192527060614237 0.36815733951023494 0.45348994114621499 0.54823145486444103 0.65267419516182523 0.76709081228116283 0.8917305717046996 1.0268176676333431 1.1725495620927837 1.3290910497458623 1.4965753740456071 1.6750985222661685 1.864711401502668 2.0654197839863899 2.2772008704044491 2.4999639938777847 2.7335646928890016 2.9778005936975407 3.2324104570727648 3.4970695702201824 3.7713884571112319 4.0549049048401207 4.347091336907507 4.6473537805605467 4.9550197631483579 5.2693416943069646 5.5894985188832305 5.2974804025218596 4.998732444014081 4.6954483568587992 4.3896665206521055 4.0820794537359832 3.7756030509754925 3.4705568163240068 3.1683372543916501 2.8702102468929622 2.5773122859253066 2.2906543101701078 2.0111242624740853 1.7394637151689898 1.4750247166008443 1.2223158186487042 0.9804823650111093 0.7498943921733886 0.53078638106596243 0.32333452648524269 0.1275920386999653 -0.056429368665365139 -0.22733893414446957 -0.38523788803268016 -0.53337590054403161 -0.67049291782465303 -0.79832578252703901 -0.91712119409926396 -1.0271623073604557 -1.1274787742173347 -1.2196737535077542 -1.304058745160785 -1.3809150620528214 -1.4505372197519355 -1.5123628554738833 -1.5676119936980879 -1.6165526869379789 -1.6594380225780589 -1.6965112656638113 -1.7275350906136366 -1.7532483125730589 -1.7738258469889658 -1.7894222231889054 -1.800161644723729 -1.8061478329818523 -1.8075375746189395 -1.8043994189986972 -1.7967627824451586 -1.7846335662716053 -1.7679949046829035 -1.7468014508715373 -1.7210010132457432 -1.6911704143143216 -1.6566422698379195 -1.6172970948055219 -1.5730265679450237 -1.5237046490280861 -1.4691870212265312 -1.4104144386863595 -1.3462607978311645 -1.2766060064827662 -1.2013267557823932 -1.1203554415909649 -1.0349273109290964 -0.94373307844184429 -0.84680173598162078 -0.74556423255680759 -0.63877400075635116 -0.52660716781173267 -0.41073108810136277 -0.29003655536062917 -0.16497901323587624 -0.037494086041600927 0.093174743621681849 0.22487475785143984 0.35671419488501438 0.48890244046339698 0.61892611061580183 0.74981291801606875 0.60105209230749845 0.45215150083206651 0.30068378704218984 0.16300788989091691 0.065142551879128069 0.0077006739347018393 0.00061615444564546362
        </DataArray>
      </CellData>
      <Points>
        <DataArray type="Float32" NumberOfComponents="3" format="ascii">
          3.8744493539663729 8.595930940342976 0
          3.8726268963654178 8.603591189714356 0
          3.8708412016034797 8.6112600932219863 0
          3.8691107320971652 8.6189416481139798 0
          3.8674499673738119 8.6266385761430264 0
          3.8658712646431721 8.6343527562226541 0
          3.8643856232549463 8.6420854004985301 0
          3.8630030978008341 8.6498371478590759 0
          3.8617330508987306 8.6576081191607006 0
          3.8605843199407719 8.6653979513627029 0
          3.8595653259151859 8.6732058177830638 0
          3.8586841522205315 8.6810304405684313 0
          3.8579486001265435 8.6888700972760731 0
          3.8573662266086739 8.6967226232270178 0
          3.8569443666961583 8.7045854108012772 0
          3.8566901442531303 8.7124554069500064 0
          3.8566104756561415 8.7203291098913898 0
          3.8567120737786733 8.7282025654077824 0
          3.8570014412354321 8.7360713627229032 0
          3.8574848597136171 8.7439306307341216 0
          3.8581683787904537 8.7517750346294534 0
          3.8590577992429056 8.7595987732989702 0
          3.8601586518855053 8.767395578052037 0
          3.8614761758537779 8.7751587125493842 0
          3.8630152964301461 8.7828809738902613 0
          3.8647805967532047 8.790554696097999 0
          3.8667762936390315 8.7981717543474769 0
          3.869006208299822 8.8057235717886257 0
          3.8714737304606897 8.8132011303906435 0
          3.8741817859611771 8.8205949835193973 0
          3.8771328252323576 8.8278952625681431 0
          3.8803287704236831 8.8350917003746563 0
          3.8837709824922242 8.8421736515050533 0
          3.8874602272343068 8.8491301160364646 0
          3.8913966435355589 8.8559497654826291 0
          3.8955797103347813 8.8626209727609808 0
          3.9000082155968192 8.8691318447453629 0
          3.9046802216563283 8.8754702614518184 0
          3.9095930401438919 8.8816239132942538 0
          3.9147432085865748 8.8875803405977436 0
          3.9201264605640631 8.8933269830159354 0
          3.925737702068949 8.8988512299585079 0
          3.9315709922647937 8.904140472843272 0
          3.9372183297333767 8.9096278101781596 0
          3.9426771987300073 8.9153026634625157 0
          3.9479458345876126 8.9211545518918527 0
          3.9530231699689264 8.9271731639942757 0
          3.9579080399865356 8.933349001745496 0
          3.9626006091552353 8.939672182574963 0
          3.9671008004063086 8.9461336832798608 0
          3.9714090026255042 8.9527247374682997 0
          3.9755260316685641 8.9594368578820944 0
          3.9794530913452122 8.9662618542948724 0
          3.9831917355851982 8.9731918468431413 0
          3.986743830574115 8.9802192760566424 0
          3.9901114988487216 8.9873369184080758 0
          3.9932961998522458 8.9945382784527617 0
          3.9963023460043141 9.001815975299774 0
          3.9991336792808787 9.0091634384716954 0
          4.0017941530569914 9.016574472017215 0
          4.0042878756883855 9.0240432578296179 0
          4.0066191078190414 9.0315643379466302 0
          4.0087922068116466 9.0391326142669506 0
          4.0108116312669093 9.0467433283429095 0
          4.0126831814430837 9.0543917413978754 0
          4.0144128494627225 9.0620734762864252 0
          4.0160039073211644 9.0697851055038132 0
          4.017460999181961 9.0775231587394689 0
          4.0187872731234231 9.0852846976185404 0
          4.0199857884727344 9.0930669828309476 0
          4.0210594828361996 9.1008674640370817 0
          4.0220127151499403 9.108683576189426 0
          4.0228482115524766 9.1165131453584305 0
          4.0235685425799899 9.1243541459410675 0
          4.0241761561146783 9.1322046838358979 0
          4.0246733479536783 9.1400629868279371 0
          4.0250638089801649 9.1479273155524066 0
          4.0253495111273523 9.1557961474826808 0
          4.0255322521631731 9.163668045501943 0
          4.0256136498663571 9.1715416465838029 0
          4.0255951143672055 9.1794156505833602 0
          4.0254795184685701 9.1872888329880418 0
          4.0252679064915355 9.1951600261744986 0
          4.0249611216094605 9.2030280920342502 0
          4.0245597777460222 9.2108919100198374 0
          4.0240643014999415 9.2187503681212188 0
          4.0234749049911613 9.2266023512920903 0
          4.022793239816405 9.2344468747921375 0
          4.0220190739301955 9.2422828233289867 0
          4.02115194870201 9.2501090445929002 0
          4.0201911756161799 9.2579243373203912 0
          4.019135832154058 9.2657274387321529 0
          4.0179847344284907 9.2735170078542577 0
          4.0167364830590744 9.2812916183279413 0
          4.015391154757773 9.2890500394298581 0
          4.0139468530061757 9.2967906672488496 0
          4.0124014070946066 9.3045117588977675 0
          4.0107524190809301 9.312211423943042 0
          4.0089972369590248 9.3198876009089933 0
          4.007132927760293 9.3275380303319011 0
          4.0051580741768307 9.3351606971835448 0
          4.003069241120258 9.3427529469277086 0
          4.0008627339999192 9.3503118617258068 0
          3.99853457377134 9.35783422339472 0
          3.9960805512568984 9.3653164969043861 0
          3.9934979662509531 9.372755401021692 0
          3.9907820578549895 9.380146698170293 0
          3.9879278449256312 9.3874857230583295 0
          3.984931865591121 9.3947680519684482 0
          3.9817886409803922 9.4019880743976181 0
          3.9784924715658558 9.4091395929455537 0
          3.9750392184838748 9.4162166231754707 0
          3.9714227208351991 9.423211664633973 0
          3.9676366761595716 9.4301164350053348 0
          3.9636763949272149 9.436922791030085 0
          3.9595352661052381 9.4436206759339854 0
          3.9552083542621537 9.4502000936105937 0
          3.9506906448034234 9.4566500153552475 0
          3.9459753549684682 9.4629569556709203 0
          3.9410574655246946 9.4691072466314239 0
          3.935925325527788 9.4750799386104045 0
          3.9310234469232559 9.4812434223961617 0
          3.926385136031306 9.4876081266519865 0
          3.9220639610313874 9.4941928967852114 0
          3.9181340912136338 9.5010180833253575 0
          3.9145716847186081 9.5080417506779611 0
          3.9113299758836466 9.5152187817944114 0
          3.9081709018517272 9.5224321922989805 0
        </DataArray>
      </Points>
      <Cells>
        <DataArray type="Int32" Name="connectivity" format="ascii">
          0 1 1 2 2 3 3 4 4 5 5 6 6 7 7 8 8 9 9 10 10 11 11 12 12 13 13 14 14 15 15 16 16 17 17 18 18 19 19 20 20 21 21 22 22 23 23 24 24 25 25 26 26 27 27 28 28 29 29 30 30 31 31 32 32 33 33 34 34 35 35 36 36 37 37 38 38 39 39 40 40 41 41 42 42 43 43 44 44 45 45 46 46 47 47 48 48 49 49 50 50 51 51 52 52 53 53 54 54 55 55 56 56 57 57 58 58 59 59 60 60 61 61 62 62 63 63 64 64 65 65 66 66 67 67 68 68 69 69 70 70 71 71 72 72 73 73 74 74 75 75 76 76 77 77 78 78 79 79 80 80 81 81 82 82 83 83 84 84 85 85 86 86 87 87 88 88 89 89 90 90 91 91 92 92 93 93 94 94 95 95 96 96 97 97 98 98 99 99 100 100 101 101 102 102 103 103 104 104 105 105 106 106 107 107 108 108 109 109 110 110 111 111 112 112 113 113 114 114 115 115 116 116 117 117 118 118 119 119 120 120 121 121 122 122 123 123 124 124 125 125 126 126 127 
        </DataArray>
        <DataArray type="Int32" Name="offsets" format="ascii">
          2 4 6 8 10 12 14 16 18 20 22 24 26 28 30 32 34 36 38 40 42 44 46 48 50 52 54 56 58 60 62 64 66 68 70 72 74 76 78 80 82 84 86 88 90 92 94 96 98 100 102 104 106 108 110 112 114 116 118 120 122 124 126 128 130 132 134 136 138 140 142 144 146 148 150 152 154 156 158 160 162 164 166 168 170 172 174 176 178 180 182 184 186 188 190 192 194 196 198 200 202 204 206 208 210 212 214 216 218 220 222 224 226 228 230 232 234 236 238 240 242 244 246 248 250 252 254 
        </DataArray>
        <DataArray type="Int32" Name="types" format="ascii">
          3 3 3 3 3 3 3 3 3 3 3 3 3 3 3 3 3 3 3 3 3 3 3 3 3 3 3 3 3 3 3 3 3 3 3 3 3 3 3 3 3 3 3 3 3 3 3 3 3 3 3 3 3 3 3 3 3 3 3 3 3 3 3 3 3 3 3 3 3 3 3 3 3 3 3 3 3 3 3 3 3 3 3 3 3 3 3 3 3 3 3 3 3 3 3 3 3 3 3 3 3 3 3 3 3 3 3 3 3 3 3 3 3 3 3 3 3 3 3 3 3 3 3 3 3 3 3         </DataArray>
      </Cells>
    </Piece>
  </UnstructuredGrid>
</VTKFile>
