<?xml version="1.0"?>
<VTKFile type="UnstructuredGrid" version="0.1" byte_order="LittleEndian">
  <UnstructuredGrid>
    <Piece NumberOfPoints="128" NumberOfCells="127">
      <PointData Scalars="W">
        <DataArray type="Float32" Name="W" NumberOfComponents="2">
          0 0 0.53450736318403469 0.039707399906085961 0.80761594452674124 0.055695895993071912 1.0195508838598222 0.062930504246094587 1.197478032541432 0.063409113998134078 1.352564828263364 0.057995236606633034 1.4908794800019363 0.047200852818536886 1.6161360486504968 0.031377349958636974 1.7308172584031323 0.01079039121295799 1.836575694507679 -0.014346021727755743 1.9346369325278359 -0.043847808278754855 2.0259031874111426 -0.077551698514637085 2.1110362489128196 -0.1153073154900438 2.190486491657317 -0.15696830990740454 2.2645543591159947 -0.20238567153153747 2.3334607385245509 -0.25140636313712078 2.3974746093253385 -0.3038866884630404 2.4567039554879546 -0.35966935280982915 2.5112393185856177 -0.41859309433609049 2.5611957305238171 -0.48050110052494865 2.6066435046772654 -0.54523092574309706 2.6476031342081909 -0.61260919093757771 2.6841189494510909 -0.68246561706118214 2.7162593412807778 -0.75463724004065702 2.7440266146567196 -0.82894445061352273 2.7675170881496838 -0.90523631439045815 2.7867734077616544 -0.98335140285659295 2.8017591245896845 -1.0631002507115765 2.8125242694611599 -1.1443222602690295 2.8194566323307853 -1.2270129250061523 2.8222965580705575 -1.3109121948768168 2.8211216727520059 -1.3958928468529239 2.8160076922851984 -1.4818368292268143 2.8070554770905138 -1.5686513714717067 2.7943404770581921 -1.6562443692254665 2.7779680155671951 -1.7445563509709687 2.7579463585435127 -1.8334819122147532 2.7344248726220641 -1.9230216002876261 2.7075506680501125 -2.0132076685817446 2.6773306203465963 -2.1039970087056301 2.6438126663043624 -2.1953935757689771 2.6070526963500074 -2.2874327566851616 0.99136243705944249 -0.90362008425834206 0.70852874090759088 -0.65770773229072377 0.82353204399261382 -0.77723250532664245 0.54659954433555769 -0.52361175071678756 0.57910610138716634 -0.56162876455408905 0.3023109877482727 -0.2960413138370046 0.33755688605034273 -0.33290019711298369 0.37814721364574228 -0.37590037459525127 0.42047293102567057 -0.42170591400342322 0.45613619082757467 -0.46197969135665756 0.50144351397556675 -0.51336393962795668 0.54390720032760986 -0.56345947037409216 -0.053069094786204335 0.055283742873409418 -0.69440920082705071 0.71728588715276786 -1.0080422731297818 1.0214814090713957 -1.7431704779698136 1.7132567808617647 -2.1318509115516413 2.0083769046895807 -3.0196165383448546 2.6920749488697466 -3.5208651509345152 2.9304607367374986 -4.0675394812741335 3.1300098481446179 -4.1001307122760213 2.9015914933949096 -4.1250656474031278 2.6831473379608215 -4.120310432219827 2.4608927076275893 -4.1281880770163335 2.2603776187345828 -4.1164565346884912 2.0615126167035047 -4.1046396328229031 1.8744278399379319 -4.0749026093978467 1.690418981856898 -4.0480439619054405 1.5182801300521862 -4.0147795862929732 1.3532828914115989 -3.9657311632422108 1.1925860884757833 -3.9227310842897567 1.0428004483143787 -3.8654479904136023 0.89778860466476496 -3.8160606625404512 0.76267979245734496 -3.7646641604600211 0.63423370673360169 -3.7002556135385607 0.51073438202810606 -3.6467167810787768 0.39540990076603189 -3.5933986140440104 0.2858037695447877 -3.5279508064521665 0.18101671192495244 -3.4755050203241025 0.082264856057114061 -3.4243703485349979 -0.012009235463397449 -3.3623753539569603 -0.10169533623470495 -3.3150304953177447 -0.1876808831483448 -3.2704349476417569 -0.27058706192138654 -3.2281218108825542 -0.35083309667053442 -3.1758379329346331 -0.42701969151337749 -3.1396201211765224 -0.5027833742558383 -3.1066922001231605 -0.57737908795640747 -3.0640837832139987 -0.64836648769160277 -3.0386556034851893 -0.72159738409785534 -3.0164920020381363 -0.79513275252027826 -2.9847119267391733 -0.86554363298530168 -2.9701526311514468 -0.94079731023735513 -2.9593069707584418 -1.0180709629978566 -2.9387106451564557 -1.09275982206682 -2.9353740422269645 -1.1751466349688644 -2.9358777224836698 -1.261490513894576 -2.9258896886276635 -1.3457336484423637 -2.932759905547822 -1.4407565154310269 -2.9289532975040902 -1.5342249315591721 -2.9415934235585657 -1.6407571489818895 -2.9567451874980941 -1.7546962686900527 -2.9598933551668765 -1.8677232566306503 -2.9779970072950999 -1.9974180087296391 -2.9833613675095725 -2.126924328163923 -3.0026377944892189 -2.2760403115825096 -3.0073836381986814 -2.4252747657035827 -3.0237411839183932 -2.5966740204391776 -3.0240137812082231 -2.768938032643713 -3.0207007887029902 -2.9536257248662046 -3.0245096232767898 -3.1646701111578022 -3.0083436544972657 -3.3770925126972053 -2.9829315605592948 -3.6032564678391523 -2.946435336123217 -3.8438095644928918 -2.8966856642747461 -4.0992109358162558 -2.8306038516733474 -4.3687439258419021 0.25165516279887912 0.4047220431760753 0.4449911863460505 0.70747474058744109 0.47620312304633144 0.74583805218920163 0.79389099249374318 1.2185171362698592 0.90268551416316245 1.3494607819120421 1.2874860541214475 1.862383052566583 1.9352586917483694 2.6723006880277249 3.0969900935224732 3.9931264530113939 4.4739704909491627 5.2399080633132717 2.9244006310773871 3.1345314722858006 0 0
        </DataArray>
        <DataArray type="Float32" Name="u" NumberOfComponents="1">
          0 0.007874015748031496 0.015748031496062992 0.023622047244094488 0.031496062992125984 0.03937007874015748 0.047244094488188976 0.055118110236220472 0.062992125984251968 0.070866141732283464 0.07874015748031496 0.086614173228346455 0.094488188976377951 0.10236220472440945 0.11023622047244094 0.11811023622047244 0.12598425196850394 0.13385826771653545 0.14173228346456693 0.14960629921259844 0.15748031496062992 0.16535433070866143 0.17322834645669291 0.18110236220472442 0.1889763779527559 0.19685039370078741 0.20472440944881889 0.2125984251968504 0.22047244094488189 0.2283464566929134 0.23622047244094488 0.24409448818897639 0.25196850393700787 0.25984251968503935 0.26771653543307089 0.27559055118110237 0.28346456692913385 0.29133858267716534 0.29921259842519687 0.30708661417322836 0.31496062992125984 0.32283464566929132 0.33070866141732286 0.33858267716535434 0.34645669291338582 0.3543307086614173 0.36220472440944884 0.37007874015748032 0.37795275590551181 0.38582677165354329 0.39370078740157483 0.40157480314960631 0.40944881889763779 0.41732283464566927 0.42519685039370081 0.43307086614173229 0.44094488188976377 0.44881889763779526 0.45669291338582679 0.46456692913385828 0.47244094488188976 0.48031496062992124 0.48818897637795278 0.49606299212598426 0.50393700787401574 0.51181102362204722 0.51968503937007871 0.52755905511811019 0.53543307086614178 0.54330708661417326 0.55118110236220474 0.55905511811023623 0.56692913385826771 0.57480314960629919 0.58267716535433067 0.59055118110236215 0.59842519685039375 0.60629921259842523 0.61417322834645671 0.62204724409448819 0.62992125984251968 0.63779527559055116 0.64566929133858264 0.65354330708661412 0.66141732283464572 0.6692913385826772 0.67716535433070868 0.68503937007874016 0.69291338582677164 0.70078740157480313 0.70866141732283461 0.71653543307086609 0.72440944881889768 0.73228346456692917 0.74015748031496065 0.74803149606299213 0.75590551181102361 0.76377952755905509 0.77165354330708658 0.77952755905511806 0.78740157480314965 0.79527559055118113 0.80314960629921262 0.8110236220472441 0.81889763779527558 0.82677165354330706 0.83464566929133854 0.84251968503937003 0.85039370078740162 0.8582677165354331 0.86614173228346458 0.87401574803149606 0.88188976377952755 0.88976377952755903 0.89763779527559051 0.90551181102362199 0.91338582677165359 0.92125984251968507 0.92913385826771655 0.93700787401574803 0.94488188976377951 0.952755905511811 0.96062992125984248 0.96850393700787396 0.97637795275590555 0.98425196850393704 0.99212598425196852 1
        </DataArray>
      </PointData>
      <CellData Scalars="P">
        <DataArray type="Float32" Name="P" NumberOfComponents="1">
          0.0099623228435098393 0.03090590762596487 0.053872673490734747 0.079463618006134759 0.10809447281273016 0.14005594080513797 0.17554526661860592 0.21468553995540121 0.2575394481409744 0.30411833298787161 0.35439074237080964 0.40828914153360563 0.46571551633515262 0.52654571206780931 0.59063353804897589 0.65781531586379849 0.72791644886131779 0.80075355446363705 0.87613895180037926 0.95388583769941426 1.0338118032729702 1.1157419603820593 1.1995134919125121 1.2849800791399322 1.3720140748757594 1.4605121985486584 1.5503976323629476 1.6416212406558455 1.7341665725701878 1.8280610965642734 1.92336280903627 2.0201709368943357 2.1186282015015014 2.2189236675053476 2.3212941368974387 2.426026954298738 2.5334590662866359 2.6439829699938842 2.7580488475504352 2.876162092858876 2.9988864305382052 3.1268462607398204 3.1815221681792174 3.225587794741374 3.2774150807817883 3.316566776310367 3.3591408209051421 3.3855485582229417 3.4147398727093421 3.4475052561442405 3.4844394395745062 3.5254445528655678 3.5717799746067724 3.6236350645487376 3.6170320952584745 3.5421374257626672 3.4300234365764632 3.2333190567797461 2.9891979027651168 2.6427073327882904 2.2395867570097665 1.836228609518197 1.4357532344055102 1.040191194501626 0.65374352735940366 0.27596060120329208 -0.090339448194856134 -0.44448029447730797 -0.78416506713480671 -1.1092296438007381 -1.4187146638405932 -1.7109914492514 -1.9864222265107991 -2.2437752197411815 -2.4836598251214452 -2.705940813309188 -2.9098294427026685 -3.0962072382440367 -3.265240700186788 -3.416475759692621 -3.5508790255780367 -3.6687540745378051 -3.7699327129254292 -3.8553346683878114 -3.9253341084898756 -3.9802835479793224 -4.0202608186066344 -4.0459709474578878 -4.0577493157954363 -4.0557994894560405 -4.0405997987671007 -4.012414864474561 -3.971550748988768 -3.918230030925244 -3.8526430080130618 -3.7751955125488803 -3.6858620340864587 -3.5847625540712484 -3.4724299830652603 -3.348633602513126 -3.2140049494020597 -3.0682136709677983 -2.9113968984425922 -2.7444157969198231 -2.5669066681370647 -2.3799214897205916 -2.183143045243173 -1.9779120786555262 -1.7641025519073381 -1.5433895870747421 -1.3168119984401221 -1.0847633128779717 -0.84963812280529016 -0.61329432424658037 -0.37790736415676807 -0.14601819569914581 0.079374341883682517 0.084492008008855229 0.079995484473203982 0.077428619020306275 0.063815419674955867 0.052256391194122301 0.035381626574629822 0.012317528834252503 -0.016809679520665737 -0.034024313920536765 -0.016438515507129447
        </DataArray>
      </CellData>
      <Points>
        <DataArray type="Float32" NumberOfComponents="3" format="ascii">
          3.9189166481172948 9.0098868016781744 0
          3.918316742799405 9.0177379391668406 0
          3.9177499771296174 9.0255915376680882 0
          3.9172332839146873 9.0334485880758102 0
          3.9167798031486862 9.0413095387534828 0
          3.9164005663113981 9.0491744193655741 0
          3.9161051887616214 9.0570428944051944 0
          3.9159022459785677 9.0649142949357877 0
          3.9157995038472522 9.0727876403797136 0
          3.9158040726025281 9.0806616549934613 0
          3.9159225093061432 9.0885347811402823 0
          3.9161608938508858 9.0964051907073991 0
          3.9165248849180543 9.104270795232166 0
          3.9170197610301827 9.1121292552276589 0
          3.9176504484975454 9.1199779892569683 0
          3.9184215400702955 9.1278141831706403 0
          3.9193373086593191 9.1356347995916511 0
          3.9204017240398721 9.1434365868188507 0
          3.9216184595742312 9.1512160885709193 0
          3.9229908978534298 9.1589696539734806 0
          3.9245221378576893 9.1666934472673951 0
          3.9262149993442241 9.1743834578631542 0
          3.9280720241457314 9.182035511069957 0
          3.9300954789460896 9.1896452786292659 0
          3.9322873595468106 9.1972082887914475 0
          3.9346493910345397 9.2047199374210749 0
          3.9371830337759288 9.212175497320958 0
          3.9398894860825147 9.219570128203495 0
          3.9427696819687119 9.2268988883972387 0
          3.9458242942689608 9.2341567447605151 0
          3.9490537586953041 9.2413385729132234 0
          3.9524582577455512 9.2484391733112048 0
          3.9560377255209369 9.2554532790819408 0
          3.9597918524211697 9.2623755632891367 0
          3.9637200913942987 9.2692006446274302 0
          3.9678216626061764 9.2759230930738017 0
          3.9720955599575207 9.2825374335135535 0
          3.9765405515767189 9.2890381522133758 0
          3.981155189057501 9.2954196967225773 0
          3.9859378165514801 9.3016764738066282 0
          3.9908865711577195 9.3078028520536549 0
          3.995999385852381 9.3137931615616765 0
          4.0012739929051584 9.3196416916761553 0
          4.0066098380389272 9.3254339014600554 0
          4.0119893948357221 9.3311850735013984 0
          4.0174198267609258 9.3368878402498172 0
          4.0228839837507486 9.3425579616758085 0
          4.0283839153507763 9.3481931214074265 0
          4.0339024903045368 9.3538098226363573 0
          4.0394419327373745 9.3594058212649713 0
          4.0450047981870778 9.3649784915445196 0
          4.0505937498844933 9.3705250326708533 0
          4.0562110382922594 9.3760429855924858 0
          4.0618595121634362 9.3815292009037812 0
          4.0675418445185239 9.3869806074959339 0
          4.0732210761568677 9.3924356245890497 0
          4.0788575032705729 9.3979353733746063 0
          4.0844317349009422 9.4034987937357553 0
          4.0898982516347582 9.4091689027633336 0
          4.0952329994758259 9.4149641266236994 0
          4.1003809678263714 9.4209270599659014 0
          4.1053110797067918 9.4270726827099676 0
          4.1099885262993991 9.4334123536345551 0
          4.1144113191540477 9.4399318816595805 0
          4.1185779446322801 9.4466176991798196 0
          4.1224887300262516 9.4534560046960205 0
          4.1261432183139126 9.4604343508041762 0
          4.1295421674797881 9.4675403949146713 0
          4.1326863394217339 9.4747625286564272 0
          4.1355776059025935 9.482089336337296 0
          4.1382176585056802 9.4895101413798226 0
          4.1406085843514902 9.4970147120378172 0
          4.1427534477096541 9.5045930843726829 0
          4.1446549359685285 9.5122359731380772 0
          4.1463166205761786 9.5199343898002695 0
          4.1477415816002603 9.5276799614630097 0
          4.1489330220665215 9.5354647291618431 0
          4.1498949503930893 9.5432810408168702 0
          4.1506306994211135 9.5511217522135574 0
          4.1511435869130029 9.5589800740354995 0
          4.1514376815431868 9.5668495155561271 0
          4.1515162444774729 9.5747239607975505 0
          4.1513824544675666 9.582597571421557 0
          4.1510401627244118 9.5904647931501952 0
          4.1504923110520195 9.5983203013984166 0
          4.1497416699315588 9.6061589623307135 0
          4.1487908675596312 9.6139758068087389 0
          4.1476431497433257 9.6217661168678958 0
          4.1463007654373252 9.6295252007827994 0
          4.1447657590625537 9.6372484389427147 0
          4.1430407748404816 9.6449314349349091 0
          4.1411273912653783 9.652569653182498 0
          4.1390269840452421 9.6601585389039872 0
          4.1367415248615167 9.6676937305561452 0
          4.1342719173205822 9.6751705662238479 0
          4.13161883453078 9.6825842584452442 0
          4.1287835539953122 9.6899301795976882 0
          4.1257662828513757 9.6972032246480389 0
          4.1225669899797976 9.7043980429504764 0
          4.1191862946693467 9.7115094137571116 0
          4.1156237708246 9.7185314478350033 0
          4.1118796542606528 9.7254583520311702 0
          4.107953160966928 9.7322835230963616 0
          4.1038433511462848 9.7389998983423194 0
          4.0995500291924465 9.7456004714086646 0
          4.0950720721812415 9.7520772023950073 0
          4.0904091469916182 9.758422062905062 0
          4.0855600578995892 9.764625808603915 0
          4.0805245100351977 9.770679187671913 0
          4.0753014885648096 9.7765715739282868 0
          4.0698909758601971 9.7822922874713267 0
          4.064293176534707 9.7878298780205455 0
          4.0585078536240848 9.7931712610184789 0
          4.0525360084934219 9.7983032663954184 0
          4.0463792156719878 9.8032118719898147 0
          4.0400397367956424 9.807882163386104 0
          4.0335206550902312 9.8122983054304775 0
          4.0268260662309645 9.8164435866430129 0
          4.0201470229404483 9.8206139968871149 0
          4.0134954802517093 9.8248283291953982 0
          4.0068733403653143 9.8290889862385651 0
          4.0003002552396492 9.8334253129257458 0
          3.9937829261136275 9.8378454690007064 0
          3.9873451535871416 9.8423813221411276 0
          3.9810270300833452 9.8470831939792909 0
          3.9749005004882654 9.852033166029706 0
          3.9690516667076148 9.8573080651177403 0
          3.9633844522508288 9.8627772015237785 0
        </DataArray>
      </Points>
      <Cells>
        <DataArray type="Int32" Name="connectivity" format="ascii">
          0 1 1 2 2 3 3 4 4 5 5 6 6 7 7 8 8 9 9 10 10 11 11 12 12 13 13 14 14 15 15 16 16 17 17 18 18 19 19 20 20 21 21 22 22 23 23 24 24 25 25 26 26 27 27 28 28 29 29 30 30 31 31 32 32 33 33 34 34 35 35 36 36 37 37 38 38 39 39 40 40 41 41 42 42 43 43 44 44 45 45 46 46 47 47 48 48 49 49 50 50 51 51 52 52 53 53 54 54 55 55 56 56 57 57 58 58 59 59 60 60 61 61 62 62 63 63 64 64 65 65 66 66 67 67 68 68 69 69 70 70 71 71 72 72 73 73 74 74 75 75 76 76 77 77 78 78 79 79 80 80 81 81 82 82 83 83 84 84 85 85 86 86 87 87 88 88 89 89 90 90 91 91 92 92 93 93 94 94 95 95 96 96 97 97 98 98 99 99 100 100 101 101 102 102 103 103 104 104 105 105 106 106 107 107 108 108 109 109 110 110 111 111 112 112 113 113 114 114 115 115 116 116 117 117 118 118 119 119 120 120 121 121 122 122 123 123 124 124 125 125 126 126 127 
        </DataArray>
        <DataArray type="Int32" Name="offsets" format="ascii">
          2 4 6 8 10 12 14 16 18 20 22 24 26 28 30 32 34 36 38 40 42 44 46 48 50 52 54 56 58 60 62 64 66 68 70 72 74 76 78 80 82 84 86 88 90 92 94 96 98 100 102 104 106 108 110 112 114 116 118 120 122 124 126 128 130 132 134 136 138 140 142 144 146 148 150 152 154 156 158 160 162 164 166 168 170 172 174 176 178 180 182 184 186 188 190 192 194 196 198 200 202 204 206 208 210 212 214 216 218 220 222 224 226 228 230 232 234 236 238 240 242 244 246 248 250 252 254 
        </DataArray>
        <DataArray type="Int32" Name="types" format="ascii">
          3 3 3 3 3 3 3 3 3 3 3 3 3 3 3 3 3 3 3 3 3 3 3 3 3 3 3 3 3 3 3 3 3 3 3 3 3 3 3 3 3 3 3 3 3 3 3 3 3 3 3 3 3 3 3 3 3 3 3 3 3 3 3 3 3 3 3 3 3 3 3 3 3 3 3 3 3 3 3 3 3 3 3 3 3 3 3 3 3 3 3 3 3 3 3 3 3 3 3 3 3 3 3 3 3 3 3 3 3 3 3 3 3 3 3 3 3 3 3 3 3 3 3 3 3 3 3         </DataArray>
      </Cells>
    </Piece>
  </UnstructuredGrid>
</VTKFile>
