<?xml version="1.0"?>
<VTKFile type="UnstructuredGrid" version="0.1" byte_order="LittleEndian">
  <UnstructuredGrid>
    <Piece NumberOfPoints="128" NumberOfCells="127">
      <PointData Scalars="W">
        <DataArray type="Float32" Name="W" NumberOfComponents="2">
          0 0 -0.061400684203185237 0.65533816595594108 -0.10544589157145386 1.0491982502063384 -0.14749024553755341 1.3399941685421812 -0.19194025510226159 1.5760615102764757 -0.24047518945981108 1.7770888157887719 -0.2938710957065585 1.9531059950926242 -0.352519340413745 2.1099457570457822 -0.41661686919944552 2.2512846100134118 -0.48627436979149635 2.3796792273290541 -0.56152994641414411 2.4968589804930579 -0.64238384488435951 2.6040639788718045 -0.72881372339374773 2.7022041952962135 -0.82079893331591691 2.7920045073657249 -0.91832766970232615 2.8740465338893104 -1.0213857205725032 2.9487509952849926 -1.1299289700893518 3.0163366660957216 -1.2439370002213264 3.0770028625583743 -1.3633894291224395 3.1308623351379832 -1.4882443450178666 3.177910196569814 -1.6184699067027986 3.2181131580326001 -1.7540392744046018 3.2513968338589234 -1.8949148996118257 3.2776206461823016 -2.0410291929826876 3.2965588010210896 -2.1923369914787121 3.3079967967686974 -2.3487256110368597 3.3115935322714476 -2.5100916503108381 3.3070151299474615 -2.6763675443810997 3.2939554513445297 -2.8474203931617423 3.2720017754684423 -3.0228262762145053 3.2404281917806279 -3.2025791579813299 3.1989966091952344 -3.3864201962332281 3.1471643672517935 -3.5740572981980616 3.0843665017936179 -3.7651170239429423 3.0099802377864351 -3.9591895298163302 2.9233745686802388 -4.1557809023200818 2.8238782695119249 -4.3544025627039877 2.7108474721587106 -4.5543638924106284 2.5835364151988203 -4.7548621515852441 2.4411908832836668 -4.9551455506554145 2.2831357364719 -5.1543107693043888 2.1086621398315817 -5.3513142936026323 1.9170589551389048 1.0820369711056901 -0.36591852812549275 0.88078114538534136 -0.30590263106926247 0.67405361439689904 -0.23901796690918745 0.56700058385904006 -0.20437691643694325 0.35694247872781742 -0.13022422381052934 0.2506652150562067 -0.092175372423684482 0.14707324129918081 -0.054361138924232152 0.043127090770983083 -0.015979778758474925 -0.057267554055249657 0.021215343604915313 -0.050902480317286863 0.018831044481531608 -0.047350494854374085 0.017494805385755759 -0.14020717059951232 0.051677573997088215 -0.22991585357253838 0.084337096555259089 -0.33412251663678721 0.12166624052045233 -0.42052424615934902 0.15162461531936627 -0.50320135173646552 0.17924071696449159 -0.4806537190096547 0.16898644554860984 -0.55357980715768451 0.19194657342837004 -0.62221171838150846 0.21233696568149185 -0.68636826434538167 0.23007071126867532 -0.74442544690347479 0.24462590260657441 -0.79920187825820965 0.25697860586716892 -0.94714485602815857 0.29702707253283811 -0.99242232717804568 0.3025347662124242 -1.0325405253025792 0.30539390767903113 -1.0674101641867113 0.30573666771586211 -1.0969012183801043 0.30370262424285976 -1.1209492142164488 0.29946636426996642 -1.1394862566210198 0.2932135973454294 -1.1524601781484978 0.28514332147415472 -1.1598521925029583 0.27546837307267291 -1.1616054321435199 0.26439497604682843 -1.1577344390108439 0.25214582965228965 -1.0460841684307682 0.2181267043414912 -1.0306731155420366 0.20595362503006387 -1.0113504052047595 0.19349064119333417 -0.98496920175984604 0.1802914214565165 -0.95319977287959534 0.16685005363505997 -0.91607537296237262 0.15331124572043914 -0.87369967423627315 0.13981370182381797 -0.82616822971594894 0.12647373267733419 -0.77358764507876288 0.11338702063428203 -0.6162135364658311 0.086843225341345823 -0.55533084869195926 0.075627367845150131 -0.48822474020765566 0.064428261582776272 -0.41656820461063093 0.053450314585277853 -0.34048266979017816 0.042648245157709812 -0.26009438202018775 0.031949667514290563 -0.080270975093513733 0.0097503926446538096 0.0083352931280108386 -0.001010062164809456 0.10084532704676766 -0.012264646313621187 0.19714154264272346 -0.024212548946951185 0.29710289791333655 -0.037081151538736173 0.49262400543821888 -0.063052736726640995 0.59945228465961542 -0.079369665314952709 0.70956122818682299 -0.097706436260751428 0.82283736149549058 -0.11841809910467115 0.93916394061661823 -0.141889285070634 1.0570169315119384 -0.16830528490186283 1.1790802749741449 -0.1985442268442584 1.3934591049474043 -0.249404006169545 1.520382509048783 -0.29047075103425263 1.6496592492196613 -0.33698240940190288 1.6922567355114226 -0.36946328558621405 1.8264603907501196 -0.42603394582177539 1.962777129671611 -0.48971882140151268 2.1024535541532656 -0.56165511634715437 2.2426960698166245 -0.64199111819660604 2.2949483876773864 -0.70348305252489418 2.4401076300459166 -0.80052959673522384 2.5888121024953588 -0.90972278719240174 2.6476704111388885 -0.99620539755397841 2.8031737344391892 -1.1291046677251355 2.8688379904502792 -1.2370679619573663 -1.9401403284444325 0.84575313223301074 -2.1598135354860744 0.89676262239471294 -1.9171748599544265 0.75735219867972314 -2.0892567939744295 0.78477142533837152 -1.9069498116472419 0.68005216306719374 -1.6195652333693469 0.55085751232231861 -1.3886253042769645 0.45304569046315402 -0.68949056166255662 0.21840837947925296 0.074769326550973972 -0.023475793156195548 1.2995747805649061 -0.41616154223459384 5.6010636874436628 -1.9729111107999355 0 0
        </DataArray>
        <DataArray type="Float32" Name="u" NumberOfComponents="1">
          0 0.007874015748031496 0.015748031496062992 0.023622047244094488 0.031496062992125984 0.03937007874015748 0.047244094488188976 0.055118110236220472 0.062992125984251968 0.070866141732283464 0.07874015748031496 0.086614173228346455 0.094488188976377951 0.10236220472440945 0.11023622047244094 0.11811023622047244 0.12598425196850394 0.13385826771653545 0.14173228346456693 0.14960629921259844 0.15748031496062992 0.16535433070866143 0.17322834645669291 0.18110236220472442 0.1889763779527559 0.19685039370078741 0.20472440944881889 0.2125984251968504 0.22047244094488189 0.2283464566929134 0.23622047244094488 0.24409448818897639 0.25196850393700787 0.25984251968503935 0.26771653543307089 0.27559055118110237 0.28346456692913385 0.29133858267716534 0.29921259842519687 0.30708661417322836 0.31496062992125984 0.32283464566929132 0.33070866141732286 0.33858267716535434 0.34645669291338582 0.3543307086614173 0.36220472440944884 0.37007874015748032 0.37795275590551181 0.38582677165354329 0.39370078740157483 0.40157480314960631 0.40944881889763779 0.41732283464566927 0.42519685039370081 0.43307086614173229 0.44094488188976377 0.44881889763779526 0.45669291338582679 0.46456692913385828 0.47244094488188976 0.48031496062992124 0.48818897637795278 0.49606299212598426 0.50393700787401574 0.51181102362204722 0.51968503937007871 0.52755905511811019 0.53543307086614178 0.54330708661417326 0.55118110236220474 0.55905511811023623 0.56692913385826771 0.57480314960629919 0.58267716535433067 0.59055118110236215 0.59842519685039375 0.60629921259842523 0.61417322834645671 0.62204724409448819 0.62992125984251968 0.63779527559055116 0.64566929133858264 0.65354330708661412 0.66141732283464572 0.6692913385826772 0.67716535433070868 0.68503937007874016 0.69291338582677164 0.70078740157480313 0.70866141732283461 0.71653543307086609 0.72440944881889768 0.73228346456692917 0.74015748031496065 0.74803149606299213 0.75590551181102361 0.76377952755905509 0.77165354330708658 0.77952755905511806 0.78740157480314965 0.79527559055118113 0.80314960629921262 0.8110236220472441 0.81889763779527558 0.82677165354330706 0.83464566929133854 0.84251968503937003 0.85039370078740162 0.8582677165354331 0.86614173228346458 0.87401574803149606 0.88188976377952755 0.88976377952755903 0.89763779527559051 0.90551181102362199 0.91338582677165359 0.92125984251968507 0.92913385826771655 0.93700787401574803 0.94488188976377951 0.952755905511811 0.96062992125984248 0.96850393700787396 0.97637795275590555 0.98425196850393704 0.99212598425196852 1
        </DataArray>
      </PointData>
      <CellData Scalars="P">
        <DataArray type="Float32" Name="P" NumberOfComponents="1">
          -0.03702797682418326 -0.10925078656189929 -0.17776342865822381 -0.24172682958503927 -0.30066405431197957 -0.35427286788420259 -0.40234372310444927 -0.44471563956770443 -0.48124997581823004 -0.51181175535163925 -0.5362592812616378 -0.55443621682671396 -0.56616584295450689 -0.57124560736760299 -0.56944277561559875 -0.5604920919477997 -0.54409615061994709 -0.51992177643449644 -0.48759865733717389 -0.44671966046089334 -0.39683866343211038 -0.33746880186225259 -0.26808179843196273 -0.18810851719509314 -0.096935442215255838 0.0060923203765800536 0.12167397556876092 0.25055799778109128 0.39353974624404192 0.55144250953897933 0.72515165794163094 0.91559821953208043 1.1237593354992557 1.350654988436202 1.5973481076656977 1.8649407636198529 2.1545772853151672 2.467430316791579 2.804693397102787 3.1675865976858062 3.5573445766358596 3.9752044969958886 3.8177821783890309 3.6761615963033059 3.5533398559755396 3.4403627723351446 3.3495044464319501 3.2700563729314092 3.2019978834623752 3.1454220335775633 3.0997813021295095 3.0530664422391394 3.0055242184503945 2.9672108399710782 2.9371655027777432 2.9160647935285979 2.9012555258378763 2.8914765615781279 2.8768144139265832 2.8649752895876825 2.8546950135917086 2.8447355027067793 2.8338138492401308 2.8209106950685983 2.8100123059621769 2.794533488477732 2.7736513972527161 2.7466687827474026 2.7130187764708849 2.6722711740401834 2.6241338755438028 2.5684528702766678 2.5052101741743567 2.4345195975705316 2.3566212262001978 2.2734118185184609 2.1843722468314342 2.0899861837718507 1.9908979403508757 1.8877956289930939 1.7814330563687157 1.6726153473926664 1.5621865940948527 1.4510166535177971 1.3453921899177517 1.2410095433938448 1.1387820658795189 1.039517922237351 0.94399314053614114 0.85294112141229894 0.77354089668746839 0.70004623301230173 0.63298269427342169 0.57280617081350371 0.51989716053091228 0.4812247964983794 0.45034940437564103 0.42739340530930292 0.41240001314620212 0.40533342148572599 0.40598071988986278 0.41425364096698752 0.43605726994989824 0.46479183902575177 0.50008778443962509 0.53578437637729948 0.57732959964122821 0.62423615815755018 0.67608144696083616 0.73227956357509272 0.78732020482012932 0.84595723970118764 0.9078328570147669 0.96794855006032121 1.0308822862916645 1.0920977174611552 0.9591072930728245 0.82089943979046065 0.69775491688279834 0.57412868480987211 0.46293896327632861 0.36567906884141521 0.2786561888327041 0.20714085339930297 0.14500387344436252 0.08830941125846957 0.034158367477004431
        </DataArray>
      </CellData>
      <Points>
        <DataArray type="Float32" NumberOfComponents="3" format="ascii">
          4.2302712849593389 9.4182493047158076 0
          4.2381148620431999 9.4189636895644959 0
          4.2459546513533768 9.4197187284622537 0
          4.2537879318477065 9.4205388551360052 0
          4.2616121035878178 9.4214421104145742 0
          4.269424415718615 9.4224431406954565 0
          4.2772218628196352 9.4235544192930956 0
          4.285001137018372 9.4247868686146603 0
          4.2927586038478411 9.4261502219617874 0
          4.3004902901028839 9.4276532515709501 0
          4.3081918770116339 9.4293039271832235 0
          4.3158586978877249 9.4311095232901003 0
          4.3234857381170757 9.4330766960254238 0
          4.3310676365367797 9.4352115395745759 0
          4.3385986867031976 9.4375196310989899 0
          4.346072837607692 9.4400060667713106 0
          4.3534836945396798 9.4426754878265413 0
          4.3608245218043429 9.4455320940816687 0
          4.3680882439703179 9.4485796562459949 0
          4.3752674471162143 9.4518215228584079 0
          4.382354381414876 9.4552606199233047 0
          4.3893409630952416 9.4588994487820361 0
          4.3962187760967817 9.4627400814322176 0
          4.4029790743920367 9.4667841517377695 0
          4.4096127861773766 9.4710328413489684 0
          4.4161105166766399 9.4754868663214911 0
          4.4224625551400019 9.4801464558774899 0
          4.4286588812724261 9.4850113316134799 0
          4.4346891694439279 9.4900806884288667 0
          4.4405427969609867 9.4953531688395465 0
          4.4462088704069362 9.5008268178534259 0
          4.4516762260544986 9.5064990681220625 0
          4.4569334459759853 9.5123667061911181 0
          4.4619688762253977 9.5184258373682482 0
          4.4667706500782449 9.5246718470055711 0
          4.4713267135398214 9.53109936127486 0
          4.4756248560807954 9.5377022054512057 0
          4.4796527410508036 9.5444733639008295 0
          4.4833979486421098 9.5514049337516784 0
          4.4868480258221615 9.5584880780480681 0
          4.4899905331121408 9.5657129838242554 0
          4.49281310077951 9.5730688180989318 0
          4.4953034937400949 9.5805436837408706 0
          4.4978609909665082 9.5879956512243485 0
          4.5004730928515428 9.5954284400531282 0
          4.5031269617210601 9.6028461960945375 0
          4.5058159503819226 9.6102510711558384 0
          4.5085270176425478 9.6176476624578715 0
          4.5112535671150864 9.6250383336490817 0
          4.5139891701374744 9.6324254339985558 0
          4.516727377048368 9.6398113479365257 0
          4.5194619595901484 9.6471983864852362 0
          4.5221933164091306 9.6545864109647734 0
          4.5249216713722937 9.6619753472335983 0
          4.5276412653118285 9.6693673193297958 0
          4.5303465351313816 9.6767643569359461 0
          4.5330310188084377 9.6841687787009807 0
          4.5356893598395365 9.6915824469623075 0
          4.5383164333967407 9.6990070789834846 0
          4.5409136432514279 9.7064420476023905 0
          4.5434764699100798 9.7138887815680732 0
          4.5460006606468877 9.7213485504970709 0
          4.5484822406652077 9.7288224595039932 0
          4.5509176137506895 9.7363114169010601 0
          4.5533033873561681 9.7438161946391162 0
          4.5556303907698616 9.7513392795690113 0
          4.557895821222421 9.7588810200721596 0
          4.5600971958811893 9.7664416005964068 0
          4.5622323573154429 9.7740210498448654 0
          4.5642994814928901 9.7816192494196166 0
          4.5662970817165549 9.7892359446292865 0
          4.5682240127803126 9.7968707559812795 0
          4.5700794741561772 9.8045231914928195 0
          4.5718630111193095 9.8121926598551124 0
          4.5735745182422294 9.8198784831840147 0
          4.5752142384695214 9.8275799107878825 0
          4.5767890968417149 9.8352948426879205 0
          4.5783000509604292 9.843022532509238 0
          4.5797483006438222 9.8507622158539689 0
          4.5811354830403657 9.858513082590564 0
          4.582463569086233 9.8662743074362744 0
          4.5837348614660511 9.8740450588842439 0
          4.5849519882139482 9.8818245077590809 0
          4.5861178968235254 9.8896118343850077 0
          4.5872358476773671 9.897406234476577 0
          4.5883155983449448 9.9052060675092388 0
          4.5893609238527855 9.9130106440657304 0
          4.590375985082205 9.9208192753306257 0
          4.591365225087813 9.928631285751699 0
          4.5923333616142807 9.9364460102013723 0
          4.5932853793134267 9.9442627894596001 0
          4.5942324285781027 9.9520802481304145 0
          4.5951800041135673 9.9598977217200186 0
          4.5961338429120815 9.967714514523772 0
          4.5970999169895048 9.9755298872530034 0
          4.5980844259021296 9.9833430429152532 0
          4.5990994952574233 9.9911523681955785 0
          4.600151751104276 9.998956850725591 0
          4.6012480232002408 10.006755352239962 0
          4.6023953379654685 10.014546586546704 0
          4.6036009112259197 10.022329095666004 0
          4.6048720536752494 10.030101238392296 0
          4.6062163372860354 10.037861135725905 0
          4.607647059194691 10.045605625333959 0
          4.6091720929482056 10.053332155268093 0
          4.6107994580253386 10.061037835311794 0
          4.6125317983089555 10.068720648912462 0
          4.6143774387205658 10.076377081057796 0
          4.6163448350531473 10.084003175045323 0
          4.6184426512104304 10.091594461961581 0
          4.6206795858916374 10.099145951702898 0
          4.623058880798804 10.106653827060207 0
          4.6255895390172466 10.114112061286958 0
          4.6282807830894237 10.121513874287805 0
          4.6311362637054554 10.12885389932346 0
          4.6341656246104597 10.136123886663189 0
          4.6373729385664326 10.143317138487886 0
          4.6404596692995552 10.150562283158795 0
          4.643412271638871 10.157862596344188 0
          4.6462458557315802 10.16520953054059 0
          4.6489498097546393 10.172604894475358 0
          4.6515354839501013 10.180042294683055 0
          4.6540207348247264 10.18751381995404 0
          4.6564199123817316 10.195013503255865 0
          4.6587763927603891 10.202526896060208 0
          4.6611375935602952 10.210039101559779 0
          4.663579504974761 10.217525880681647 0
          4.6663687351560315 10.22489023608901 0
        </DataArray>
      </Points>
      <Cells>
        <DataArray type="Int32" Name="connectivity" format="ascii">
          0 1 1 2 2 3 3 4 4 5 5 6 6 7 7 8 8 9 9 10 10 11 11 12 12 13 13 14 14 15 15 16 16 17 17 18 18 19 19 20 20 21 21 22 22 23 23 24 24 25 25 26 26 27 27 28 28 29 29 30 30 31 31 32 32 33 33 34 34 35 35 36 36 37 37 38 38 39 39 40 40 41 41 42 42 43 43 44 44 45 45 46 46 47 47 48 48 49 49 50 50 51 51 52 52 53 53 54 54 55 55 56 56 57 57 58 58 59 59 60 60 61 61 62 62 63 63 64 64 65 65 66 66 67 67 68 68 69 69 70 70 71 71 72 72 73 73 74 74 75 75 76 76 77 77 78 78 79 79 80 80 81 81 82 82 83 83 84 84 85 85 86 86 87 87 88 88 89 89 90 90 91 91 92 92 93 93 94 94 95 95 96 96 97 97 98 98 99 99 100 100 101 101 102 102 103 103 104 104 105 105 106 106 107 107 108 108 109 109 110 110 111 111 112 112 113 113 114 114 115 115 116 116 117 117 118 118 119 119 120 120 121 121 122 122 123 123 124 124 125 125 126 126 127 
        </DataArray>
        <DataArray type="Int32" Name="offsets" format="ascii">
          2 4 6 8 10 12 14 16 18 20 22 24 26 28 30 32 34 36 38 40 42 44 46 48 50 52 54 56 58 60 62 64 66 68 70 72 74 76 78 80 82 84 86 88 90 92 94 96 98 100 102 104 106 108 110 112 114 116 118 120 122 124 126 128 130 132 134 136 138 140 142 144 146 148 150 152 154 156 158 160 162 164 166 168 170 172 174 176 178 180 182 184 186 188 190 192 194 196 198 200 202 204 206 208 210 212 214 216 218 220 222 224 226 228 230 232 234 236 238 240 242 244 246 248 250 252 254 
        </DataArray>
        <DataArray type="Int32" Name="types" format="ascii">
          3 3 3 3 3 3 3 3 3 3 3 3 3 3 3 3 3 3 3 3 3 3 3 3 3 3 3 3 3 3 3 3 3 3 3 3 3 3 3 3 3 3 3 3 3 3 3 3 3 3 3 3 3 3 3 3 3 3 3 3 3 3 3 3 3 3 3 3 3 3 3 3 3 3 3 3 3 3 3 3 3 3 3 3 3 3 3 3 3 3 3 3 3 3 3 3 3 3 3 3 3 3 3 3 3 3 3 3 3 3 3 3 3 3 3 3 3 3 3 3 3 3 3 3 3 3 3         </DataArray>
      </Cells>
    </Piece>
  </UnstructuredGrid>
</VTKFile>
