<?xml version="1.0"?>
<VTKFile type="UnstructuredGrid" version="0.1" byte_order="LittleEndian">
  <UnstructuredGrid>
    <Piece NumberOfPoints="128" NumberOfCells="127">
      <PointData Scalars="W">
        <DataArray type="Float32" Name="W" NumberOfComponents="2">
          0 0 -0.53605757889735739 -0.27645475897580168 -0.85084260023516711 -0.44545036520619147 -1.0665657918183953 -0.57005674221155433 -1.2256772451578932 -0.67136925555670224 -1.3458850185147364 -0.75761973207078814 -1.4365859268043568 -0.83273064503464145 -1.5036164181812122 -0.89879803241160927 -1.5509695379996564 -0.95699287648864162 -1.581636423364793 -1.0080127047105916 -1.5979128135364427 -1.0522396903688949 -1.6016878994277719 -1.089902153274694 -1.5945501418750843 -1.1211319502001791 -1.577905645145846 -1.1460371878518316 -1.5530095333352414 -1.1647209202743998 -1.520958995967548 -1.1772702494087737 -1.482681407001518 -1.1837367011224547 -1.4390787203899642 -1.1842423198937315 -1.3909434568755363 -1.1789122353989865 -1.3389696965438809 -1.1678753885240196 -1.2838019377354242 -1.1513003706820084 -1.2260390675095609 -1.1293968088776711 -1.1662149448262851 -1.1023941536881356 -1.1047956537300563 -1.0705327669149167 -1.042228521043993 -1.034105918584302 -0.97885787697704429 -0.99337228707952829 -0.91503327260378531 -0.94865635776448787 -0.85110499240906234 -0.90034450805575716 -0.78733178352549593 -0.84878362575590405 -0.72371993170051963 -0.79409029910280904 -0.66070704229843791 -0.73689056146058085 -0.59846420439300108 -0.67756724113161115 -0.53715312972671692 -0.61652512479288046 -0.47690000522699588 -0.55415545572944758 -0.41783632775366925 -0.49087668181367539 -0.36007716611364332 -0.42710400150357219 -0.30378725238019327 -0.36332220998767528 -0.2490415962528115 -0.29991390468544393 -0.19591022492116511 -0.23725211839929547 -0.14456497257612186 -0.17582534710220946 -0.095174156549096708 -0.11610603933461019 -0.047896434104377508 -0.058536491579151265 1.2151356824038861 1.4634656962539141 1.5506100295697505 1.8046935816735035 1.9133744439782419 2.1359751818888246 2.0039411691772773 2.1368460463562395 2.4054584281221816 2.4396436075519108 2.8453708858783315 2.7231352581503754 2.9686557960594215 2.6685944638207375 3.453589982894143 2.9014703579497256 3.983618038706974 3.098728508139156 4.5587081865418284 3.2488642119652984 4.7355988413765031 3.0683152449559725 5.8376235654645177 3.3899455004572756 9.3620795263040737 4.6199133198923779 9.7591124952471358 3.8523434828996503 2.5005489057749237 0.84047445753383665 1.8011476373546775 0.56986687763108879 1.8439438692069423 0.55308126436920635 1.8869225344163165 0.53463971941885757 1.9335741054476048 0.51540813453382139 1.9766210266854207 0.49335627185197228 2.39618922123165 0.55320219407895443 2.4418038717085548 0.51377409964640208 2.8753878787816509 0.54118156757508595 2.9265928984607887 0.48080958758159098 2.9765486580842508 0.41739967726683808 3.0250292836930424 0.35093348298346022 3.0719776064770805 0.2814229428514603 3.1172836661235337 0.20887320435528509 3.1564498527268889 0.133161247524193 3.19814881110845 0.054778358015318676 2.8388010477669821 -0.018870890593235889 2.8767796748541867 -0.083906937682069471 2.9132951578609139 -0.15156565784236586 2.9483000901891074 -0.22185901728511831 2.976998550542985 -0.29427767033694047 3.0085127593523402 -0.36962127566541331 3.0381500737038101 -0.4475998167725439 3.0658036330843315 -0.52821352801969679 3.0914258099707941 -0.61147431523949403 2.7390453083065678 -0.60886442108533523 2.7642440105329649 -0.67936353147560014 2.7877363132780371 -0.75226703346521784 2.8093961574232216 -0.82758189662581716 2.8290978585409179 -0.90531225417659322 2.8467706412953224 -0.98547943459634746 2.5138139292555732 -0.93384343446544504 2.5329097897583712 -1.0027948540367118 2.5501860752303327 -1.0739832832022447 2.5654868685207233 -1.1473967279248687 2.57865342793602 -1.2230151129100122 2.2685790829013746 -1.1355519941626586 2.2841482134403432 -1.2015059128648544 2.2976543353231813 -1.2694090557007702 2.3089659173828543 -1.3392301122307524 2.02140681872207 -1.226619863604778 2.0351660712969069 -1.287915090331029 2.0466983635790323 -1.3507565731895861 2.055832714761054 -1.4150455895943297 1.7934460384830893 -1.2840140518653882 1.8043207503002261 -1.3402739718499812 1.8125108932279235 -1.3972802257199404 1.8177356690756465 -1.4547491572353506 1.8162475965769342 -1.5094150346584492 1.8147849198795252 -1.566614682968638 1.8094897293021199 -1.62309336285108 1.8001150404965298 -1.678369405802963 1.7828704378525606 -1.7283859261040173 1.764401728236312 -1.7790308192060835 1.9710864045113852 -2.0732662791703089 1.92844699905687 -2.1222827021918684 1.8832429987567743 -2.1690716054417258 2.0481161414761626 -2.476428361016644 1.9775661406998364 -2.5180157539335748 2.1089153666124263 -2.8370608691311956 2.0067166563065024 -2.8617326299260384 2.1021372755756689 -3.1894118083195182 2.1666109385980672 -3.5225839849888687 2.0076493239902731 -3.5128823266487181 2.2204758111971947 -4.2186065420070333 1.395169244065813 -2.8648428382274216 1.308354494207808 -2.8660946481387795 1.3907155015643746 -3.2725775691798922 1.2312714972288581 -3.1318029373334881 1.2038372459480675 -3.3245518077938025 1.6358065901105581 -5.0622044347919033 0 0
        </DataArray>
        <DataArray type="Float32" Name="u" NumberOfComponents="1">
          0 0.007874015748031496 0.015748031496062992 0.023622047244094488 0.031496062992125984 0.03937007874015748 0.047244094488188976 0.055118110236220472 0.062992125984251968 0.070866141732283464 0.07874015748031496 0.086614173228346455 0.094488188976377951 0.10236220472440945 0.11023622047244094 0.11811023622047244 0.12598425196850394 0.13385826771653545 0.14173228346456693 0.14960629921259844 0.15748031496062992 0.16535433070866143 0.17322834645669291 0.18110236220472442 0.1889763779527559 0.19685039370078741 0.20472440944881889 0.2125984251968504 0.22047244094488189 0.2283464566929134 0.23622047244094488 0.24409448818897639 0.25196850393700787 0.25984251968503935 0.26771653543307089 0.27559055118110237 0.28346456692913385 0.29133858267716534 0.29921259842519687 0.30708661417322836 0.31496062992125984 0.32283464566929132 0.33070866141732286 0.33858267716535434 0.34645669291338582 0.3543307086614173 0.36220472440944884 0.37007874015748032 0.37795275590551181 0.38582677165354329 0.39370078740157483 0.40157480314960631 0.40944881889763779 0.41732283464566927 0.42519685039370081 0.43307086614173229 0.44094488188976377 0.44881889763779526 0.45669291338582679 0.46456692913385828 0.47244094488188976 0.48031496062992124 0.48818897637795278 0.49606299212598426 0.50393700787401574 0.51181102362204722 0.51968503937007871 0.52755905511811019 0.53543307086614178 0.54330708661417326 0.55118110236220474 0.55905511811023623 0.56692913385826771 0.57480314960629919 0.58267716535433067 0.59055118110236215 0.59842519685039375 0.60629921259842523 0.61417322834645671 0.62204724409448819 0.62992125984251968 0.63779527559055116 0.64566929133858264 0.65354330708661412 0.66141732283464572 0.6692913385826772 0.67716535433070868 0.68503937007874016 0.69291338582677164 0.70078740157480313 0.70866141732283461 0.71653543307086609 0.72440944881889768 0.73228346456692917 0.74015748031496065 0.74803149606299213 0.75590551181102361 0.76377952755905509 0.77165354330708658 0.77952755905511806 0.78740157480314965 0.79527559055118113 0.80314960629921262 0.8110236220472441 0.81889763779527558 0.82677165354330706 0.83464566929133854 0.84251968503937003 0.85039370078740162 0.8582677165354331 0.86614173228346458 0.87401574803149606 0.88188976377952755 0.88976377952755903 0.89763779527559051 0.90551181102362199 0.91338582677165359 0.92125984251968507 0.92913385826771655 0.93700787401574803 0.94488188976377951 0.952755905511811 0.96062992125984248 0.96850393700787396 0.97637795275590555 0.98425196850393704 0.99212598425196852 1
        </DataArray>
      </PointData>
      <CellData Scalars="P">
        <DataArray type="Float32" Name="P" NumberOfComponents="1">
          -0.021380155465793055 -0.062527115650303958 -0.10073763058464408 -0.1359135810678006 -0.16845735417738136 -0.19904085634199917 -0.22848624079437821 -0.25768975330779603 -0.28756847424798465 -0.31902046504819176 -0.35289508358344063 -0.38996974864126982 -0.4309323883387548 -0.47636844062878592 -0.52675210165188791 -0.5824409283025973 -0.64367265363874482 -0.71056542718701587 -0.78311977694488599 -0.86122213181570939 -0.94465074556280593 -1.0330835062064434 -1.1261065974387936 -1.2232238733534628 -1.3238690136825888 -1.427414705111979 -1.5331870663067833 -1.6404813176922857 -1.7485723718621649 -1.8567124532421491 -1.9641756528348022 -2.0702564122523714 -2.1742836875265144 -2.2756323078412151 -2.3737368153828475 -2.4681024546135051 -2.5583209692683644 -2.6440718586479908 -2.725129391968379 -2.801378008423395 -2.8728152134209584 -2.9395508991889905 -2.870396816571414 -2.7780752715523938 -2.6641999180106319 -2.553696183159909 -2.425172325898183 -2.2801139379907149 -2.1418514355694183 -1.9898758593488464 -1.824824627445452 -1.646819635323914 -1.4755414430457399 -1.2688389086265459 -0.95236062867112836 -0.63039684364317383 -0.57787512055879919 -0.5532349928721505 -0.5264087631027714 -0.49764360376498101 -0.46704181224181651 -0.43500993073536331 -0.38623033221929265 -0.3364867537195666 -0.27017667598387624 -0.20307882949847977 -0.13525579202970806 -0.066753138947219876 0.0024074667200254442 0.072226284930641829 0.14255650994831662 0.21361178429827088 0.27024776523920607 0.32770521362112448 0.38593916268290673 0.4449156741790643 0.5044346240201395 0.56464971991529245 0.62555244097097817 0.68714508271090413 0.74944378172847093 0.79860317172953288 0.84853561736531113 0.89915322483043403 0.95036985259676909 1.0021023731933711 1.0542741137970459 1.0941155932300799 1.1343477239571547 1.1747925044479697 1.2152690402122732 1.255595432662145 1.2842727258367157 1.3126528732980829 1.3404599878866759 1.3674145964675111 1.383435233923118 1.3983678806138955 1.4118492261371776 1.4235104039234459 1.4252062756124289 1.4247935380376822 1.4218344919532313 1.4158882452045147 1.4064402968973013 1.3931466292912684 1.3755944148348005 1.3533966418010424 1.3261572700012825 1.2936182273061849 1.2569636468691867 1.2138186298940614 1.1642248518630025 1.1074964798321052 1.0440138081471222 0.97208060972983801 0.89413180516907287 0.80766928777155311 0.71305714552066302 0.61590111387861624 0.50850800781908712 0.42010722019746743 0.333951954527901 0.2470351409835968 0.16737130072821044 0.094034892300493098 0.024581994102498925
        </DataArray>
      </CellData>
      <Points>
        <DataArray type="Float32" NumberOfComponents="3" format="ascii">
          4.1337247233987888 7.0130584408335714 0
          4.1301303731150316 7.0200688751398808 0
          4.1265027779311616 7.0270621016733781 0
          4.122822417270001 7.0340276031196609 0
          4.1190759169162554 7.0409576246472563 0
          4.1152534156262659 7.0478458619221769 0
          4.1113474664542053 7.0546869491264754 0
          4.1073524536069792 7.0614762149576684 0
          4.1032642301333215 7.0682095522002051 0
          4.0990798699508293 7.0748833448091508 0
          4.0947974820177677 7.0814944244263298 0
          4.0904160676447239 7.0880400464892022 0
          4.0859354030321908 7.0945178758963934 0
          4.0813559404752802 7.1009259786609009 0
          4.0766787208966822 7.1072628150358659 0
          4.0719052957656015 7.1135272329519497 0
          4.0670376588368429 7.1197184624428083 0
          4.0620781884482735 7.1258361122768736 0
          4.0570295914213705 7.1318801622168291 0
          4.0518948537766537 7.137850955092417 0
          4.0466771975820377 7.1437491886437128 0
          4.0413800409031477 7.1495759049152756 0
          4.0360069606085736 7.1553324771183409 0
          4.0305616592327507 7.1610205952792141 0
          4.0250479360647988 7.16664225122876 0
          4.0194696594217794 7.1721997203310295 0
          4.0138307453274535 7.1776955453779339 0
          4.0081351358840189 7.1831325164262134 0
          4.0023867776128395 7.1885136468206081 0
          3.9965896054824062 7.1938421516893145 0
          3.9907475425982057 7.1991214407419175 0
          3.984864473157733 7.2043550795053788 0
          3.9789442319339425 7.2095467656616634 0
          3.9729905943420598 7.2147003040456772 0
          3.9670072687088216 7.2198195825033249 0
          3.960997888210001 7.2249085460817488 0
          3.9549660038219319 7.229971171438125 0
          3.9489150741862988 7.2350114369474818 0
          3.9428484610297172 7.2400332991605634 0
          3.9367694248816725 7.2450406698664693 0
          3.930681114464619 7.2500373860024432 0
          3.9245865562846971 7.2550271805634106 0
          3.9184886448013727 7.2600136553839381 0
          3.912466277862134 7.2650908124546687 0
          3.9065402708769636 7.2702798103403747 0
          3.9007331286221256 7.2756011879096274 0
          3.8950504491511633 7.2810549994418983 0
          3.8895171361487222 7.2866600139825781 0
          3.8841604705569779 7.2924338008832414 0
          3.8789880749669821 7.2983729763593823 0
          3.8740300167683981 7.3044919692649124 0
          3.8693191549972354 7.3108029985859933 0
          3.8648911377348569 7.3173153609452894 0
          3.8607569038050267 7.3240178612385307 0
          3.8569847796231329 7.330930419983841 0
          3.8537930948643853 7.3381297881897636 0
          3.8512065298055336 7.3455684623663657 0
          3.8487750767486761 7.3530592104863137 0
          3.8464553430263178 7.3605852827351441 0
          3.8442499809517643 7.368145641595838 0
          3.8421616543964761 7.3757391467788747 0
          3.8401932553127374 7.383364608778777 0
          3.8383474522824717 7.391020663236322 0
          3.8366502699293905 7.3987110102077773 0
          3.8351045356646107 7.4064332073545289 0
          3.8337371420982618 7.4141889422500693 0
          3.8325512627206511 7.4219744731843935 0
          3.8315499937976036 7.4297858698883648 0
          3.8307363403430994 7.4376190123915169 0
          3.8301132125553083 7.4454695917520519 0
          3.8296834189770448 7.4533331103678 0
          3.8294493875325002 7.4612048745020978 0
          3.8294137033973836 7.4690800244162947 0
          3.8295540797336911 7.4769540085389883 0
          3.8298728723142821 7.4848227944398644 0
          3.8303723462579713 7.4926821868033588 0
          3.8310546730660517 7.5005278266729913 0
          3.8319216331766945 7.5083552232064426 0
          3.8329751816645725 7.5161597037261219 0
          3.8342171571846091 7.523936431870097 0
          3.8356492753128819 7.53168040757242 0
          3.8372731255587031 7.5393864663200381 0
          3.8390668569975315 7.5470547833926958 0
          3.8410320335683363 7.5546809851405357 0
          3.8431701132291654 7.5622605484736214 0
          3.8454824400994285 7.5697888004318497 0
          3.8479702366238655 7.57726091793538 0
          3.8506345991402013 7.5846719264715556 0
          3.8534548824056234 7.5920250397773774 0
          3.8564322712491745 7.5993159782675033 0
          3.8595678372952764 7.6065403232961213 0
          3.8628625292488694 7.6136935179258867 0
          3.8663171630064403 7.6207708682052617 0
          3.8699125123765432 7.6277778079973739 0
          3.8736495421083563 7.6347102420872339 0
          3.8775290884819396 7.6415639541254956 0
          3.881551851111027 7.6483346086191117 0
          3.8856999995768495 7.6550291975220901 0
          3.8899743848637027 7.6616439135520142 0
          3.8943757192196871 7.6681748533906671 0
          3.8989045655269421 7.6746180238771213 0
          3.9035446533753912 7.6809815578895222 0
          3.908296652951055 7.6872619598366079 0
          3.9131610672852664 7.6934556878795002 0
          3.9181382148438311 7.6995591716174383 0
          3.923227997235136 7.7055690148831966 0
          3.928430316941248 7.711481664535385 0
          3.9337448382022622 7.7172936125893328 0
          3.9391709717689167 7.723001426196376 0
          3.9447076400466514 7.7286019994983919 0
          3.9503536891388888 7.7340921882710889 0
          3.9561219196765469 7.7394537335327493 0
          3.962009678485173 7.744683595680554 0
          3.9680141536510418 7.7497788742825984 0
          3.9741455532135199 7.7547205044814866 0
          3.9803994952209791 7.759505913049737 0
          3.9867841114168763 7.7641153173060289 0
          3.9932930615896391 7.7685471980468881 0
          3.9999322553345871 7.7727812445148139 0
          4.006705688428041 7.7767968103142433 0
          4.0136035144153608 7.7805945152259097 0
          4.0206389369192159 7.7841306179924867 0
          4.0277608188815961 7.7874890776020393 0
          4.0349638005068602 7.7906698299718284 0
          4.0422530206373839 7.7936476875848584 0
          4.0496186378238868 7.7964313932332239 0
          4.057059012852835 7.799009011393168 0
          4.0646010529711223 7.8012728227033632 0
        </DataArray>
      </Points>
      <Cells>
        <DataArray type="Int32" Name="connectivity" format="ascii">
          0 1 1 2 2 3 3 4 4 5 5 6 6 7 7 8 8 9 9 10 10 11 11 12 12 13 13 14 14 15 15 16 16 17 17 18 18 19 19 20 20 21 21 22 22 23 23 24 24 25 25 26 26 27 27 28 28 29 29 30 30 31 31 32 32 33 33 34 34 35 35 36 36 37 37 38 38 39 39 40 40 41 41 42 42 43 43 44 44 45 45 46 46 47 47 48 48 49 49 50 50 51 51 52 52 53 53 54 54 55 55 56 56 57 57 58 58 59 59 60 60 61 61 62 62 63 63 64 64 65 65 66 66 67 67 68 68 69 69 70 70 71 71 72 72 73 73 74 74 75 75 76 76 77 77 78 78 79 79 80 80 81 81 82 82 83 83 84 84 85 85 86 86 87 87 88 88 89 89 90 90 91 91 92 92 93 93 94 94 95 95 96 96 97 97 98 98 99 99 100 100 101 101 102 102 103 103 104 104 105 105 106 106 107 107 108 108 109 109 110 110 111 111 112 112 113 113 114 114 115 115 116 116 117 117 118 118 119 119 120 120 121 121 122 122 123 123 124 124 125 125 126 126 127 
        </DataArray>
        <DataArray type="Int32" Name="offsets" format="ascii">
          2 4 6 8 10 12 14 16 18 20 22 24 26 28 30 32 34 36 38 40 42 44 46 48 50 52 54 56 58 60 62 64 66 68 70 72 74 76 78 80 82 84 86 88 90 92 94 96 98 100 102 104 106 108 110 112 114 116 118 120 122 124 126 128 130 132 134 136 138 140 142 144 146 148 150 152 154 156 158 160 162 164 166 168 170 172 174 176 178 180 182 184 186 188 190 192 194 196 198 200 202 204 206 208 210 212 214 216 218 220 222 224 226 228 230 232 234 236 238 240 242 244 246 248 250 252 254 
        </DataArray>
        <DataArray type="Int32" Name="types" format="ascii">
          3 3 3 3 3 3 3 3 3 3 3 3 3 3 3 3 3 3 3 3 3 3 3 3 3 3 3 3 3 3 3 3 3 3 3 3 3 3 3 3 3 3 3 3 3 3 3 3 3 3 3 3 3 3 3 3 3 3 3 3 3 3 3 3 3 3 3 3 3 3 3 3 3 3 3 3 3 3 3 3 3 3 3 3 3 3 3 3 3 3 3 3 3 3 3 3 3 3 3 3 3 3 3 3 3 3 3 3 3 3 3 3 3 3 3 3 3 3 3 3 3 3 3 3 3 3 3         </DataArray>
      </Cells>
    </Piece>
  </UnstructuredGrid>
</VTKFile>
