<?xml version="1.0"?>
<VTKFile type="UnstructuredGrid" version="0.1" byte_order="LittleEndian">
  <UnstructuredGrid>
    <Piece NumberOfPoints="128" NumberOfCells="127">
      <PointData Scalars="W">
        <DataArray type="Float32" Name="W" NumberOfComponents="2">
          0 0 0.077016373552978953 -0.027943187858816863 0.061102134733250726 -0.022209172664838735 0.040013460121120614 -0.014563133569154969 0.014471233465220033 -0.0052706317766474161 -0.015069128243364855 0.005488350925894875 -0.048059813294032062 0.017489543764591026 -0.08403843453866261 0.030529943245775546 -0.12260422923418823 0.044420265693507717 -0.16348991418542491 0.059011976776279541 -0.20644758683426723 0.074156618522805626 -0.25129914282517352 0.08972470924025383 -0.297909580153493 0.10559645124684534 -0.34623001056959141 0.12167693738363883 -0.39625066539044196 0.13787878816560184 -0.44796542135582296 0.15410933496002352 -0.50130293523337155 0.1702473437566821 -0.55628515399362899 0.18619772455829986 -0.61291513762193772 0.20185230375777136 -0.67117236365399058 0.21708889625866812 -0.73104992634415966 0.23178394364562219 -0.79257175835753924 0.24581741940017424 -0.8557421102586884 0.25905641181745953 -0.9205445834422451 0.27135566372236236 -0.98701380784041226 0.28257885015401735 -1.0550880922117054 0.29255568849519725 -1.1247650585070152 0.30112820153889547 -1.1961038893358438 0.30814801444721096 -1.2690792819789833 0.31343693463580163 -1.3433318430226475 0.31673465911636611 -1.4191457234133176 0.31793597147560032 -1.4964563677105465 0.31684094745380015 -1.5752230826262412 0.31325127757585469 -1.6553484468573183 0.30695389396867068 -1.7367436653830302 0.29773623136747163 -1.8192942920202879 0.28538034834832127 -1.9029720731346298 0.26968008937214033 -1.9875776233498557 0.25040230313660761 -2.072872592840318 0.22731623397224848 -2.1587531085006164 0.2002124094825635 -2.2450709759956942 0.16887684862761468 -2.3316122725492305 0.13309397208874194 -12.449853621243941 -0.01508206551990803 -12.479239331438464 -1.2476443470535565 -12.385789661614163 -2.4953871468692537 -12.162040114556788 -3.7448457058526645 -11.809036775732878 -4.9831885342022089 -11.322230015824392 -6.1946766972993759 -10.70570261269482 -7.3659919830243403 -9.9586089473640875 -8.4797636127403049 -9.0871357676990474 -9.5214030300920793 -8.0989820212558694 -10.477399992839116 -6.9999737276132308 -11.329797357935469 -5.8013595171567482 -12.063843147830379 2.6454882102743729 5.9080821555160332 2.9135096874984376 5.7110368510136214 3.1617994649088437 5.4972356392532271 3.3897413643405492 5.2698741238043132 3.5964583314278955 5.0310231057285328 3.7815774275704519 4.783109904183859 3.944990020927837 4.5284538988592526 3.3878127930304398 3.5667938256558496 3.3994868099259672 3.3165979580434763 3.3862010589708378 3.0693791381808762 3.3524152840196648 2.8299526646015449 3.365718298465624 2.6498279310678368 3.3677391131775853 2.4742275651682148 3.3593191833294282 2.3038308335195299 3.3043230703928685 2.1163125717601368 3.276303295940775 1.9601838069247581 3.2391728616237643 1.8098188729204781 3.1966902224063407 1.6671385511275398 3.1482734656374571 1.53142485388517 3.0535171138134727 1.3847301426618808 2.9948051831085749 1.2652948329893818 2.9326752707166617 1.1528245147560308 2.8663182264709008 1.046677764705481 2.7994621096204866 0.94785451996189596 2.6866833327215751 0.8421318771911307 2.6171955261984241 0.75806857450234899 2.5476400335287388 0.67997654912131977 2.4785527036220785 0.60758253397353523 2.4089025490056462 0.54026753604260358 2.3422222171455491 0.47844320925670303 2.2300159377484614 0.41306974802600077 2.167264193576087 0.36216206451050104 2.1072666429830282 0.31532731632581312 2.0488799535181865 0.27205441191930896 1.9954591384550742 0.23244250867034214 1.9458322541258815 0.19593061687973085 1.8506681457592891 0.15832399877914249 1.8079871504845433 0.12838881907273766 1.7715008570000186 0.10067843873329543 1.7400289051981834 0.074742845223444862 1.7138475753005142 0.050266479559357521 1.6403111812972409 0.026430804667211743 1.6255146286613809 0.0052881110026284971 1.6168489614741972 -0.015381002508180038 1.6145890581702647 -0.035909683428904313 1.5644244540150105 -0.054399145576449939 1.5758699128972251 -0.074330702950892572 1.5946013799460841 -0.095205281800567435 1.6209032448972369 -0.11743185675220254 1.6002774466053182 -0.13642347600858876 1.6415371310809279 -0.16115923032723725 1.6927232791604268 -0.18877525753806917 1.6963948715253405 -0.2122998943202716 1.766053056269123 -0.2457291507380242 1.8454986836301468 -0.28387799007734338 1.8771105504673189 -0.31733935610017044 1.9789359664796919 -0.36602685377804373 2.0905882264806341 -0.4220797131591672 2.154413552575793 -0.47340879194354979 2.2915380098061235 -0.5468667705599537 2.3791160418912987 -0.61565244212336956 2.5427659319142153 -0.71276156427846693 2.6567184715559944 -0.80620934283384649 3.0533984420796099 -1.0058444602978405 3.2065050431851776 -1.1497909818475636 3.4462897375226285 -1.3457561838328274 3.62989101238067 -1.5449434662512831 -3.3118279057804814 1.4148685378286106 -3.035980955435202 1.2010271762515574 -3.1515903487564638 1.1526823823445702 -2.3205215163493857 0.78905161884190778 -1.0973109433467971 0.35582784805222351 4.747424751297542 -1.6196571226831993 0 0
        </DataArray>
        <DataArray type="Float32" Name="u" NumberOfComponents="1">
          0 0.007874015748031496 0.015748031496062992 0.023622047244094488 0.031496062992125984 0.03937007874015748 0.047244094488188976 0.055118110236220472 0.062992125984251968 0.070866141732283464 0.07874015748031496 0.086614173228346455 0.094488188976377951 0.10236220472440945 0.11023622047244094 0.11811023622047244 0.12598425196850394 0.13385826771653545 0.14173228346456693 0.14960629921259844 0.15748031496062992 0.16535433070866143 0.17322834645669291 0.18110236220472442 0.1889763779527559 0.19685039370078741 0.20472440944881889 0.2125984251968504 0.22047244094488189 0.2283464566929134 0.23622047244094488 0.24409448818897639 0.25196850393700787 0.25984251968503935 0.26771653543307089 0.27559055118110237 0.28346456692913385 0.29133858267716534 0.29921259842519687 0.30708661417322836 0.31496062992125984 0.32283464566929132 0.33070866141732286 0.33858267716535434 0.34645669291338582 0.3543307086614173 0.36220472440944884 0.37007874015748032 0.37795275590551181 0.38582677165354329 0.39370078740157483 0.40157480314960631 0.40944881889763779 0.41732283464566927 0.42519685039370081 0.43307086614173229 0.44094488188976377 0.44881889763779526 0.45669291338582679 0.46456692913385828 0.47244094488188976 0.48031496062992124 0.48818897637795278 0.49606299212598426 0.50393700787401574 0.51181102362204722 0.51968503937007871 0.52755905511811019 0.53543307086614178 0.54330708661417326 0.55118110236220474 0.55905511811023623 0.56692913385826771 0.57480314960629919 0.58267716535433067 0.59055118110236215 0.59842519685039375 0.60629921259842523 0.61417322834645671 0.62204724409448819 0.62992125984251968 0.63779527559055116 0.64566929133858264 0.65354330708661412 0.66141732283464572 0.6692913385826772 0.67716535433070868 0.68503937007874016 0.69291338582677164 0.70078740157480313 0.70866141732283461 0.71653543307086609 0.72440944881889768 0.73228346456692917 0.74015748031496065 0.74803149606299213 0.75590551181102361 0.76377952755905509 0.77165354330708658 0.77952755905511806 0.78740157480314965 0.79527559055118113 0.80314960629921262 0.8110236220472441 0.81889763779527558 0.82677165354330706 0.83464566929133854 0.84251968503937003 0.85039370078740162 0.8582677165354331 0.86614173228346458 0.87401574803149606 0.88188976377952755 0.88976377952755903 0.89763779527559051 0.90551181102362199 0.91338582677165359 0.92125984251968507 0.92913385826771655 0.93700787401574803 0.94488188976377951 0.952755905511811 0.96062992125984248 0.96850393700787396 0.97637795275590555 0.98425196850393704 0.99212598425196852 1
        </DataArray>
      </PointData>
      <CellData Scalars="P">
        <DataArray type="Float32" Name="P" NumberOfComponents="1">
          -0.0099787613006203715 -0.029945016480820989 -0.049931269024712462 -0.069938982946147393 -0.089955608592957689 -0.10995139891426459 -0.12987756717055518 -0.14966516940578536 -0.1692246609031908 -0.18844548882844142 -0.207196383633585 -0.22532559158143434 -0.24266132396015744 -0.25901170066660911 -0.2741649032220273 -0.28788973603187068 -0.29993752236313204 -0.31004169577221619 -0.31791904251321268 -0.32327135551016523 -0.32578649106353991 -0.32513891018636532 -0.320991481990136 -0.31299759977031061 -0.30080113417825866 -0.28404123779282076 -0.26235224144674074 -0.23536284008082417 -0.20270088443151618 -0.16401032154853354 -0.11892560148063279 -0.067088080978757708 -0.008146958410676362 0.058235801065054063 0.13238365101908026 0.21460186818946772 0.30518041011846875 0.40438204142116879 0.51243732056687508 0.6295505681430783 0.75589536529526047 0.89160841751320741 1.7217204544171905 2.5671875435110718 3.424211110320035 4.2880452700106257 5.1535040937645178 6.0144243224274838 6.8642165387278036 7.6953552811378509 8.4998428259923262 9.2692640461931006 9.9944974169046468 10.666120317222102 10.320472776648556 9.9285235572023929 9.495260757300267 9.0257789561850501 8.5252816203722155 7.9989804739711285 7.4520315168581464 6.98653284633611 6.5227991116000164 6.0654104539859066 5.6180973077929224 5.1753104601592277 4.7394777249994222 4.31276965180394 3.9017965227085121 3.5035365796019611 3.1195494329171618 2.7508033885922458 2.3982233283797041 2.0671074320658058 1.7532982662686285 1.4571102515776782 1.1788471731351429 0.91835441342367996 0.67958014635359032 0.45803053506824049 0.25334322490112349 0.065071417408901044 -0.10718854379373287 -0.264130081896507 -0.40331351927014153 -0.52866853880235953 -0.64086797416453534 -0.74051564242622203 -0.82837041527383637 -0.90509504314844291 -0.96955768288094091 -1.0243454394921681 -1.0700859780171876 -1.1073107124838169 -1.1365020712783545 -1.1574419391617554 -1.1713999866368467 -1.1786846817961423 -1.1795429935965085 -1.174436626622525 -1.16344319951764 -1.1466190462524948 -1.1239641788760257 -1.0965257355122557 -1.0633257882340146 -1.024189442538648 -0.98058683363095678 -0.93082766484223134 -0.87469745515503972 -0.81408427926535443 -0.7467821818775382 -0.67270267960799601 -0.59417453566147183 -0.50885221742579623 -0.41946729685787604 -0.32381113882859358 -0.22502421140053672 -0.1132713245065774 -9.860753077667779e-05 0.11553562431013557 0.22889600191239576 0.14003048036563404 0.070873465428644158 0.011711275955363733 -0.02011173501386013 -0.028249658006533056 0.00032837346296017353
        </DataArray>
      </CellData>
      <Points>
        <DataArray type="Float32" NumberOfComponents="3" format="ascii">
          3.868413361783452 8.3263569434460667 0
          3.8710966173152319 8.3337599179117756 0
          3.8737846456036542 8.3411611527544061 0
          3.8764764585847891 8.3485609999137562 0
          3.8791707478142983 8.3559599311239179 0
          3.8818659290031312 8.3633585209741828 0
          3.8845601701877381 8.3707574355425081 0
          3.8872514256591257 8.3781574183712149 0
          3.8899374646077063 8.3855592778009633 0
          3.892615895953019 8.392963875176612 0
          3.8952841849002651 8.4003721155924964 0
          3.8979396682966478 8.4077849386508632 0
          3.9005795656608102 8.4152033104028945 0
          3.9032009875401932 8.4226282158945907 0
          3.9058009385293895 8.4300606532593232 0
          3.9083763178631368 8.4375016282798256 0
          3.9109239197833428 8.4449521486244574 0
          3.9134404379498067 8.4524132163142696 0
          3.9159224640669059 8.4598858218125343 0
          3.9183664876813635 8.4673709373044108 0
          3.9207688974422208 8.4748695091089701 0
          3.9231259815167179 8.4823824500070071 0
          3.925433926094386 8.4899106317885895 0
          3.927688815111698 8.4974548770023546 0
          3.9298866312572796 8.5050159499398585 0
          3.9320232538137301 8.5125945481741265 0
          3.9340944624718288 8.5201912919930951 0
          3.9360959374678326 8.5278067145961405 0
          3.9380232559045747 8.5354412528860859 0
          3.9398718933113237 8.5430952364124835 0
          3.9416372459183697 8.5507688712239212 0
          3.9433146130321677 8.5584622333356961 0
          3.9448992010314061 8.5661752563253888 0
          3.9463861258845712 8.5739077190283446 0
          3.9477704191858076 8.5816592323179233 0
          3.9490470336570951 8.5894292259166232 0
          3.9502108502421067 8.5972169348737069 0
          3.9512566798571847 8.6050213867733412 0
          3.9521792757543204 8.6128413872687908 0
          3.9529733483016414 8.620675505765 0
          3.9536335714274355 8.6285220624207692 0
          3.9541545918137597 8.6363791148714633 0
          3.9545310421670843 8.6442444448527489 0
          3.9541355351069742 8.6521088659719005 0
          3.9529662407540491 8.659895952374189 0
          3.9510289457245036 8.667528335439302 0
          3.9483375162210463 8.6749285387426891 0
          3.9449138334488438 8.6820197736482161 0
          3.9407880759474332 8.6887269153834445 0
          3.9359984667041417 8.6949773289043915 0
          3.9305913257544609 8.7007019462471415 0
          3.924620686754924 8.705836171278758 0
          3.9181478197763782 8.7103207176232491 0
          3.9112408700682231 8.7141027224553458 0
          3.9039741605827376 8.7171366614739281 0
          3.8968714808006326 8.720536968285554 0
          3.8899494530212451 8.7242914260532203 0
          3.8832234761692632 8.7283867784682254 0
          3.8767076874973516 8.7328089279047401 0
          3.8704149081427417 8.7375430638213061 0
          3.8643566199356694 8.742573813286505 0
          3.8585429586025843 8.7478853848209308 0
          3.8529393945846997 8.7534181239104338 0
          3.8475466525091573 8.7591565114059708 0
          3.8423639088422217 8.7650852126519236 0
          3.8373890683699456 8.7711893762794571 0
          3.8326229541133201 8.7774578301076556 0
          3.8280656893078899 8.7838796827711167 0
          3.8237167496151967 8.7904443658616849 0
          3.8195727229997956 8.797140248727203 0
          3.8156318694671412 8.8039576483488631 0
          3.8118918840552372 8.8108872394202979 0
          3.80835012988191 8.8179201735198625 0
          3.805003602114295 8.825048034556934 0
          3.8018464229803097 8.8322617251335274 0
          3.7988749493122391 8.8395538392957178 0
          3.7960853260991185 8.8469174033121849 0
          3.7934734363481093 8.8543458358689513 0
          3.7910351322402978 8.8618330101092511 0
          3.7887634189442712 8.8693723711285983 0
          3.7866539857350179 8.8769587079947776 0
          3.7847025178706621 8.8845871803265553 0
          3.7829047298258573 8.8922533013349838 0
          3.7812563013797429 8.8999528994161583 0
          3.7797530966438764 8.9076821436887368 0
          3.7783881573457774 8.9154369832092257 0
          3.7771575915720468 8.9232142645796308 0
          3.7760576783880113 8.9310110871641282 0
          3.7750847969513202 8.9388247713836808 0
          3.7742356345220678 8.946652864858164 0
          3.7735071138025393 8.9544931076035219 0
          3.7728933343849551 8.9623431720842586 0
          3.7723916500403414 8.9702012065784338 0
          3.7719997988340523 8.9780654974546099 0
          3.7717158299457147 8.9859344412579425 0
          3.771538120803223 8.993806525129953 0
          3.7714621129695929 9.0016802766133566 0
          3.7714868901947423 9.0095543899126422 0
          3.7716119166027031 9.0174275886698556 0
          3.7718370537502626 9.0252986052892883 0
          3.7721591932153919 9.033166299606977 0
          3.7725790468800806 9.041029441286911 0
          3.7730977787091291 9.0488867415108825 0
          3.7737170224172085 9.056736827591628 0
          3.7744355023131946 9.0645785287167904 0
          3.7752557803606841 9.0724103166766419 0
          3.7761810345010205 9.0802304844908566 0
          3.7772114969085346 9.0880375804149178 0
          3.778351492013972 9.0958295367897488 0
          3.7796059518096738 9.1036039929969359 0
          3.7809768428033088 9.111358880849787 0
          3.7824704862742462 9.1190911855820467 0
          3.7840938137778655 9.126797435182775 0
          3.7858507919451085 9.1344744524927002 0
          3.78774993401669 9.1421176848834129 0
          3.7897966818109201 9.1497228715141823 0
          3.7920011960781763 9.1572839911782307 0
          3.7943705569486248 9.1647952517462077 0
          3.7969293799877524 9.172244259397246 0
          3.7996871763658477 9.1796220855611477 0
          3.8026588344293759 9.1869165691266961 0
          3.8058557597169971 9.1941153507508506 0
          3.8088470304541637 9.201401459228741 0
          3.8116498114512365 9.2087616572313085 0
          3.8142569849344965 9.2161929957678499 0
          3.8167201279576024 9.2236729380030571 0
          3.8191151217812633 9.2311746366032743 0
          3.8218043719722643 9.238575539064291 0
        </DataArray>
      </Points>
      <Cells>
        <DataArray type="Int32" Name="connectivity" format="ascii">
          0 1 1 2 2 3 3 4 4 5 5 6 6 7 7 8 8 9 9 10 10 11 11 12 12 13 13 14 14 15 15 16 16 17 17 18 18 19 19 20 20 21 21 22 22 23 23 24 24 25 25 26 26 27 27 28 28 29 29 30 30 31 31 32 32 33 33 34 34 35 35 36 36 37 37 38 38 39 39 40 40 41 41 42 42 43 43 44 44 45 45 46 46 47 47 48 48 49 49 50 50 51 51 52 52 53 53 54 54 55 55 56 56 57 57 58 58 59 59 60 60 61 61 62 62 63 63 64 64 65 65 66 66 67 67 68 68 69 69 70 70 71 71 72 72 73 73 74 74 75 75 76 76 77 77 78 78 79 79 80 80 81 81 82 82 83 83 84 84 85 85 86 86 87 87 88 88 89 89 90 90 91 91 92 92 93 93 94 94 95 95 96 96 97 97 98 98 99 99 100 100 101 101 102 102 103 103 104 104 105 105 106 106 107 107 108 108 109 109 110 110 111 111 112 112 113 113 114 114 115 115 116 116 117 117 118 118 119 119 120 120 121 121 122 122 123 123 124 124 125 125 126 126 127 
        </DataArray>
        <DataArray type="Int32" Name="offsets" format="ascii">
          2 4 6 8 10 12 14 16 18 20 22 24 26 28 30 32 34 36 38 40 42 44 46 48 50 52 54 56 58 60 62 64 66 68 70 72 74 76 78 80 82 84 86 88 90 92 94 96 98 100 102 104 106 108 110 112 114 116 118 120 122 124 126 128 130 132 134 136 138 140 142 144 146 148 150 152 154 156 158 160 162 164 166 168 170 172 174 176 178 180 182 184 186 188 190 192 194 196 198 200 202 204 206 208 210 212 214 216 218 220 222 224 226 228 230 232 234 236 238 240 242 244 246 248 250 252 254 
        </DataArray>
        <DataArray type="Int32" Name="types" format="ascii">
          3 3 3 3 3 3 3 3 3 3 3 3 3 3 3 3 3 3 3 3 3 3 3 3 3 3 3 3 3 3 3 3 3 3 3 3 3 3 3 3 3 3 3 3 3 3 3 3 3 3 3 3 3 3 3 3 3 3 3 3 3 3 3 3 3 3 3 3 3 3 3 3 3 3 3 3 3 3 3 3 3 3 3 3 3 3 3 3 3 3 3 3 3 3 3 3 3 3 3 3 3 3 3 3 3 3 3 3 3 3 3 3 3 3 3 3 3 3 3 3 3 3 3 3 3 3 3         </DataArray>
      </Cells>
    </Piece>
  </UnstructuredGrid>
</VTKFile>
