<?xml version="1.0"?>
<VTKFile type="UnstructuredGrid" version="0.1" byte_order="LittleEndian">
  <UnstructuredGrid>
    <Piece NumberOfPoints="128" NumberOfCells="127">
      <PointData Scalars="W">
        <DataArray type="Float32" Name="W" NumberOfComponents="2">
          0 0 -0.44456976254550473 -0.67388934604374506 -0.66473094179657999 -0.99054652794145925 -0.8289856794716014 -1.2077875983900013 -0.96330432276770461 -1.3669654681695105 -1.0778945541962814 -1.4855510260430256 -1.177929675346056 -1.573317753289539 -1.2663800083499148 -1.6365877209400177 -1.3450635280707535 -1.6798088311617068 -1.4150786607482357 -1.7062281163883002 -1.4771712712866587 -1.7184260794019131 -1.5318463096557693 -1.7184939298894453 -1.5794517705979425 -1.7081668399039382 -1.6201997238698316 -1.688878632855815 -1.654200835130629 -1.6618286780587095 -1.681551682339518 -1.6280914927295684 -1.702393379342426 -1.5886789264822385 -1.7168262656016466 -1.544462749159353 -1.7249461677696143 -1.4962215201004567 -1.7269104822614758 -1.4447031516083761 -1.7228708762149783 -1.3905679594574736 -1.7129812029552876 -1.3344034133878593 -1.6974426317330367 -1.2767641044893538 -1.6765018723242855 -1.2181696718323312 -1.6503730837696402 -1.1590508284039998 -1.6193827518778228 -1.099857047375655 -1.5838297978183005 -1.0409569293026801 -1.5439695754155325 -0.98263803284434137 -1.5001445607963519 -0.92519663002891339 -1.4530379733690735 -0.86908180410331159 -1.4027368465425161 -0.81432966625876702 -1.3496589517868331 -0.76114590664322157 -1.2942339610490798 -0.70970371065056181 -1.2369214671502451 -0.6601571804377816 -1.1781835612447387 -0.61262963757975586 -1.118514063090033 -0.56723292774586553 -1.0583388947828365 -0.52402103534872235 -0.99824505664611196 -0.4831087271294866 -0.93881772671198793 -0.44458912305227311 -0.88052850934489313 -0.40848758947315955 -0.82390741874172191 -0.37484976441951184 -0.76954004589519021 -0.34374060038365001 2.6069784460689789 1.1894938188118154 3.0413985262659193 1.4791628084618467 3.4748907761154606 1.8153453303156186 3.4514808264462573 1.941756817558919 3.8553652308844146 2.3415933988283153 4.229070717235853 2.792153996354938 4.5794931812517818 3.3091668836578418 4.8815799058325258 3.8878333343675773 5.1377005119077204 4.5439066794331282 5.7435268443538892 5.7167618226811898 6.2178322301046363 7.1089888608585508 5.6880518427669857 7.57414208393637 5.117278935594439 7.9934269041338224 -5.4624489511275893 -8.4880930269088761 1.1566454015102861 1.6778325852077867 1.043196346394212 1.5643770826777079 1.0452555898490656 1.6195609490591982 1.0455433234202223 1.6759924252501417 1.0440309494372051 1.7337836615097735 1.040468486150687 1.7926832257080794 1.0312775792744828 1.8463164543582633 1.0233557200016858 1.9069094878325938 1.194809631672469 2.3307169516264454 1.1677818300707725 2.3998086397208391 1.1374038867070388 2.4691789348911892 1.1035771655578048 2.5386848643782347 1.0662096658054212 2.6081761866867859 1.0252189888448446 2.6775022220757534 0.9804839635867898 2.7463730468584795 0.9320397249313378 2.8149066015503568 0.87977504846010135 2.8828123152246379 0.82363963678140706 2.9499332700365 0.76359041787169979 3.0161118293922553 0.69959111665354989 3.0811899236752369 0.5547899051238685 2.7394127800060124 0.50348750367890527 2.8052482292589178 0.44720764377884886 2.8628808996586157 0.38745867247103505 2.9193438977244286 0.32420369931615001 2.9743363621732373 0.25746089029633512 3.0279738187009815 0.18720229087114346 3.0799544376588228 0.1134272876111185 3.1301086506254165 0.036143222903638084 3.1782718989314671 -0.044635437814814931 3.2242779467028857 -0.10898878298642854 2.8762359563112803 -0.17742219274682994 2.9182909918650322 -0.24887021079065327 2.9584002651196633 -0.32330997781547383 2.9963828208024186 -0.4007084174561702 3.0320614608677356 -0.48099964830849862 3.0651271427665989 -0.4908254206027442 2.7166357529299181 -0.56031022323967528 2.7544028123135287 -0.63108835797171636 2.7830380542803037 -0.70420033332945364 2.8089939879883512 -0.77961045646444793 2.8323079511420572 -0.74608267398811801 2.4962334321906621 -0.80973395783678026 2.5182231895274496 -0.8750698813793355 2.5374170289188513 -0.94187317134442983 2.5534366940089956 -1.0100197888187874 2.5662451347447224 -1.0792258540366033 2.5754475368530478 -1.1492075461807667 2.5807656545362501 -1.2196352290239332 2.5819144263712368 -1.2901324233410698 2.5786105303735987 -1.3602664163261731 2.5705636964796028 -1.4295449690990594 2.5574829911312222 -1.4974084902012474 2.5390748471013014 -1.559519524443421 2.5092376876894171 -1.8308429037471841 2.7892359345436102 -1.9054436749082613 2.7429035529342469 -2.2039294864703289 2.9916522424255505 -2.2846175952560692 2.9185718354829273 -2.3528955073214579 2.8320435561870547 -2.6856256080667311 3.0391946870963173 -2.1239332104207413 2.2710871860387885 -2.0762461412104916 2.1162995257287576 -2.0301563779490643 1.9769513213364864 -1.9466461417491217 1.8152515428580402 -2.1774916463315548 1.9428611218504415 -2.0794288044326823 1.7738653557844222 -2.2290973009861488 1.8180416360109035 -2.284545901586418 1.7783789222748874 -2.268156241720829 1.6849794739258566 -2.3584921689243155 1.6710606598025277 -3.8334050428882085 2.5496151738881587 0 0
        </DataArray>
        <DataArray type="Float32" Name="u" NumberOfComponents="1">
          0 0.007874015748031496 0.015748031496062992 0.023622047244094488 0.031496062992125984 0.03937007874015748 0.047244094488188976 0.055118110236220472 0.062992125984251968 0.070866141732283464 0.07874015748031496 0.086614173228346455 0.094488188976377951 0.10236220472440945 0.11023622047244094 0.11811023622047244 0.12598425196850394 0.13385826771653545 0.14173228346456693 0.14960629921259844 0.15748031496062992 0.16535433070866143 0.17322834645669291 0.18110236220472442 0.1889763779527559 0.19685039370078741 0.20472440944881889 0.2125984251968504 0.22047244094488189 0.2283464566929134 0.23622047244094488 0.24409448818897639 0.25196850393700787 0.25984251968503935 0.26771653543307089 0.27559055118110237 0.28346456692913385 0.29133858267716534 0.29921259842519687 0.30708661417322836 0.31496062992125984 0.32283464566929132 0.33070866141732286 0.33858267716535434 0.34645669291338582 0.3543307086614173 0.36220472440944884 0.37007874015748032 0.37795275590551181 0.38582677165354329 0.39370078740157483 0.40157480314960631 0.40944881889763779 0.41732283464566927 0.42519685039370081 0.43307086614173229 0.44094488188976377 0.44881889763779526 0.45669291338582679 0.46456692913385828 0.47244094488188976 0.48031496062992124 0.48818897637795278 0.49606299212598426 0.50393700787401574 0.51181102362204722 0.51968503937007871 0.52755905511811019 0.53543307086614178 0.54330708661417326 0.55118110236220474 0.55905511811023623 0.56692913385826771 0.57480314960629919 0.58267716535433067 0.59055118110236215 0.59842519685039375 0.60629921259842523 0.61417322834645671 0.62204724409448819 0.62992125984251968 0.63779527559055116 0.64566929133858264 0.65354330708661412 0.66141732283464572 0.6692913385826772 0.67716535433070868 0.68503937007874016 0.69291338582677164 0.70078740157480313 0.70866141732283461 0.71653543307086609 0.72440944881889768 0.73228346456692917 0.74015748031496065 0.74803149606299213 0.75590551181102361 0.76377952755905509 0.77165354330708658 0.77952755905511806 0.78740157480314965 0.79527559055118113 0.80314960629921262 0.8110236220472441 0.81889763779527558 0.82677165354330706 0.83464566929133854 0.84251968503937003 0.85039370078740162 0.8582677165354331 0.86614173228346458 0.87401574803149606 0.88188976377952755 0.88976377952755903 0.89763779527559051 0.90551181102362199 0.91338582677165359 0.92125984251968507 0.92913385826771655 0.93700787401574803 0.94488188976377951 0.952755905511811 0.96062992125984248 0.96850393700787396 0.97637795275590555 0.98425196850393704 0.99212598425196852 1
        </DataArray>
      </PointData>
      <CellData Scalars="P">
        <DataArray type="Float32" Name="P" NumberOfComponents="1">
          -0.021630918860154853 -0.062670092374541991 -0.1000255020442542 -0.13355287783139844 -0.16365246547567527 -0.19102357166848122 -0.21653391775004208 -0.24113819370257961 -0.26582323510908212 -0.29156973358672883 -0.31932262838911196 -0.34996914129811163 -0.38432208232553305 -0.42310721396986906 -0.46695327482544602 -0.516384222324489 -0.57181429201837608 -0.63354508353063321 -0.70176427277621545 -0.77654685451261019 -0.85785736180116623 -0.94555330817452699 -1.0393908687566726 -1.1390321542500721 -1.2440514053635083 -1.3539465827662942 -1.4681477301772896 -1.5860247182594649 -1.7069006219887084 -1.8300782991392559 -1.9548248730839559 -2.0803970884016927 -2.2060531009514039 -2.3310649203423028 -2.454728899442161 -2.5763770072025816 -2.6953815015662843 -2.8111709501975706 -2.9232353230907866 -3.0311226371563582 -3.1344426983852718 -3.2328673811718511 -3.1468576511332906 -3.0440409817375707 -2.925175403349606 -2.8117607983201389 -2.6838145845195136 -2.5415903433889317 -2.3837766579641433 -2.2086001248344207 -2.0122390415611275 -1.7672620362039857 -1.4858785307857656 -1.1849467852242273 -0.85898127997723051 -1.3618313557096302 -1.3169104848192457 -1.2772349736568611 -1.2336854119325356 -1.1865045375297161 -1.1359338815508468 -1.0822343359523956 -1.0260358465111172 -0.96727008081652599 -0.88584043065473572 -0.80230477053921956 -0.71689479490397723 -0.6298338740227214 -0.54133607918279913 -0.45160483291815395 -0.36083871970938625 -0.26920903924887868 -0.17687980081506569 -0.083999372031152791 0.0093007730376681256 0.10290730815082001 0.17801948282541821 0.25371914182356953 0.32947963243201595 0.40511384129956823 0.4804357319682751 0.55527945930976108 0.62948262810895694 0.70289347534114077 0.77537252566178549 0.84679404536515979 0.90245761550615788 0.95714370326827747 1.0106358236482527 1.062721369838159 1.1131936581681008 1.1618496944789605 1.1965380158156487 1.2296488263119336 1.2606780955841512 1.289334818431735 1.3153394367600808 1.3292226339990947 1.3404157618464501 1.3485544473800082 1.3532742331047627 1.3542224464975194 1.3510550083767656 1.3434443981117672 1.3310852222425145 1.3137003392799718 1.2910472429342084 1.2629249011773442 1.2291808747932476 1.1896963239816258 1.1449585403364431 1.0938616170260085 1.035812901971668 0.9715694094053593 0.90193680040725877 0.8250932206975703 0.75136700427835168 0.67641876247481225 0.60090165613568847 0.52589471120606524 0.44811356437003957 0.37236850569650021 0.29657845621774503 0.22294143323857088 0.15330195253279202 0.088155852017788375 0.024724010649872227
        </DataArray>
      </CellData>
      <Points>
        <DataArray type="Float32" NumberOfComponents="3" format="ascii">
          5.7885950507663573 10.315171274446106 0
          5.7951849407303015 10.310853890017668 0
          5.8017472033397492 10.306494702729857 0
          5.8082681534119383 10.302074074365001 0
          5.814737580615855 10.297578535680177 0
          5.8211471358589915 10.29299822089069 0
          5.8274896970810879 10.288325783653098 0
          5.833759047856919 10.283555790530137 0
          5.8399496928694248 10.278684328547723 0
          5.8460567449666092 10.273708729006977 0
          5.8520758569034141 10.268627365788358 0
          5.8580031749736623 10.263439495000503 0
          5.8638353075922156 10.258145124983372 0
          5.8695693036105538 10.252744908402445 0
          5.8752026390567202 10.247240053044123 0
          5.8807332101545162 10.241632247165285 0
          5.8861593272043491 10.235923592599674 0
          5.891479705690073 10.230116541766737 0
          5.8966934599056762 10.224213843387487 0
          5.901800096854096 10.218218494001349 0
          5.9067995063220904 10.212133691404949 0
          5.9116919513085273 10.205962793546171 0
          5.916478058317959 10.199709281958715 0
          5.921158804723845 10.193376727258467 0
          5.9257355033152042 10.186968756829907 0
          5.930209788871978 10.180489028048862 0
          5.9345835977884009 10.17394120036259 0
          5.9388591494215932 10.167328912403656 0
          5.943038930159239 10.160655764145801 0
          5.9471256721049626 10.153925298534451 0
          5.9511223106587021 10.147140973655718 0
          5.9550319790829329 10.140306160520199 0
          5.9588579825847594 10.133424130340005 0
          5.9626037716823097 10.126498043825912 0
          5.9662729137373809 10.119530941669623 0
          5.9698690643531611 10.112525736933579 0
          5.973395936822782 10.105485208148359 0
          5.9768572758038481 10.09841199599091 0
          5.9802568210177576 10.091308596183909 0
          5.9835982710700115 10.084177353723646 0
          5.9868852543183104 10.077020461292989 0
          5.9901212961191517 10.06983995639745 0
          5.9933097826220809 10.062637717279543 0
          5.9966599019521079 10.055509480962732 0
          6.0001985867657996 10.048473212074041 0
          6.0039527085333066 10.041549756535648 0
          6.0079208073102581 10.034746926130479 0
          6.0121279156131049 10.028089509259027 0
          6.0165971925344444 10.021605434679584 0
          6.0213503520878797 10.015326746884636 0
          6.0264061112139622 10.009289307392663 0
          6.0317803381091002 10.003533771793368 0
          6.0375105792298749 9.9981328418883333 0
          6.0436265626472609 9.9931725586905049 0
          6.050095532917414 9.9886817708538285 0
          6.0568822012889711 9.9846865038464934 0
          6.0633304491898459 9.9801645174990661 0
          6.0698504014016779 9.9757466310893896 0
          6.0764350310535686 9.9714257980690295 0
          6.0830844684330021 9.9672054378714829 0
          6.0897987338584416 9.9630890475853846 0
          6.0965777359016382 9.9590802089050268 0
          6.1034212558934406 9.9551825725200427 0
          6.1103287262470101 9.9513994625728088 0
          6.1172996577538843 9.9477346352796552 0
          6.1243446715589966 9.9442143828004355 0
          6.1314620929209545 9.9408429877929283 0
          6.1386500392362739 9.9376247504147326 0
          6.1459064139205752 9.9345639794425331 0
          6.1532289007005803 9.9316649829408767 0
          6.1606149585006831 9.9289320589040653 0
          6.1680618139293486 9.9263694772600441 0
          6.1755664634426317 9.9239814871769081 0
          6.1831256664456715 9.9217722990257862 0
          6.1907359421668717 9.919746074635011 0
          6.1983935669795569 9.9179069174990016 0
          6.2060945721446759 9.9162588629593866 0
          6.2138299932977805 9.9147807098187339 0
          6.2215966488353747 9.9134765417448474 0
          6.229391048552638 9.9123499336715497 0
          6.2372094868983732 9.9114043880497995 0
          6.2450480406794764 9.9106433161681249 0
          6.2529025701637577 9.9100700452977382 0
          6.2607687173394142 9.9096877999477968 0
          6.2686419058659926 9.9094996913220399 0
          6.2765173415200417 9.9095087070835266 0
          6.2843900130845656 9.9097177010126742 0
          6.2922559436495975 9.9101050878155217 0
          6.3001108872176044 9.9106734770304445 0
          6.3079504104950379 9.9114253573736537 0
          6.3157698943051779 9.9123630854743165 0
          6.3235645356386776 9.9134888748399632 0
          6.3313293517491394 9.9148047766429475 0
          6.3390637458730712 9.916289179229608 0
          6.3467634045368921 9.9179444256728093 0
          6.3544239339599757 9.9197722923396618 0
          6.3620407952592899 9.9217743890046606 0
          6.3696093066785471 9.9239521611086943 0
          6.3771315581624588 9.926284767337151 0
          6.3846035964946912 9.9287735709045837 0
          6.3920213636399499 9.9314197610450989 0
          6.3993807102754392 9.9342243295015429 0
          6.4066774035353022 9.9371880681780507 0
          6.4139071446955507 9.9403115446147634 0
          6.4210655868613316 9.9435950847009629 0
          6.4281483555070587 9.947038754978081 0
          6.4351510719323262 9.9506423450659724 0
          6.4420693802155133 9.9544053496768949 0
          6.4488989778677501 9.9583269506101999 0
          6.4556356506709784 9.962405998609011 0
          6.4622755420460578 9.9666406351736967 0
          6.4688018093926809 9.9710482091824169 0
          6.4752098248655479 9.9756258374022799 0
          6.4814810674287333 9.9803889286585559 0
          6.4876105368320127 9.985332940712631 0
          6.493594004282901 9.9904524985566052 0
          6.4994108360809335 9.9957604324107532 0
          6.5050958885123302 10.001209122102583 0
          6.5106521265827766 10.006788967005955 0
          6.5160824166592706 10.012491325626877 0
          6.521391946617288 10.018306173461776 0
          6.5265664106267236 10.02424142255949 0
          6.5316119031848574 10.030286603676821 0
          6.5365191593617435 10.036444467490083 0
          6.5412847604247304 10.042712575110876 0
          6.5459097452451713 10.049085165399944 0
          6.5503885404351623 10.055561418125112 0
          6.5546297459851788 10.0621958924736 0
        </DataArray>
      </Points>
      <Cells>
        <DataArray type="Int32" Name="connectivity" format="ascii">
          0 1 1 2 2 3 3 4 4 5 5 6 6 7 7 8 8 9 9 10 10 11 11 12 12 13 13 14 14 15 15 16 16 17 17 18 18 19 19 20 20 21 21 22 22 23 23 24 24 25 25 26 26 27 27 28 28 29 29 30 30 31 31 32 32 33 33 34 34 35 35 36 36 37 37 38 38 39 39 40 40 41 41 42 42 43 43 44 44 45 45 46 46 47 47 48 48 49 49 50 50 51 51 52 52 53 53 54 54 55 55 56 56 57 57 58 58 59 59 60 60 61 61 62 62 63 63 64 64 65 65 66 66 67 67 68 68 69 69 70 70 71 71 72 72 73 73 74 74 75 75 76 76 77 77 78 78 79 79 80 80 81 81 82 82 83 83 84 84 85 85 86 86 87 87 88 88 89 89 90 90 91 91 92 92 93 93 94 94 95 95 96 96 97 97 98 98 99 99 100 100 101 101 102 102 103 103 104 104 105 105 106 106 107 107 108 108 109 109 110 110 111 111 112 112 113 113 114 114 115 115 116 116 117 117 118 118 119 119 120 120 121 121 122 122 123 123 124 124 125 125 126 126 127 
        </DataArray>
        <DataArray type="Int32" Name="offsets" format="ascii">
          2 4 6 8 10 12 14 16 18 20 22 24 26 28 30 32 34 36 38 40 42 44 46 48 50 52 54 56 58 60 62 64 66 68 70 72 74 76 78 80 82 84 86 88 90 92 94 96 98 100 102 104 106 108 110 112 114 116 118 120 122 124 126 128 130 132 134 136 138 140 142 144 146 148 150 152 154 156 158 160 162 164 166 168 170 172 174 176 178 180 182 184 186 188 190 192 194 196 198 200 202 204 206 208 210 212 214 216 218 220 222 224 226 228 230 232 234 236 238 240 242 244 246 248 250 252 254 
        </DataArray>
        <DataArray type="Int32" Name="types" format="ascii">
          3 3 3 3 3 3 3 3 3 3 3 3 3 3 3 3 3 3 3 3 3 3 3 3 3 3 3 3 3 3 3 3 3 3 3 3 3 3 3 3 3 3 3 3 3 3 3 3 3 3 3 3 3 3 3 3 3 3 3 3 3 3 3 3 3 3 3 3 3 3 3 3 3 3 3 3 3 3 3 3 3 3 3 3 3 3 3 3 3 3 3 3 3 3 3 3 3 3 3 3 3 3 3 3 3 3 3 3 3 3 3 3 3 3 3 3 3 3 3 3 3 3 3 3 3 3 3         </DataArray>
      </Cells>
    </Piece>
  </UnstructuredGrid>
</VTKFile>
