<?xml version="1.0"?>
<VTKFile type="UnstructuredGrid" version="0.1" byte_order="LittleEndian">
  <UnstructuredGrid>
    <Piece NumberOfPoints="128" NumberOfCells="127">
      <PointData Scalars="W">
        <DataArray type="Float32" Name="W" NumberOfComponents="2">
          0 0 0.27737977202044395 0.2519777496863792 0.42388420049063952 0.38219518705792382 0.53752452883194368 0.47972746408516553 0.63476247580276501 0.55951467479742512 0.72229231734782595 0.62761366572830757 0.80371951495110894 0.68725687446525541 0.88120918687599559 0.74035108502640512 0.956202592567856 0.78812772822646104 1.0296542257634094 0.83136616006835562 1.1022886850506137 0.87062225148940386 1.1746137535874135 0.90624910034661321 1.2470153423814685 0.93848231681552574 1.319779361157722 0.96746347564936608 1.3931016754974141 0.99325437124059013 1.4671283578339511 1.0158721065235035 1.5420195005555928 1.0353349883568546 1.6178408969664964 1.0515893784060619 1.6946608489716792 1.0645798615487028 1.7725492597212131 1.0742469563187609 1.8515424959998172 1.0805053860298615 1.9316340059306099 1.0832421469373745 2.0128182962081764 1.0823443777235608 2.0950534099973712 1.0776792468381378 2.1782872235097517 1.0691105790716759 2.2625000942718358 1.0565186433322811 2.3476007675474841 1.0397494724435825 2.43345283391435 1.0186348055392462 2.519973768033235 0.99303544192379134 2.607340314949349 0.96290543605833523 2.6950808055590243 0.92795051531692629 2.7830522876986148 0.88802377869690652 2.8711076363398438 0.84298156664349055 2.9590694910860482 0.79267603698536904 3.0467528104870216 0.73696355110620815 3.13391697276922 0.6756946907948983 3.2202435609575555 0.60871768402235449 3.3055298454109185 0.53591835672843269 3.3895709338487543 0.45718568812699828 3.472023454868125 0.37239760878300115 3.5525512771527108 0.28145196295224145 3.6308307437222664 0.18426420605560756 13.606130934664607 -0.23448727394421462 13.604589576158103 -1.7078331441249204 13.444806613285294 -3.1957431378153816 13.118029043497792 -4.6802355451786513 12.624537762312853 -6.1437378712023714 11.961469937786912 -7.5662710639346153 11.134877751411171 -8.9316491876765784 10.143037072753138 -10.216934584899315 -3.6611361118231343 3.9594264283465983 -3.7514379024236777 3.7293249833399038 -3.8184294328422217 3.4950830056146853 -2.2903442869412296 1.9643941429053118 -2.1752305793997069 1.7806473167897827 -2.1097909658126826 1.6521859596215489 -1.976889182341024 1.4843973199392244 -1.8291249579076814 1.3209017529968015 -1.7351576725991864 1.2081507442868007 -1.5684011976135972 1.0557042398653842 -1.4615098437653031 0.95363289313611754 -1.2805130528459132 0.8122744022249121 -1.1650817019914155 0.72061096208317843 -0.97425849717310176 0.58935834381048569 -0.70175054892746636 0.41716379003421683 -0.58033180588421085 0.34039473787581154 -0.45937524029549975 0.2665282725305449 -0.33952184513805267 0.19534392328535935 -0.22137683036813671 0.12661982099910277 -0.10550710952233358 0.060138971357331247 0.0075548456641306924 -0.0043018132073425223 0.19917111023769005 -0.11365757418052666 0.30493327529690828 -0.17493687637364724 0.40636267139989007 -0.23487492598068885 0.50490233342531499 -0.29463228220234677 0.59651136430879115 -0.35212359555130818 0.68270153453424787 -0.40841545476713725 0.76317183799297983 -0.46347253871426203 0.83765145911835692 -0.51721761085470175 0.90590078920705652 -0.56953206797538058 0.96770958720113065 -0.62025528317122791 1.0228705193461574 -0.66916805097459719 1.071300075111747 -0.71607341628013044 1.1930471402972587 -0.81616692562435667 1.2280553156115437 -0.86119037400357457 1.2542666769741364 -0.90219389877149636 1.2733912213331988 -0.93995822772955118 1.2854711025686116 -0.97409556545141451 1.2905808332785538 -1.0042040161540968 1.2129939903602256 -0.96851398273290612 1.2076109504845887 -0.98869220305448313 1.1941262058283211 -1.0024006746818697 1.1742541112258449 -1.0104701916451917 1.1481626492225223 -1.0125071237910988 1.1160309222669025 -1.0081293748224609 1.079445714900217 -0.99828193288947664 1.0357522950367029 -0.98001960102161656 0.9865362183542935 -0.95427034064555782 0.93200732292363453 -0.92077679189035289 0.87227803163211226 -0.87923704657690227 0.80745261598049434 -0.82939894491227562 0.7375955128464472 -0.77104062148133012 0.66271969873481917 -0.70396984332936141 0.58277653674593588 -0.62802524035983498 0.49764438873353606 -0.5430769382314875 0.47241779573029496 -0.52145337071364239 0.3755932466482475 -0.41875563510621128 0.2729349919336902 -0.30665579774919999 0.16394942110084876 -0.18516878583939014 0.11468102182851599 -0.12995682995813157 -0.0089278878181282568 0.010129948333394364 -0.073150394789304907 0.082917733925761197 -0.21413006723590847 0.24188773659263599 -0.36685926658294671 0.41155115268548015 -0.45786651455939098 0.50864021906954826 -0.63520003396271196 0.69660927721940424 -0.75061558233808856 0.80996983850311211 -1.1611819402551953 1.2256811036720416 -1.3213007366786034 1.3558634724991687 -1.6098861114307346 1.5987082631831464 -1.9215804827461558 1.8355733911016971 -0.75711238374545253 0.7024653594915955 -0.57470800206389672 0.52564592755215411 -0.8774376050411522 0.79018279157743365 -1.7263515588385137 1.5124037652410744 -3.1128312694578439 2.5924878924140389 -3.8459795063878222 2.9807919588705265 0 0
        </DataArray>
        <DataArray type="Float32" Name="u" NumberOfComponents="1">
          0 0.007874015748031496 0.015748031496062992 0.023622047244094488 0.031496062992125984 0.03937007874015748 0.047244094488188976 0.055118110236220472 0.062992125984251968 0.070866141732283464 0.07874015748031496 0.086614173228346455 0.094488188976377951 0.10236220472440945 0.11023622047244094 0.11811023622047244 0.12598425196850394 0.13385826771653545 0.14173228346456693 0.14960629921259844 0.15748031496062992 0.16535433070866143 0.17322834645669291 0.18110236220472442 0.1889763779527559 0.19685039370078741 0.20472440944881889 0.2125984251968504 0.22047244094488189 0.2283464566929134 0.23622047244094488 0.24409448818897639 0.25196850393700787 0.25984251968503935 0.26771653543307089 0.27559055118110237 0.28346456692913385 0.29133858267716534 0.29921259842519687 0.30708661417322836 0.31496062992125984 0.32283464566929132 0.33070866141732286 0.33858267716535434 0.34645669291338582 0.3543307086614173 0.36220472440944884 0.37007874015748032 0.37795275590551181 0.38582677165354329 0.39370078740157483 0.40157480314960631 0.40944881889763779 0.41732283464566927 0.42519685039370081 0.43307086614173229 0.44094488188976377 0.44881889763779526 0.45669291338582679 0.46456692913385828 0.47244094488188976 0.48031496062992124 0.48818897637795278 0.49606299212598426 0.50393700787401574 0.51181102362204722 0.51968503937007871 0.52755905511811019 0.53543307086614178 0.54330708661417326 0.55118110236220474 0.55905511811023623 0.56692913385826771 0.57480314960629919 0.58267716535433067 0.59055118110236215 0.59842519685039375 0.60629921259842523 0.61417322834645671 0.62204724409448819 0.62992125984251968 0.63779527559055116 0.64566929133858264 0.65354330708661412 0.66141732283464572 0.6692913385826772 0.67716535433070868 0.68503937007874016 0.69291338582677164 0.70078740157480313 0.70866141732283461 0.71653543307086609 0.72440944881889768 0.73228346456692917 0.74015748031496065 0.74803149606299213 0.75590551181102361 0.76377952755905509 0.77165354330708658 0.77952755905511806 0.78740157480314965 0.79527559055118113 0.80314960629921262 0.8110236220472441 0.81889763779527558 0.82677165354330706 0.83464566929133854 0.84251968503937003 0.85039370078740162 0.8582677165354331 0.86614173228346458 0.87401574803149606 0.88188976377952755 0.88976377952755903 0.89763779527559051 0.90551181102362199 0.91338582677165359 0.92125984251968507 0.92913385826771655 0.93700787401574803 0.94488188976377951 0.952755905511811 0.96062992125984248 0.96850393700787396 0.97637795275590555 0.98425196850393704 0.99212598425196852 1
        </DataArray>
      </PointData>
      <CellData Scalars="P">
        <DataArray type="Float32" Name="P" NumberOfComponents="1">
          -0.029869254673925927 -0.089101891406718078 -0.14733376927964342 -0.20426921834723574 -0.25967707730130413 -0.31335568168025768 -0.3651166151902927 -0.41477668716308874 -0.46215312019331034 -0.50706159411417351 -0.54931424473542856 -0.58871941992150956 -0.62508137077460124 -0.65820047411759097 -0.68787400775075658 -0.71389664652278451 -0.73605972747881665 -0.75415324706164499 -0.76796581155604637 -0.77728456446125183 -0.78189612294967437 -0.78158797719428552 -0.77614867040407987 -0.76536918879036975 -0.74904358656165659 -0.72696804637734858 -0.69894358956558378 -0.6647781083277513 -0.62428461749169883 -0.57727064564045127 -0.52356444856770412 -0.46300232961815008 -0.39542890843730544 -0.32069850542292372 -0.23867553900349867 -0.14923715030255977 -0.052277107607059267 0.052299587274808962 0.16457678889308983 0.28462034416192011 0.41247830803022617 0.54818154425128784 1.2313961107170637 1.9411733919159568 2.6882326285330502 3.4821539181112997 4.3314343691916166 5.2427635187724677 6.221200771837859 7.2689769959204815 6.7718835497168133 6.2210961578423829 5.6272487278776673 5.2438117772616994 4.8645457775278649 4.4851472009769227 4.1201667408758338 3.7750897540041315 3.4428159602423367 3.1380622355379373 2.851590633782823 2.5976291422892044 2.3651182919023532 2.1676615834560038 2.0191410364296134 1.8927289497679116 1.787886522983902 1.7037790900599052 1.6393096378921119 1.5931531606852281 1.563790482417639 1.5613951926692351 1.5718171367298344 1.5931277138431288 1.6235749469317347 1.660901742943752 1.7030989114228721 1.7481871367953541 1.7942429143974623 1.8394229738226933 1.8819867783282609 1.920315188501758 1.9529365021036531 1.9833609860638743 2.0049998228168495 2.0168170694966694 2.0180804599707556 2.0082650430717011 1.9870563745691745 1.9535591936782706 1.9093170870323415 1.8545793146868672 1.7898036486103579 1.715629889074574 1.6328678411911797 1.5424308870487187 1.4454665308987626 1.3432032606545359 1.2369686063932828 1.1281714025998313 1.0182785181888463 0.90879169649333069 0.80122393411617199 0.69707551904610865 0.59780998440480759 0.49889410262147149 0.40746237950974479 0.32476815401081699 0.25192494645899677 0.1834881648847321 0.12665492532996561 0.075649428278122335 0.037304087809199117 0.011842812579379627 -0.0072210522899840042 -0.013878222190544808 -0.014873123596804401 0.0088586147744067149 0.035674395561681616 0.070342530049481516 0.10948785456059812 0.10597661135879101 0.087697785830008035 0.070976871706320221 0.062349595232186986 0.055903477391094775 0.026185347578255622
        </DataArray>
      </CellData>
      <Points>
        <DataArray type="Float32" NumberOfComponents="3" format="ascii">
          4.3767914268309918 6.6445971911703161 0
          4.3714882303094456 6.6504177283436281 0
          4.3662022265269558 6.6562538948840286 0
          4.3609424961179029 6.6621137681524472 0
          4.3557160827368371 6.6680033984170759 0
          4.3505290133974643 6.6739277355569451 0
          4.3453867134213002 6.6798910047451603 0
          4.340294229943126 6.685896906934726 0
          4.3352563661424091 6.6919487371171833 0
          4.3302777706092206 6.6980494606907302 0
          4.3253629965378346 6.7042017617887364 0
          4.3205165466710973 6.7104080777456181 0
          4.3157429048042397 6.7166706209860481 0
          4.3110465597336578 6.7229913936265815 0
          4.3064320230058035 6.7293721962443831 0
          4.3019038410828552 6.7358146316972123 0
          4.2974666044205279 6.7423201061705562 0
          4.2931249574147214 6.7488898302979932 0
          4.2888836024999089 6.7555248158188723 0
          4.284747304402047 6.7622258721244286 0
          4.2807208944896873 6.7689936025504478 0
          4.276809273044206 6.775828399069078 0
          4.2730174088671253 6.782730435259853 0
          4.2693503389515746 6.789699659288269 0
          4.265813165890834 6.7967357856446036 0
          4.2624110546546294 6.8038382866741376 0
          4.2591492313781787 6.8110063851260607 0
          4.2560329777081556 6.8182390445779326 0
          4.2530676223460455 6.8255349589725167 0
          4.2502585359314393 6.8328925439559525 0
          4.2476111420049971 6.8403099339993192 0
          4.2451308877517553 6.8477849641169222 0
          4.2428232351302198 6.8553151607242464 0
          4.2406936517405311 6.862897732696382 0
          4.2387475998150377 6.8705295621664852 0
          4.2369905247302295 6.8782071955846051 0
          4.2354278400686614 6.8859268344176865 0
          4.2340649078523782 6.8936843257033207 0
          4.2329070259504906 6.9014751549358362 0
          4.2319594153506435 6.9092944391482041 0
          4.231227198837388 6.9171369193087626 0
          4.230715380117152 6.9249969539537277 0
          4.2304288237147523 6.9328685139128323 0
          4.2309864522079712 6.9407256211768509 0
          4.2323882007307736 6.9484768591803538 0
          4.2346241854879798 6.9560299016689795 0
          4.2376741596466347 6.9632926287503087 0
          4.2415075296782767 6.9701742173153987 0
          4.2460831767629266 6.9765863812718862 0
          4.2513498311575511 6.9824443761831212 0
          4.2572459645074909 6.987668423662333 0
          4.2629149579797954 6.9931382260834543 0
          4.2683511984872897 6.9988395078511774 0
          4.2735505195252346 7.0047577349921513 0
          4.2786076600539067 7.0107978134994715 0
          4.2835297616657009 7.0169483299097006 0
          4.2883208869292249 7.0232013058379286 0
          4.2929892822311269 7.0295463192515735 0
          4.2975441162933752 7.0359732148277878 0
          4.3019912224448404 7.0424749904861335 0
          4.3063409478406927 7.0490421777263048 0
          4.310599927603973 7.0556684384443171 0
          4.3147793920565958 7.0623449936553193 0
          4.3188865057491359 7.0690661525523035 0
          4.3229331079374518 7.0758237649344951 0
          4.3269361026195865 7.0826071376296582 0
          4.330903024616469 7.0894115069746642 0
          4.334841379609637 7.0962322901443482 0
          4.3387586043814226 7.1030650714574595 0
          4.3426620292857505 7.1099055885940583 0
          4.3465588431047415 7.1167497191135309 0
          4.3504560600513393 7.1235934678274315 0
          4.3543655642655104 7.1304300511070657 0
          4.3582939163748762 7.1372556716644127 0
          4.3622474079917222 7.1440666160491526 0
          4.3662321512296387 7.1508591825745631 0
          4.3702538282363923 7.1576298107484089 0
          4.374317784983826 7.1643750150109788 0
          4.3784290126715408 7.1710913868829396 0
          4.3825921310037321 7.177775599709574 0
          4.3868113734008825 7.1844244159672952 0
          4.3910905740309971 7.1910346971732535 0
          4.3954331550187904 7.1976034174252304 0
          4.3998421213274925 7.2041276755575199 0
          4.4043250232551454 7.2106012714176408 0
          4.4088840342413143 7.2170214213366739 0
          4.413520782709373 7.2233855910126765 0
          4.418236458108634 7.229691447007812 0
          4.4230318135545934 7.2359368807326359 0
          4.4279071704660078 7.2421200333072102 0
          4.4328577236852365 7.2482431254529232 0
          4.437883144732254 7.2543049132866768 0
          4.4429826032328998 7.2603045538643673 0
          4.4481548731836984 7.2662415536309712 0
          4.4533983433382476 7.2721157928008981 0
          4.4587110282745179 7.2779275490316238 0
          4.4640906667468565 7.2836774388402823 0
          4.4695345570148381 7.2893666001868374 0
          4.475039655096424 7.2949966349612776 0
          4.4806025877121529 7.3005696249643224 0
          4.4862196591824404 7.3060881506603508 0
          4.4918868578139923 7.3115553068571275 0
          4.4975998598109799 7.316974716518124 0
          4.5033540299901871 7.3223505427480697 0
          4.5091444186705614 7.3276874988749352 0
          4.5149657540306896 7.332990856588312 0
          4.5208164812671434 7.3382619627536236 0
          4.5266906029930531 7.3435071901001239 0
          4.5325817593656073 7.3487334947146365 0
          4.5384831973478805 7.3539484152369212 0
          4.5443918701364137 7.3591553829084848 0
          4.5503001163834824 7.36436309102824 0
          4.5562039609109179 7.3695760621937776 0
          4.5620946630448147 7.3748041625048799 0
          4.5679627517339876 7.3800579223001614 0
          4.5738025878597215 7.385343374516002 0
          4.579603171266398 7.390672187517251 0
          4.585357346469138 7.3960514064956282 0
          4.5910396257486799 7.4015068220208828 0
          4.596640075436162 7.4070465262386342 0
          4.602140781971773 7.412685598160512 0
          4.6075223960078091 7.418438749123319 0
          4.6128564191598613 7.4242348336362571 0
          4.6181542872310519 7.4300629829910863 0
          4.6233973086416453 7.4359396815265697 0
          4.6285329059905083 7.4419097754424524 0
          4.633475177472981 7.4480402880476007 0
          4.6381790353463233 7.4543557387837787 0
        </DataArray>
      </Points>
      <Cells>
        <DataArray type="Int32" Name="connectivity" format="ascii">
          0 1 1 2 2 3 3 4 4 5 5 6 6 7 7 8 8 9 9 10 10 11 11 12 12 13 13 14 14 15 15 16 16 17 17 18 18 19 19 20 20 21 21 22 22 23 23 24 24 25 25 26 26 27 27 28 28 29 29 30 30 31 31 32 32 33 33 34 34 35 35 36 36 37 37 38 38 39 39 40 40 41 41 42 42 43 43 44 44 45 45 46 46 47 47 48 48 49 49 50 50 51 51 52 52 53 53 54 54 55 55 56 56 57 57 58 58 59 59 60 60 61 61 62 62 63 63 64 64 65 65 66 66 67 67 68 68 69 69 70 70 71 71 72 72 73 73 74 74 75 75 76 76 77 77 78 78 79 79 80 80 81 81 82 82 83 83 84 84 85 85 86 86 87 87 88 88 89 89 90 90 91 91 92 92 93 93 94 94 95 95 96 96 97 97 98 98 99 99 100 100 101 101 102 102 103 103 104 104 105 105 106 106 107 107 108 108 109 109 110 110 111 111 112 112 113 113 114 114 115 115 116 116 117 117 118 118 119 119 120 120 121 121 122 122 123 123 124 124 125 125 126 126 127 
        </DataArray>
        <DataArray type="Int32" Name="offsets" format="ascii">
          2 4 6 8 10 12 14 16 18 20 22 24 26 28 30 32 34 36 38 40 42 44 46 48 50 52 54 56 58 60 62 64 66 68 70 72 74 76 78 80 82 84 86 88 90 92 94 96 98 100 102 104 106 108 110 112 114 116 118 120 122 124 126 128 130 132 134 136 138 140 142 144 146 148 150 152 154 156 158 160 162 164 166 168 170 172 174 176 178 180 182 184 186 188 190 192 194 196 198 200 202 204 206 208 210 212 214 216 218 220 222 224 226 228 230 232 234 236 238 240 242 244 246 248 250 252 254 
        </DataArray>
        <DataArray type="Int32" Name="types" format="ascii">
          3 3 3 3 3 3 3 3 3 3 3 3 3 3 3 3 3 3 3 3 3 3 3 3 3 3 3 3 3 3 3 3 3 3 3 3 3 3 3 3 3 3 3 3 3 3 3 3 3 3 3 3 3 3 3 3 3 3 3 3 3 3 3 3 3 3 3 3 3 3 3 3 3 3 3 3 3 3 3 3 3 3 3 3 3 3 3 3 3 3 3 3 3 3 3 3 3 3 3 3 3 3 3 3 3 3 3 3 3 3 3 3 3 3 3 3 3 3 3 3 3 3 3 3 3 3 3         </DataArray>
      </Cells>
    </Piece>
  </UnstructuredGrid>
</VTKFile>
