<?xml version="1.0"?>
<VTKFile type="UnstructuredGrid" version="0.1" byte_order="LittleEndian">
  <UnstructuredGrid>
    <Piece NumberOfPoints="128" NumberOfCells="127">
      <PointData Scalars="W">
        <DataArray type="Float32" Name="W" NumberOfComponents="2">
          0 0 0.024973464386660579 0.001901369107396705 -0.015271970531970725 -0.0011621518569933785 -0.040339046027996393 -0.0030785914197899167 -0.056197179358864521 -0.0043103977135209347 -0.065255830257364117 -0.0050366891854252633 -0.068583874439613654 -0.0053300252346283128 -0.066790415676334647 -0.0052265689500810373 -0.060274438554013786 -0.0047471047067963743 -0.049389633273329056 -0.0039113613780865329 -0.034371038500871837 -0.0027334209961834251 -0.015458605163571561 -0.0012324360016695885 0.0071174672199576135 0.00056767544483317389 0.033126736863281797 0.0026368258334058853 0.062326805705429596 0.0049374517252740767 0.094497118286045914 0.0074270535072150168 0.12950621200515014 0.010063352387335706 0.16714358096269208 0.01279103157020889 0.20723813741888583 0.01555126297561525 0.2496574165073594 0.018281637364460878 0.29425154531246034 0.020912098594156592 0.34085749624591472 0.023365799942736791 0.38931805107920608 0.025561032734527735 0.43948643942992716 0.027412014698813839 0.49119486615030367 0.028827531630732619 0.54434316678717198 0.029716800899869378 0.59876293963567151 0.029981927290324104 0.65421841952749438 0.029520521446439758 0.71056464048532142 0.028234747109293884 0.76797272832170926 0.026036398749629232 0.82591065900636129 0.022810557230459504 0.8842090509693965 0.01846219824379601 0.94268498878534979 0.012899767805124144 1.0011629693511648 0.0060368667082525201 1.0594339987925678 -0.0022067895015770718 1.1173034664965678 -0.011903322630361363 1.1744556939566271 -0.023112998103121379 1.2307188651053722 -0.035885119850980335 1.285935440213767 -0.050259230077900389 1.3397983332403327 -0.066256221665581483 1.3920118752903725 -0.083878338837863123 1.442318342298136 -0.10311039051014688 -8.5915062397259199 0.37135225967460733 -8.541779019409832 -0.20774434709202011 -5.5385488040128674 -0.44315160867165737 -5.2615962604967619 -0.64829712484760982 -5.0751539395068335 -0.83843143256850772 -4.8800473653846392 -1.0075365665849825 -4.6776269914173287 -1.1555687935437728 -4.4691984674784537 -1.2825843775524899 -4.3723461166064537 -1.4290446558543433 -4.2949821521156482 -1.5776360129705262 -4.1892310967116568 -1.7115148912064464 -4.0844804302855202 -1.8402787250518065 -3.9682337626465816 -1.9580447319630097 -3.8528009364246159 -2.070020560019016 -3.5130188713230419 -2.0406353943289561 -3.1692548809908359 -1.9734681517988883 -2.8262858191784694 -1.8718984425080847 -2.4840178808824391 -1.7371184299114888 -2.1328822966781265 -1.5636777690317074 -1.7764073026290639 -1.3555608446040248 -1.4175252042267019 -1.1178186516155504 -1.0437945146519065 -0.84429447280376135 -0.66790828941350977 -0.5499234599946301 -0.44295962889177398 -0.36895016909486034 -0.39839091497705204 -0.33475251987112914 -0.35407819706252086 -0.29986702404894044 -0.13229936698781966 -0.11261531318001285 -0.088838315250277827 -0.075795988836791173 0.14442001531676363 0.12314603650147155 0.18830195475198636 0.16000530988289885 0.42371764037943593 0.35774770104241804 0.46951792215775551 0.39273750162631532 0.51565036250112839 0.42692228851124836 0.76929095419313864 0.62847613843625239 0.81874627280278289 0.65796574507084848 0.86240385013268395 0.68112054995695792 1.1318857842782346 0.87579022772581439 1.1865067965495946 0.89645086029774368 1.2417423081816295 0.91512428440500326 1.5304655923237054 1.0963680711281618 1.591301852101151 1.1041230579248917 1.6455328779245439 1.1045368542464651 1.95590370751766 1.2652483259201284 2.0229091353888893 1.2560018514892444 2.0898439779694749 1.2433268246602156 2.4232962955056534 1.3751094999170896 2.495542308879914 1.3439912759637154 2.566848675567782 1.3087562654825389 2.9150172754219161 1.3989113286198136 2.9896695775543876 1.3415817174608116 3.0620681633663067 1.2796192635485126 3.4377255973624359 1.3264956023017613 3.5104262979225225 1.2382002601354345 3.5790457250397711 1.1450630002810911 3.9688167999206061 1.1352135384768118 4.0239207402667878 1.0103674348690357 4.081428589756543 0.88369653058157405 4.4763057660803289 0.80932688904961059 4.5226952694280609 0.65103184322742746 4.5599720903033232 0.48939145713752191 4.947888193393891 0.34355910648869981 4.9566215245612364 0.15006262492729353 5.3354187376869993 -0.054814784892006786 5.3270617639468822 -0.27881747200579643 5.6869177586618651 -0.54646846169830399 5.6340177041042114 -0.79801711930652763 5.9636166295909945 -1.1285017907832784 6.2750958533219938 -1.5113300706782427 6.1469860937451717 -1.8143321099850698 6.4049622913472559 -2.2584804633433211 6.6279815846855881 -2.7557073760244819 6.7987070361790929 -3.3015384932778389 6.5229654746663828 -3.6598882799629355 6.6009813066849938 -4.2468211208291606 6.6250110847922157 -4.8817151786563002 6.9531782555215047 -5.8969366914626633 6.7720813141005198 -6.655641665596872 4.6824104994546962 -5.2432854701507354 4.725801387216447 -5.9490085443594323 4.5019475700523595 -6.4356831538062291 4.4227005505161223 -7.2807956243856031 3.5229603561866547 -6.7279636728374212 2.6471766737055047 -5.8138365010281641 1.5919705413454006 -3.9239171800988748 0.43633278095795586 -1.1456205919157958 0 0
        </DataArray>
        <DataArray type="Float32" Name="u" NumberOfComponents="1">
          0 0.007874015748031496 0.015748031496062992 0.023622047244094488 0.031496062992125984 0.03937007874015748 0.047244094488188976 0.055118110236220472 0.062992125984251968 0.070866141732283464 0.07874015748031496 0.086614173228346455 0.094488188976377951 0.10236220472440945 0.11023622047244094 0.11811023622047244 0.12598425196850394 0.13385826771653545 0.14173228346456693 0.14960629921259844 0.15748031496062992 0.16535433070866143 0.17322834645669291 0.18110236220472442 0.1889763779527559 0.19685039370078741 0.20472440944881889 0.2125984251968504 0.22047244094488189 0.2283464566929134 0.23622047244094488 0.24409448818897639 0.25196850393700787 0.25984251968503935 0.26771653543307089 0.27559055118110237 0.28346456692913385 0.29133858267716534 0.29921259842519687 0.30708661417322836 0.31496062992125984 0.32283464566929132 0.33070866141732286 0.33858267716535434 0.34645669291338582 0.3543307086614173 0.36220472440944884 0.37007874015748032 0.37795275590551181 0.38582677165354329 0.39370078740157483 0.40157480314960631 0.40944881889763779 0.41732283464566927 0.42519685039370081 0.43307086614173229 0.44094488188976377 0.44881889763779526 0.45669291338582679 0.46456692913385828 0.47244094488188976 0.48031496062992124 0.48818897637795278 0.49606299212598426 0.50393700787401574 0.51181102362204722 0.51968503937007871 0.52755905511811019 0.53543307086614178 0.54330708661417326 0.55118110236220474 0.55905511811023623 0.56692913385826771 0.57480314960629919 0.58267716535433067 0.59055118110236215 0.59842519685039375 0.60629921259842523 0.61417322834645671 0.62204724409448819 0.62992125984251968 0.63779527559055116 0.64566929133858264 0.65354330708661412 0.66141732283464572 0.6692913385826772 0.67716535433070868 0.68503937007874016 0.69291338582677164 0.70078740157480313 0.70866141732283461 0.71653543307086609 0.72440944881889768 0.73228346456692917 0.74015748031496065 0.74803149606299213 0.75590551181102361 0.76377952755905509 0.77165354330708658 0.77952755905511806 0.78740157480314965 0.79527559055118113 0.80314960629921262 0.8110236220472441 0.81889763779527558 0.82677165354330706 0.83464566929133854 0.84251968503937003 0.85039370078740162 0.8582677165354331 0.86614173228346458 0.87401574803149606 0.88188976377952755 0.88976377952755903 0.89763779527559051 0.90551181102362199 0.91338582677165359 0.92125984251968507 0.92913385826771655 0.93700787401574803 0.94488188976377951 0.952755905511811 0.96062992125984248 0.96850393700787396 0.97637795275590555 0.98425196850393704 0.99212598425196852 1
        </DataArray>
      </PointData>
      <CellData Scalars="P">
        <DataArray type="Float32" Name="P" NumberOfComponents="1">
          0.01348482017533905 0.040450115598122255 0.067429538975839268 0.094420118439751149 0.12140996870512501 0.14838381992820129 0.17532693514927178 0.20222856676018447 0.22908507435580094 0.25590259742607263 0.28269952815619037 0.30950846673913879 0.33637775178798496 0.36337249210230416 0.39057501361888664 0.4180850283185587 0.44602015641556159 0.47451463790754128 0.50371860134247415 0.53379718883322691 0.5649286413582767 0.59730191706964875 0.63111419796023949 0.66656817694085113 0.70386834065506698 0.74321901442535909 0.7848190032101372 0.82885540272999336 0.87550147199205708 0.92492228710701807 0.97724841243867588 1.032581505039093 1.0909889313715899 1.1524990943039337 1.217095326127519 1.2847116343776184 1.3552233308475357 1.4284483594904069 1.5041441363126442 1.5819980957850017 1.6616253299311001 1.7425680983555361 1.4251271476383656 1.1055639166467182 0.90657688767012512 0.71532753190657772 0.52762353021479191 0.34357080269910584 0.16334800417429074 -0.012798103256523115 -0.19022363795279978 -0.37015012219072191 -0.55141682537159731 -0.73426105199573988 -0.91821549422534199 -1.1034174016020439 -1.2766467633779626 -1.436476370038851 -1.58159422017721 -1.7105639793347494 -1.8212275644437919 -1.9115847512014144 -1.9798492224385231 -2.0234297477769019 -2.0408047385899972 -2.0422087599163272 -2.0407869015924622 -2.0364354584803448 -2.0154555170035584 -1.9913999443328232 -1.9497309345331428 -1.9050401120602283 -1.8429491694187703 -1.7780819455479713 -1.7105919569564709 -1.6256523048550724 -1.5386165064062833 -1.4501593979296405 -1.3452747360160262 -1.2392929797702512 -1.1325197289948765 -1.010947178681423 -0.88959139717636893 -0.76922084547898906 -0.63625018798083943 -0.50507221594434437 -0.37610185571212573 -0.23729215410664725 -0.10209065466004989 0.029063477779428425 0.16649143776370709 0.29835906060556378 0.42423960815085898 0.55306037471050318 0.67431134175899932 0.78762275913345547 0.89997315879843232 1.0026864355635678 1.0957164561130412 1.1839051574781705 1.2611143002014149 1.3272941647664138 1.3850426375989546 1.4308409284367065 1.4658349242081308 1.4884058555239679 1.4981121635006667 1.4953652139742626 1.4782526142017529 1.4456587415390167 1.4012165681406297 1.3408971917001817 1.2643075029766686 1.1715034561479341 1.070439518063472 0.95535342562904235 0.82736498840341655 0.678772946551495 0.52107207496600172 0.41066408152402262 0.29470390009467357 0.18307077882714909 0.084290153419059918 0.014295718215662891 -0.025036450205359669 -0.030699649163319312 -0.011309430731282663
        </DataArray>
      </CellData>
      <Points>
        <DataArray type="Float32" NumberOfComponents="3" format="ascii">
          4.0018950197722338 7.2461939326353715 0
          4.0012964701782368 7.2540453331514909 0
          4.000699469091292 7.261896850457588 0
          4.0001015212523221 7.2697482937140494 0
          3.999501072499291 7.2775995432734044 0
          3.9988971396501238 7.2854505219682952 0
          3.9982891611100735 7.2933011839952133 0
          3.9976769305977671 7.3011515104151705 0
          3.9970605593776107 7.3090015069155774 0
          3.996440451519585 7.3168512025282846 0
          3.995817281966989 7.3247006484146882 0
          3.9951919819605277 7.3325499170022139 0
          3.994565724157594 7.3403991008073604 0
          3.9939399083560425 7.3482483109640002 0
          3.9933161472029397 7.3560976753698712 0
          3.9926962511621547 7.3639473363701224 0
          3.9920822148365205 7.3717974481352622 0
          3.9914762088142961 7.3796481740532798 0
          3.9908805666154064 7.3874996833137399 0
          3.9902977740824133 7.3953521472744406 0
          3.9897304611670439 7.4032057356062788 0
          3.9891813926384838 7.4110606119641176 0
          3.9886534579773381 7.4189169292366479 0
          3.9881496616312226 7.4267748244947533 0
          3.987673113919747 7.4346344136870917 0
          3.9872270206377376 7.442495785998541 0
          3.9868146768535162 7.4503589982349139 0
          3.9864394564785259 7.4582240687659924 0
          3.9861047976626152 7.4660909711890397 0
          3.9858141938211586 7.4739596282734784 0
          3.9855712042622842 7.4818299065013232 0
          3.9853794212210754 7.4897016089497424 0
          3.9852424593799602 7.4975744694051656 0
          3.9851639445522431 7.5054481466903216 0
          3.9851475028273091 7.513322219308372 0
          3.9851967476412837 7.5211961804632521 0
          3.9853152677411008 7.5290694335828894 0
          3.9855066076433801 7.5369412885740861 0
          3.9857742570138361 7.5448109587531311 0
          3.9861216409323497 7.5526775583775176 0
          3.9865521008855032 7.5605401013297246 0
          3.9870688764659152 7.5683975009525959 0
          3.9876750894225554 7.5762485709612148 0
          3.9877485688950616 7.5841227377683422 0
          3.987292383518763 7.5919840996024925 0
          3.986492756857047 7.5998179882432435 0
          3.9853668623474761 7.6076116788960961 0
          3.9839262611227539 7.6153533800727473 0
          3.9821830518337378 7.6230326042174976 0
          3.9801497869067979 7.6306401704469877 0
          3.9778393915740642 7.6381682010877787 0
          3.9752578714786164 7.6456076156772648 0
          3.9724100233602773 7.6529492021595908 0
          3.9693024042066125 7.6601846601014465 0
          3.9659415087276746 7.6673060063006693 0
          3.962334544402621 7.6743059392374358 0
          3.9584886680293057 7.6811775164518936 0
          3.9544249515541874 7.6879225554163773 0
          3.9501647146638796 7.6945452164095904 0
          3.9457292283877079 7.7010517931073528 0
          3.9411397207554835 7.7074506386805659 0
          3.9364179701237041 7.7137525035481431 0
          3.931586086088573 7.7199702884276009 0
          3.9266663273005493 7.7261187312314217 0
          3.9216818727984051 7.7322147885878847 0
          3.9166560343008823 7.7382767101174261 0
          3.9116027607690569 7.7443157175518369 0
          3.9065248132204928 7.7503339352107679 0
          3.901424936825852 7.7563335297685017 0
          3.8963168826058938 7.7623261121615394 0
          3.891203342508045 7.7683139687652147 0
          3.8860987784515122 7.7743094353406548 0
          3.8810059081327006 7.7803148006163365 0
          3.8759393262899993 7.7863423262650375 0
          3.8709018693405084 7.792394185056601 0
          3.865896394532593 7.798472499622366 0
          3.8609386257935139 7.8045897683214651 0
          3.8560316263390071 7.8107478227750109 0
          3.8511781002299239 7.8169481016505094 0
          3.8463947530802698 7.8232026772327634 0
          3.8416849688694898 7.8295128337376694 0
          3.837052170061845 7.8358797319717359 0
          3.8325142551516667 7.8423146129041763 0
          3.8280749942499046 7.8488179607192547 0
          3.8237377484211117 7.8553898041716952 0
          3.8195217587347763 7.8620401125913002 0
          3.8154311789210906 7.8687683162071416 0
          3.8114701588339099 7.8755736324066783 0
          3.80765937161165 7.8824642385451904 0
          3.804003297375762 7.8894382089110682 0
          3.8005063585214933 7.8964933621980853 0
          3.7971901423516399 7.903635296414544 0
          3.7940592800011372 7.9108604606522404 0
          3.7911182634042371 7.9181650163002333 0
          3.7883903866550419 7.9255518798825602 0
          3.7858801620491982 7.9330155802636497 0
          3.78359184933649 7.9405503455060806 0
          3.7815496210733315 7.9481555765674372 0
          3.7797569009730889 7.9558235351196753 0
          3.7782172622105912 7.9635463692006372 0
          3.7769551982744809 7.9713194804668053 0
          3.7759735952933386 7.9791330557321984 0
          3.7752747747013444 7.9869770735279912 0
          3.7748828038702231 7.994842505124848 0
          3.7747982369996049 8.0027173526477995 0
          3.7750445813977693 8.0105889266224413 0
          3.7756213349507473 8.0184433366824237 0
          3.7765508371976111 8.0262640006960453 0
          3.7778298277682638 8.0340353179480513 0
          3.7794787781851809 8.0417368088239432 0
          3.7815170438347492 8.0493447469394237 0
          3.7839367107137969 8.0568403360394001 0
          3.786753828305268 8.0641960428788124 0
          3.7899822888907475 8.0713810389268428 0
          3.7936327533947609 8.0783614755627493 0
          3.797688176097771 8.08511510779155 0
          3.8021534872140776 8.0916055239665301 0
          3.8070302855792999 8.0977933261502901 0
          3.8123390999192366 8.1036155198897983 0
          3.8180688568064602 8.1090249788991553 0
          3.824089794417846 8.114109220151148 0
          3.830404769389562 8.1188244130683227 0
          3.8370000469739813 8.1231402873896226 0
          3.843869254880528 8.127003416663845 0
          3.8509564788713906 8.1304483164336485 0
          3.8582073202504912 8.133531898125149 0
          3.8655562298797945 8.1363715890454298 0
          3.8729314502680863 8.1391398852013026 0
        </DataArray>
      </Points>
      <Cells>
        <DataArray type="Int32" Name="connectivity" format="ascii">
          0 1 1 2 2 3 3 4 4 5 5 6 6 7 7 8 8 9 9 10 10 11 11 12 12 13 13 14 14 15 15 16 16 17 17 18 18 19 19 20 20 21 21 22 22 23 23 24 24 25 25 26 26 27 27 28 28 29 29 30 30 31 31 32 32 33 33 34 34 35 35 36 36 37 37 38 38 39 39 40 40 41 41 42 42 43 43 44 44 45 45 46 46 47 47 48 48 49 49 50 50 51 51 52 52 53 53 54 54 55 55 56 56 57 57 58 58 59 59 60 60 61 61 62 62 63 63 64 64 65 65 66 66 67 67 68 68 69 69 70 70 71 71 72 72 73 73 74 74 75 75 76 76 77 77 78 78 79 79 80 80 81 81 82 82 83 83 84 84 85 85 86 86 87 87 88 88 89 89 90 90 91 91 92 92 93 93 94 94 95 95 96 96 97 97 98 98 99 99 100 100 101 101 102 102 103 103 104 104 105 105 106 106 107 107 108 108 109 109 110 110 111 111 112 112 113 113 114 114 115 115 116 116 117 117 118 118 119 119 120 120 121 121 122 122 123 123 124 124 125 125 126 126 127 
        </DataArray>
        <DataArray type="Int32" Name="offsets" format="ascii">
          2 4 6 8 10 12 14 16 18 20 22 24 26 28 30 32 34 36 38 40 42 44 46 48 50 52 54 56 58 60 62 64 66 68 70 72 74 76 78 80 82 84 86 88 90 92 94 96 98 100 102 104 106 108 110 112 114 116 118 120 122 124 126 128 130 132 134 136 138 140 142 144 146 148 150 152 154 156 158 160 162 164 166 168 170 172 174 176 178 180 182 184 186 188 190 192 194 196 198 200 202 204 206 208 210 212 214 216 218 220 222 224 226 228 230 232 234 236 238 240 242 244 246 248 250 252 254 
        </DataArray>
        <DataArray type="Int32" Name="types" format="ascii">
          3 3 3 3 3 3 3 3 3 3 3 3 3 3 3 3 3 3 3 3 3 3 3 3 3 3 3 3 3 3 3 3 3 3 3 3 3 3 3 3 3 3 3 3 3 3 3 3 3 3 3 3 3 3 3 3 3 3 3 3 3 3 3 3 3 3 3 3 3 3 3 3 3 3 3 3 3 3 3 3 3 3 3 3 3 3 3 3 3 3 3 3 3 3 3 3 3 3 3 3 3 3 3 3 3 3 3 3 3 3 3 3 3 3 3 3 3 3 3 3 3 3 3 3 3 3 3         </DataArray>
      </Cells>
    </Piece>
  </UnstructuredGrid>
</VTKFile>
