<?xml version="1.0"?>
<VTKFile type="UnstructuredGrid" version="0.1" byte_order="LittleEndian">
  <UnstructuredGrid>
    <Piece NumberOfPoints="128" NumberOfCells="127">
      <PointData Scalars="W">
        <DataArray type="Float32" Name="W" NumberOfComponents="2">
          0 0 -0.57610021354468577 0.077477431435266142 -0.913362426292187 0.11733936427942641 -1.1738621194597421 0.14093555213133879 -1.3928471459346752 0.15287268338107035 -1.5847301382007708 0.15505425127724487 -1.7568612600754152 0.14849346797587776 -1.913581201130631 0.1338384337143276 -2.0576411951967284 0.11155547854307434 -2.1909446468560638 0.08201709847921336 -2.3147746428738656 0.045536979067335975 -2.4300875961910231 0.0023983430696527743 -2.5375766233468271 -0.047136031844198865 -2.6377616347377257 -0.10281560226023589 -2.7310532640766336 -0.1643991105422542 -2.8177548131276082 -0.23165159047100742 -2.8980230560490599 -0.30433408963538139 -2.9720270060985046 -0.38221215077018844 -3.0398498399593263 -0.46504637826646356 -3.1015075656200839 -0.55258750854717076 -3.1570111528891975 -0.6445825699691472 -3.2063666243999607 -0.74077623131080428 -3.2495414913550946 -0.84090260021367857 -3.2865129557030901 -0.9446945248766524 -3.3172427289628601 -1.051877662972392 -3.341637519482112 -1.1621537925952532 -3.3596555583676793 -1.2752323801710839 -3.371294212411911 -1.3908344603788709 -3.3764820027598379 -1.5086500784801913 -3.3748945951529485 -1.6282310262343835 -3.3668343951021318 -1.7494052341730864 -3.3522645523598595 -1.8718582730458211 -3.3311488903160194 -1.995266155177009 -3.303476480882451 -2.1193093914122247 -3.269241772862769 -2.2436628073176044 -3.2284852253888654 -2.3680250314468236 -3.1813055048974612 -2.4921391307569105 -3.1277026023489118 -2.6156739968385536 -3.0676841505861563 -2.738288380825519 -3.0013650706689963 -2.8597264383483774 -2.9288484558527155 -2.9797290684126865 -2.8502249435055407 -3.0980280475451591 3.5394267716506524 3.8170031021734165 3.654763179683592 3.6323966331049538 3.7727985913541127 3.4580021580937959 3.8658450354486362 3.2681247159775366 3.9466958240455448 3.0768156849466846 3.9982219587410324 2.8730222473674538 4.0541139910580828 2.6826151695122977 4.0777687089697778 2.4811881225358272 -12.11264860985492 -8.0237808391489658 -11.134428056475448 -9.3713979372557734 -10.003150299546141 -10.600507096506062 0.42884897249738557 0.50748611567969326 0.80128058171649486 0.93398463325900016 0.78397378868402467 0.89637605361878214 1.1224265418863517 1.254422623003872 1.4966192373427554 1.6219310579924688 1.4854062455687118 1.5553707117960873 1.8927337803585522 1.9077697951336876 1.886849979550379 1.8239197540388745 2.3323834217648653 2.153782471151644 2.3329787947550971 2.0498078604844419 2.8211494348882713 2.3483550012315004 3.3406075201202654 2.6089992816221246 3.3627787564024021 2.4516598312916362 3.3762981860415908 2.2974382664099804 3.3818921184439041 2.1469176279211517 3.3802885578012054 2.0005681997753384 3.3722337044098767 1.8587718195693455 3.3584649085733287 1.7218166948935751 3.3397073603177145 1.5899077855385815 3.3166676939731774 1.4631741721918621 3.2900288223229621 1.3416763653248809 3.2754051306172367 1.2308017339447137 3.2437750530561389 1.1189054241736622 3.2103789055187506 1.0120985915784726 3.1757768287328947 0.9102358569540554 3.1404937982201817 0.81313487131168671 3.1050245388769167 0.72058250811887681 3.069813410461709 0.63233469586651403 3.0350150920672467 0.54808247437009294 3.0015549941690369 0.46764505765015024 2.969519330673843 0.39066240569354871 2.954541598518734 0.3182882271131296 2.9263616775392198 0.24654973547608294 2.9004615159298432 0.17729318417344417 2.8770860247096577 0.11017001541371405 2.8564495756398216 0.044822366144876509 2.8384771642111 -0.019111161668893994 2.838734434563468 -0.082600832619118561 2.8273377099768724 -0.14550141689780008 2.8192894716611785 -0.20813984746963116 2.8146939952193151 -0.27092019337965345 2.8136403444840572 -0.33425854464382909 2.8304030956591841 -0.40075833095220753 2.8364951957764921 -0.46715344350025123 2.8459886427022689 -0.53539221575697127 2.8593922327049346 -0.60604540711766564 2.8764384952787623 -0.67957932879975214 2.8970766859736687 -0.75652144039725744 2.9212441157002038 -0.83743106612447071 2.9488457243493791 -0.92289953955159276 2.9797554032439577 -1.0135554924490673 3.0138121074972859 -1.1100697648823665 3.051052239447182 -1.2132587652989268 3.0907503612057141 -1.3237118236659999 3.132849877879083 -1.4423479774593226 3.1769921755127943 -1.5700697227293763 3.2227486762806983 -1.7078579504078033 3.269837746474908 -1.8569171626760064 3.3050106516291149 -2.0104997674999399 3.3528550107157593 -2.1847337648670968 3.3873958039369421 -2.3651230288791991 3.4325877881534419 -2.5700192988887509 3.4630733686568149 -2.7836237948286242 3.5008632977319563 -3.0259903732687552 1.9436568941425951 -1.779605869153051 2.0128914494286598 -1.9235423871816646 1.9141254112399979 -1.9099778825195397 1.898516403322615 -1.9774268199269946 1.9335186496568912 -2.1048653343400661 1.8767494396272069 -2.1374722935728423 1.7431733253407244 -2.0751757452492683 1.3380665200257231 -1.6559838308126187 0.76543939315887854 -0.97342956843793782 0.22959334463827019 -0.2958275566384504 0 0
        </DataArray>
        <DataArray type="Float32" Name="u" NumberOfComponents="1">
          0 0.007874015748031496 0.015748031496062992 0.023622047244094488 0.031496062992125984 0.03937007874015748 0.047244094488188976 0.055118110236220472 0.062992125984251968 0.070866141732283464 0.07874015748031496 0.086614173228346455 0.094488188976377951 0.10236220472440945 0.11023622047244094 0.11811023622047244 0.12598425196850394 0.13385826771653545 0.14173228346456693 0.14960629921259844 0.15748031496062992 0.16535433070866143 0.17322834645669291 0.18110236220472442 0.1889763779527559 0.19685039370078741 0.20472440944881889 0.2125984251968504 0.22047244094488189 0.2283464566929134 0.23622047244094488 0.24409448818897639 0.25196850393700787 0.25984251968503935 0.26771653543307089 0.27559055118110237 0.28346456692913385 0.29133858267716534 0.29921259842519687 0.30708661417322836 0.31496062992125984 0.32283464566929132 0.33070866141732286 0.33858267716535434 0.34645669291338582 0.3543307086614173 0.36220472440944884 0.37007874015748032 0.37795275590551181 0.38582677165354329 0.39370078740157483 0.40157480314960631 0.40944881889763779 0.41732283464566927 0.42519685039370081 0.43307086614173229 0.44094488188976377 0.44881889763779526 0.45669291338582679 0.46456692913385828 0.47244094488188976 0.48031496062992124 0.48818897637795278 0.49606299212598426 0.50393700787401574 0.51181102362204722 0.51968503937007871 0.52755905511811019 0.53543307086614178 0.54330708661417326 0.55118110236220474 0.55905511811023623 0.56692913385826771 0.57480314960629919 0.58267716535433067 0.59055118110236215 0.59842519685039375 0.60629921259842523 0.61417322834645671 0.62204724409448819 0.62992125984251968 0.63779527559055116 0.64566929133858264 0.65354330708661412 0.66141732283464572 0.6692913385826772 0.67716535433070868 0.68503937007874016 0.69291338582677164 0.70078740157480313 0.70866141732283461 0.71653543307086609 0.72440944881889768 0.73228346456692917 0.74015748031496065 0.74803149606299213 0.75590551181102361 0.76377952755905509 0.77165354330708658 0.77952755905511806 0.78740157480314965 0.79527559055118113 0.80314960629921262 0.8110236220472441 0.81889763779527558 0.82677165354330706 0.83464566929133854 0.84251968503937003 0.85039370078740162 0.8582677165354331 0.86614173228346458 0.87401574803149606 0.88188976377952755 0.88976377952755903 0.89763779527559051 0.90551181102362199 0.91338582677165359 0.92125984251968507 0.92913385826771655 0.93700787401574803 0.94488188976377951 0.952755905511811 0.96062992125984248 0.96850393700787396 0.97637795275590555 0.98425196850393704 0.99212598425196852 1
        </DataArray>
      </PointData>
      <CellData Scalars="P">
        <DataArray type="Float32" Name="P" NumberOfComponents="1">
          -0.0020754889547675466 -0.0048696705064701848 -0.0048268560174388594 -0.0011011969534328778 0.0068866202935027893 0.019551865825739805 0.037192219651419209 0.06001525569825477 0.088155883325839055 0.12168962620857771 0.16064100075444374 0.20499136225816428 0.25468451473913772 0.30963160097590109 0.36971563876790992 0.43479485955687286 0.50470400028852536 0.57925861993973671 0.65825654620039209 0.74147922976514702 0.82869442205482435 0.91965871563724644 1.0141189768995682 1.1118150521551504 1.2124816926672692 1.3158491775579888 1.4216472033799674 1.5296085361115201 1.6394692317779773 1.7509625762213277 1.8638423002076199 1.9778741339948078 2.092838457808893 2.2085338799813226 2.3247802217419062 2.4414230438059357 2.5583388037040797 2.6754343638845781 2.7926502873511043 2.9099680545975324 3.0274129884405006 3.1450571559121814 2.9971554974536825 2.8424629280090352 2.6805749402537895 2.5122530854287772 2.3376288529669691 2.1575771792328302 1.9713412969659045 1.7798640380108881 2.3868528596371874 2.9898355307992461 3.5849310479319523 3.5407534841617907 3.4676126303399593 3.3913308996791409 3.2840658335125608 3.1403872896263332 2.9910015542673545 2.7992743981415487 2.6016384583479621 2.3568582447463782 2.1073869801923935 1.8079715601274748 1.5079823517648947 1.208820990164327 0.91276713377052798 0.62183101974118804 0.33776442381429372 0.062071738162201566 -0.20397523602519665 -0.4593214387610397 -0.70311171813431872 -0.93467344446689316 -1.1545680371344198 -1.3613159249149205 -1.5546821781149505 -1.7345463351420318 -1.9008866941568734 -2.053765762441409 -2.1933155951671819 -2.3197138483583366 -2.4332089963572949 -2.5340713331843019 -2.6230896026469908 -2.7000140337631175 -2.7651665486434598 -2.8188726647410016 -2.8614559193117879 -2.8932301107724037 -2.9146338763086099 -2.9257698428711825 -2.9269186065954425 -2.9183447328038401 -2.9002961914574232 -2.8728729192628983 -2.8363683222826022 -2.7909900881622369 -2.7369265562612366 -2.6743592117763808 -2.6034631041204523 -2.524410344000303 -2.4373745563912226 -2.3425358975298445 -2.240086757729939 -2.1302295796200537 -2.0132095020803753 -1.8892976470506118 -1.7588083275052357 -1.6221092826253454 -1.4796230218886508 -1.3324235966854432 -1.1805532641403711 -1.0252955100611243 -0.86691209035655081 -0.70693107058184446 -0.54595831803050698 -0.45934717429452609 -0.3728786705658107 -0.29469325081193848 -0.22197125717874128 -0.15375283973565571 -0.094403184524125383 -0.046907910266809863 -0.017451894955388212 -0.0049686592847337516 -0.0015409217265369547
        </DataArray>
      </CellData>
      <Points>
        <DataArray type="Float32" NumberOfComponents="3" format="ascii">
          4.4999732774083512 6.375646346287172 0
          4.5010406509937475 6.3834478312618748 0
          4.5020723045855231 6.3912541172043165 0
          4.5030473270330464 6.3990676745626098 0
          4.5039495667770044 6.4068899657663545 0
          4.5047654463535407 6.4147217306179725 0
          4.5054830687520964 6.4225631042126903 0
          4.5060917616711862 6.4304136797043796 0
          4.5065818083733227 6.4382725484546732 0
          4.5069442770930426 6.4461383289234497 0
          4.5071709030146971 6.4540091897484171 0
          4.5072540087131951 6.4618828691829266 0
          4.5071864448507641 6.4697566926482217 0
          4.5069615471998903 6.4776275890203951 0
          4.5065731044064075 6.4854921061606259 0
          4.5060153325287811 6.4933464258711675 0
          4.5052828562327925 6.5011863784625499 0
          4.5043706990716048 6.5090074575690773 0
          4.5032742730072473 6.5168048346867318 0
          4.5019893732541361 6.5245733740183258 0
          4.5005121772869865 6.5323076479315327 0
          4.4988392441606964 6.5400019526479074 0
          4.4969675141363332 6.5476503240792621 0
          4.4948943106939483 6.5552465543199192 0
          4.4926173419433555 6.5627842082181163 0
          4.490134702993803 6.5702566403942386 0
          4.4874448817319958 6.5776570137405272 0
          4.4845467614034291 6.5849783174449046 0
          4.4814396207646583 6.5922133842981951 0
          4.4781231385010294 6.5993549099230826 0
          4.474597413318123 6.6063954805749168 0
          4.4708629451712403 6.6133275838214578 0
          4.4669206375247699 6.6201436280482264 0
          4.4627717995652878 6.6268359625551136 0
          4.4584181468444468 6.6333968973720996 0
          4.4538618015834883 6.6398187234247183 0
          4.4491052901199426 6.6460937312201702 0
          4.4441515367402724 6.6522142267737898 0
          4.4390038636252624 6.6581725521289208 0
          4.4336659903166771 6.6639611064990012 0
          4.4281420265274338 6.6695723621069343 0
          4.422436465681006 6.6749988802176041 0
          4.4165541792196867 6.6802333277260324 0
          4.4108913245337797 6.6857044476161915 0
          4.4054550500965206 6.6914008007422163 0
          4.4002526721646191 6.6973115821602409 0
          4.3952899579585418 6.7034250283247392 0
          4.3905719191292913 6.7097292882130803 0
          4.3861017496447383 6.7162117383067823 0
          4.3818829152908121 6.7228605861041526 0
          4.377916883808302 6.7296633574140934 0
          4.3731997293825806 6.7359686599802151 0
          4.3677920794770939 6.7416929210976022 0
          4.3617640519126004 6.746759909143953 0
          4.3557628375670525 6.7518581795580443 0
          4.3498114763358791 6.7570142163752607 0
          4.3439088304447848 6.7622257368373972 0
          4.3380758234541252 6.767514989659329 0
          4.3323355897763243 6.7729048190321102 0
          4.3266873701558408 6.7783911631822704 0
          4.3211563540039641 6.7839959493120849 0
          4.3157421204800102 6.7897140585954698 0
          4.3104722361362438 6.7955660483233116 0
          4.3053466962787228 6.8015455696711324 0
          4.3003957296790913 6.8076712733805289 0
          4.2956521548060822 6.8139586201580977 0
          4.2911173169245584 6.8203978484050287 0
          4.2867920260351617 6.8269793930595242 0
          4.2826766022223515 6.8336939213632846 0
          4.2787709210300529 6.8405323616258693 0
          4.2750744598940233 6.8474859265077397 0
          4.2715863439612871 6.8545461305094184 0
          4.2683053910992204 6.8617048023186307 0
          4.265230155705833 6.8689540924782824 0
          4.2623589710090286 6.8762864768326386 0
          4.2596909170732875 6.8836950906179437 0
          4.2572240214052552 6.8911730054707521 0
          4.2549562037009299 6.8987136085419261 0
          4.2528853104441477 6.9063105933103817 0
          4.2510091473172507 6.9139579481362903 0
          4.2493255097330929 6.9216499429357272 0
          4.2478322102450017 6.9293811139637809 0
          4.2465270880001968 6.9371462445977334 0
          4.2454080659842166 6.9449403540946237 0
          4.244473156243437 6.9527586752472228 0
          4.24372142904922 6.9605967259232981 0
          4.2431511366671808 6.9684500626929697 0
          4.2427606731394949 6.9763143953808839 0
          4.2425485893861232 6.9841855654864977 0
          4.242513606422885 6.992059524034091 0
          4.2426546106480449 6.9999323092100187 0
          4.2429716188651243 7.0077999861420013 0
          4.2434639254332929 7.0156586561334722 0
          4.2441310323932981 7.0235044363692865 0
          4.2449726559036964 7.0313334349102181 0
          4.2459887317407601 7.0391417249406105 0
          4.2471803003069857 7.046925183226536 0
          4.2485477404116452 7.0546796929774844 0
          4.2500916417382095 7.0624010229423897 0
          4.2518128363883898 7.0700847920494612 0
          4.2537123823011571 7.077726440527675 0
          4.2557915601121392 7.0853211972303161 0
          4.2580518692752953 7.0928640449787457 0
          4.2604950221801108 7.1003496839176243 0
          4.2631229363459973 7.1077724925535026 0
          4.2659377244526651 7.1151264861723389 0
          4.2689416966132789 7.1224052662228248 0
          4.2721373154170212 7.1296019837877802 0
          4.2755271924398706 7.1367092825954028 0
          4.2791140660318598 7.1437192430553154 0
          4.2829007747675689 7.1506233214283776 0
          4.2868902400062074 7.1574122751206932 0
          4.2910846445850641 7.1640765813101748 0
          4.2954869571209544 7.1706054363776444 0
          4.3000993217583643 7.1769876552325096 0
          4.3049245431827288 7.1832105328091425 0
          4.3099645146786862 7.1892608241541929 0
          4.3152215825497944 7.1951235003422269 0
          4.3205992282546353 7.2008758859481885 0
          4.3261017553627399 7.2065090586774065 0
          4.3317230559746003 7.2120238675039738 0
          4.3374621790490258 7.2174161359084472 0
          4.3433213129536119 7.2226779655572511 0
          4.3492969611942849 7.2278073422023086 0
          4.3553808714222058 7.2328081412945213 0
          4.3615479702890498 7.2377063884930175 0
          4.3677628131747479 7.2425444635246485 0
          4.3739922474906452 7.2473644575831289 0
        </DataArray>
      </Points>
      <Cells>
        <DataArray type="Int32" Name="connectivity" format="ascii">
          0 1 1 2 2 3 3 4 4 5 5 6 6 7 7 8 8 9 9 10 10 11 11 12 12 13 13 14 14 15 15 16 16 17 17 18 18 19 19 20 20 21 21 22 22 23 23 24 24 25 25 26 26 27 27 28 28 29 29 30 30 31 31 32 32 33 33 34 34 35 35 36 36 37 37 38 38 39 39 40 40 41 41 42 42 43 43 44 44 45 45 46 46 47 47 48 48 49 49 50 50 51 51 52 52 53 53 54 54 55 55 56 56 57 57 58 58 59 59 60 60 61 61 62 62 63 63 64 64 65 65 66 66 67 67 68 68 69 69 70 70 71 71 72 72 73 73 74 74 75 75 76 76 77 77 78 78 79 79 80 80 81 81 82 82 83 83 84 84 85 85 86 86 87 87 88 88 89 89 90 90 91 91 92 92 93 93 94 94 95 95 96 96 97 97 98 98 99 99 100 100 101 101 102 102 103 103 104 104 105 105 106 106 107 107 108 108 109 109 110 110 111 111 112 112 113 113 114 114 115 115 116 116 117 117 118 118 119 119 120 120 121 121 122 122 123 123 124 124 125 125 126 126 127 
        </DataArray>
        <DataArray type="Int32" Name="offsets" format="ascii">
          2 4 6 8 10 12 14 16 18 20 22 24 26 28 30 32 34 36 38 40 42 44 46 48 50 52 54 56 58 60 62 64 66 68 70 72 74 76 78 80 82 84 86 88 90 92 94 96 98 100 102 104 106 108 110 112 114 116 118 120 122 124 126 128 130 132 134 136 138 140 142 144 146 148 150 152 154 156 158 160 162 164 166 168 170 172 174 176 178 180 182 184 186 188 190 192 194 196 198 200 202 204 206 208 210 212 214 216 218 220 222 224 226 228 230 232 234 236 238 240 242 244 246 248 250 252 254 
        </DataArray>
        <DataArray type="Int32" Name="types" format="ascii">
          3 3 3 3 3 3 3 3 3 3 3 3 3 3 3 3 3 3 3 3 3 3 3 3 3 3 3 3 3 3 3 3 3 3 3 3 3 3 3 3 3 3 3 3 3 3 3 3 3 3 3 3 3 3 3 3 3 3 3 3 3 3 3 3 3 3 3 3 3 3 3 3 3 3 3 3 3 3 3 3 3 3 3 3 3 3 3 3 3 3 3 3 3 3 3 3 3 3 3 3 3 3 3 3 3 3 3 3 3 3 3 3 3 3 3 3 3 3 3 3 3 3 3 3 3 3 3         </DataArray>
      </Cells>
    </Piece>
  </UnstructuredGrid>
</VTKFile>
