<?xml version="1.0"?>
<VTKFile type="UnstructuredGrid" version="0.1" byte_order="LittleEndian">
  <UnstructuredGrid>
    <Piece NumberOfPoints="128" NumberOfCells="127">
      <PointData Scalars="W">
        <DataArray type="Float32" Name="W" NumberOfComponents="2">
          0 0 -0.223871542394802 0.12098879903197972 -0.40485664567747787 0.21733191893122691 -0.55303003753449076 0.2938349066019143 -0.68570215999093898 0.35949206708338483 -0.80984676991458093 0.41774981157096641 -0.92885716226065984 0.47013621346938955 -1.0446346200661389 0.51738482083976289 -1.1583211783425649 0.55983075737879573 -1.2707356810630597 0.59763971642596414 -1.3823973969170655 0.63082646024032019 -1.4936692755992018 0.65933059176907549 -1.6048272801764381 0.68305163928191126 -1.7161022440458684 0.70186803323553471 -1.8276920540151327 0.71564115216043622 -1.9397356297348181 0.7242046666867098 -2.0522271198833244 0.72733729533755431 -2.1652131902018321 0.72484033308910578 -2.2786834776316498 0.71649524715841428 -2.3925391026190592 0.70205873721150835 -2.5066757175195722 0.6812930664165604 -2.6209767938933966 0.65396278426377319 -2.7352563267451897 0.61982143316560712 -2.8492690690783631 0.57862057767338382 -2.9627854009305379 0.53012843598297954 -3.0754405883468947 0.47410385109174752 -3.1868857478486268 0.41033183079383229 -3.2968206985287822 0.3386221334505119 -3.4048313511117994 0.25878890269610327 -3.5100888593208697 0.17065605844177986 -3.6124283510006534 0.074132686421874663 -3.7112960219357629 -0.030877014366607211 -3.806119037868009 -0.14442867960761124 -3.8962564481152202 -0.26653122611944763 -3.9810689561697106 -0.39714276446559682 -4.0598676969273866 -0.53616308909934307 -4.1320458521103243 -0.6834471074345605 -4.1968134759204121 -0.83876267958671191 -4.2533644342153378 -1.0017921892086157 -4.3010598536767075 -1.1721771051920662 -4.3391976829945023 -1.3494739642253699 -4.3670671169953224 -1.5331540228186622 4.2639459920621299 1.4989997371825288 4.2149283082976536 1.3171178132104773 4.1868117538900265 1.1514857860692598 4.1205740863959104 0.98488035022035714 4.0707800754481518 0.83186086135246839 3.9898782334596015 0.68192516002444525 3.9277591313011131 0.54441228167892508 3.8610499998098691 0.41404208829066991 3.7900808870377238 0.29078285745896781 3.7147559669480255 0.17458742231771737 3.6369788452490472 0.065472328292524931 3.55627387837982 -0.036718349922282699 3.4200498941138644 -0.12934713141821527 3.2787762686218884 -0.2108304588154731 3.1644875089260665 -0.28448580888142405 3.0169649729139487 -0.34581084611413798 2.8996058552281001 -0.40153895548306451 2.7467178098436653 -0.44350321501623757 2.6278528689929703 -0.48242141026436591 2.4706804876721873 -0.50599627683314852 2.3514323225220504 -0.52934783424145104 2.1901314655058841 -0.53547996513435159 2.0269006929546398 -0.53252062572621983 1.9530212737503241 -0.54715745707066299 1.8355962620305137 -0.5451293884525773 1.7660962495879489 -0.55310962455585067 1.6992935571887609 -0.55904875313339963 1.5871087211701718 -0.54626232152243748 1.5246195732062366 -0.54699845685674497 1.4650517923992443 -0.54644729332654984 1.3593495281849497 -0.52552207636884019 1.3050293340329995 -0.52150397529774595 1.2525944159441857 -0.51640589191046049 1.1537687973594064 -0.48958400088428089 1.107470291711357 -0.48265531957240215 1.0631531251096549 -0.47520699884010764 1.0214718828998528 -0.46766084978248446 0.93336514837065054 -0.43693493964008068 0.89753602883870831 -0.42892034086281566 0.86450130680153947 -0.42134362745837961 0.83496866825374549 -0.41468322870231678 0.75695268610880706 -0.38257480303444669 0.73299134190776172 -0.37654300173482125 0.71209264409591799 -0.3715923065449771 0.64300614499853115 -0.34048696845729942 0.62875597127098715 -0.33752293069737993 0.61779849749997906 -0.3360937025615322 0.61091314080101411 -0.33672763637236858 0.60682615344228652 -0.33882588171351691 0.55342111609644029 -0.31282132722597028 0.55771014630318316 -0.31895954557599582 0.56516380846631697 -0.32705883900451832 0.57661911674982991 -0.33770393001960741 0.53881955039825324 -0.31926532165813493 0.55904661217464258 -0.33506243565557298 0.5837203159846206 -0.35403211648806143 0.55834428238908307 -0.34267682242951564 0.59284409129092241 -0.36821246936730007 0.63309743527438689 -0.39822533948161914 0.67777595274867375 -0.43213007655718511 0.6713374188806922 -0.43400929175125225 0.72818391335083399 -0.47757856718151503 0.79002393072077015 -0.52627106658599032 0.80105039453812876 -0.54238795545140273 0.87555340924455893 -0.60309847206531131 0.89840776242853893 -0.63017630450051287 0.98650294244663916 -0.7054438351684863 1.0820912554565285 -0.79035625655708819 1.1249737397559145 -0.84046701417881386 1.1733934848584431 -0.89756423512150896 1.2916623960718288 -1.0134173055882405 1.3552379294054786 -1.09277096057079 1.4887760246587549 -1.2364327090737728 1.5668287306222255 -1.3435056834683698 1.6518133084718316 -1.4653077428209726 1.9910032076931352 -1.8362978699780392 2.1677029511608814 -2.0915811498097177 0.50941117667087121 -0.50618257619238549 0.29042493459759922 -0.29116264220623894 0.4814440035714222 -0.48685087525649667 0.71029343075565365 -0.72796253451723258 0.90271000624624809 -0.94224732813052514 1.4568701037241898 -1.5625171479069977 2.4259917993917295 -2.7237021561664858 3.3121493210768986 -3.989676888037478 0 0
        </DataArray>
        <DataArray type="Float32" Name="u" NumberOfComponents="1">
          0 0.007874015748031496 0.015748031496062992 0.023622047244094488 0.031496062992125984 0.03937007874015748 0.047244094488188976 0.055118110236220472 0.062992125984251968 0.070866141732283464 0.07874015748031496 0.086614173228346455 0.094488188976377951 0.10236220472440945 0.11023622047244094 0.11811023622047244 0.12598425196850394 0.13385826771653545 0.14173228346456693 0.14960629921259844 0.15748031496062992 0.16535433070866143 0.17322834645669291 0.18110236220472442 0.1889763779527559 0.19685039370078741 0.20472440944881889 0.2125984251968504 0.22047244094488189 0.2283464566929134 0.23622047244094488 0.24409448818897639 0.25196850393700787 0.25984251968503935 0.26771653543307089 0.27559055118110237 0.28346456692913385 0.29133858267716534 0.29921259842519687 0.30708661417322836 0.31496062992125984 0.32283464566929132 0.33070866141732286 0.33858267716535434 0.34645669291338582 0.3543307086614173 0.36220472440944884 0.37007874015748032 0.37795275590551181 0.38582677165354329 0.39370078740157483 0.40157480314960631 0.40944881889763779 0.41732283464566927 0.42519685039370081 0.43307086614173229 0.44094488188976377 0.44881889763779526 0.45669291338582679 0.46456692913385828 0.47244094488188976 0.48031496062992124 0.48818897637795278 0.49606299212598426 0.50393700787401574 0.51181102362204722 0.51968503937007871 0.52755905511811019 0.53543307086614178 0.54330708661417326 0.55118110236220474 0.55905511811023623 0.56692913385826771 0.57480314960629919 0.58267716535433067 0.59055118110236215 0.59842519685039375 0.60629921259842523 0.61417322834645671 0.62204724409448819 0.62992125984251968 0.63779527559055116 0.64566929133858264 0.65354330708661412 0.66141732283464572 0.6692913385826772 0.67716535433070868 0.68503937007874016 0.69291338582677164 0.70078740157480313 0.70866141732283461 0.71653543307086609 0.72440944881889768 0.73228346456692917 0.74015748031496065 0.74803149606299213 0.75590551181102361 0.76377952755905509 0.77165354330708658 0.77952755905511806 0.78740157480314965 0.79527559055118113 0.80314960629921262 0.8110236220472441 0.81889763779527558 0.82677165354330706 0.83464566929133854 0.84251968503937003 0.85039370078740162 0.8582677165354331 0.86614173228346458 0.87401574803149606 0.88188976377952755 0.88976377952755903 0.89763779527559051 0.90551181102362199 0.91338582677165359 0.92125984251968507 0.92913385826771655 0.93700787401574803 0.94488188976377951 0.952755905511811 0.96062992125984248 0.96850393700787396 0.97637795275590555 0.98425196850393704 0.99212598425196852 1
        </DataArray>
      </PointData>
      <CellData Scalars="P">
        <DataArray type="Float32" Name="P" NumberOfComponents="1">
          -0.0010981597887463558 -0.0029418826182427836 -0.003818842489108723 -0.0032316296425432831 -0.00070264821369413135 0.0042484291804489463 0.012110758707893883 0.02338364950371865 0.038575477440054462 0.058203154238737231 0.082789205930500695 0.1128591116650844 0.14893887363975078 0.19155294965920791 0.24122221965926582 0.29846094848964877 0.36377041332018684 0.43763800559666538 0.5205329545313524 0.6129003241211779 0.7151576651641891 0.82769147138036281 0.95085104533098652 1.0849423262561215 1.2302250443866996 1.3869024779418739 1.5551182427304469 1.7349552662865397 1.9264262053255461 2.1294458048356284 2.3438647019986876 2.5694441657871838 2.8058514676574227 3.0526524096024543 3.3093083678264499 3.5751704378507783 3.8494825292213819 4.1313675027951522 4.4198245206105264 4.713739496411173 5.0118807639297689 5.3128990113759711 5.0192960574122782 4.7236979031025061 4.4252034435639063 4.1272530667829459 3.8292065660347565 3.5340138819890745 3.2407824694370588 2.9503786117031701 2.6636251288539912 2.381334359822719 2.104148565167538 1.8327269870612528 1.571904655675026 1.3224791345394984 1.0826586775130167 0.85538536112076224 0.63854881818050513 0.43515418580228066 0.24273150217780398 0.064354416859444263 -0.10279001666081199 -0.25552492563492429 -0.39379302442675246 -0.52413037575958921 -0.64345610038146361 -0.7551668748533793 -0.85945263449933285 -0.9534164987286835 -1.0403949909958801 -1.1206343275414563 -1.191545321178697 -1.2563061291774882 -1.3151284821661076 -1.3658034922009674 -1.4112300163158493 -1.4516360082603739 -1.4872786854574314 -1.5165136055639128 -1.5416585183201348 -1.5629551931451682 -1.58065319099798 -1.5936527148462285 -1.6036390281495407 -1.6107973258107107 -1.6145226749133199 -1.6159209333203239 -1.6151081817941246 -1.6121754899852914 -1.6071758606954401 -1.6003138773513608 -1.5916024380592644 -1.5809988179239058 -1.5684206891051471 -1.554711533356065 -1.538943127119387 -1.5209118154081436 -1.5019386150774372 -1.4803612813808107 -1.4558257004012161 -1.4279924162093609 -1.3988062209029297 -1.3656293412182796 -1.3280375158419455 -1.2883741241339746 -1.2434748131609201 -1.1959886775529582 -1.1424130895553972 -1.0822565824179504 -1.0186293644778381 -0.95145914049403335 -0.87684672974674793 -0.79844455309194473 -0.71255414013653462 -0.62321053540796656 -0.53089833303274325 -0.42221986753404006 -0.30836020237565226 -0.26235016559528995 -0.23067022905433263 -0.19469580309624801 -0.15556288378558866 -0.11742929734096186 -0.07515768147024994 -0.030370845687087433 -0.0017601931514377
        </DataArray>
      </CellData>
      <Points>
        <DataArray type="Float32" NumberOfComponents="3" format="ascii">
          3.8837507229598631 8.7510855722118652 0
          3.8875013790866046 8.7580090037760279 0
          3.8912381534190335 8.764939934088261 0
          3.8949498239416789 8.7718843351594771 0
          3.8986272033370502 8.7788469493985382 0
          3.9022620656064664 8.7858318470746397 0
          3.9058467136355888 8.7928426399127115 0
          3.909373768771589 8.7998825757861709 0
          3.912836052915007 8.8069545841647816 0
          3.9162265176902302 8.8140612968687737 0
          3.9195381936569169 8.8212050583235104 0
          3.9227641580973422 8.8283879264598664 0
          3.9258975124972015 8.8356116689570943 0
          3.9289313654210023 8.842877757002773 0
          3.93185881818677 8.8501873577459556 0
          3.9346729525846338 8.857541325694001 0
          3.9373668222525269 8.864940192392206 0
          3.939933453028805 8.8723841526969096 0
          3.942365840049864 8.879873052448735 0
          3.9446569483846012 8.8874063749168357 0
          3.9467997191579287 8.8949832257077492 0
          3.9487870760143213 8.9026023180194223 0
          3.9506119323375382 8.9102619580371201 0
          3.9522672027788572 8.917960029647098 0
          3.9537458184592333 8.9256939790277752 0
          3.9550407412034465 8.9334608002736058 0
          3.9561449861521845 8.9412570204378721 0
          3.9570516433921701 8.949078686197895 0
          3.9577538965674193 8.9569213520550246 0
          3.9582450485534988 8.964780068806748 0
          3.9585185728475762 8.9726493726252112 0
          3.958568123792181 8.9805232794163423 0
          3.958387570913366 8.9883952788763146 0
          3.9579710344390668 8.9962583310385753 0
          3.9573129250409735 9.004104865717796 0
          3.956407983473976 9.0119267851041389 0
          3.9552513232889495 9.0197154699734625 0
          3.9538384684584473 9.0274617886807729 0
          3.9521654023563846 9.0351561115509202 0
          3.9502286177412183 9.0427883305690546 0
          3.9480251563683324 9.0503478816079159 0
          3.945552652519114 9.0578237719209778 0
          3.9428093770722974 9.0652046129229529 0
          3.9403304758777398 9.072678397140713 0
          3.93811290996985 9.08023384725049 0
          3.9361549361656394 9.0878606938544788 0
          3.9344524477732401 9.0955486068219944 0
          3.9330023575583177 9.1032880986995437 0
          3.9317996495761109 9.1110698729199768 0
          3.9308404723929562 9.1188854034872691 0
          3.9301206899931476 9.1267266072796538 0
          3.9296359022443159 9.1345858420756212 0
          3.9293814389562729 9.1424559036169697 0
          3.9293524779080062 9.1503300266494172 0
          3.9295440153564378 9.1582018752383441 0
          3.9299476051918778 9.1660657055705226 0
          3.9305544881362882 9.1739164648107074 0
          3.931357578017054 9.1817495858448996 0
          3.9323477279808321 9.1895612656074697 0
          3.9335176613816363 9.197348048459693 0
          3.9348578985599123 9.2051073316569205 0
          3.9363610694023916 9.2128367017687598 0
          3.9380174284826421 9.2205346961550454 0
          3.9398195818325461 9.2281998665207343 0
          3.9417575279349029 9.2358318316457453 0
          3.9438211455546379 9.2434307739864376 0
          3.9460058537515845 9.2509957861461682 0
          3.9483043714943133 9.2585269934073189 0
          3.9507123893877711 9.2660239010910121 0
          3.9532257652908784 9.2734861410617651 0
          3.9558375430911754 9.2809145056399274 0
          3.9585438481100126 9.2883089492829392 0
          3.9613409868133611 9.295669506258017 0
          3.9642224050567583 9.3029974735353118 0
          3.9671847346929976 9.3102931003591411 0
          3.9702247244774371 9.3175567029248292 0
          3.973336246693747 9.3247899438749258 0
          3.976516430612294 9.331993252959073 0
          3.9797625283682412 9.339167092149216 0
          3.9830719555510901 9.3463119294978974 0
          3.9864392491784564 9.3534296698786221 0
          3.9898621877588414 9.3605208104897528 0
          3.9933387230926884 9.3675858214168137 0
          3.9968670241552915 9.3746251159810932 0
          4.0004422538425599 9.381640685085701 0
          4.0040629266867738 9.3886329032557345 0
          4.0077277471677464 9.39560207806276 0
          4.0114324321004142 9.4025501386125487 0
          4.0151760983692428 9.4094772695688711 0
          4.0189580670973175 9.4163835605522674 0
          4.0227779119808433 9.4232689733956274 0
          4.0266353803275123 9.4301333792851469 0
          4.0305271618949972 9.4369783920293848 0
          4.0344535236320587 9.4438036327715871 0
          4.0384149288567235 9.4506086012607504 0
          4.0424120891703561 9.4573926396125074 0
          4.0464426627407013 9.4641568937005207 0
          4.0505079055175095 9.4709003868078856 0
          4.0546093494012698 9.4776219457704531 0
          4.0587454237651874 9.4843222784391212 0
          4.0629182704208366 9.490999805258701 0
          4.0671303882653032 9.4976526693519379 0
          4.0713845509774291 9.5042787728261331 0
          4.0756803638485959 9.5108780046922217 0
          4.0800213560479532 9.5174476685644382 0
          4.0844113669473092 9.5239847506510209 0
          4.0888510866373169 9.5304882585086226 0
          4.0933451411142165 9.536954433788507 0
          4.0978949555563116 9.5433816052764424 0
          4.1025060005770744 9.5497651123902223 0
          4.1071842124283444 9.5560996963581122 0
          4.1119322614140437 9.5623822583022466 0
          4.116753162615522 9.5686092663545619 0
          4.1216542626667216 9.5747735424954961 0
          4.1266395195186467 9.5808701740443922 0
          4.1317172299517546 9.5868902567052086 0
          4.1368922532642749 9.5928271569461909 0
          4.1421698806816689 9.5986733265247999 0
          4.1475711630088279 9.6044057453763489 0
          4.1531070799512806 9.6100085744943886 0
          4.1586741526536768 9.6155795561052724 0
          4.1642588754667731 9.6211321163045955 0
          4.1698731531025679 9.6266541842352726 0
          4.1755312330687824 9.6321308731903006 0
          4.1812451040856216 9.6375489624211781 0
          4.1870491806953183 9.6428700555589195 0
          4.1930036140934206 9.6480222268166376 0
          4.1991634101666309 9.6529270443468143 0
        </DataArray>
      </Points>
      <Cells>
        <DataArray type="Int32" Name="connectivity" format="ascii">
          0 1 1 2 2 3 3 4 4 5 5 6 6 7 7 8 8 9 9 10 10 11 11 12 12 13 13 14 14 15 15 16 16 17 17 18 18 19 19 20 20 21 21 22 22 23 23 24 24 25 25 26 26 27 27 28 28 29 29 30 30 31 31 32 32 33 33 34 34 35 35 36 36 37 37 38 38 39 39 40 40 41 41 42 42 43 43 44 44 45 45 46 46 47 47 48 48 49 49 50 50 51 51 52 52 53 53 54 54 55 55 56 56 57 57 58 58 59 59 60 60 61 61 62 62 63 63 64 64 65 65 66 66 67 67 68 68 69 69 70 70 71 71 72 72 73 73 74 74 75 75 76 76 77 77 78 78 79 79 80 80 81 81 82 82 83 83 84 84 85 85 86 86 87 87 88 88 89 89 90 90 91 91 92 92 93 93 94 94 95 95 96 96 97 97 98 98 99 99 100 100 101 101 102 102 103 103 104 104 105 105 106 106 107 107 108 108 109 109 110 110 111 111 112 112 113 113 114 114 115 115 116 116 117 117 118 118 119 119 120 120 121 121 122 122 123 123 124 124 125 125 126 126 127 
        </DataArray>
        <DataArray type="Int32" Name="offsets" format="ascii">
          2 4 6 8 10 12 14 16 18 20 22 24 26 28 30 32 34 36 38 40 42 44 46 48 50 52 54 56 58 60 62 64 66 68 70 72 74 76 78 80 82 84 86 88 90 92 94 96 98 100 102 104 106 108 110 112 114 116 118 120 122 124 126 128 130 132 134 136 138 140 142 144 146 148 150 152 154 156 158 160 162 164 166 168 170 172 174 176 178 180 182 184 186 188 190 192 194 196 198 200 202 204 206 208 210 212 214 216 218 220 222 224 226 228 230 232 234 236 238 240 242 244 246 248 250 252 254 
        </DataArray>
        <DataArray type="Int32" Name="types" format="ascii">
          3 3 3 3 3 3 3 3 3 3 3 3 3 3 3 3 3 3 3 3 3 3 3 3 3 3 3 3 3 3 3 3 3 3 3 3 3 3 3 3 3 3 3 3 3 3 3 3 3 3 3 3 3 3 3 3 3 3 3 3 3 3 3 3 3 3 3 3 3 3 3 3 3 3 3 3 3 3 3 3 3 3 3 3 3 3 3 3 3 3 3 3 3 3 3 3 3 3 3 3 3 3 3 3 3 3 3 3 3 3 3 3 3 3 3 3 3 3 3 3 3 3 3 3 3 3 3         </DataArray>
      </Cells>
    </Piece>
  </UnstructuredGrid>
</VTKFile>
