<?xml version="1.0"?>
<VTKFile type="UnstructuredGrid" version="0.1" byte_order="LittleEndian">
  <UnstructuredGrid>
    <Piece NumberOfPoints="128" NumberOfCells="127">
      <PointData Scalars="W">
        <DataArray type="Float32" Name="W" NumberOfComponents="2">
          0 0 -0.49660845005750698 0.32909645546493632 -0.81524130712769693 0.53302834797487397 -1.0602480817058277 0.67998605158591607 -1.2677762694179728 0.79380533521493701 -1.4524716857939444 0.88420244846852192 -1.6217125108052355 0.95613618482056584 -1.7797278384008606 1.0125173982892115 -1.929131135241833 1.0552180180135748 -2.0717139106580662 1.0855784759658005 -2.2086408779486328 1.1045479563048963 -2.3407120502989924 1.1128511243175856 -2.4684821961022703 1.1110641981045939 -2.59238442604441 1.0996815250539553 -2.7127620105361125 1.079130645702872 -2.8298460192822827 1.0497661004420673 -2.9437059993230252 1.0118616136643519 -3.0544254136794478 0.96568231040826336 -3.1620357399332604 0.91145856956754434 -3.2664802070047854 0.84938101093344054 -3.3677042862116711 0.77963127861579873 -3.4656430593693526 0.7023760842748743 -3.5601966003055825 0.61776225478358127 -3.6512034238738358 0.52591692932878276 -3.7385501707835118 0.42696722908329199 -3.8220102605113158 0.32101847000357553 -3.9013977696102109 0.20817876245642891 -3.9766007403680019 0.088550068027705806 -4.0474181827831464 -0.037783707679180149 -4.1132572773298284 -0.17072460013943061 -4.1742037616814338 -0.31018224286668672 -4.2299858351281028 -0.45608081494031494 -4.2803315932919581 -0.60834759253126514 -4.3249147623358306 -0.76690484086254562 -4.3634212713261489 -0.93167627718429391 -4.3954936959230322 -1.1025775514296143 -4.4208417646198601 -1.2795437281436979 -4.4390078433249265 -1.4624670627648886 -4.4494950080056848 -1.651210569263492 -4.4519391805855157 -1.8456755576269483 -4.4458891298490171 -2.0457346593898258 -4.4308330326214147 -2.2512280809445211 4.0434731080828463 2.0630505986596668 4.0319111353698895 1.8804380245653733 4.0080297193725034 1.702779406268208 3.9846295000518941 1.5353156318616534 3.9401876452019065 1.3696382667394309 3.8989467891494276 1.2148016173644796 3.8506066824658221 1.0666346809141329 3.7957145512850925 0.92531549013752867 3.7355988276575873 0.79113563390870012 3.6833435194533672 0.66617768354897444 3.6269055217086517 0.54722373472006192 3.5557843691870032 0.43310189324754877 3.4824517998279081 0.32596804711225508 3.4054749772281792 0.22550929681801674 3.3293574153176637 0.13180334538949878 3.2530057123386227 0.044375499404337215 3.1890794977720929 -0.037392884602397453 3.1140518523356184 -0.1138691078804803 3.040324958979133 -0.18511260847762975 2.9683335603368843 -0.25151695239955613 2.8986423486537714 -0.31351008515675965 2.8312535382004578 -0.37147514059390957 2.7552372312611646 -0.42396265814400741 2.6938095686446828 -0.47468358361720792 2.6357208751033849 -0.52269088651473283 2.5811868753739273 -0.56841615779675181 2.5304004214784426 -0.61229250606261543 2.4835206378268335 -0.65475127838967628 2.4406819330628053 -0.69622319437995461 2.4019924939239941 -0.7371376930408623 2.3675326777187133 -0.77792221702685793 2.3373628025490376 -0.8190048632129685 2.3115105338957602 -0.86081063729785312 2.300876735328536 -0.90818847569185879 2.2834674549171528 -0.95313761352172255 2.2701176808553871 -1.0000030623932119 2.2610735608896975 -1.049352162442539 2.2560361216051801 -1.1015353974832427 2.2548427714816044 -1.1569715859418619 2.257281780364425 -1.2160714534893269 2.2630962356285913 -1.2792388930956455 2.2719774454364536 -1.3468666230542727 2.2931584645633047 -1.4254399212078985 2.3066109112617683 -1.5034198257259557 2.3219778956816093 -1.5870197021829129 2.3385407869523931 -1.6764379257195499 2.3556557083211236 -1.7719154508082267 1.8591788373961067 -1.4603615288730565 1.9018964753412322 -1.5531904766055915 1.9356459459819302 -1.645288427912222 1.9683342587923349 -1.7433319920693484 1.5330420950457315 -1.4094168159177083 1.5775199098014487 -1.499902459687313 1.6278100011770666 -1.6031021337486351 1.6682819451590409 -1.7045126470159628 1.2861694596248812 -1.358931617003694 1.3367076308441357 -1.4558888036507192 1.3848676748827136 -1.5576161165767208 1.4300545379822069 -1.6640659157694555 1.4719824998369451 -1.7755587400750956 1.1475525112893477 -1.4310772424678133 1.1973887751414225 -1.5396879915106896 1.2438534612498742 -1.6527534284026455 1.2804891184260361 -1.7619954394386401 1.3190545972290613 -1.8840365810171651 1.3527868197472424 -2.0107981621057633 1.3812383866387534 -2.1424949847876538 1.4036814083233136 -2.2789349242482437 1.709304140401849 -2.9296424292196246 1.6922734094729994 -3.0908261423825873 1.6654871766108252 -3.2572962611525247 1.8784150259971226 -3.9805006679700647 1.7928632659941843 -4.1740036004902423 1.9063650898988991 -4.9607609769330709 1.3138506224994917 -3.8357938051271372 1.1910627094478285 -3.8769350306796042 1.0814892000174268 -3.9711176626132114 0.95520430911898502 -4.0175311564968208 0.83566822613519165 -4.1086308069092432 0.8097604885725892 -4.8720555911931198 0.61635793270093742 -4.8687236238042377 0.42064116536030999 -4.7851080208478267 0.23634352755972493 -4.7025303572954593 0.063628343744046828 -3.9399960722092087 -0.046171761511012516 -3.5034249131087192 0 0
        </DataArray>
        <DataArray type="Float32" Name="u" NumberOfComponents="1">
          0 0.007874015748031496 0.015748031496062992 0.023622047244094488 0.031496062992125984 0.03937007874015748 0.047244094488188976 0.055118110236220472 0.062992125984251968 0.070866141732283464 0.07874015748031496 0.086614173228346455 0.094488188976377951 0.10236220472440945 0.11023622047244094 0.11811023622047244 0.12598425196850394 0.13385826771653545 0.14173228346456693 0.14960629921259844 0.15748031496062992 0.16535433070866143 0.17322834645669291 0.18110236220472442 0.1889763779527559 0.19685039370078741 0.20472440944881889 0.2125984251968504 0.22047244094488189 0.2283464566929134 0.23622047244094488 0.24409448818897639 0.25196850393700787 0.25984251968503935 0.26771653543307089 0.27559055118110237 0.28346456692913385 0.29133858267716534 0.29921259842519687 0.30708661417322836 0.31496062992125984 0.32283464566929132 0.33070866141732286 0.33858267716535434 0.34645669291338582 0.3543307086614173 0.36220472440944884 0.37007874015748032 0.37795275590551181 0.38582677165354329 0.39370078740157483 0.40157480314960631 0.40944881889763779 0.41732283464566927 0.42519685039370081 0.43307086614173229 0.44094488188976377 0.44881889763779526 0.45669291338582679 0.46456692913385828 0.47244094488188976 0.48031496062992124 0.48818897637795278 0.49606299212598426 0.50393700787401574 0.51181102362204722 0.51968503937007871 0.52755905511811019 0.53543307086614178 0.54330708661417326 0.55118110236220474 0.55905511811023623 0.56692913385826771 0.57480314960629919 0.58267716535433067 0.59055118110236215 0.59842519685039375 0.60629921259842523 0.61417322834645671 0.62204724409448819 0.62992125984251968 0.63779527559055116 0.64566929133858264 0.65354330708661412 0.66141732283464572 0.6692913385826772 0.67716535433070868 0.68503937007874016 0.69291338582677164 0.70078740157480313 0.70866141732283461 0.71653543307086609 0.72440944881889768 0.73228346456692917 0.74015748031496065 0.74803149606299213 0.75590551181102361 0.76377952755905509 0.77165354330708658 0.77952755905511806 0.78740157480314965 0.79527559055118113 0.80314960629921262 0.8110236220472441 0.81889763779527558 0.82677165354330706 0.83464566929133854 0.84251968503937003 0.85039370078740162 0.8582677165354331 0.86614173228346458 0.87401574803149606 0.88188976377952755 0.88976377952755903 0.89763779527559051 0.90551181102362199 0.91338582677165359 0.92125984251968507 0.92913385826771655 0.93700787401574803 0.94488188976377951 0.952755905511811 0.96062992125984248 0.96850393700787396 0.97637795275590555 0.98425196850393704 0.99212598425196852 1
        </DataArray>
      </PointData>
      <CellData Scalars="P">
        <DataArray type="Float32" Name="P" NumberOfComponents="1">
          -0.017882287130125577 -0.052081241693216512 -0.08291487772279614 -0.10945343327302752 -0.13110550561912976 -0.14747033062407061 -0.15827224787984848 -0.16332404954053145 -0.16250387497564581 -0.15573729114167201 -0.14298632493872368 -0.12424011930015132 -0.099507257396915558 -0.068807989599825536 -0.032167447403198782 0.010389209257141891 0.058839092578593884 0.11316778120409794 0.17337328014812964 0.23946842002631455 0.3114855606605314 0.38948076884841321 0.47353706170824272 0.56376656686505522 0.66031616228890189 0.76336758492962853 0.87314257854457566 0.98990940054032917 1.1139834451722708 1.2457154402615809 1.3855206755453557 1.5338687372143076 1.6912864851948404 1.8583584194467375 2.0357295197161571 2.2241052508809802 2.424256537415308 2.6370125885555429 2.863258546138892 3.1039422630106617 3.3600687511138116 3.6326945476399142 3.3181920183319056 2.9909808624969907 2.6543678072036303 2.3104812731772988 1.9630675593601199 1.6137161213741005 1.2647325480929412 0.91824345488640435 0.57612946891217898 0.2390101622739513 -0.091554701113826922 -0.41321903022581991 -0.724834387411457 -1.0252444133119285 -1.3137718640146288 -1.589741131508839 -1.8535297257353454 -2.1037673162165342 -2.3401323932093758 -2.5624007534038067 -2.7704449014095047 -2.96418861750367 -3.1429836705828325 -3.3075894131974137 -3.4581079232230985 -3.5946756573149559 -3.7174551571434256 -3.8266267869670156 -3.9223814875988339 -4.0049141047364074 -4.0744174167923495 -4.1310771278613911 -4.1750674874376603 -4.2065707443749156 -4.2256329823216543 -4.2323791858066624 -4.2269154073128643 -4.209333665378689 -4.1797154731399271 -4.1381382148678183 -4.0846837887782677 -4.0194499677610187 -3.9420679613791472 -3.8531614915161017 -3.7529694508866434 -3.6418326369684513 -3.5202151863844557 -3.3887378091009785 -3.2473987346460413 -3.097469563492437 -2.9395286529187987 -2.8163725530023149 -2.686997715957363 -2.5511504927322912 -2.4099857001671912 -2.3047317697490883 -2.1950613416977296 -2.0814415587773762 -1.9643790152939964 -1.8443827249439697 -1.7570731057282696 -1.6671217971780481 -1.5751040298625947 -1.4821769993216853 -1.3883870855199369 -1.2943721467357483 -1.2007744310575807 -1.1082597040359394 -0.99261527833074648 -0.8806420937284668 -0.77288632363740362 -0.64865069706620981 -0.53089639072048433 -0.400922822388045 -0.31844086534831401 -0.24515503600660393 -0.17946961105585771 -0.12240596083891392 -0.072890350087226316 -0.030630167657317423 0.0022700088326534184 0.024593393448885812 0.036016719966639688 0.031130265440354798 0.01408770909920245
        </DataArray>
      </CellData>
      <Points>
        <DataArray type="Float32" NumberOfComponents="3" format="ascii">
          4.496307890910761 9.479785434544576 0
          4.5006733137201396 9.4863394433607198 0
          4.5050079462441932 9.4929138682786469 0
          4.5092920313265763 9.4995213588921281 0
          4.5135103762471207 9.5061710302105329 0
          4.517650111653766 9.5128699414371258 0
          4.5216997835750323 9.519623698743688 0
          4.525648896022501 9.5264367628909739 0
          4.5294876488359526 9.5333126297961819 0
          4.5332067756980043 9.5402539466483667 0
          4.5367974331097214 9.5472625950522509 0
          4.5402511282293103 9.5543397499046154 0
          4.5435596693228417 9.5614859243467158 0
          4.5467151314202789 9.5687010055127146 0
          4.5497098295130884 9.5759842852043437 0
          4.5525362973203096 9.5833344864270842 0
          4.5551872730094951 9.5907497854044532 0
          4.5576556949306859 9.5982278285860225 0
          4.5599346964830962 9.6057657491278121 0
          4.5620176042006495 9.6133601812234915 0
          4.563897941304389 9.6210072719751913 0
          4.5655694311092807 9.6287026927124533 0
          4.567026001068017 9.6364416493891891 0
          4.5682617889778365 9.6442188917506755 0
          4.5692711529962189 9.6520287212817362 0
          4.570048678663122 9.6598649991546566 0
          4.5705891929349844 9.6677211528243685 0
          4.5708877756879751 9.6755901827949202 0
          4.5709397666252789 9.6834646690009976 0
          4.5707407776965416 9.691336776064567 0
          4.5702867298061074 9.6991982594164075 0
          4.5695738474365353 9.7070404709380043 0
          4.5685986754371068 9.7148543636915452 0
          4.5673580958141118 9.7226304964466621 0
          4.5658493478895581 9.7303590385056413 0
          4.5640700477022174 9.7380297744257742 0
          4.5620182100981381 9.7456321092283531 0
          4.5596922666608073 9.7531550723906157 0
          4.557091094024492 9.7605873244795465 0
          4.5542140446314461 9.7679171655872956 0
          4.5510609692617194 9.7751325413824759 0
          4.5476322449782209 9.7822210509321419 0
          4.5439288068408299 9.7891699565297294 0
          4.5404760858309769 9.796246753953211 0
          4.5372733614894987 9.8034401223808665 0
          4.5343191499837525 9.810739048321782 0
          4.5316119977221261 9.8181331505807954 0
          4.5291491469758292 9.8256121586062548 0
          4.5269280388384399 9.8331664740376912 0
          4.5249456746000032 9.8407869119371192 0
          4.5231986496299559 9.8484647117986537 0
          4.5216832356942298 9.8561915556168991 0
          4.5203961921179632 9.8639596970672621 0
          4.519334019085008 9.8717617619098235 0
          4.5184923065716314 9.8795906752977878 0
          4.517866507557577 9.8874397955246902 0
          4.5174518491657594 9.8953028946330299 0
          4.5172436118607999 9.9031741632637651 0
          4.5172370616434296 9.9110481812371614 0
          4.5174282349398922 9.9189198792413293 0
          4.5178124799210133 9.926784516025533 0
          4.5183852254366945 9.9346376747750291 0
          4.5191420079724383 9.942475238741288 0
          4.5200785066681979 9.9502933647471217 0
          4.5211905434699906 9.9580884594781089 0
          4.5224734054994169 9.9658572694190841 0
          4.5239232844887933 9.9735966508333611 0
          4.5255365793444264 9.9813036285615873 0
          4.5273099095812297 9.9889753693631924 0
          4.5292401273575225 9.996609155182222 0
          4.5313243274407817 10.004202356542557 0
          4.5335598556673338 10.011752406003431 0
          4.5359443158073418 10.019256771716387 0
          4.5384755747406667 10.026712931127964 0
          4.5411517664322316 10.034118344662666 0
          4.5439712939308876 10.04147042961613 0
          4.5469335055260247 10.048766259586024 0
          4.5500373315756448 10.0560030611159 0
          4.5532819567208156 10.063177944431814 0
          4.5566668356846991 10.070287868518013 0
          4.5601916753535843 10.07732961962483 0
          4.5638564253949303 10.08429978549667 0
          4.5676612659122338 10.091194730041526 0
          4.5716065923805917 10.098010568339115 0
          4.5756929974485034 10.104743142228187 0
          4.5799218443917216 10.111387617365679 0
          4.5842940264103156 10.117939199399714 0
          4.5888105655788216 10.124392747584269 0
          4.5934725693469867 10.130742761602994 0
          4.5982811916041282 10.136983365434718 0
          4.6032048516453941 10.143132889242333 0
          4.6082462204889652 10.149185645436257 0
          4.6134074108236058 10.155135984269243 0
          4.618690467405159 10.16097787976425 0
          4.6240684217839432 10.16673211650844 0
          4.6295440464930611 10.172393116814749 0
          4.6351204725213311 10.177954510426666 0
          4.6408002207389014 10.183410035368988 0
          4.6465596201223436 10.188781165977701 0
          4.6524018148035768 10.194061907599611 0
          4.6583298003305593 10.199245967972848 0
          4.6643463869690844 10.204326760419942 0
          4.6704541821480197 10.209297384157601 0
          4.6766330874013695 10.214179222883349 0
          4.682886199347994 10.218965549896412 0
          4.6892164051786125 10.223649361557261 0
          4.6956259825726629 10.228223890828023 0
          4.7021173285496634 10.232681576256352 0
          4.7086925404282738 10.237014563152444 0
          4.7153533881955187 10.24121469029717 0
          4.7221012694869584 10.245273501870541 0
          4.7289551296428094 10.249150646347697 0
          4.7359139188690076 10.252836133494485 0
          4.7429759826514672 10.256319644472736 0
          4.7501545178967088 10.25955633223322 0
          4.7574442255629839 10.262534200951002 0
          4.7648521344798169 10.265204462469434 0
          4.7723415380657404 10.26763688439196 0
          4.7799048269271323 10.269828914128535 0
          4.7875352057853586 10.271774708294432 0
          4.7952248387583971 10.27347138488202 0
          4.8029663003952292 10.274913290317157 0
          4.8107585586143582 10.276053156754404 0
          4.8185897850330841 10.276891136829834 0
          4.8264479631504713 10.277432338007635 0
          4.8343217233548579 10.277681788108072 0
          4.8422003848402229 10.277686714466867 0
          4.8500770499780499 10.277474136086186 0
        </DataArray>
      </Points>
      <Cells>
        <DataArray type="Int32" Name="connectivity" format="ascii">
          0 1 1 2 2 3 3 4 4 5 5 6 6 7 7 8 8 9 9 10 10 11 11 12 12 13 13 14 14 15 15 16 16 17 17 18 18 19 19 20 20 21 21 22 22 23 23 24 24 25 25 26 26 27 27 28 28 29 29 30 30 31 31 32 32 33 33 34 34 35 35 36 36 37 37 38 38 39 39 40 40 41 41 42 42 43 43 44 44 45 45 46 46 47 47 48 48 49 49 50 50 51 51 52 52 53 53 54 54 55 55 56 56 57 57 58 58 59 59 60 60 61 61 62 62 63 63 64 64 65 65 66 66 67 67 68 68 69 69 70 70 71 71 72 72 73 73 74 74 75 75 76 76 77 77 78 78 79 79 80 80 81 81 82 82 83 83 84 84 85 85 86 86 87 87 88 88 89 89 90 90 91 91 92 92 93 93 94 94 95 95 96 96 97 97 98 98 99 99 100 100 101 101 102 102 103 103 104 104 105 105 106 106 107 107 108 108 109 109 110 110 111 111 112 112 113 113 114 114 115 115 116 116 117 117 118 118 119 119 120 120 121 121 122 122 123 123 124 124 125 125 126 126 127 
        </DataArray>
        <DataArray type="Int32" Name="offsets" format="ascii">
          2 4 6 8 10 12 14 16 18 20 22 24 26 28 30 32 34 36 38 40 42 44 46 48 50 52 54 56 58 60 62 64 66 68 70 72 74 76 78 80 82 84 86 88 90 92 94 96 98 100 102 104 106 108 110 112 114 116 118 120 122 124 126 128 130 132 134 136 138 140 142 144 146 148 150 152 154 156 158 160 162 164 166 168 170 172 174 176 178 180 182 184 186 188 190 192 194 196 198 200 202 204 206 208 210 212 214 216 218 220 222 224 226 228 230 232 234 236 238 240 242 244 246 248 250 252 254 
        </DataArray>
        <DataArray type="Int32" Name="types" format="ascii">
          3 3 3 3 3 3 3 3 3 3 3 3 3 3 3 3 3 3 3 3 3 3 3 3 3 3 3 3 3 3 3 3 3 3 3 3 3 3 3 3 3 3 3 3 3 3 3 3 3 3 3 3 3 3 3 3 3 3 3 3 3 3 3 3 3 3 3 3 3 3 3 3 3 3 3 3 3 3 3 3 3 3 3 3 3 3 3 3 3 3 3 3 3 3 3 3 3 3 3 3 3 3 3 3 3 3 3 3 3 3 3 3 3 3 3 3 3 3 3 3 3 3 3 3 3 3 3         </DataArray>
      </Cells>
    </Piece>
  </UnstructuredGrid>
</VTKFile>
