<?xml version="1.0"?>
<VTKFile type="UnstructuredGrid" version="0.1" byte_order="LittleEndian">
  <UnstructuredGrid>
    <Piece NumberOfPoints="128" NumberOfCells="127">
      <PointData Scalars="W">
        <DataArray type="Float32" Name="W" NumberOfComponents="2">
          0 0 0.21930719570508284 0.062159906154466885 0.278102711576174 0.078213732334390107 0.30919529897252723 0.08615759698137751 0.3229782767814815 0.089099882787004203 0.32387651462516315 0.088427890484933713 0.31452923373231995 0.084996119594532862 0.29665530270085166 0.079373317487831246 0.27147846709166995 0.071963974834886521 0.23985281137551404 0.063046369111204176 0.20249617115387381 0.052837435931858447 0.15995158210483504 0.041484435476094428 0.11264832062196901 0.029082791595378334 0.06093865128567575 0.015686865325459629 0.0051044839041651966 0.0013125381692332212 -0.054602530757697582 -0.014051901022214874 -0.11786952254544812 -0.03042173763487508 -0.18448315605516588 -0.047856533057262396 -0.25421262700785674 -0.066429445120256836 -0.32679308662146522 -0.086221955371594203 -0.40197982962240297 -0.10733685579954023 -0.47954907377702027 -0.12989765170287051 -0.55926253074247578 -0.15403812002053632 -0.64086596084366243 -0.17990035714367586 -0.72412176057687883 -0.20764236933050639 -0.80870995386629951 -0.23740792084774193 -0.89436280481976982 -0.26936240157838037 -0.98086414010987821 -0.30369313918241264 -1.0678887206252807 -0.34055881139235417 -1.1547918304160105 -0.38001129778478598 -1.2415829357524859 -0.42230817331730791 -1.327896088849583 -0.46758597250894296 -1.4133547268827804 -0.51596813977647848 -1.4975560762642277 -0.56755544005141456 -1.580097474919393 -0.62243132173291116 -1.660541110036821 -0.68064399825330191 -1.7385420663647781 -0.742255319491401 -1.8135946128342744 -0.80723202301091324 -1.8851620400149498 -0.87548572795184809 -1.9528319499764757 -0.94694055448720693 -2.0161598369666813 -1.0214624159515178 -2.0746629480272762 -1.0988466163292643 -10.55773841092326 -6.3999850711163644 -9.9424629618752789 -7.4413349841522196 5.7512071042007271 4.4883765947556737 5.9390013256396177 4.1113779466227314 6.1020508986044977 3.7320235303482083 6.240648381049315 3.3515239293071968 6.3553461822130934 2.9712116506985304 6.4464111624320397 2.5922418105505809 6.514299715810675 2.215859614037615 4.4542887791813843 1.2929870671805457 4.4371101289047843 1.115202722650394 4.3398497916871044 0.92837924011783124 4.3655432380553618 0.77550229334987331 4.3282850754638318 0.61495212078344696 4.2870827062083023 0.46021348262047684 4.2394448593659133 0.31097589402840753 4.1084716502746366 0.16562617511010061 3.8898392277538498 0.034162173652073004 3.7441852231761588 -0.079698710799539732 3.5903733851465076 -0.18033679962213414 3.3397180539437632 -0.25945544592430458 3.1755798728109119 -0.32919071453287324 2.7974451528118967 -0.35711466710424006 2.7274673026783902 -0.40924764293374505 2.6591583134296792 -0.45761413759074743 2.5877534465608951 -0.50150036340610982 2.4072192202466427 -0.51685330470347279 2.3362238551909535 -0.54859558666057118 2.2652515504218345 -0.57671609497583243 2.1944603862986214 -0.60133792858446111 2.0137100197440012 -0.58927033536916862 1.9473792065070794 -0.60446814090549039 1.8791912687667753 -0.61605006082890879 1.8117691046626794 -0.62487048746999696 1.7451888902440484 -0.63106406791847225 1.5684552637708455 -0.59194946778955582 1.5051849323050448 -0.59047967865807671 1.4431003699393927 -0.58704343520376301 1.3822959476950327 -0.58180075048818725 1.3228610366990157 -0.57491323046762344 1.2648843053180079 -0.56654530448094087 1.096767125772363 -0.50475278296748838 1.04298073598483 -0.49179638024573735 0.9908650451650679 -0.47801284570632824 0.9405100636170759 -0.46356941779928856 0.89200610124901136 -0.44863381152548404 0.84544810048922558 -0.43337588093487778 0.80093141630367293 -0.41796506248739684 0.64614096254956166 -0.34249697041762772 0.60672925173571091 -0.32596442150367266 0.56963434871553353 -0.30991088530421196 0.53499014150659696 -0.29450919952684046 0.50294011982892473 -0.27993459394477016 0.47363680712370404 -0.266364285699212 0.44720826265580715 -0.25395836550825351 0.3073730962847071 -0.17594204779214287 0.28776370211854535 -0.16575134187665655 0.27161971606881913 -0.15737380114607982 0.25919007471061806 -0.15101008706711538 0.25074012169408094 -0.14686888466159362 0.24655600085475546 -0.14517094560828719 0.12966628306785355 -0.076647418974356785 0.13516174288838875 -0.080116999896880911 0.14823152045663712 -0.088124211225403287 0.16479108453321417 -0.098289122241161847 0.066550723411212515 -0.039789733041420756 0.096176018990869291 -0.057599799441805384 0.13311635062310656 -0.079913863798835846 0.055389331108796722 -0.033317200833431669 0.10915135612849322 -0.065768021585372843 0.17243982509954411 -0.10420646155890614 0.11976295550381665 -0.072593536371204304 0.20542530803995535 -0.12493841593183 0.17338681866398015 -0.105868103229527 0.28932718385072032 -0.17750973814527379 0.28172393853241651 -0.17387039142645858 0.29119955779658868 -0.18078710544507681 0.30781162031544612 -0.19228759479368576 0.35553007709999879 -0.22362385693246714 1.0281156623117049 -0.6559742281589569 1.2458903524009035 -0.8137449347865966 1.3374320781296807 -0.8970063648731863 1.5573460032020572 -1.0759483808599513 1.8356425969894314 -1.313055470738655 1.4626546214589691 -1.0821710448708122 0 0
        </DataArray>
        <DataArray type="Float32" Name="u" NumberOfComponents="1">
          0 0.007874015748031496 0.015748031496062992 0.023622047244094488 0.031496062992125984 0.03937007874015748 0.047244094488188976 0.055118110236220472 0.062992125984251968 0.070866141732283464 0.07874015748031496 0.086614173228346455 0.094488188976377951 0.10236220472440945 0.11023622047244094 0.11811023622047244 0.12598425196850394 0.13385826771653545 0.14173228346456693 0.14960629921259844 0.15748031496062992 0.16535433070866143 0.17322834645669291 0.18110236220472442 0.1889763779527559 0.19685039370078741 0.20472440944881889 0.2125984251968504 0.22047244094488189 0.2283464566929134 0.23622047244094488 0.24409448818897639 0.25196850393700787 0.25984251968503935 0.26771653543307089 0.27559055118110237 0.28346456692913385 0.29133858267716534 0.29921259842519687 0.30708661417322836 0.31496062992125984 0.32283464566929132 0.33070866141732286 0.33858267716535434 0.34645669291338582 0.3543307086614173 0.36220472440944884 0.37007874015748032 0.37795275590551181 0.38582677165354329 0.39370078740157483 0.40157480314960631 0.40944881889763779 0.41732283464566927 0.42519685039370081 0.43307086614173229 0.44094488188976377 0.44881889763779526 0.45669291338582679 0.46456692913385828 0.47244094488188976 0.48031496062992124 0.48818897637795278 0.49606299212598426 0.50393700787401574 0.51181102362204722 0.51968503937007871 0.52755905511811019 0.53543307086614178 0.54330708661417326 0.55118110236220474 0.55905511811023623 0.56692913385826771 0.57480314960629919 0.58267716535433067 0.59055118110236215 0.59842519685039375 0.60629921259842523 0.61417322834645671 0.62204724409448819 0.62992125984251968 0.63779527559055116 0.64566929133858264 0.65354330708661412 0.66141732283464572 0.6692913385826772 0.67716535433070868 0.68503937007874016 0.69291338582677164 0.70078740157480313 0.70866141732283461 0.71653543307086609 0.72440944881889768 0.73228346456692917 0.74015748031496065 0.74803149606299213 0.75590551181102361 0.76377952755905509 0.77165354330708658 0.77952755905511806 0.78740157480314965 0.79527559055118113 0.80314960629921262 0.8110236220472441 0.81889763779527558 0.82677165354330706 0.83464566929133854 0.84251968503937003 0.85039370078740162 0.8582677165354331 0.86614173228346458 0.87401574803149606 0.88188976377952755 0.88976377952755903 0.89763779527559051 0.90551181102362199 0.91338582677165359 0.92125984251968507 0.92913385826771655 0.93700787401574803 0.94488188976377951 0.952755905511811 0.96062992125984248 0.96850393700787396 0.97637795275590555 0.98425196850393704 0.99212598425196852 1
        </DataArray>
      </PointData>
      <CellData Scalars="P">
        <DataArray type="Float32" Name="P" NumberOfComponents="1">
          0.018837197563560535 0.056632831194741121 0.094539986438974599 0.13247287147129425 0.17032276047098449 0.2079818943256381 0.24535949838406179 0.28239322878137657 0.31905765843507439 0.35537084711420996 0.39139886930594958 0.42725920073870027 0.4631229582320886 0.49921607152862985 0.53581969423366482 0.57326942397059144 0.61195183415679866 0.65230276362633743 0.69480287880588221 0.7399715280027489 0.78836091720963375 0.84054978256949098 0.89713525041319042 0.9587237113880227 1.0259222962780199 1.0993252618170888 1.1795055706778261 1.2670069048251236 1.3623268734561873 1.4658855276107128 1.5780513495769792 1.6991081708661355 1.8292421160358696 1.9685276056552916 2.1169154349499113 2.2742188171719144 2.4401097103703511 2.6140969106602849 2.7955144334984894 2.9835237115076749 3.1771053282642963 3.375051927251528 4.2475262066771871 5.058211455715881 4.6638428394898295 4.2808521344883737 3.9071781346742962 3.5408685850417605 3.1800785616356619 2.8231044234166927 2.4683852856316526 2.2436578862363032 2.0218333092490206 1.8070795562721313 1.591356246749156 1.377919419408373 1.1665140498735191 0.9570939863706448 0.75436653329133008 0.56349102648760307 0.3799413232108329 0.20422308425172492 0.042487287948103525 -0.11046140620524451 -0.24079566263030944 -0.36771823088758748 -0.49112361027326418 -0.61060395360703512 -0.71890336195619864 -0.82284322499092277 -0.92221505884175636 -1.0168317459545035 -1.0994375911533103 -1.1772091076895286 -1.2498596425666988 -1.3172886998660043 -1.379419036813281 -1.4293740386203284 -1.474103088196608 -1.5136038807476793 -1.5479010806210991 -1.577045264313381 -1.6011119183651774 -1.6142093469583356 -1.6226808787972338 -1.6266683863812421 -1.626334775873548 -1.6218616458722996 -1.6134469268287523 -1.6013021063659627 -1.581348608863733 -1.5584402756052065 -1.5328137584085124 -1.5047082481419618 -1.4743615967382864 -1.4420062745901847 -1.4078645479275707 -1.3701160340765115 -1.3313719162914637 -1.2918003486740641 -1.2515427590351542 -1.2107093563157192 -1.1693749801329945 -1.1278260023567721 -1.0861850235160062 -1.044370297762925 -1.0022806361415419 -0.96147751462360742 -0.92035792963862462 -0.8786338515000196 -0.83865782085123208 -0.79762225418330568 -0.75506891818445265 -0.71401275148489862 -0.67060488350079439 -0.62822315316488586 -0.58239063620722287 -0.53690676634221568 -0.49131505424430877 -0.44548003455820678 -0.3986041277141873 -0.33375896450762427 -0.26559985298329719 -0.19892149671065432 -0.13302241741438428 -0.070379707633185004 -0.020490814222187227
        </DataArray>
      </CellData>
      <Points>
        <DataArray type="Float32" NumberOfComponents="3" format="ascii">
          3.9727939493417566 7.448052040262068 0
          3.9706397918372582 7.4556262355508833 0
          3.9684992357214539 7.4632042767544045 0
          3.9663759282495672 7.4707871540454818 0
          3.9642717984272111 7.4783753559901278 0
          3.9621877016430997 7.4859690618104082 0
          3.9601236941234901 7.493568227218943 0
          3.9580791966338675 7.5011726373100638 0
          3.9560531010986737 7.5087819417718675 0
          3.9540438465123118 7.5163956799323035 0
          3.9520494719235861 7.5240132979890779 0
          3.9500676609678385 7.531634162441355 0
          3.9480957755569963 7.53925756920398 0
          3.9461308825127839 7.5468827495089759 0
          3.9441697754218303 7.5545088732615291 0
          3.9422089921255883 7.5621350500101538 0
          3.9402448303312059 7.569760328205855 0
          3.938273367015293 7.5773836942393125 0
          3.9362904716533387 7.5850040687323608 0
          3.934291820529447 7.5926203019859875 0
          3.9322729131541196 7.6002311689117352 0
          3.9302290874304018 7.6078353626413167 0
          3.9281555335202194 7.6154314868515192 0
          3.9260473086077172 7.6230180474517821 0
          3.9238993526493706 7.6305934437554965 0
          3.92170650309063 7.6381559586643997 0
          3.9194635146878904 7.645703749735496 0
          3.9171650760900056 7.6532348389066804 0
          3.9148058232216503 7.6607471008616752 0
          3.9123803594277748 7.6682382531707125 0
          3.9098832954250247 7.675705853052146 0
          3.9073092486933754 7.6831472813802923 0
          3.9046528661434121 7.690559734197147 0
          3.9019088474419776 7.6979402150350564 0
          3.8990719699634733 7.7052855286448709 0
          3.8961371137351213 7.7125922757971503 0
          3.8930992885628091 7.7198568502674085 0
          3.8899536553985206 7.7270754349753359 0
          3.886695557680385 7.7342440040207929 0
          3.88332055459562 7.7413583281371148 0
          3.8798244466379961 7.7484139793692739 0
          3.8762033031583547 7.7554063393612447 0
          3.8724534922891318 7.7623306120218345 0
          3.86804899409915 7.7688580933193085 0
          3.8630279420610836 7.7749242049034848 0
          3.8583634769286372 7.7812686894208376 0
          3.8540672509314544 7.7878681793114088 0
          3.8501493830377864 7.7946991604603824 0
          3.8466184770700744 7.8017380471554461 0
          3.8434816559205141 7.8089612646077944 0
          3.8407445780516496 7.8163453204601518 0
          3.8384114657327864 7.8238668818841743 0
          3.836354592499978 7.8314686463054377 0
          3.834572894535857 7.8391395889415012 0
          3.8330603420559144 7.8468681216375336 0
          3.831818529629333 7.8546447660258059 0
          3.8308451482487387 7.8624595656794511 0
          3.8301376443144535 7.8703029244934779 0
          3.829693065127747 7.8781655873181897 0
          3.8295032896085694 7.8860385370199744 0
          3.8295547595905068 7.893913614306328 0
          3.8298384423190193 7.9017837542930467 0
          3.8303447986495835 7.9096427118401778 0
          3.8310582824441108 7.9174855727991575 0
          3.8319687130060673 7.9253080082547873 0
          3.8330526362027433 7.9331082745216888 0
          3.8343057105957343 7.9408831380749749 0
          3.8357236982663516 7.9486295990385889 0
          3.8373021692793547 7.9563449352766824 0
          3.8390299248360926 7.9640281903477836 0
          3.8409025602564895 7.9716773953564255 0
          3.8429156723063738 7.9792908060176195 0
          3.8450648690027887 7.9868668950282284 0
          3.8473389380284191 7.9944064067347869 0
          3.8497337640291454 8.0019083985448898 0
          3.8522451165063436 8.0093721520493943 0
          3.8548688125074779 8.0167971201274959 0
          3.8576007213558849 8.0241829186008413 0
          3.860429880200162 8.0315319696859504 0
          3.86335236381252 8.0388443647198766 0
          3.8663643206060851 8.0461203170472686 0
          3.8694619784947863 8.0533601521038829 0
          3.8726416504432732 8.0605642974014717 0
          3.875899739973319 8.0677332723379358 0
          3.8792258197640437 8.0748709064348017 0
          3.8826165536211463 8.0819780040218117 0
          3.8860687091267412 8.0890554208305598 0
          3.8895791632274994 8.0961040536335922 0
          3.8931449078409295 8.1031248298544156 0
          3.8967630557484401 8.1101186970454027 0
          3.9004308465134678 8.1170866123920913 0
          3.9041386814964305 8.124033255183754 0
          3.9078841174645511 8.1309596527644725 0
          3.911664855071443 8.1378668029758163 0
          3.9154787471609542 8.1447556634539389 0
          3.9193238076658079 8.1516271407784888 0
          3.9231982210659444 8.1584820794982509 0
          3.9271003503296567 8.1653212522181544 0
          3.9310215270033089 8.1721494990200192 0
          3.9349605376244186 8.1789674560804198 0
          3.9389163838399162 8.1857756474655563 0
          3.9428882978413911 8.1925744727011089 0
          3.946875758818849 8.1993641938424986 0
          3.9508785107059783 8.2061449217944684 0
          3.9548893102863567 8.2129209116641224 0
          3.9589085024049244 8.2196919551559109 0
          3.9629369017807252 8.2264575629760728 0
          3.9669755398009228 8.2332171124142768 0
          3.9710183312816518 8.2399742401950427 0
          3.9750671185304682 8.2467278508970541 0
          3.9791241977612404 8.2534765701542394 0
          3.9831847570763736 8.2602232994018223 0
          3.9872521366689448 8.2669660370154574 0
          3.9913302679369629 8.2737024102886565 0
          3.9954158939129694 8.280434394316071 0
          3.9995143346978153 8.2871587550735306 0
          4.0036236145849173 8.2938766919030709 0
          4.0077509330202172 8.3005837746797937 0
          4.0118958316280544 8.3072802476119492 0
          4.01605891240742 8.3139657015199209 0
          4.0202412216238557 8.3206394447414436 0
          4.0244457363588122 8.3272995560111411 0
          4.0287141806699713 8.3339192046973452 0
          4.0330600831631642 8.3404886138454195 0
          4.0374891499742782 8.347002637065815 0
          4.0420150533458274 8.3534501855137968 0
          4.0466550942999486 8.3598165589221018 0
          4.0513861994351785 8.3661161535656081 0
        </DataArray>
      </Points>
      <Cells>
        <DataArray type="Int32" Name="connectivity" format="ascii">
          0 1 1 2 2 3 3 4 4 5 5 6 6 7 7 8 8 9 9 10 10 11 11 12 12 13 13 14 14 15 15 16 16 17 17 18 18 19 19 20 20 21 21 22 22 23 23 24 24 25 25 26 26 27 27 28 28 29 29 30 30 31 31 32 32 33 33 34 34 35 35 36 36 37 37 38 38 39 39 40 40 41 41 42 42 43 43 44 44 45 45 46 46 47 47 48 48 49 49 50 50 51 51 52 52 53 53 54 54 55 55 56 56 57 57 58 58 59 59 60 60 61 61 62 62 63 63 64 64 65 65 66 66 67 67 68 68 69 69 70 70 71 71 72 72 73 73 74 74 75 75 76 76 77 77 78 78 79 79 80 80 81 81 82 82 83 83 84 84 85 85 86 86 87 87 88 88 89 89 90 90 91 91 92 92 93 93 94 94 95 95 96 96 97 97 98 98 99 99 100 100 101 101 102 102 103 103 104 104 105 105 106 106 107 107 108 108 109 109 110 110 111 111 112 112 113 113 114 114 115 115 116 116 117 117 118 118 119 119 120 120 121 121 122 122 123 123 124 124 125 125 126 126 127 
        </DataArray>
        <DataArray type="Int32" Name="offsets" format="ascii">
          2 4 6 8 10 12 14 16 18 20 22 24 26 28 30 32 34 36 38 40 42 44 46 48 50 52 54 56 58 60 62 64 66 68 70 72 74 76 78 80 82 84 86 88 90 92 94 96 98 100 102 104 106 108 110 112 114 116 118 120 122 124 126 128 130 132 134 136 138 140 142 144 146 148 150 152 154 156 158 160 162 164 166 168 170 172 174 176 178 180 182 184 186 188 190 192 194 196 198 200 202 204 206 208 210 212 214 216 218 220 222 224 226 228 230 232 234 236 238 240 242 244 246 248 250 252 254 
        </DataArray>
        <DataArray type="Int32" Name="types" format="ascii">
          3 3 3 3 3 3 3 3 3 3 3 3 3 3 3 3 3 3 3 3 3 3 3 3 3 3 3 3 3 3 3 3 3 3 3 3 3 3 3 3 3 3 3 3 3 3 3 3 3 3 3 3 3 3 3 3 3 3 3 3 3 3 3 3 3 3 3 3 3 3 3 3 3 3 3 3 3 3 3 3 3 3 3 3 3 3 3 3 3 3 3 3 3 3 3 3 3 3 3 3 3 3 3 3 3 3 3 3 3 3 3 3 3 3 3 3 3 3 3 3 3 3 3 3 3 3 3         </DataArray>
      </Cells>
    </Piece>
  </UnstructuredGrid>
</VTKFile>
