<?xml version="1.0"?>
<VTKFile type="UnstructuredGrid" version="0.1" byte_order="LittleEndian">
  <UnstructuredGrid>
    <Piece NumberOfPoints="128" NumberOfCells="127">
      <PointData Scalars="W">
        <DataArray type="Float32" Name="W" NumberOfComponents="2">
          0 0 0.29242442074245734 -0.18900409035765681 0.429935165515202 -0.27995338537404024 0.54043897674273411 -0.35543304609933363 0.6364259074843911 -0.4236458422883409 0.72301873782732029 -0.48804060841496044 0.80308621571196948 -0.55062467981084462 0.87844800424074432 -0.61274953706453528 0.95031644250929337 -0.67539903582517891 1.0194306663768267 -0.73926960046357504 1.0863236059386234 -0.80494929394102388 1.1513437959716646 -0.8729298858854142 1.2146945244221758 -0.94363075165950494 1.2764221147785242 -1.0173831668215596 1.3364546147199365 -1.0944513014656296 1.3946697306012639 -1.175080730018756 1.4509514575057891 -1.2595463669747751 1.5050829243913124 -1.3480619287420714 1.5568003995283051 -1.4408197023247535 1.6058471132404897 -1.5380395213775246 1.6519000867373175 -1.639902140255479 1.6945825661871428 -1.7465547284418643 1.7335048754568838 -1.8581490617892042 1.7682560623053529 -1.9748352953070221 1.7983451400918733 -2.0966942122412924 1.8233178461039206 -2.2238666870236869 1.842637590805192 -2.3564197085796206 1.8556851108290848 -2.4943278348208211 1.8618523386092827 -2.6375853137641805 1.860701179978502 -2.7864652863376613 1.8513443944038874 -2.9406199079730913 1.8330723917750487 -3.0999380664945342 1.8051291208166014 -3.2642409708336273 1.7667332859259053 -3.4333101860872599 1.717056884050256 -3.6068408965512928 1.6552470036279976 -3.7844709381354482 1.5803837748814089 -3.9656650583191837 1.4915826133307821 -4.1499338131652648 1.3879225829132154 -4.3366774294029993 1.2684190905622588 -4.5250406229863955 1.1321054642162374 -4.7140815620303709 0.9780334868498215 -4.9027571255798268 -0.26511107476260665 1.432896151466172 -0.22789546610465153 1.1638824103449765 -0.18191734791371994 0.89006672468541548 -0.15558706240505707 0.73663778334267649 -0.12619873639563337 0.58218497674556036 -0.066731267902434138 0.30262950658852927 -0.033241252182190914 0.14945403812526895 0.00081478347357175898 -0.0036531582550277325 0.034544913869115033 -0.15535440586228158 0.067301686213233472 -0.30534409240440746 0.098469928314031743 -0.4533448975010399 0.12747177780949179 -0.59910017667657545 0.12820710127464141 -0.61738985416076642 0.15350474177961482 -0.76034156296653088 0.15177328611099292 -0.77643406172713036 0.14977485188160999 -0.79267189430731122 0.18883080105355382 -1.0412347924380803 0.20109745792966804 -1.1675214391325006 0.22843544143680239 -1.4131284695750936 0.24720768518464753 -1.6578014225250122 0.23956211183408999 -1.7719249621325253 0.24114133909590643 -2.010561775097877 0.23147869630280046 -2.2508345561282455 0.1985119368532122 -2.3497200928138837 0.16774101179789355 -2.5852214762561569 0.11785437860139507 -2.673636638934568 0.062437608815444898 -2.7549405778608853 0.0019064104083545599 -2.827109235254742 -0.06325366083365988 -2.8935347713497159 -0.13260635691666264 -2.9519621302869408 -0.20546843652548166 -3.0004895999008143 -0.28145613909650086 -3.0424414730405163 -0.35990665476764877 -3.0759960619644238 -0.44015381761278949 -3.1008488581283045 -0.52153662768850262 -3.1170344936950847 -0.6030027683443907 -3.1227587113041788 -0.68450406609527981 -3.1216486801287355 -0.76509394128907016 -3.1121021532078581 -0.84403596296873373 -3.0940647732213313 -0.92007815893682976 -3.0659396010245459 -0.94812340596167766 -2.898304941056971 -1.0115955789110433 -2.858779827584951 -1.071040902054422 -2.8121902304456117 -1.1259629115603704 -2.7589743426405344 -1.1757704099392388 -2.6992784913228935 -1.219153949887779 -2.6317496810494911 -1.1959726143668161 -2.4388094651852019 -1.2226423953389889 -2.3651410531736041 -1.2429095433431794 -2.2868532831038677 -1.2565560909504829 -2.204429868076315 -1.263231129018447 -2.1180400260896124 -1.1920736771651856 -1.9167853217675783 -1.1793738764494812 -1.8246180562529355 -1.1606495633829823 -1.7312983655830236 -1.134779216230378 -1.6353619804205699 -1.101798933841724 -1.537135942641922 -1.0615414231817346 -1.4365817067390592 -1.0140965363708696 -1.3339457951906575 -0.95959220818976709 -1.2294275768533636 -0.81777214956393385 -1.0236691475768529 -0.74728801404416323 -0.91683882193072574 -0.66874797939547692 -0.80592584044937188 -0.66771465931147922 -0.79138514652276437 -0.57913427414922991 -0.67593454754279303 -0.48394366475382156 -0.55755848123146678 -0.38250215159230755 -0.43609301384243065 -0.27480029498465197 -0.31083679088191268 -0.15971930520167268 -0.17972780202514227 -0.12804346333350389 -0.14359029130856632 -0.0030731962271498066 -0.0034409621095486957 0.036893746905375613 0.041325408189373622 0.17522716891412587 0.19677211090708269 0.31749729628791173 0.35864045746796835 0.37234968192131229 0.42409856339820518 0.43261292877100793 0.497552084320109 0.59330584686990928 0.69094719386227577 0.66422144443044928 0.78559324649898743 0.73864564898891849 0.88901631182502194 0.82050368461330458 1.0071900066713884 1.309144124421195 1.6517768476079282 1.4381689082378257 1.8817808963821556 1.5037815311734832 2.0485464277535899 1.6020127495802228 2.2812189422370426 1.8012776387622336 2.699108428943811 1.493267483898256 2.35705075571614 0 0
        </DataArray>
        <DataArray type="Float32" Name="u" NumberOfComponents="1">
          0 0.007874015748031496 0.015748031496062992 0.023622047244094488 0.031496062992125984 0.03937007874015748 0.047244094488188976 0.055118110236220472 0.062992125984251968 0.070866141732283464 0.07874015748031496 0.086614173228346455 0.094488188976377951 0.10236220472440945 0.11023622047244094 0.11811023622047244 0.12598425196850394 0.13385826771653545 0.14173228346456693 0.14960629921259844 0.15748031496062992 0.16535433070866143 0.17322834645669291 0.18110236220472442 0.1889763779527559 0.19685039370078741 0.20472440944881889 0.2125984251968504 0.22047244094488189 0.2283464566929134 0.23622047244094488 0.24409448818897639 0.25196850393700787 0.25984251968503935 0.26771653543307089 0.27559055118110237 0.28346456692913385 0.29133858267716534 0.29921259842519687 0.30708661417322836 0.31496062992125984 0.32283464566929132 0.33070866141732286 0.33858267716535434 0.34645669291338582 0.3543307086614173 0.36220472440944884 0.37007874015748032 0.37795275590551181 0.38582677165354329 0.39370078740157483 0.40157480314960631 0.40944881889763779 0.41732283464566927 0.42519685039370081 0.43307086614173229 0.44094488188976377 0.44881889763779526 0.45669291338582679 0.46456692913385828 0.47244094488188976 0.48031496062992124 0.48818897637795278 0.49606299212598426 0.50393700787401574 0.51181102362204722 0.51968503937007871 0.52755905511811019 0.53543307086614178 0.54330708661417326 0.55118110236220474 0.55905511811023623 0.56692913385826771 0.57480314960629919 0.58267716535433067 0.59055118110236215 0.59842519685039375 0.60629921259842523 0.61417322834645671 0.62204724409448819 0.62992125984251968 0.63779527559055116 0.64566929133858264 0.65354330708661412 0.66141732283464572 0.6692913385826772 0.67716535433070868 0.68503937007874016 0.69291338582677164 0.70078740157480313 0.70866141732283461 0.71653543307086609 0.72440944881889768 0.73228346456692917 0.74015748031496065 0.74803149606299213 0.75590551181102361 0.76377952755905509 0.77165354330708658 0.77952755905511806 0.78740157480314965 0.79527559055118113 0.80314960629921262 0.8110236220472441 0.81889763779527558 0.82677165354330706 0.83464566929133854 0.84251968503937003 0.85039370078740162 0.8582677165354331 0.86614173228346458 0.87401574803149606 0.88188976377952755 0.88976377952755903 0.89763779527559051 0.90551181102362199 0.91338582677165359 0.92125984251968507 0.92913385826771655 0.93700787401574803 0.94488188976377951 0.952755905511811 0.96062992125984248 0.96850393700787396 0.97637795275590555 0.98425196850393704 0.99212598425196852 1
        </DataArray>
      </PointData>
      <CellData Scalars="P">
        <DataArray type="Float32" Name="P" NumberOfComponents="1">
          -0.033197571178619295 -0.09925382428601659 -0.1646226689035665 -0.2290080457527231 -0.2921111890437213 -0.35361646472625408 -0.41318336122858584 -0.47044107874588348 -0.52498457481371008 -0.57637274306109088 -0.62412553732396858 -0.66772183880745672 -0.7065976698733073 -0.74014578854309732 -0.76771571686718909 -0.78861278345489394 -0.80209530424086783 -0.80737543642204856 -0.80361895148447959 -0.78994265752347625 -0.76541506332906217 -0.72905723345684281 -0.67984164078843068 -0.61669122163537071 -0.53848304433947458 -0.4440434012383716 -0.33215203654108527 -0.20154877981737193 -0.050932054045005781 0.1210654969847401 0.3158253849501676 0.53476213192253907 0.77931674043149457 1.0509522498092088 1.3511442710046357 1.6813736551282423 2.0431061809798599 2.437794430545007 2.8668627928989845 3.3316742671673367 3.8335143496402422 4.373572134699236 4.1353362019466937 3.9262422482399089 3.7505807804985598 3.5935885022214404 3.4569251626310957 3.3607304162990106 3.2868294548808028 3.235601152225124 3.2069240824141279 3.2003550192706265 3.2151574385966053 3.250330335981289 3.2861562287838688 3.3404017335339078 3.3938797452471676 3.4462259809458113 3.528288059316635 3.6216204070154565 3.739573860087988 3.8790461316734732 4.0219602480616059 4.1800999128039713 4.3502924413327149 4.5155447728182567 4.686534107652423 4.8476493278506263 4.9970167907656906 5.132798595797988 5.2535927729649696 5.3580252157050188 5.4448317877111148 5.5131338174531788 5.5621605381240791 5.5913429481459707 5.6003276450888579 5.588943522262853 5.5572979879620901 5.5056588937263422 5.4344883402968387 5.3444529693409146 5.2383840096700762 5.1160988038638662 4.978606796436936 4.8270398473991971 4.6626466283661863 4.4868461350342788 4.3067628727050735 4.1186510200692519 3.9239099947032829 3.7239606182898681 3.5202481837621482 3.3218491264352794 3.1229740983026613 2.9247943294896261 2.7285590200189223 2.5354605936960368 2.3466507049004703 2.163205345279148 1.9861153184081193 1.824965226517735 1.6719052951494995 1.5277631317209035 1.3843832124891671 1.2509250611142944 1.1278355119708563 1.015430172852241 0.91392899378412396 0.82355645184033366 0.73623644995950943 0.65999936497046796 0.58697508818981381 0.52486324041921928 0.4730009886656833 0.42392745043616914 0.37753500335046636 0.33970725635835824 0.30353051525552355 0.26835125051135145 0.23355295929080883 0.21554811973539725 0.19504588327913061 0.16806154923169173 0.13393434190689865 0.092257634454167875 0.034665566492287789
        </DataArray>
      </CellData>
      <Points>
        <DataArray type="Float32" NumberOfComponents="3" format="ascii">
          4.3531117707460822 9.9279076591873512 0
          4.3573768958132222 9.9345264842371304 0
          4.3616601508824164 9.9411335904660003 0
          4.3659700619500699 9.9477233394942814 0
          4.3703134810971367 9.9542910528244484 0
          4.37469636082389 9.9608325031324654 0
          4.3791240716322282 9.9673437003255074 0
          4.383601579867527 9.9738207669830832 0
          4.3881335605236247 9.9802598544682599 0
          4.3927244723984833 9.9866570818372491 0
          4.3973786039148139 9.993008492574365 0
          4.4021001061587377 9.999310018049222 0
          4.4068930144880021 10.005557446947289 0
          4.4117612611362924 10.011746399191495 0
          4.4167086780863931 10.017872305328241 0
          4.4217389926101811 10.023930390075833 0
          4.4268558196868799 10.029915657027265 0
          4.4320626548104141 10.035822871534791 0
          4.437362860541171 10.041646547389657 0
          4.442759650150113 10.047380934831082 0
          4.4482560716920725 10.053020006847232 0
          4.4538549879706588 10.058557447899373 0
          4.4595590531650302 10.063986644728359 0
          4.4653706886512872 10.069300676875159 0
          4.4712920574999959 10.074492307301272 0
          4.4773250340054487 10.079553977310564 0
          4.4834711754867715 10.084477797743704 0
          4.4897316889775327 10.089255544753827 0
          4.4961073927812221 10.093878661314033 0
          4.5025986787136656 10.098338257503256 0
          4.5092054848806402 10.102625093492682 0
          4.5159272405892414 10.106729601047171 0
          4.5227628222682617 10.110641890343885 0
          4.5297105064969223 10.114351760988576 0
          4.536767921457189 10.117848715490858 0
          4.5439319954773882 10.121121978098062 0
          4.551198904018408 10.124160517187264 0
          4.5585640124926359 10.12695307839668 0
          4.5660218212577126 10.12948821491698 0
          4.5735659083397318 10.131754324629464 0
          4.581188868190214 10.133739703101002 0
          4.5888822515367957 10.135432601954486 0
          4.5966365063597463 10.136821293530769 0
          4.6043742703956081 10.138298898604587 0
          4.6120978457294948 10.139848720398746 0
          4.6198100783350862 10.14145376439912 0
          4.627512602784102 10.143104508657643 0
          4.6352072434473799 10.14479136805318 0
          4.642897683533624 10.146496993196756 0
          4.6505860020755776 10.148211879100746 0
          4.6582743131213507 10.149926525375955 0
          4.665964710424551 10.151631519231776 0
          4.6736592272495354 10.153317554420058 0
          4.6813597981854045 10.154975448423606 0
          4.6890682232800378 10.156596158362428 0
          4.6967845558019548 10.158178551817377 0
          4.7045103654752474 10.159713760081914 0
          4.7122455518808692 10.161200786927166 0
          4.7199899976008677 10.162638626868064 0
          4.7277461189656336 10.164011857687141 0
          4.7355146767400678 10.165312645204198 0
          4.7432973598195005 10.166525751528068 0
          4.7510953254770953 10.167635997485942 0
          4.7589080988208732 10.168636304954191 0
          4.7667357702734634 10.169511870617692 0
          4.7745777325896537 10.170247790702826 0
          4.7824319400070117 10.170837934349398 0
          4.7902964757359054 10.171267695559006 0
          4.798168244511066 10.171531594275091 0
          4.8060438081099841 10.171624591868291 0
          4.8139194112586399 10.171542216668298 0
          4.8217910116078855 10.171280353510024 0
          4.8296543069289619 10.170835383597829 0
          4.8375047776048445 10.170204302426058 0
          4.8453377103062252 10.169384513548236 0
          4.8531482392154839 10.168373941535938 0
          4.8609313873855484 10.167171050821741 0
          4.8686821077618685 10.165774843503472 0
          4.8763953485454987 10.16418497056088 0
          4.8840660560550901 10.162401506859064 0
          4.8916892335241426 10.160425050459095 0
          4.8992599867944531 10.158256725926476 0
          4.9067736020294959 10.155898283283657 0
          4.9142283467379952 10.153360122587635 0
          4.9216202868371566 10.150644699969776 0
          4.9289457383479736 10.147754909409462 0
          4.9362012981719072 10.144694055500279 0
          4.9433838807467803 10.141465844312414 0
          4.9504907992743252 10.138074467208483 0
          4.9575234978803131 10.134531890178369 0
          4.9644803262227262 10.130842684164287 0
          4.9713600312657924 10.127011706054128 0
          4.9781617707700985 10.123044068642685 0
          4.9848851350307717 10.11894513009401 0
          4.9915345424177175 10.114727368865786 0
          4.9981107845138126 10.110396500112348 0
          5.0046150266104803 10.105958309861263 0
          5.0110488772612714 10.101418745763619 0
          5.0174143860270375 10.096783896800753 0
          5.0237140538388756 10.092059995661756 0
          5.0299508274177258 10.087253403455719 0
          5.0361280913392044 10.082370597354377 0
          5.0422546441827842 10.077424330625025 0
          5.0483348612173682 10.072421222857567 0
          5.0543736173939431 10.067368146234825 0
          5.0603709828258516 10.062265997026946 0
          5.0663324558661049 10.057121927393029 0
          5.0722639450100626 10.051943270429957 0
          5.0781717466728615 10.046737550407046 0
          5.0840625458371189 10.041512526338293 0
          5.0899434854726602 10.036276319955567 0
          5.0958165393966901 10.031031162729956 0
          5.101689465313676 10.025785736285295 0
          5.1075647531813813 10.020542805956698 0
          5.1134509911574089 10.015312001793394 0
          5.1193570125005285 10.010103352576557 0
          5.1252862337971266 10.004920906351909 0
          5.1312424088260489 9.9997692066817478 0
          5.1372355175005024 9.9946602390323971 0
          5.1432699775952404 9.9895998623233417 0
          5.1493504266853307 9.984594480238334 0
          5.1554819656151514 9.9796514122586188 0
          5.1616949061646782 9.9748106535134298 0
          5.1679972752660204 9.9700864712018067 0
          5.1743931729927235 9.965489209052409 0
          5.1808887239632151 9.9610333044097086 0
          5.1874963162950349 9.956744697274349 0
          5.1941969162571811 9.9526021417128288 0
        </DataArray>
      </Points>
      <Cells>
        <DataArray type="Int32" Name="connectivity" format="ascii">
          0 1 1 2 2 3 3 4 4 5 5 6 6 7 7 8 8 9 9 10 10 11 11 12 12 13 13 14 14 15 15 16 16 17 17 18 18 19 19 20 20 21 21 22 22 23 23 24 24 25 25 26 26 27 27 28 28 29 29 30 30 31 31 32 32 33 33 34 34 35 35 36 36 37 37 38 38 39 39 40 40 41 41 42 42 43 43 44 44 45 45 46 46 47 47 48 48 49 49 50 50 51 51 52 52 53 53 54 54 55 55 56 56 57 57 58 58 59 59 60 60 61 61 62 62 63 63 64 64 65 65 66 66 67 67 68 68 69 69 70 70 71 71 72 72 73 73 74 74 75 75 76 76 77 77 78 78 79 79 80 80 81 81 82 82 83 83 84 84 85 85 86 86 87 87 88 88 89 89 90 90 91 91 92 92 93 93 94 94 95 95 96 96 97 97 98 98 99 99 100 100 101 101 102 102 103 103 104 104 105 105 106 106 107 107 108 108 109 109 110 110 111 111 112 112 113 113 114 114 115 115 116 116 117 117 118 118 119 119 120 120 121 121 122 122 123 123 124 124 125 125 126 126 127 
        </DataArray>
        <DataArray type="Int32" Name="offsets" format="ascii">
          2 4 6 8 10 12 14 16 18 20 22 24 26 28 30 32 34 36 38 40 42 44 46 48 50 52 54 56 58 60 62 64 66 68 70 72 74 76 78 80 82 84 86 88 90 92 94 96 98 100 102 104 106 108 110 112 114 116 118 120 122 124 126 128 130 132 134 136 138 140 142 144 146 148 150 152 154 156 158 160 162 164 166 168 170 172 174 176 178 180 182 184 186 188 190 192 194 196 198 200 202 204 206 208 210 212 214 216 218 220 222 224 226 228 230 232 234 236 238 240 242 244 246 248 250 252 254 
        </DataArray>
        <DataArray type="Int32" Name="types" format="ascii">
          3 3 3 3 3 3 3 3 3 3 3 3 3 3 3 3 3 3 3 3 3 3 3 3 3 3 3 3 3 3 3 3 3 3 3 3 3 3 3 3 3 3 3 3 3 3 3 3 3 3 3 3 3 3 3 3 3 3 3 3 3 3 3 3 3 3 3 3 3 3 3 3 3 3 3 3 3 3 3 3 3 3 3 3 3 3 3 3 3 3 3 3 3 3 3 3 3 3 3 3 3 3 3 3 3 3 3 3 3 3 3 3 3 3 3 3 3 3 3 3 3 3 3 3 3 3 3         </DataArray>
      </Cells>
    </Piece>
  </UnstructuredGrid>
</VTKFile>
