<?xml version="1.0"?>
<VTKFile type="UnstructuredGrid" version="0.1" byte_order="LittleEndian">
  <UnstructuredGrid>
    <Piece NumberOfPoints="128" NumberOfCells="127">
      <PointData Scalars="W">
        <DataArray type="Float32" Name="W" NumberOfComponents="2">
          0 0 -0.26726659544520376 0.62525196304064179 -0.43819919394450535 1.0056107429047352 -0.57622458255746911 1.2874984298605743 -0.70038842183447303 1.5153675084958607 -0.81835805934328143 1.7073036662778545 -0.93395842693556519 1.8725013079373793 -1.04933953337548 2.0162955259962514 -1.1657847549666485 2.1420423931338033 -1.2841336708854614 2.2520694265986818 -1.4048859349290628 2.3479485326927123 -1.5283394942388038 2.4308062909853745 -1.6546549597041282 2.5014699699375385 -1.7839255635674724 2.5605988573230434 -1.9161977349012547 2.6087212596296432 -2.0514554937790974 2.6462217546478617 -2.1895814310878507 2.6733120263139227 -2.3304662363176796 2.6901874844804876 -2.4739655632744881 2.6969719387978772 -2.6198698900923474 2.6936963306045865 -2.7679638845464241 2.6803739863184908 -2.9180179215034068 2.6569908252287648 -3.0697665721503617 2.6234888272915584 -3.2228842287195634 2.5797554932449498 -3.3770676889635567 2.5256987031970395 -3.531906426688999 2.4611483936370457 -3.6870010834784206 2.3859584946592469 -3.8419969310049562 2.3000177916821944 -3.9964459198701658 2.2031600173947243 -4.149524817274183 2.0950500569848107 -4.3009788134893912 1.975693075659277 -4.4502227061575752 1.8449215263494849 -4.5966464548673738 1.702586485932478 -4.739562520782358 1.5485426349295159 -4.8782688610439093 1.3826794583322672 -5.0119977706403747 1.2049082888747644 -5.1400284024264922 1.0151937700752371 -5.2614528170028096 0.81350555865072183 -5.3752991901651139 0.59987290111382541 -5.4807211392249942 0.37440596883827548 -5.5767764680677896 0.13725911959873566 -5.6624553813526024 -0.11134805786226329 2.3781597736157551 0.0775431903321432 2.2368415966582189 0.032251078509271988 2.08968984545161 -0.0054741331828891899 2.0046902333558219 -0.037577346572864212 1.8521972928403558 -0.062877273057813807 1.7653273646111234 -0.085137549085841271 1.6794141346773235 -0.10387665098204604 1.5926872787620496 -0.11917587963567301 1.5078241002528192 -0.13141454246957102 1.4910549680366438 -0.1477885361141065 1.4719936177617761 -0.16335732557618871 1.3909309023329917 -0.17036140124561666 1.3118188711099901 -0.17497528373119928 1.2235274331009416 -0.17576514886482969 1.1467212696667339 -0.17578857556385921 1.0724602015340978 -0.17412711368703329 1.0647380295602182 -0.1822087808184556 0.99668808474637671 -0.17902848851513736 0.93156585061620645 -0.17476371122803905 0.8694825868256788 -0.16962370662803075 0.81143643012670086 -0.16399040869922779 0.75564597056816718 -0.15767529235794656 0.64249505082671199 -0.13784153150917952 0.59340349391381531 -0.13040329822597865 0.54764192248119614 -0.12299148560370163 0.5052265689152492 -0.11572356662650282 0.46619875023848895 -0.10871184081587637 0.4305610341127985 -0.10204941382485802 0.39832087771747038 -0.095820588187588041 0.36947990874734121 -0.09009914145969046 0.34402418396588136 -0.084946629240612248 0.32196796786744153 -0.080423995332342568 0.30328814691806533 -0.076576301993050142 0.34899732281034201 -0.089101593545504135 0.33693574791867109 -0.087023562902399279 0.32724215152771258 -0.085463637411225785 0.32179407430353396 -0.084949566607216281 0.3196013257013528 -0.085264519237218492 0.32065600829593399 -0.086442937367188305 0.32491265272470993 -0.088508893778061912 0.33233443758818981 -0.091489151396966617 0.3428813324632014 -0.095410879306255719 0.41513228488703036 -0.11690300622778524 0.43077294648390863 -0.12291852761494973 0.45030694118994036 -0.13025189402707424 0.47277123313998815 -0.1386912310095654 0.49811572890035005 -0.14828516227940855 0.52628806580101828 -0.15908744335086375 0.61263119125702581 -0.1883264285195789 0.64611852630239996 -0.20229614379323596 0.68224663978464739 -0.2177239358708026 0.72096011183208897 -0.23469834239840778 0.76220263089162998 -0.25331694880353456 0.85895568517933174 -0.29191049503889921 0.90482196214341526 -0.31492895368287921 0.95302093758515105 -0.34001459503608605 1.0035033023071895 -0.36731913396922683 1.0562235912480498 -0.39701034305883076 1.1103412099652568 -0.4289607229311736 1.1674280207628516 -0.46398775400942449 1.2775190062209167 -0.52316439062749298 1.3383922300114333 -0.56560882391419898 1.401333597873909 -0.61169676754965496 1.4162989175741378 -0.63880465758137128 1.4840737108327193 -0.69194211405539696 1.5541387207354882 -0.74981802321977498 1.6273671790195712 -0.81333943310168444 1.7024092583388863 -0.88238148887998136 1.7303144719666976 -0.93066844770002199 1.8122404469101077 -1.0122263148381061 1.8986292769394166 -1.1027708292539604 1.9384420832299183 -1.1718985261949622 2.0354663528916741 -1.2822478774732478 2.0875531018869151 -1.372058160299825 -4.1136963301604927 2.6485548030756156 -4.7676447481803592 2.7998397784853033 -5.1836955841304535 2.7392923434875254 -5.8542199235001195 2.7389631402039329 -6.3261017735537015 2.5655138080138693 -6.7261122835890275 2.306824634975861 -7.1385206466161204 2.0002543529099657 -6.5562205937127622 1.4493526965715182 -5.8311987320007095 0.98799792255823293 -4.6919884523061821 0.59400792311960748 -0.55047783571024411 0.058085955136148122 0 0
        </DataArray>
        <DataArray type="Float32" Name="u" NumberOfComponents="1">
          0 0.007874015748031496 0.015748031496062992 0.023622047244094488 0.031496062992125984 0.03937007874015748 0.047244094488188976 0.055118110236220472 0.062992125984251968 0.070866141732283464 0.07874015748031496 0.086614173228346455 0.094488188976377951 0.10236220472440945 0.11023622047244094 0.11811023622047244 0.12598425196850394 0.13385826771653545 0.14173228346456693 0.14960629921259844 0.15748031496062992 0.16535433070866143 0.17322834645669291 0.18110236220472442 0.1889763779527559 0.19685039370078741 0.20472440944881889 0.2125984251968504 0.22047244094488189 0.2283464566929134 0.23622047244094488 0.24409448818897639 0.25196850393700787 0.25984251968503935 0.26771653543307089 0.27559055118110237 0.28346456692913385 0.29133858267716534 0.29921259842519687 0.30708661417322836 0.31496062992125984 0.32283464566929132 0.33070866141732286 0.33858267716535434 0.34645669291338582 0.3543307086614173 0.36220472440944884 0.37007874015748032 0.37795275590551181 0.38582677165354329 0.39370078740157483 0.40157480314960631 0.40944881889763779 0.41732283464566927 0.42519685039370081 0.43307086614173229 0.44094488188976377 0.44881889763779526 0.45669291338582679 0.46456692913385828 0.47244094488188976 0.48031496062992124 0.48818897637795278 0.49606299212598426 0.50393700787401574 0.51181102362204722 0.51968503937007871 0.52755905511811019 0.53543307086614178 0.54330708661417326 0.55118110236220474 0.55905511811023623 0.56692913385826771 0.57480314960629919 0.58267716535433067 0.59055118110236215 0.59842519685039375 0.60629921259842523 0.61417322834645671 0.62204724409448819 0.62992125984251968 0.63779527559055116 0.64566929133858264 0.65354330708661412 0.66141732283464572 0.6692913385826772 0.67716535433070868 0.68503937007874016 0.69291338582677164 0.70078740157480313 0.70866141732283461 0.71653543307086609 0.72440944881889768 0.73228346456692917 0.74015748031496065 0.74803149606299213 0.75590551181102361 0.76377952755905509 0.77165354330708658 0.77952755905511806 0.78740157480314965 0.79527559055118113 0.80314960629921262 0.8110236220472441 0.81889763779527558 0.82677165354330706 0.83464566929133854 0.84251968503937003 0.85039370078740162 0.8582677165354331 0.86614173228346458 0.87401574803149606 0.88188976377952755 0.88976377952755903 0.89763779527559051 0.90551181102362199 0.91338582677165359 0.92125984251968507 0.92913385826771655 0.93700787401574803 0.94488188976377951 0.952755905511811 0.96062992125984248 0.96850393700787396 0.97637795275590555 0.98425196850393704 0.99212598425196852 1
        </DataArray>
      </PointData>
      <CellData Scalars="P">
        <DataArray type="Float32" Name="P" NumberOfComponents="1">
          -0.01865733688592755 -0.053933617189448231 -0.084957055199328821 -0.11062464840606906 -0.13025483682001729 -0.14339388380094034 -0.14972874635649822 -0.1490382912935044 -0.14116286190817337 -0.1259816362038223 -0.10339904333304728 -0.073334000667808097 -0.035711777465752936 0.0095435609507745003 0.06251510331220532 0.12329642094806864 0.19199157854157822 0.26871913655136664 0.3536132992452804 0.44682293515290555 0.5485129253207105 0.65886468099858508 0.77807525637500852 0.90635495770119401 1.0439288265196554 1.1910313748792609 1.3479071081736114 1.5148126114547316 1.6920113834856219 1.8797536334479803 2.0783054730101203 2.2879305234364127 2.508887552081537 2.7414250177656667 2.9857788204782048 3.2421669540158908 3.5107902979819832 3.7918197062468035 4.0853896261610343 4.391602683253959 4.7105208629369377 5.0421578585687836 4.8596830557241715 4.6798563117356222 4.5050507871650591 4.332185452814767 4.1677761226619534 4.0078286828114145 3.8531438259838353 3.7045308595568511 3.5624550230268892 3.4218679441832118 3.2833939541896067 3.1524031435591402 3.0289866913382055 2.9140110144518099 2.8066437340545987 2.706687633790656 2.6093107661537442 2.5188572538194944 2.434982462367397 2.3573041428586765 2.2853579667571604 2.2187772994978134 2.1604090192909484 2.1063211749103856 2.056075697582914 2.0092493115121446 1.965437449469841 1.9242603180149831 1.8853662010276069 1.8484345364979888 1.8131785166632628 1.7793458674030356 1.7467207413304278 1.7142627272409159 1.6829124125322188 1.6525654117490847 1.6231340483787187 1.5945726999886787 1.566865741965108 1.5400253682977261 1.5140889808899185 1.4891163655092627 1.4660429386118705 1.4442472233280337 1.4238439849286126 1.4049445482620293 1.3876669908463004 1.3721330454941665 1.3600208310744495 1.3499899296359177 1.3421495634551688 1.3366025260179086 1.3334431371115101 1.3346258431757789 1.3384021863510325 1.3448282665696227 1.3539484027948767 1.3657951544224585 1.3803585852951521 1.397680748312953 1.4197847998834856 1.4446456517459656 1.4722566717716261 1.5006041879394676 1.5317147010658956 1.5656004231282545 1.6023211280235337 1.641901394507622 1.6824420796921089 1.726098501373625 1.7730928572413005 1.8216745688766645 1.8742645627645773 1.9293037206012156 1.7362193416126508 1.5200738370220148 1.2941209958367679 1.0537273090280426 0.81251168994563827 0.57972749948117819 0.37957788153829547 0.22247122472208486 0.10818885907453127 0.036067292581545042 0.011823222902601129
        </DataArray>
      </CellData>
      <Points>
        <DataArray type="Float32" NumberOfComponents="3" format="ascii">
          4.334819430962586 9.4224257146226265 0
          4.342068955295078 9.4255016238585174 0
          4.3493019000984727 9.4286163072791815 0
          4.3565076630692801 9.4317933526617921 0
          4.3636776836398941 9.4350502411920107 0
          4.3708042614107292 9.4384011041196008 0
          4.3778800804651716 9.4418578443274743 0
          4.3848979720579875 9.445430706522238 0
          4.3918507812129528 9.4491286080947585 0
          4.3987312870853863 9.4529593472535876 0
          4.4055321508589245 9.456929747372854 0
          4.4122458847305941 9.4610457544803204 0
          4.418864833409943 9.465312507127555 0
          4.4253811641386989 9.4697343876971143 0
          4.4317868608916076 9.4743150632911313 0
          4.4380737214817829 9.479057518495674 0
          4.4442333585379847 9.4839640792303328 0
          4.450257206773383 9.4890364258742714 0
          4.4561365297532438 9.4942756053816311 0
          4.4618624288364348 9.4996820389551608 0
          4.467425856159883 9.5052555239591872 0
          4.4728176279844316 9.5109952347387647 0
          4.478028438928189 9.5168997217377989 0
          4.4830488784215001 9.5229669078909218 0
          4.4878694508952952 9.5291940816355769 0
          4.4924805945814432 9.5355778911867457 0
          4.4968727069704979 9.5421143339768815 0
          4.501036169578728 9.5487987475828664 0
          4.5049613699493625 9.5556258028137435 0
          4.5086387294434402 9.5625894933837543 0
          4.5120587543004405 9.5696831151137882 0
          4.5152120514502441 9.5768992662355554 0
          4.5180893648174267 9.5842298369851111 0
          4.5206816131688177 9.5916660003519727 0
          4.522979932770264 9.5991982030528291 0
          4.5249757209459647 9.606816158665243 0
          4.5266606837130379 9.6145088421183456 0
          4.5280268805131536 9.6222644874923233 0
          4.5290667805498463 9.6300705861320708 0
          4.5297733230903923 9.6379138884603162 0
          4.5301399699905014 9.6457804108139538 0
          4.5301607641627957 9.6536554450259384 0
          4.529830392238698 9.6615235720584458 0
          4.5296475065153068 9.6693964436949962 0
          4.5296033395556616 9.6772712499655942 0
          4.5296887624535884 9.6851456504723821 0
          4.5298985009293586 9.6930176558142609 0
          4.5302230955467993 9.7008856967967798 0
          4.530657156704252 9.7087483949968778 0
          4.5311953544593671 9.7166045905826586 0
          4.5318323087460302 9.7244533372013073 0
          4.532562755392421 9.7322938785054252 0
          4.5333856530192511 9.7401252033838599 0
          4.5342998183180354 9.7479463504900341 0
          4.5353002235923361 9.7557568882201284 0
          4.5363819623763781 9.7635565333155725 0
          4.5375395592805292 9.771345239558519 0
          4.5387682513354193 9.7791230085445058 0
          4.5400634336155141 9.7868899464361494 0
          4.5414246271371965 9.7946455561838786 0
          4.5428476124497479 9.8023900381059423 0
          4.5443283518083781 9.8101236598013006 0
          4.5458629960526071 9.8178467431566094 0
          4.5474479464729392 9.8255596406537293 0
          4.5490797443381661 9.833262747023948 0
          4.550751374587457 9.8409572948493569 0
          4.5524597940656291 9.8486437485700673 0
          4.5542021661444512 9.8563225709171185 0
          4.5559758617111772 9.8639942156111289 0
          4.5577784617136157 9.8716591203822084 0
          4.5596077573041303 9.8793177011803177 0
          4.5614617502883039 9.8869703469320651 0
          4.5633386532137541 9.8946174149507442 0
          4.5652368884951606 9.9022592271050058 0
          4.5671550892897494 9.9098960660261888 0
          4.5690920980569452 9.9175281723014841 0
          4.5710507492639776 9.9251547705962864 0
          4.573030295604795 9.932775991209585 0
          4.5750301365448225 9.9403919321052552 0
          4.5770499347240685 9.9480026261636638 0
          4.5790895545649057 9.9556080546286747 0
          4.58114906178188 9.9632081449676875 0
          4.5832287205627775 9.9708027693767161 0
          4.5853289912863797 9.9783917431203228 0
          4.5874505280416304 9.9859748228482079 0
          4.5895978104821085 9.9935506745085156 0
          4.5917718084173993 10.001118924391102 0
          4.5939737329993946 10.008679116843192 0
          4.5962049770151134 10.016230727430981 0
          4.5984671117812104 10.023773159935891 0
          4.6007618838974746 10.031305743034467 0
          4.603094646482031 10.038826660912457 0
          4.6054674755627394 10.046335045499379 0
          4.6078826108475148 10.053829938196843 0
          4.6103424522867078 10.061310284409087 0
          4.612849556580052 10.068774927514085 0
          4.6154099219762301 10.076221471125635 0
          4.6180263917128821 10.083648485734853 0
          4.6207019535956402 10.091054413665651 0
          4.6234397369401981 10.098437559694636 0
          4.6262430097534422 10.105796080676235 0
          4.6291151266192223 10.113127993493633 0
          4.6320596261530644 10.120431124365547 0
          4.6350833330371621 10.127701801245799 0
          4.6381900205075794 10.134937390839493 0
          4.6413835899853435 10.142135034156786 0
          4.6446649685311181 10.149293050209591 0
          4.6480383572225286 10.156408143329609 0
          4.6515080991251354 10.163476724330939 0
          4.6550787334466115 10.170494854282579 0
          4.6587549118742215 10.177458252298376 0
          4.6625383639076716 10.184363925411279 0
          4.6664341681828834 10.19120681729752 0
          4.6704476801330106 10.197981314798593 0
          4.6745813678680772 10.20468313356551 0
          4.6788412465191582 10.211305433121973 0
          4.6832305455376275 10.217842647256743 0
          4.6873648176687874 10.224544120233071 0
          4.6912035234529679 10.231419258337647 0
          4.6947208689324897 10.238464337597772 0
          4.69787527908752 10.245679380369413 0
          4.700637486664494 10.253053680333835 0
          4.7029826716575602 10.260571254907207 0
          4.7048851028813088 10.268212566638955 0
          4.7063809502153884 10.275943510905758 0
          4.7075152129051627 10.283735545180821 0
          4.7083585520881064 10.29156430593371 0
          4.7091677575437032 10.299396631391456 0
        </DataArray>
      </Points>
      <Cells>
        <DataArray type="Int32" Name="connectivity" format="ascii">
          0 1 1 2 2 3 3 4 4 5 5 6 6 7 7 8 8 9 9 10 10 11 11 12 12 13 13 14 14 15 15 16 16 17 17 18 18 19 19 20 20 21 21 22 22 23 23 24 24 25 25 26 26 27 27 28 28 29 29 30 30 31 31 32 32 33 33 34 34 35 35 36 36 37 37 38 38 39 39 40 40 41 41 42 42 43 43 44 44 45 45 46 46 47 47 48 48 49 49 50 50 51 51 52 52 53 53 54 54 55 55 56 56 57 57 58 58 59 59 60 60 61 61 62 62 63 63 64 64 65 65 66 66 67 67 68 68 69 69 70 70 71 71 72 72 73 73 74 74 75 75 76 76 77 77 78 78 79 79 80 80 81 81 82 82 83 83 84 84 85 85 86 86 87 87 88 88 89 89 90 90 91 91 92 92 93 93 94 94 95 95 96 96 97 97 98 98 99 99 100 100 101 101 102 102 103 103 104 104 105 105 106 106 107 107 108 108 109 109 110 110 111 111 112 112 113 113 114 114 115 115 116 116 117 117 118 118 119 119 120 120 121 121 122 122 123 123 124 124 125 125 126 126 127 
        </DataArray>
        <DataArray type="Int32" Name="offsets" format="ascii">
          2 4 6 8 10 12 14 16 18 20 22 24 26 28 30 32 34 36 38 40 42 44 46 48 50 52 54 56 58 60 62 64 66 68 70 72 74 76 78 80 82 84 86 88 90 92 94 96 98 100 102 104 106 108 110 112 114 116 118 120 122 124 126 128 130 132 134 136 138 140 142 144 146 148 150 152 154 156 158 160 162 164 166 168 170 172 174 176 178 180 182 184 186 188 190 192 194 196 198 200 202 204 206 208 210 212 214 216 218 220 222 224 226 228 230 232 234 236 238 240 242 244 246 248 250 252 254 
        </DataArray>
        <DataArray type="Int32" Name="types" format="ascii">
          3 3 3 3 3 3 3 3 3 3 3 3 3 3 3 3 3 3 3 3 3 3 3 3 3 3 3 3 3 3 3 3 3 3 3 3 3 3 3 3 3 3 3 3 3 3 3 3 3 3 3 3 3 3 3 3 3 3 3 3 3 3 3 3 3 3 3 3 3 3 3 3 3 3 3 3 3 3 3 3 3 3 3 3 3 3 3 3 3 3 3 3 3 3 3 3 3 3 3 3 3 3 3 3 3 3 3 3 3 3 3 3 3 3 3 3 3 3 3 3 3 3 3 3 3 3 3         </DataArray>
      </Cells>
    </Piece>
  </UnstructuredGrid>
</VTKFile>
