<?xml version="1.0"?>
<VTKFile type="UnstructuredGrid" version="0.1" byte_order="LittleEndian">
  <UnstructuredGrid>
    <Piece NumberOfPoints="128" NumberOfCells="127">
      <PointData Scalars="W">
        <DataArray type="Float32" Name="W" NumberOfComponents="2">
          0 0 0.40768117874780679 -0.59631336562890802 0.60092743774329049 -0.89247147049314979 0.74079122596088576 -1.1231570111240479 0.84861412261326552 -1.3193229369385211 0.93328230028833603 -1.4936386197178264 0.99968395417980904 -1.6529122755926966 1.0509005814809826 -1.8013318539808092 1.089006333992379 -1.9416429979065761 1.1154352919327548 -2.0756749341927532 1.1312480084461807 -2.2047404665351582 1.1372303026979413 -2.3297704222171469 1.13398363741759 -2.4514479348016938 1.1219382939301501 -2.5701947902283679 1.1013999563306318 -2.6862198060620961 1.0726169176747991 -2.7996349353177372 1.0358150289343933 -2.9105327234341383 0.99115749907706152 -3.0188669845617846 0.93878053003836426 -3.1245131865087545 0.87882324925524447 -3.227347444808264 0.81141406477813316 -3.3272006166754133 0.73667037894383813 -3.4238310144697643 0.65472328020358606 -3.5170069547320537 0.56571201809688076 -3.6064915431781488 0.46977037110846731 -3.6919256042385449 0.36706783838666018 -3.7730740125430926 0.25777627160818861 -3.8496255017552938 0.14208324180940676 -3.9211928266885261 0.020204957703500934 -3.9874349543831515 -0.10763711669592506 -4.0484157748751874 -0.24120832188512265 -4.1034564284657522 -0.38023576386293967 -4.1522431630211001 -0.5244267671586369 -4.1944671183834865 -0.67347281734548725 -4.2298493370746275 -0.82704514311016175 -4.2580986254245898 -0.98480245701738012 -4.2789610682352128 -1.1463631462890591 -4.2921022937605748 -1.3113640166666647 -4.2973535330141903 -1.4794355737174829 -4.2945474050508521 -1.6501546173604069 -4.283405291624053 -1.8230874897308138 -4.2637029511231468 -1.9977920413088137 -4.2352567483932875 1.2610634214826231 2.6258264621651137 1.1479163509381995 2.5343346356055676 1.0754643775338393 2.518660780507763 0.97248464920146849 2.4170872822816571 0.87675587942873545 2.3115704812645035 0.81852622445237755 2.2904923862541224 0.73373907997356247 2.1806409790271193 0.684022063344638 2.1606715497338813 0.60976846030074372 2.0489365296914488 0.56798510764698129 2.0322602294566341 0.47834792163154061 1.8215433491122397 0.3960460974931328 1.5982321922400273 -4.3864610278135654 -14.398153888262479 -6.0712092331210767 -13.801629616047247 -7.6650715508948437 -12.986132618780223 -9.1612772446872714 -11.998760885010174 -10.530516297172634 -10.836158950775493 -11.752488415822452 -9.5155339531146552 -12.810222291066879 -8.0566486327512905 -13.687496749613919 -6.4796297372722229 2.2448559189199306 0.92813158966607923 2.300039672829258 1.003746530723572 2.2059346858220379 1.0141711803155788 2.1815133002989526 1.0538646514825973 2.1553707182532866 1.0923603337232048 2.1262494183188103 1.1288536535132789 2.0952676025078922 1.1637273812889142 2.0627216355663855 1.1970053022862341 2.028888463321084 1.2287287606294459 2.0609642407785347 1.3021216022061788 2.0236747408708746 1.3334249629396568 1.9857479941088989 1.3633091911336048 1.9481530239076399 1.3924246030527438 1.9095776032590408 1.4198272625684238 1.8709574631649835 1.446149443403266 1.8920430914544215 1.5203194777453408 1.8519399091046513 1.5470839667841549 1.8121675549178931 1.5731047317589781 1.7728376065125644 1.5985330858167428 1.7340592154455661 1.6235384157838701 1.748796866232103 1.7006796662639765 1.7093126926483742 1.7272630702476657 1.6705150047559745 1.7538348419403378 1.6324406044648281 1.780567716990332 1.5951110284743999 1.807635894272972 1.6046347863675927 1.8905875116944182 1.56666509706949 1.9206201622055437 1.5293691374341356 1.9514603057081574 1.4927113326650447 1.9832912671243277 1.4968737683906106 2.0731852116885094 1.4590569494762091 2.1091503210318798 1.4216239471749113 2.146606867012153 1.3844774150426169 2.1857464793355312 1.3817802333239824 2.2847731758198337 1.342422172831726 2.3292936631528871 1.3028848988763397 2.3760284089587578 1.2924479249026595 2.4832871204790226 1.2494614414736318 2.536368268515528 1.2056413564339126 2.5922496568695155 1.1607297627078905 2.6511252217454007 1.1144631177290012 2.7132422345910125 1.0884066551530873 2.8379209089451574 1.0359553028601947 2.9092141007279704 0.9806740824276291 2.9835603628488689 0.92248824218410685 3.0621340958258703 0.86092076950187835 3.1452527661778662 0.79565654016880438 3.2342228467132217 0.72559156119279811 3.3275328321320106 0.639569157695136 3.3655226726166938 0.56167080634973887 3.4701827866921207 0.47712512859469691 3.5828662606765165 0.37875429074520278 3.6372963581234861 0.28103208427167869 3.7659683619939388 0.17275951769883086 3.9034239903461474 0.052404456293593402 3.9859900512740345 -0.13290000284278208 -6.1410557335982308 -0.41062070154388591 -5.9236190638240211 -0.70949582439172187 -6.0570522017953889 -0.9519413726043543 -5.7657036602200824 -1.1493349747353003 -5.4322673442776672 -1.3179004135666963 -5.134825511730277 -1.4374393182500236 -4.7857788116307409 -1.2818435725971289 -3.7772591205984307 -1.0022350795775155 -2.7098821605551033 0.71054599469830892 1.9014013803003329 0 0
        </DataArray>
        <DataArray type="Float32" Name="u" NumberOfComponents="1">
          0 0.007874015748031496 0.015748031496062992 0.023622047244094488 0.031496062992125984 0.03937007874015748 0.047244094488188976 0.055118110236220472 0.062992125984251968 0.070866141732283464 0.07874015748031496 0.086614173228346455 0.094488188976377951 0.10236220472440945 0.11023622047244094 0.11811023622047244 0.12598425196850394 0.13385826771653545 0.14173228346456693 0.14960629921259844 0.15748031496062992 0.16535433070866143 0.17322834645669291 0.18110236220472442 0.1889763779527559 0.19685039370078741 0.20472440944881889 0.2125984251968504 0.22047244094488189 0.2283464566929134 0.23622047244094488 0.24409448818897639 0.25196850393700787 0.25984251968503935 0.26771653543307089 0.27559055118110237 0.28346456692913385 0.29133858267716534 0.29921259842519687 0.30708661417322836 0.31496062992125984 0.32283464566929132 0.33070866141732286 0.33858267716535434 0.34645669291338582 0.3543307086614173 0.36220472440944884 0.37007874015748032 0.37795275590551181 0.38582677165354329 0.39370078740157483 0.40157480314960631 0.40944881889763779 0.41732283464566927 0.42519685039370081 0.43307086614173229 0.44094488188976377 0.44881889763779526 0.45669291338582679 0.46456692913385828 0.47244094488188976 0.48031496062992124 0.48818897637795278 0.49606299212598426 0.50393700787401574 0.51181102362204722 0.51968503937007871 0.52755905511811019 0.53543307086614178 0.54330708661417326 0.55118110236220474 0.55905511811023623 0.56692913385826771 0.57480314960629919 0.58267716535433067 0.59055118110236215 0.59842519685039375 0.60629921259842523 0.61417322834645671 0.62204724409448819 0.62992125984251968 0.63779527559055116 0.64566929133858264 0.65354330708661412 0.66141732283464572 0.6692913385826772 0.67716535433070868 0.68503937007874016 0.69291338582677164 0.70078740157480313 0.70866141732283461 0.71653543307086609 0.72440944881889768 0.73228346456692917 0.74015748031496065 0.74803149606299213 0.75590551181102361 0.76377952755905509 0.77165354330708658 0.77952755905511806 0.78740157480314965 0.79527559055118113 0.80314960629921262 0.8110236220472441 0.81889763779527558 0.82677165354330706 0.83464566929133854 0.84251968503937003 0.85039370078740162 0.8582677165354331 0.86614173228346458 0.87401574803149606 0.88188976377952755 0.88976377952755903 0.89763779527559051 0.90551181102362199 0.91338582677165359 0.92125984251968507 0.92913385826771655 0.93700787401574803 0.94488188976377951 0.952755905511811 0.96062992125984248 0.96850393700787396 0.97637795275590555 0.98425196850393704 0.99212598425196852 1
        </DataArray>
      </PointData>
      <CellData Scalars="P">
        <DataArray type="Float32" Name="P" NumberOfComponents="1">
          -0.015570013149344024 -0.045015690661271118 -0.071271904519723678 -0.093531919817987558 -0.11126394791675935 -0.12409513648759567 -0.13175422007499618 -0.13403819320047114 -0.13079211985353525 -0.12189718613849856 -0.10726165616176186 -0.08681530164148428 -0.060505165537427824 -0.028294542865713597 0.0098367959403767111 0.053893643199895744 0.10386756825745366 0.15973529173714432 0.2214579409218414 0.28898217845429214 0.36223978121288891 0.44114608530681892 0.52560078114720765 0.61548819694546142 0.71067358873209319 0.81100749635548786 0.91632346707891965 1.0264355721387135 1.1411401255840972 1.2602306257829661 1.3834712293305995 1.5106100296835818 1.6413794848925745 1.7754978223094344 1.9126688809356625 2.0525838813931503 2.1949186027306782 2.3393402602347768 2.4855080594612069 2.6330691609796619 2.7816612605594133 2.9309146681122127 2.7949834938410505 2.6628322729275267 2.5324917614540228 2.4088614047224244 2.2929868623827669 2.1822072844443619 2.0806327453798028 1.9854678663059773 1.9001998127949054 1.8221574066340613 1.7564264734285944 1.702083827047044 1.8750827441971745 1.9691225580046474 1.9959046881998053 1.9689836181389087 1.902958580252746 1.8132172161270026 1.7154865468773415 1.6254051760329546 1.6010853944802408 1.5697569135473268 1.5323806079829434 1.4896340287624434 1.4422507409854728 1.3909537967663874 1.3364317681340594 1.2793397095493344 1.2202958267610446 1.1587432773872373 1.0963193024129683 1.0335544582481924 0.97092267278735955 0.90888316549584214 0.84783983599062152 0.78708187989179867 0.72806525408000922 0.67110296298126759 0.6164716176198739 0.56441321087563057 0.51444955108982626 0.46755362929833166 0.42389805440348738 0.3836290521161782 0.34686854529359767 0.3135650096806048 0.28407580077771577 0.25847756392914822 0.2368297288449169 0.2194843081488343 0.20629090436953276 0.19727857750572322 0.1924642421101061 0.19259273705382893 0.19703910409404635 0.20579871482109247 0.21987104640679248 0.23832547154286959 0.26113947213903516 0.28828164795450528 0.31971253485799822 0.35677117134402525 0.39811359161112292 0.44366108797655934 0.49334794932415182 0.54710047793224847 0.6048629410269778 0.66652078255010039 0.73027990698630363 0.79770698472770563 0.86871680758078762 0.94133048286761611 1.0172833738732947 1.0964164087195787 1.176774522176377 0.99359502968215707 0.81826440293796499 0.64482005969017242 0.48776496949466142 0.35017424491126137 0.23248450077986008 0.13621007290692372 0.069421262626991595 0.025930550189493692 0.011816654160157451
        </DataArray>
      </CellData>
      <Points>
        <DataArray type="Float32" NumberOfComponents="3" format="ascii">
          7.0864907362553016 9.8181580098548586 0
          7.0929785944114254 9.8226206891399208 0
          7.0994917361410863 9.8270463951463221 0
          7.1060421465770442 9.8314167651545912 0
          7.1126385002468826 9.8357174957433031 0
          7.1192874846648699 9.839936423635498 0
          7.125994351439255 9.84406274016869 0
          7.1327632194227579 9.8480865691687836 0
          7.1395972658108402 9.8519987072861746 0
          7.1464988547645518 9.8557904537585337 0
          7.1534696263367854 9.859453496994492 0
          7.160510562232365 9.862979833177274 0
          7.1676220345293826 9.8663617085526614 0
          7.174803842966905 9.8695915770754095 0
          7.1820552416164753 9.8726620742614219 0
          7.1893749578264678 9.8755660042462736 0
          7.1967612076070733 9.8782963328508426 0
          7.2042117096233991 9.8808461818510249 0
          7.2117236953040775 9.8832088318511602 0
          7.2192939172753183 9.8853777300167778 0
          7.2269186579767748 9.8873464977682062 0
          7.2345937376133165 9.8891089412817745 0
          7.242314521425107 9.8906590664907537 0
          7.2500759278073499 9.8919910934669399 0
          7.25787243693728 9.8930994711262965 0
          7.265698099063119 9.8939788995185971 0
          7.2735465450096708 9.8946243444250026 0
          7.2814109968313518 9.895031056678036 0
          7.2892842794417012 9.8951945961938517 0
          7.2971588340205615 9.8951108531390357 0
          7.305026731748999 9.8947760439858712 0
          7.3128796883643625 9.8941867536294659 0
          7.3207090810883413 9.8933399548623946 0
          7.3285059667835792 9.8922330275454033 0
          7.336261101094407 9.8908637759229112 0
          7.343964958845544 9.8892304466963701 0
          7.3516077552185948 9.8873317447845572 0
          7.3591794694309316 9.8851668540721853 0
          7.3666698672736377 9.8827354478867075 0
          7.3740685240413004 9.8800376993872501 0
          7.3813648507934362 9.877074298850351 0
          7.3885481212651793 9.8738464675814317 0
          7.3956074993051093 9.8703559693058516 0
          7.4027450129228241 9.8670283538473882 0
          7.4099536421625167 9.8638579424834933 0
          7.4172288941607691 9.860843757348313 0
          7.4245643807186301 9.8579794948290367 0
          7.431954164050965 9.8552586069309349 0
          7.439394634969215 9.8526797811796634 0
          7.4468805354519549 9.8502362012893325 0
          7.4544087851841958 9.8479266240326062 0
          7.4619747805156704 9.8457441169036031 0
          7.4695759339832408 9.8436876414316767 0
          7.4772066872001819 9.8417441287693102 0
          7.4848619376520613 9.8398997295218962 0
          7.4922452083887157 9.837162576931167 0
          7.4992520367406348 9.8335696579298464 0
          7.5057835956652328 9.8291715366843313 0
          7.5117471129240458 9.8240294346267891 0
          7.517057688791704 9.8182154384140912 0
          7.521639554790716 9.8118114330128403 0
          7.5254271260140193 9.8049078763383708 0
          7.528366006967949 9.7976025512824485 0
          7.5314440628060613 9.7903548137048322 0
          7.5346647148009938 9.7831693468863214 0
          7.5380221269547336 9.7760467945224221 0
          7.5415147846950727 9.7689896139262249 0
          7.5451410669833017 9.7620001882132819 0
          7.5488991683333957 9.7550807764420799 0
          7.5527871681461889 9.7482335373415054 0
          7.5568030490805471 9.7414605307923097 0
          7.5609447142191968 9.7347637203976767 0
          7.5652141534725779 9.7281476530653759 0
          7.5696090559547873 9.7216142667502208 0
          7.5741270714734297 9.7151654115376065 0
          7.5787658706009786 9.7088028899701886 0
          7.583523063304308 9.7025283985348398 0
          7.5883962569517402 9.696343566868622 0
          7.5933867607038668 9.6902529915030158 0
          7.5984920901671762 9.6842583299494311 0
          7.6037097815937669 9.6783611937648715 0
          7.6090373987871436 9.6725631579401572 0
          7.6144725398572053 9.6668657714085917 0
          7.6200161205899679 9.6612738162427103 0
          7.6256656953839537 9.6557889396998124 0
          7.631418861266388 9.650412788498512 0
          7.6372732601620443 9.645147019533848 0
          7.6432265802155754 9.6399933106828719 0
          7.6492794138173767 9.6349568056423873 0
          7.6554294093257385 9.6300393665870576 0
          7.6616742568671503 9.6252429059571636 0
          7.6680116861177083 9.6205693978288771 0
          7.6744419566832018 9.6160244174452085 0
          7.6809627261638562 9.611610195694265 0
          7.6875716758971668 9.607329056141376 0
          7.6942665049095078 9.6031834269129757 0
          7.7010470469005554 9.5991794505620831 0
          7.7079108634485562 9.5953198893021057 0
          7.7148555049053034 9.591607642838472 0
          7.721880324469379 9.5880493648597618 0
          7.7289826582214785 9.5846483489839862 0
          7.7361597904004773 9.5814080626436624 0
          7.7434089374004644 9.5783321591088626 0
          7.7507272314172404 9.5754244928177865 0
          7.7581130559696883 9.5726927985979469 0
          7.7655631592139649 9.570141500194568 0
          7.7730741136465893 9.5677752108016634 0
          7.7806423114336889 9.5655988058936785 0
          7.7882639348209706 9.5636174429058993 0
          7.7959349365514576 9.5618366422549936 0
          7.803650971455931 9.5602621935786622 0
          7.8114067066344868 9.558896455483092 0
          7.8191973107608979 9.5577459217557763 0
          7.8270175399865218 9.5568175838443423 0
          7.8348612952144983 9.5561148202970028 0
          7.8427225150198812 9.5556456143926649 0
          7.8505944834505286 9.5554184942100751 0
          7.8584697374746755 9.5554385836676392 0
          7.8663364376878118 9.5550778264934859 0
          7.8741774058990375 9.554349746517742 0
          7.8819741642200372 9.553246098838839 0
          7.8897117232232228 9.5517849709715996 0
          7.8973778876622376 9.5499870505188316 0
          7.9049622501743659 9.5478707843087207 0
          7.9124574409339425 9.5454578111726516 0
          7.9198731463970153 9.542810650712692 0
          7.9272267475424893 9.5399954635417199 0
          7.9346245359267327 9.5372981173948954 0
        </DataArray>
      </Points>
      <Cells>
        <DataArray type="Int32" Name="connectivity" format="ascii">
          0 1 1 2 2 3 3 4 4 5 5 6 6 7 7 8 8 9 9 10 10 11 11 12 12 13 13 14 14 15 15 16 16 17 17 18 18 19 19 20 20 21 21 22 22 23 23 24 24 25 25 26 26 27 27 28 28 29 29 30 30 31 31 32 32 33 33 34 34 35 35 36 36 37 37 38 38 39 39 40 40 41 41 42 42 43 43 44 44 45 45 46 46 47 47 48 48 49 49 50 50 51 51 52 52 53 53 54 54 55 55 56 56 57 57 58 58 59 59 60 60 61 61 62 62 63 63 64 64 65 65 66 66 67 67 68 68 69 69 70 70 71 71 72 72 73 73 74 74 75 75 76 76 77 77 78 78 79 79 80 80 81 81 82 82 83 83 84 84 85 85 86 86 87 87 88 88 89 89 90 90 91 91 92 92 93 93 94 94 95 95 96 96 97 97 98 98 99 99 100 100 101 101 102 102 103 103 104 104 105 105 106 106 107 107 108 108 109 109 110 110 111 111 112 112 113 113 114 114 115 115 116 116 117 117 118 118 119 119 120 120 121 121 122 122 123 123 124 124 125 125 126 126 127 
        </DataArray>
        <DataArray type="Int32" Name="offsets" format="ascii">
          2 4 6 8 10 12 14 16 18 20 22 24 26 28 30 32 34 36 38 40 42 44 46 48 50 52 54 56 58 60 62 64 66 68 70 72 74 76 78 80 82 84 86 88 90 92 94 96 98 100 102 104 106 108 110 112 114 116 118 120 122 124 126 128 130 132 134 136 138 140 142 144 146 148 150 152 154 156 158 160 162 164 166 168 170 172 174 176 178 180 182 184 186 188 190 192 194 196 198 200 202 204 206 208 210 212 214 216 218 220 222 224 226 228 230 232 234 236 238 240 242 244 246 248 250 252 254 
        </DataArray>
        <DataArray type="Int32" Name="types" format="ascii">
          3 3 3 3 3 3 3 3 3 3 3 3 3 3 3 3 3 3 3 3 3 3 3 3 3 3 3 3 3 3 3 3 3 3 3 3 3 3 3 3 3 3 3 3 3 3 3 3 3 3 3 3 3 3 3 3 3 3 3 3 3 3 3 3 3 3 3 3 3 3 3 3 3 3 3 3 3 3 3 3 3 3 3 3 3 3 3 3 3 3 3 3 3 3 3 3 3 3 3 3 3 3 3 3 3 3 3 3 3 3 3 3 3 3 3 3 3 3 3 3 3 3 3 3 3 3 3         </DataArray>
      </Cells>
    </Piece>
  </UnstructuredGrid>
</VTKFile>
