<?xml version="1.0"?>
<VTKFile type="UnstructuredGrid" version="0.1" byte_order="LittleEndian">
  <UnstructuredGrid>
    <Piece NumberOfPoints="128" NumberOfCells="127">
      <PointData Scalars="W">
        <DataArray type="Float32" Name="W" NumberOfComponents="2">
          0 0 0.92154271241125951 0.033039070018313077 1.3638909094176219 0.036602730970970068 1.6891629299434245 0.025005886218769757 1.9507375041207944 0.00090735088130618517 2.1705052780668557 -0.034228851186869254 2.3601618444858987 -0.079379712053032639 2.526822039923208 -0.13376518994627007 2.675175175445089 -0.19676802219221085 2.8083635672577949 -0.2678801137729705 2.9286836778867253 -0.34668474348408967 3.0378075839126737 -0.43283574887392029 3.1369540139948371 -0.52604112168359363 3.2269734954241822 -0.62604303979138498 3.3084399658873482 -0.73260391244260792 3.3817634322466579 -0.84550734037372288 3.4473026381688947 -0.96457620004699629 3.5052267995320219 -1.0896298090993446 3.555619882981301 -1.2204956293648026 3.5985392144152626 -1.3570234849954841 3.6339432372528209 -1.4990564515926235 3.6617122007911953 -1.6464262564171004 3.6817024605721893 -1.7989690285064701 3.6937631749218465 -1.9565342152675693 3.6976442334313426 -2.1189340335325082 3.6931446801360965 -2.2860182151757056 3.6799776156352415 -2.4576002945026678 3.657746498591917 -2.633421319736843 3.6260993488857309 -2.8132430550791696 3.5849416980030955 -2.997051638730746 3.5335992403164709 -3.1843856572897438 3.4716493675544928 -3.3749514184823854 3.3986247503335689 -3.5684062795998877 3.3140633657320113 -3.7644034644047091 3.2174539125080401 -3.9625332445039163 3.1082742880595413 -4.1623566652984838 2.985925400447146 -4.3633060735311942 2.8498766832400331 -4.5648736607395612 2.699574850284431 -4.7665090189970938 2.5343580345673575 -4.9674392634241329 2.3535968424766209 -5.1668634061591767 2.156671807623622 -5.3639185758842425 -0.56458597070819072 1.4742604668087305 -0.47516550688413023 1.1999757307720702 -0.41000531163809301 1.0077348516490472 -0.37712087431203872 0.90569393685675692 -0.30154798670665073 0.71033842844964823 -0.26251922932725669 0.60881310751829953 -0.18053538995169299 0.41367982143884302 -0.13870077289310229 0.31512236125476739 -0.053006052151687105 0.11981871506743409 0.033939832381323913 -0.076681550853415048 0.074594165990809425 -0.16901626528668676 0.1599276545414586 -0.36462941021308748 0.24407979585735087 -0.56257404033194658 -0.09402232248940591 0.21759222291462241 -0.094095683860487042 0.21665230739179256 -0.095117376504407394 0.21789092342040689 -0.029222195646500984 0.066718337389207072 0.0010167285195305069 -0.002319585099306578 0.029438365003735152 -0.067215919027888676 0.056213465102283096 -0.12864542028641188 0.11558507863582262 -0.26574418678400402 0.1372047118649081 -0.31762184697928131 0.19172436056414288 -0.44786200546212962 0.20811248969915291 -0.49159709921303602 0.22190512982747077 -0.53061935178997399 0.23273104827285498 -0.56388402681530758 0.24142156278496391 -0.59320500615576421 0.24764820998929588 -0.61757960530118605 0.25149883898972381 -0.63696311892839641 0.25306136601830764 -0.6512838509112191 0.25207755742632509 -0.65953390108049437 0.24942186746320738 -0.66364856501640168 0.24483552591501423 -0.66263465946013056 0.23845113008539948 -0.65650213839226623 0.23038857422927458 -0.64523628921038556 0.19077958790795141 -0.54279641831062742 0.18055864054433038 -0.52109474721626414 0.16861858304955002 -0.49336212042060335 0.15575774967681516 -0.46171590665002166 0.1416852615178045 -0.42516398765093921 0.12646870276505226 -0.38379133840285223 0.11015626651500757 -0.33768113538093647 0.092779861537971867 -0.28692848159395207 0.047466497189100454 -0.14770028118530043 0.028168968395141714 -0.087946766418492972 0.0076454019700406975 -0.023907878688657607 -0.014164321086232775 0.044280286623413351 -0.037346514781441867 0.11648523455533218 -0.088226718288955924 0.27366271534805264 -0.11492660487872482 0.35333822854166863 -0.14357100825570809 0.43654256679575859 -0.17434969072718987 0.52310289238531849 -0.20749004532310253 0.61287757644950713 -0.27034131802132549 0.78350487608764119 -0.31004480245326826 0.87876638469360158 -0.35310488717906308 0.9765964710416134 -0.39984993904299926 1.0767881559671024 -0.45062722829636026 1.1791055223348406 -0.53547828598289327 1.3573248607482093 -0.59730476923994935 1.4625272264933158 -0.66459987946866683 1.5690247777239386 -0.73783893164859837 1.6765435235053672 -0.81752469825389573 1.7847805674640926 -0.9042180843474682 1.8934617399768334 -0.99850540603492277 2.0022556106417282 -1.101025959823827 2.1108208084412765 -1.1741580540488021 2.1502535267934548 -1.2925132893234488 2.2589532205255032 -1.4218992596967415 2.3676107378821434 -1.5621870402521896 2.4739225827087745 -1.6693549893028279 2.5114872530432817 -1.8329924077546094 2.6165370828237973 -1.9615110180678201 2.652943367394403 -2.1550907235547077 2.7571717303089147 1.2877683669167899 -1.6286413268379365 1.1216585482031767 -1.4644809947798063 1.2864064429849109 -1.7356097513740498 1.1576048978687277 -1.6163663106290811 1.2865384246000302 -1.8614356588014165 0.94152823925842077 -1.4086819443362926 0.77781613383910919 -1.1952688401339613 0.35933935992381782 -0.56227924103510973 -0.040580922851222237 0.063826508261601925 -0.70466537176276023 1.0951443924112212 -3.3209340950495014 4.8537895671039895 0 0
        </DataArray>
        <DataArray type="Float32" Name="u" NumberOfComponents="1">
          0 0.007874015748031496 0.015748031496062992 0.023622047244094488 0.031496062992125984 0.03937007874015748 0.047244094488188976 0.055118110236220472 0.062992125984251968 0.070866141732283464 0.07874015748031496 0.086614173228346455 0.094488188976377951 0.10236220472440945 0.11023622047244094 0.11811023622047244 0.12598425196850394 0.13385826771653545 0.14173228346456693 0.14960629921259844 0.15748031496062992 0.16535433070866143 0.17322834645669291 0.18110236220472442 0.1889763779527559 0.19685039370078741 0.20472440944881889 0.2125984251968504 0.22047244094488189 0.2283464566929134 0.23622047244094488 0.24409448818897639 0.25196850393700787 0.25984251968503935 0.26771653543307089 0.27559055118110237 0.28346456692913385 0.29133858267716534 0.29921259842519687 0.30708661417322836 0.31496062992125984 0.32283464566929132 0.33070866141732286 0.33858267716535434 0.34645669291338582 0.3543307086614173 0.36220472440944884 0.37007874015748032 0.37795275590551181 0.38582677165354329 0.39370078740157483 0.40157480314960631 0.40944881889763779 0.41732283464566927 0.42519685039370081 0.43307086614173229 0.44094488188976377 0.44881889763779526 0.45669291338582679 0.46456692913385828 0.47244094488188976 0.48031496062992124 0.48818897637795278 0.49606299212598426 0.50393700787401574 0.51181102362204722 0.51968503937007871 0.52755905511811019 0.53543307086614178 0.54330708661417326 0.55118110236220474 0.55905511811023623 0.56692913385826771 0.57480314960629919 0.58267716535433067 0.59055118110236215 0.59842519685039375 0.60629921259842523 0.61417322834645671 0.62204724409448819 0.62992125984251968 0.63779527559055116 0.64566929133858264 0.65354330708661412 0.66141732283464572 0.6692913385826772 0.67716535433070868 0.68503937007874016 0.69291338582677164 0.70078740157480313 0.70866141732283461 0.71653543307086609 0.72440944881889768 0.73228346456692917 0.74015748031496065 0.74803149606299213 0.75590551181102361 0.76377952755905509 0.77165354330708658 0.77952755905511806 0.78740157480314965 0.79527559055118113 0.80314960629921262 0.8110236220472441 0.81889763779527558 0.82677165354330706 0.83464566929133854 0.84251968503937003 0.85039370078740162 0.8582677165354331 0.86614173228346458 0.87401574803149606 0.88188976377952755 0.88976377952755903 0.89763779527559051 0.90551181102362199 0.91338582677165359 0.92125984251968507 0.92913385826771655 0.93700787401574803 0.94488188976377951 0.952755905511811 0.96062992125984248 0.96850393700787396 0.97637795275590555 0.98425196850393704 0.99212598425196852 1
        </DataArray>
      </PointData>
      <CellData Scalars="P">
        <DataArray type="Float32" Name="P" NumberOfComponents="1">
          -0.037096456532574811 -0.10845859236042804 -0.17482747684762664 -0.23537245725516395 -0.28973993513677176 -0.33781101640833183 -0.37958663095910267 -0.41512437533549734 -0.44450071607262531 -0.4677892381191584 -0.48504445286340786 -0.49629176158372551 -0.5015209112447464 -0.50068236874369176 -0.49368507576160853 -0.48039391446222895 -0.46062569502069395 -0.43414958474091464 -0.40068586480119994 -0.35990346160269571 -0.31141992913713978 -0.25480138343110076 -0.18956097431331745 -0.11515669433959863 -0.030992806302388678 0.063584447883749631 0.16928578850258605 0.28687567357684129 0.4171758615664084 0.56108305908839484 0.71953933333355968 0.89354665082749751 1.08416559969096 1.2925173130800105 1.5197811029456139 1.7671944628430081 2.0360454466631364 2.3276789452547493 2.6434951272785603 2.9849332574264835 3.353469962592567 3.7506141651373697 3.5628163412986469 3.3947174867158334 3.2415768229512421 3.0961021196193999 2.9696708257413595 2.8532624821973935 2.7578749306492427 2.6732113619207158 2.6100092462789042 2.5680261880404034 2.5353913952410445 2.5223499709849544 2.5278638868841852 2.4542906575663763 2.3810177659705021 2.3078986083323501 2.2483225571185916 2.1941547221661435 2.144384793095353 2.098052436288051 2.0595073635779215 2.0218840702868892 1.9888314158626348 1.9544370387263048 1.9179132948767543 1.8785352000078421 1.8357592541250691 1.7891129689370262 1.7382391649333506 1.6828967665978134 1.6229554033959679 1.5584162567027031 1.4893786552848456 1.4160464195083426 1.3387213191187277 1.2596716158859658 1.1779275597969481 1.0940335364041527 1.0085332668324885 0.92204800842507073 0.83523684899442341 0.7487857261658537 0.66339582451120638 0.58437153141101894 0.50806189859497408 0.43512099335560861 0.36617670999692803 0.30182189296760453 0.24802812238975053 0.20000114572203653 0.15816206607981043 0.12286969008692082 0.094417927935185136 0.078665630235316725 0.070150020944797345 0.068936715132726409 0.075018618198381598 0.088314625947728959 0.11402244238697778 0.14652025156866577 0.18553140308781918 0.23072572755651868 0.28172523160432772 0.33811525363731171 0.3994512350139271 0.46527050884276749 0.53072239727089809 0.59986167582698435 0.67228852244374349 0.74752336966175259 0.82131694824251877 0.89743815382985681 0.97200360183073919 1.048812086711566 0.9199921558536186 0.80325443093869053 0.67862660663699648 0.56479211762063852 0.44839631512053224 0.35313267343750376 0.26840936098800222 0.19955144146067638 0.13941790972937732 0.084673571830341521 0.033213219793824696
        </DataArray>
      </CellData>
      <Points>
        <DataArray type="Float32" NumberOfComponents="3" format="ascii">
          3.8611714706543037 9.1278585017572809 0
          3.8608606391467917 9.1357298220479208 0
          3.8606069931039748 9.1436032003448293 0
          3.8604379823184884 9.1514788627415466 0
          3.8603737918764756 9.1593560936191896 0
          3.8604306545298814 9.1672334009736574 0
          3.8606222090932603 9.17510860739573 0
          3.8609602261895501 9.1829789136141216 0
          3.8614550497370561 9.1908409469300913 0
          3.86211588791969 9.1986907995346243 0
          3.8629510081572049 9.2065240600420211 0
          3.8639678795848473 9.2143358393477559 0
          3.8651732767854985 9.2221207921045565 0
          3.8665733553879602 9.2298731348359855 0
          3.8681737048149256 9.2375866619277698 0
          3.8699793838654393 9.2452547603634638 0
          3.8719949461230851 9.2528704231456231 0
          3.8742244621819748 9.2604262602805232 0
          3.876671530109701 9.2679145099851592 0
          3.8793392806186247 9.2753270493905724 0
          3.8822303805828735 9.2826554038594455 0
          3.8853470304175763 9.2898907567249829 0
          3.8886909566042225 9.29702395973686 0
          3.8922634027322283 9.3040455432370397 0
          3.8960651200932088 9.310945725512461 0
          3.9000963521136662 9.3177144244621868 0
          3.9043568218381832 9.3243412669401895 0
          3.9088457140784727 9.330815600349128 0
          3.9135616507574746 9.3371265087378177 0
          3.9185026690198206 9.3432628276181706 0
          3.9236662153266524 9.3492131448609275 0
          3.9290491035628334 9.3549658293757947 0
          3.9346474887684653 9.3605090493876517 0
          3.9404568380974512 9.3658307937573966 0
          3.9464719021091446 9.3709188935660457 0
          3.9526866830059202 9.3757610476130946 0
          3.9590944022059062 9.3803448497359163 0
          3.9656874631437709 9.3846578241245613 0
          3.9724574183328341 9.3886874569288761 0
          3.9793949350265265 9.3924212305166215 0
          3.9864897541512305 9.3958466715471491 0
          3.9937306512674815 9.3989514007952071 0
          4.0011053981618581 9.4017231868207158 0
          4.0084449112109404 9.4045864041828828 0
          4.0157547322570482 9.4075240181744579 0
          4.0230389034788701 9.4105240903801732 0
          4.0302994701510997 9.4135802842281642 0
          4.0375411207559848 9.4166804712380276 0
          4.0447662820227537 9.4198183495383141 0
          4.0519800404446649 9.4229818078890553 0
          4.0591849970726663 9.4261647313494148 0
          4.066386468803902 9.4293550015795784 0
          4.0735898503255132 9.4325404280520271 0
          4.0807976700543351 9.4357152862780449 0
          4.0880152230774645 9.4388674441756457 0
          4.0952477315268343 9.4419846270204086 0
          4.1024742683542703 9.4451152455271732 0
          4.1096948377930396 9.4482592443035216 0
          4.1169093850000031 9.4514167030344964 0
          4.1241219994583052 9.4545782467645534 0
          4.1313345624103377 9.4577395964285174 0
          4.138548842524969 9.460896730255369 0
          4.1457665064751152 9.4640458418501865 0
          4.1529912402604392 9.4671784319657313 0
          4.1602243914363788 9.4702912875126053 0
          4.1674693459133261 9.4733763357865008 0
          4.1747271274472881 9.476430869291077 0
          4.181998599029046 9.4794524728258978 0
          4.1892844398735445 9.4824390882092882 0
          4.19658519691962 9.4853889017399791 0
          4.2039012644652072 9.4883004063258323 0
          4.2112328895929307 9.4911724042107632 0
          4.2185801775959622 9.4940040113815183 0
          4.2259430759419123 9.4967947200272782 0
          4.2333214284447465 9.4995442785206521 0
          4.240714959193137 9.5022527529812333 0
          4.2481232807332114 9.5049205266475347 0
          4.2555459014615904 9.5075483007852544 0
          4.2629803730921694 9.510142429060723 0
          4.270426069469484 9.5127042592420761 0
          4.2778822576067688 9.5152355128327955 0
          4.2853481471616011 9.51773815381814 0
          4.2928228723516328 9.5202144501984947 0
          4.3003054961040075 9.5226669687485686 0
          4.3077950130033535 9.525098569891302 0
          4.3152903512315044 9.5275124018347874 0
          4.3227887042143411 9.5299170982606185 0
          4.3302888796781902 9.5323163655078407 0
          4.337789608799504 9.5347141756775944 0
          4.3452895424465527 9.5371147582260409 0
          4.3527872457985479 9.5395225917785389 0
          4.3602795631346369 9.5419474237198028 0
          4.3677648399524411 9.5443941962522612 0
          4.3752413005276054 9.5468680705541509 0
          4.3827070361275169 9.549374416072677 0
          4.390159990892518 9.5519188017467691 0
          4.3975962625033596 9.5545118101660016 0
          4.4050133864806691 9.5571593508606547 0
          4.4124086895049901 9.5598674927650578 0
          4.4197792690507809 9.5626424513583554 0
          4.4271219718537296 9.5654905740040537 0
          4.4344315271775079 9.568422914752194 0
          4.4417040950567612 9.5714459998188879 0
          4.4489354957738065 9.5745664356420797 0
          4.4561211804115208 9.5777908918340433 0
          4.4632561997134435 9.5811260823379705 0
          4.4703351693466349 9.5845787483638567 0
          4.4773522336023239 9.5881556377734594 0
          4.4843010258231395 9.5918634838510179 0
          4.4911770057297487 9.5957047328094127 0
          4.4979728242084045 9.5996861255610852 0
          4.5046804479109044 9.6038143998961516 0
          4.5112911675001071 9.6080961476347397 0
          4.5177983320063273 9.6125336977470486 0
          4.5241917844485844 9.6171335631415928 0
          4.5304635505368314 9.6218980007248049 0
          4.5366016173390857 9.6268334722632591 0
          4.5428190415292145 9.6316675070599462 0
          4.5491055961352416 9.6364103818249109 0
          4.5554715919303206 9.641045381283126 0
          4.5619091235692668 9.6455799807150679 0
          4.5684262734633414 9.6499990613045767 0
          4.5750017295521417 9.654330756041638 0
          4.5816254259675899 9.6585883537536006 0
          4.5882715036241768 9.6628111543242579 0
          4.5949152546395728 9.6670380329167802 0
          4.6015155955958731 9.6713330034272129 0
          4.6079099443261935 9.6759289206949575 0
        </DataArray>
      </Points>
      <Cells>
        <DataArray type="Int32" Name="connectivity" format="ascii">
          0 1 1 2 2 3 3 4 4 5 5 6 6 7 7 8 8 9 9 10 10 11 11 12 12 13 13 14 14 15 15 16 16 17 17 18 18 19 19 20 20 21 21 22 22 23 23 24 24 25 25 26 26 27 27 28 28 29 29 30 30 31 31 32 32 33 33 34 34 35 35 36 36 37 37 38 38 39 39 40 40 41 41 42 42 43 43 44 44 45 45 46 46 47 47 48 48 49 49 50 50 51 51 52 52 53 53 54 54 55 55 56 56 57 57 58 58 59 59 60 60 61 61 62 62 63 63 64 64 65 65 66 66 67 67 68 68 69 69 70 70 71 71 72 72 73 73 74 74 75 75 76 76 77 77 78 78 79 79 80 80 81 81 82 82 83 83 84 84 85 85 86 86 87 87 88 88 89 89 90 90 91 91 92 92 93 93 94 94 95 95 96 96 97 97 98 98 99 99 100 100 101 101 102 102 103 103 104 104 105 105 106 106 107 107 108 108 109 109 110 110 111 111 112 112 113 113 114 114 115 115 116 116 117 117 118 118 119 119 120 120 121 121 122 122 123 123 124 124 125 125 126 126 127 
        </DataArray>
        <DataArray type="Int32" Name="offsets" format="ascii">
          2 4 6 8 10 12 14 16 18 20 22 24 26 28 30 32 34 36 38 40 42 44 46 48 50 52 54 56 58 60 62 64 66 68 70 72 74 76 78 80 82 84 86 88 90 92 94 96 98 100 102 104 106 108 110 112 114 116 118 120 122 124 126 128 130 132 134 136 138 140 142 144 146 148 150 152 154 156 158 160 162 164 166 168 170 172 174 176 178 180 182 184 186 188 190 192 194 196 198 200 202 204 206 208 210 212 214 216 218 220 222 224 226 228 230 232 234 236 238 240 242 244 246 248 250 252 254 
        </DataArray>
        <DataArray type="Int32" Name="types" format="ascii">
          3 3 3 3 3 3 3 3 3 3 3 3 3 3 3 3 3 3 3 3 3 3 3 3 3 3 3 3 3 3 3 3 3 3 3 3 3 3 3 3 3 3 3 3 3 3 3 3 3 3 3 3 3 3 3 3 3 3 3 3 3 3 3 3 3 3 3 3 3 3 3 3 3 3 3 3 3 3 3 3 3 3 3 3 3 3 3 3 3 3 3 3 3 3 3 3 3 3 3 3 3 3 3 3 3 3 3 3 3 3 3 3 3 3 3 3 3 3 3 3 3 3 3 3 3 3 3         </DataArray>
      </Cells>
    </Piece>
  </UnstructuredGrid>
</VTKFile>
