<?xml version="1.0"?>
<VTKFile type="UnstructuredGrid" version="0.1" byte_order="LittleEndian">
  <UnstructuredGrid>
    <Piece NumberOfPoints="128" NumberOfCells="127">
      <PointData Scalars="W">
        <DataArray type="Float32" Name="W" NumberOfComponents="2">
          0 0 -0.012820067613870518 0.099559348326502664 -0.027167014050412643 0.20895551526611586 -0.039023410789940295 0.29551790291268493 -0.050009181362047905 0.37113674477328662 -0.060804524195496978 0.4405132499988253 -0.071751241516005856 0.5057653406836673 -0.083051423338385749 0.56796503363860262 -0.09483799980284624 0.62768955975422902 -0.1072233638395204 0.68537542415943276 -0.12028979229718527 0.74126273052188318 -0.13410680638220773 0.79552059140795162 -0.14873444928172005 0.84827089103953823 -0.16423782623899524 0.89966986616629818 -0.18068750603596867 0.94989616915428965 -0.19815088459344357 0.99909627127434497 -0.21668083671304483 1.0473319996447961 -0.2363411180084678 1.0947114767524297 -0.25719580555932731 1.1413287192538035 -0.27929875152989569 1.1872192236218972 -0.30271238170629516 1.2324460548390561 -0.32750716846456412 1.2770887729080667 -0.35375074004983681 1.3211966142816083 -0.38150431264127099 1.3647803640301994 -0.41084594442215555 1.4078974441936041 -0.44182876407828986 1.4505041546212969 -0.47452458019970306 1.492612325403186 -0.50903227702151177 1.5342994791136784 -0.54543626694443015 1.5755727649136613 -0.58368985396433049 1.6160663306837231 -0.62397603130228441 1.6560691180069429 -0.66636945395146407 1.6955267412334576 -0.71095159245722195 1.7343921643259324 -0.75779459826619044 1.7725853185718421 -0.80698127392943708 1.8100431147544678 -0.85858104222931053 1.8466632088633679 -0.91270278575256647 1.882418331517568 -0.96939264712948414 1.9171384624710393 -1.0286862802526144 1.9506395842658997 -1.0906915166250182 1.9828741376126673 -1.1554862398070511 2.0137228891031858 -1.2231358192738651 2.0430374466418302 -7.0241194856883258 10.312010860070968 -8.038910121407369 9.6128685218683483 -8.9882435421877851 8.8103300251372154 -9.8592185343977548 7.9085522831631812 -10.642665919717038 6.9162389307009109 -11.326306634397429 5.8404613579924405 -11.902626468098507 4.6921803283129222 -12.360746069980534 3.4813902089964182 -12.695445212222664 2.2210327177467764 -12.89797898126251 0.92377350411355741 -12.966076404534729 -0.39592752651496183 -12.893945015002998 -1.7232107856495389 -12.678654199246694 -3.0416121196220751 -0.18771598291807606 -0.055521786232259319 0.19766411609330273 0.058455423497234496 0.15637689258447646 0.045998481468010083 1.0031473888645506 0.28990403149484711 1.9138105509934511 0.52842941567158719 3.4397841672990483 0.86958336143987669 4.5508045853179224 0.99520996031067654 5.0964780573947497 0.9093372100223025 5.6596911686467468 0.7611638461363277 5.5549884917512271 0.49698768235033408 5.4861558919779103 0.25053371649803219 5.4034420562407881 0.014726226835728671 5.3083149609990645 -0.20966370548973545 5.1752044868523042 -0.41930735793996554 5.059972690888018 -0.61714899699915327 4.9368042113071962 -0.8024635187785657 4.8070592778132104 -0.97518765814550679 4.6720362732558804 -1.1353970669139688 4.531958179716761 -1.2829868623097445 4.3634099194486202 -1.4096732894616881 4.2203516832712822 -1.5320326734316276 4.0764917937957916 -1.6433698366662728 3.9327228534403993 -1.7442389486218064 3.7898340526680889 -1.835243217238179 3.6221108395386699 -1.9026005073231442 3.4839643037882162 -1.9741986866166572 3.3485980599077081 -2.0380551748037732 3.2164633834174885 -2.0948834366723674 3.0879389017145451 -2.1454053348173341 2.9625672623499457 -2.1897607198477136 2.8421639548177637 -2.2297988014022612 2.7032456364968489 -2.246149603065946 2.592771617238788 -2.2773894987249821 2.4868798521451283 -2.3059697043251974 2.3849302070963514 -2.3318981155979777 2.2882944212306295 -2.3571638235727819 2.175387740454477 -2.3586211987627186 2.0889074139742396 -2.382174053144213 2.0061831674111517 -2.4056824831218586 1.9282446368256427 -2.4311540075865543 1.8542893569495977 -2.4585188158719946 1.7656281963573155 -2.461967697298078 1.6996585198510628 -2.4932391351798748 1.6374152341024844 -2.5289057226334526 1.5780379215331883 -2.5688249916585302 1.521151672745332 -2.613568190615009 1.4506325538385512 -2.6343609846684317 1.3984538924523968 -2.6889686750994883 1.3478205167071657 -2.7508955281572973 1.2837288989729838 -2.7885501888917892 1.2351044149097459 -2.8647061448860849 1.1857343712810093 -2.9492740154667287 1.1227874465876975 -3.0093429289548461 1.0711307882970234 -3.111929966724797 1.0160603290085919 -3.2248204720848115 0.94700436177413205 -3.3139343096832574 0.88341342841451187 -3.4488261538000202 0.81253493911873986 -3.5959972409828342 0.72607668529951452 -3.7194618547283893 0.63751207643094865 -3.8926502440597153 0.53148771227081137 -4.0417697547087208 0.41332623734522927 -4.2008554429880753 0.28953327684309771 -4.5547041199735494 0.12769500293930494 -4.7960925334320281 -0.060289792070073581 -5.0145933392090232 -0.27834558345672961 -5.2855285408956529 0.28745873324944315 5.5834455559492397 0.017033295074026063 6.8379662325050488 -0.34247484163052028 6.7183378942911576 -0.62049589052008525 6.0902825845951289 -0.74873288166367713 5.0947170579818133 -0.14356957296330189 0.83865966971408046 0 0
        </DataArray>
        <DataArray type="Float32" Name="u" NumberOfComponents="1">
          0 0.007874015748031496 0.015748031496062992 0.023622047244094488 0.031496062992125984 0.03937007874015748 0.047244094488188976 0.055118110236220472 0.062992125984251968 0.070866141732283464 0.07874015748031496 0.086614173228346455 0.094488188976377951 0.10236220472440945 0.11023622047244094 0.11811023622047244 0.12598425196850394 0.13385826771653545 0.14173228346456693 0.14960629921259844 0.15748031496062992 0.16535433070866143 0.17322834645669291 0.18110236220472442 0.1889763779527559 0.19685039370078741 0.20472440944881889 0.2125984251968504 0.22047244094488189 0.2283464566929134 0.23622047244094488 0.24409448818897639 0.25196850393700787 0.25984251968503935 0.26771653543307089 0.27559055118110237 0.28346456692913385 0.29133858267716534 0.29921259842519687 0.30708661417322836 0.31496062992125984 0.32283464566929132 0.33070866141732286 0.33858267716535434 0.34645669291338582 0.3543307086614173 0.36220472440944884 0.37007874015748032 0.37795275590551181 0.38582677165354329 0.39370078740157483 0.40157480314960631 0.40944881889763779 0.41732283464566927 0.42519685039370081 0.43307086614173229 0.44094488188976377 0.44881889763779526 0.45669291338582679 0.46456692913385828 0.47244094488188976 0.48031496062992124 0.48818897637795278 0.49606299212598426 0.50393700787401574 0.51181102362204722 0.51968503937007871 0.52755905511811019 0.53543307086614178 0.54330708661417326 0.55118110236220474 0.55905511811023623 0.56692913385826771 0.57480314960629919 0.58267716535433067 0.59055118110236215 0.59842519685039375 0.60629921259842523 0.61417322834645671 0.62204724409448819 0.62992125984251968 0.63779527559055116 0.64566929133858264 0.65354330708661412 0.66141732283464572 0.6692913385826772 0.67716535433070868 0.68503937007874016 0.69291338582677164 0.70078740157480313 0.70866141732283461 0.71653543307086609 0.72440944881889768 0.73228346456692917 0.74015748031496065 0.74803149606299213 0.75590551181102361 0.76377952755905509 0.77165354330708658 0.77952755905511806 0.78740157480314965 0.79527559055118113 0.80314960629921262 0.8110236220472441 0.81889763779527558 0.82677165354330706 0.83464566929133854 0.84251968503937003 0.85039370078740162 0.8582677165354331 0.86614173228346458 0.87401574803149606 0.88188976377952755 0.88976377952755903 0.89763779527559051 0.90551181102362199 0.91338582677165359 0.92125984251968507 0.92913385826771655 0.93700787401574803 0.94488188976377951 0.952755905511811 0.96062992125984248 0.96850393700787396 0.97637795275590555 0.98425196850393704 0.99212598425196852 1
        </DataArray>
      </PointData>
      <CellData Scalars="P">
        <DataArray type="Float32" Name="P" NumberOfComponents="1">
          -0.0052929101345704369 -0.015799380632593372 -0.026045188966769141 -0.035900302315802671 -0.045248318679516515 -0.05397710860514561 -0.061976254594447798 -0.069136265683625311 -0.075348476973563699 -0.08050430680698635 -0.084495584241789171 -0.087214513213391229 -0.088553671158475927 -0.088405222107900569 -0.086660052288941525 -0.083207485057930949 -0.077935884529154939 -0.070731538183524831 -0.061478262640008059 -0.050057831646513964 -0.036348989145767938 -0.020226461931451709 -0.0015608184227376102 0.019781384743429199 0.043939369748852382 0.071056500471950598 0.10128229001989406 0.13477514721025144 0.17170165024662024 0.2122260317693084 0.25653043576522117 0.30480617405594823 0.35725500883774491 0.41408909478179429 0.47553270361203809 0.54182191211930886 0.61320892173233665 0.68995751373331182 0.77234319331032275 0.86066057637163262 0.95522177231663985 1.0563563742399824 1.6354515924276487 2.2276550775300326 2.8305364626205298 3.4411175616453353 4.0560941604903515 4.6715964059216031 5.2834380703106163 5.8868924730093681 6.4769645450661839 7.0481895155574286 7.59492726013604 8.1111935294283057 8.5908170841729525 8.5878615881320357 8.5673399470701757 8.546344347418886 8.4788666479508059 8.3532152894553651 8.1218670873316317 7.7959855672726599 7.4050735074045901 6.995012637452013 6.5712246475098528 6.1341675509258478 5.6879440586449235 5.2364075153578025 4.785661701316541 4.3365552327140549 3.8920665617093451 3.4548771143485015 3.0273723829153947 2.6117458321017621 2.2123268307236157 1.8280066819063316 1.4600528743141685 1.1094909979087386 0.77712315785178521 0.46600547990104013 0.17399023023211274 -0.098693478284854877 -0.35196565203238983 -0.5858772571656593 -0.80053135120136409 -0.99625408776131641 -1.1717346129661959 -1.3291743818622446 -1.4690329032638139 -1.5917672255884561 -1.6979429677256466 -1.7870950981531977 -1.8609187150954216 -1.9199253590217054 -1.9646605714800405 -1.9956256564269026 -2.0129982632512449 -2.0176766306897007 -2.0100836894658314 -1.9906022409004849 -1.9595838642949837 -1.9177220108947226 -1.8650862457108492 -1.8019323167441383 -1.7292455237095758 -1.6466464256627418 -1.5543693541609513 -1.4537136975020521 -1.3439987699604254 -1.2255414393613147 -1.0999845379950919 -0.96660263029134708 -0.82598376304328025 -0.68025661781397861 -0.5289788937619363 -0.37471997394940598 -0.21900879311883742 -0.057298079874771327 0.10353835719034388 0.25956404762517216 0.40864365243574191 0.28079751843848788 0.16151677157121497 0.0683661215764369 0.0082434849957709246 -0.019442065420916491 -0.0072345222540459104
        </DataArray>
      </CellData>
      <Points>
        <DataArray type="Float32" NumberOfComponents="3" format="ascii">
          4.5572677916144322 10.035717533127082 0
          4.56507772527456 10.036720065882765 0
          4.5728868639659028 10.037728771315638 0
          4.5806943181367163 10.038750431997068 0
          4.5884993526872275 10.039790414805234 0
          4.5963012865218627 10.040853408119983 0
          4.6040994503692572 10.041943713297863 0
          4.6118931655846209 10.043065375983243 0
          4.619681731615219 10.044222252573238 0
          4.6274644177544717 10.045418046005871 0
          4.6352404561699467 10.046656332823201 0
          4.6430090367990609 10.047940578057487 0
          4.6507693030361459 10.049274145715847 0
          4.6585203480076149 10.050660306336704 0
          4.6662612105337535 10.052102246676025 0
          4.6739908707522302 10.053603080783297 0
          4.6817082459387729 10.055165859082251 0
          4.6894121872285819 10.056793572203588 0
          4.6971014756635672 10.058489157688063 0
          4.7047748182200495 10.060255505815007 0
          4.7124308444707985 10.062095461802643 0
          4.7200681027158744 10.064011829717739 0
          4.7276850556149101 10.066007377408029 0
          4.7352800759960525 10.068084839554736 0
          4.7428514430627198 10.070246918341223 0
          4.7503973375563842 10.072496287013337 0
          4.7579158384651903 10.074835587170368 0
          4.7654049185745659 10.077267429499118 0
          4.7728624383392235 10.079794398581171 0
          4.7802861406524713 10.082419053337254 0
          4.7876736537442373 10.085143904345763 0
          4.7950224798382353 10.08797143175887 0
          4.8023299905259833 10.090904081932601 0
          4.8095934217180076 10.093944264512865 0
          4.8168098691725678 10.097094347473748 0
          4.8239762833636011 10.100356653208783 0
          4.8310894651778016 10.103733452188655 0
          4.8381460591646377 10.107226961273737 0
          4.8451425506756687 10.110839333176195 0
          4.8520752636535089 10.114572645054345 0
          4.8589403539450196 10.118428895567448 0
          4.8657338044705147 10.122409997486617 0
          4.8724514211679946 10.126517768497701 0
          4.8787335422708651 10.131264886562995 0
          4.8845172506461365 10.13660800529545 0
          4.8897436874046996 10.142497367853647 0
          4.8943588517321484 10.148877064660878 0
          4.8983141693376462 10.155685573021902 0
          4.9015672537058812 10.162856195518494 0
          4.9040823719352407 10.170317739550518 0
          4.9058311192086714 10.177995136930027 0
          4.9067927424078883 10.18581024622047 0
          4.9069546822592951 10.193682637920201 0
          4.9063127141048737 10.201530490906324 0
          4.9048713070181122 10.209271513611395 0
          4.9026438055100998 10.216823964671864 0
          4.9004046845580786 10.22437290880541 0
          4.8981778163827476 10.231925485495227 0
          4.8959606189243097 10.239480998498676 0
          4.8938055690831623 10.247054661945681 0
          4.8917691095986733 10.254661378609187 0
          4.8899458495713075 10.262322461682132 0
          4.8884047021351451 10.270045885877831 0
          4.8871795615541274 10.277826513717804 0
          4.8863055560255582 10.285654220912029 0
          4.8857761711782954 10.293512616437921 0
          4.8855871183104362 10.301386413358799 0
          4.8857332485730467 10.309260986955559 0
          4.8862086441983044 10.317122422358333 0
          4.8870050324634526 10.32495771964094 0
          4.8881152509672008 10.33275461343487 0
          4.8895316463743494 10.340501616436946 0
          4.8912461588234848 10.348188023141043 0
          4.8932504024727184 10.355803904963826 0
          4.8955356793177298 10.363340116543442 0
          4.8980915267767271 10.370788808498565 0
          4.9009090646696398 10.378142401108311 0
          4.9039793643608531 10.385393998405396 0
          4.9072935040571561 10.392537353694447 0
          4.9108426176847804 10.399566832043222 0
          4.9146162999257648 10.406478264158743 0
          4.9186059808890334 10.413267218404874 0
          4.9228032640298798 10.419929743013618 0
          4.9271999540599891 10.426462321789961 0
          4.9317880803533338 10.432861829306271 0
          4.9365598685095797 10.439125522180555 0
          4.941507852875926 10.445250924415495 0
          4.9466234201828527 10.451237028055115 0
          4.9518997216633949 10.4570819019954 0
          4.9573301931690796 10.462783779665862 0
          4.9629085154209305 10.468341058525267 0
          4.9686286990212762 10.473752176742572 0
          4.9744837460193079 10.479017048127131 0
          4.9804682974205337 10.484134216331082 0
          4.9865772273908124 10.489102227362261 0
          4.9928057070609668 10.49391950512056 0
          4.9991491547356164 10.498584355722462 0
          5.0056020772153831 10.50309656773468 0
          5.0121603883314219 10.507454204315705 0
          5.0188202330746021 10.5116550557105 0
          5.0255779342241196 10.515696648078375 0
          5.0324299690776915 10.519576208067177 0
          5.03937197004218 10.523292447030373 0
          5.0464007064613394 10.526841979177323 0
          5.0535130434815558 10.530220964449054 0
          5.0607050122616641 10.533427067485693 0
          5.0679736025287081 10.536455565046269 0
          5.0753157577075285 10.539301211797085 0
          5.0827275799600722 10.541960281174337 0
          5.0902058708026861 10.544426409474866 0
          5.0977472199147229 10.546692593510532 0
          5.105347350427655 10.548753304039654 0
          5.1130023233686872 10.550600172322975 0
          5.1207077475977121 10.552224067481657 0
          5.1284582666060032 10.553617328149027 0
          5.1362483919413346 10.554769208531354 0
          5.1440715532043191 10.555670454731748 0
          5.151920427125245 10.556311193909691 0
          5.1597873345508862 10.556669473582467 0
          5.1676622402201371 10.556730315037012 0
          5.1755334878122197 10.556480158065591 0
          5.1833875535676732 10.555902189629309 0
          5.1912600059121914 10.555670504553746 0
          5.1991332801020169 10.555862960884216 0
          5.2069851005461834 10.556472103328909 0
          5.2147982297210156 10.55745894693168 0
          5.2225647136526767 10.55876171945815 0
          5.2303219955029681 10.560116448705134 0
        </DataArray>
      </Points>
      <Cells>
        <DataArray type="Int32" Name="connectivity" format="ascii">
          0 1 1 2 2 3 3 4 4 5 5 6 6 7 7 8 8 9 9 10 10 11 11 12 12 13 13 14 14 15 15 16 16 17 17 18 18 19 19 20 20 21 21 22 22 23 23 24 24 25 25 26 26 27 27 28 28 29 29 30 30 31 31 32 32 33 33 34 34 35 35 36 36 37 37 38 38 39 39 40 40 41 41 42 42 43 43 44 44 45 45 46 46 47 47 48 48 49 49 50 50 51 51 52 52 53 53 54 54 55 55 56 56 57 57 58 58 59 59 60 60 61 61 62 62 63 63 64 64 65 65 66 66 67 67 68 68 69 69 70 70 71 71 72 72 73 73 74 74 75 75 76 76 77 77 78 78 79 79 80 80 81 81 82 82 83 83 84 84 85 85 86 86 87 87 88 88 89 89 90 90 91 91 92 92 93 93 94 94 95 95 96 96 97 97 98 98 99 99 100 100 101 101 102 102 103 103 104 104 105 105 106 106 107 107 108 108 109 109 110 110 111 111 112 112 113 113 114 114 115 115 116 116 117 117 118 118 119 119 120 120 121 121 122 122 123 123 124 124 125 125 126 126 127 
        </DataArray>
        <DataArray type="Int32" Name="offsets" format="ascii">
          2 4 6 8 10 12 14 16 18 20 22 24 26 28 30 32 34 36 38 40 42 44 46 48 50 52 54 56 58 60 62 64 66 68 70 72 74 76 78 80 82 84 86 88 90 92 94 96 98 100 102 104 106 108 110 112 114 116 118 120 122 124 126 128 130 132 134 136 138 140 142 144 146 148 150 152 154 156 158 160 162 164 166 168 170 172 174 176 178 180 182 184 186 188 190 192 194 196 198 200 202 204 206 208 210 212 214 216 218 220 222 224 226 228 230 232 234 236 238 240 242 244 246 248 250 252 254 
        </DataArray>
        <DataArray type="Int32" Name="types" format="ascii">
          3 3 3 3 3 3 3 3 3 3 3 3 3 3 3 3 3 3 3 3 3 3 3 3 3 3 3 3 3 3 3 3 3 3 3 3 3 3 3 3 3 3 3 3 3 3 3 3 3 3 3 3 3 3 3 3 3 3 3 3 3 3 3 3 3 3 3 3 3 3 3 3 3 3 3 3 3 3 3 3 3 3 3 3 3 3 3 3 3 3 3 3 3 3 3 3 3 3 3 3 3 3 3 3 3 3 3 3 3 3 3 3 3 3 3 3 3 3 3 3 3 3 3 3 3 3 3         </DataArray>
      </Cells>
    </Piece>
  </UnstructuredGrid>
</VTKFile>
