<?xml version="1.0"?>
<VTKFile type="UnstructuredGrid" version="0.1" byte_order="LittleEndian">
  <UnstructuredGrid>
    <Piece NumberOfPoints="128" NumberOfCells="127">
      <PointData Scalars="W">
        <DataArray type="Float32" Name="W" NumberOfComponents="2">
          0 0 0.70934374999294492 0.45455983642442516 1.0666166436208391 0.67111264716242747 1.3363616110125667 0.82020244064606895 1.5607804602281747 0.92953106391027562 1.756965785793569 1.0106621296532308 1.9338842710464192 1.0698883413158249 2.0968334919908469 1.1110901365244388 2.2492055100435095 1.1368705849059364 2.3932291225681692 1.149047422409631 2.5304797647323229 1.1489761917909616 2.6620442261619206 1.1376717516152526 2.7886712474523514 1.115912844434662 2.9108791096228419 1.084314474182243 3.0289897090387354 1.0433625283580144 3.1431913125057291 0.99345517268684314 3.2536570357765351 0.93495023010664613 3.3604005992433672 0.86812658767773021 3.4634015273347254 0.79323417198680402 3.5626274174803365 0.71050049803047421 3.6579930354888046 0.62012343404252757 3.7493476825271932 0.52227654428624737 3.8365218265512429 0.41712322249640776 3.9193305238574676 0.30481856401807478 3.9975420438572353 0.18550961897785684 4.0709785233724318 0.059342626802291416 4.1393779921109788 -0.073544151798445478 4.2024009937131783 -0.21300599150303717 4.2597847235619533 -0.35889282823439261 4.3115694686944668 -0.51109652383606852 4.3570797969401989 -0.66944230029527241 4.3960023496394793 -0.83376223806905925 4.4280058725475273 -1.003879749013548 4.4527635451955589 -1.179613195823332 4.469923774248258 -1.3607688693441491 4.4791236211614329 -1.5471415233469368 4.4798809586721617 -1.7384688549477165 4.4718531696388526 -1.9345185596307488 4.4547044276730094 -2.1350598205405427 4.4279540876088452 -2.3397845073470864 4.3911467367591719 -2.5483685283182163 4.3438522623985403 -2.7604791878524617 -1.7092067009509917 1.1157684027271382 -1.589147888992694 1.0027499875551176 -1.5477757102119538 0.94545669255778031 -1.4168261647202705 0.83917132867199884 -1.3713965934953321 0.78888387718465336 -1.2337281085695471 0.69044939192025911 -1.0917765148075522 0.59608885604241635 -1.0448539393535712 0.55756809038088251 -0.90065470800242575 0.47063801248032688 -0.75415644118141234 0.3870655853318023 -0.60591910627106538 0.30639602447271475 -0.34231848532077808 0.17130739553548371 13.677936804342576 -7.9180714335889615 12.637390312134089 -9.5979882891350243 11.38314131985087 -11.145241084731611 -0.84551032282661054 0.92945842744439466 -0.83252403408582087 0.89741557440771258 -0.88176836600653008 0.93187818333046835 -0.86830541921164595 0.89950803711457328 -0.8540372653419761 0.86769539414999164 -0.83922370727215656 0.83666534174400331 -0.82411713219586602 0.8066147216393097 -0.74301081185041962 0.71482450682774268 -0.7262554920009634 0.68760665544286348 -0.71069974922237877 0.662492387773711 -0.69500489681004773 0.63813649448759624 -0.68012184955921073 0.61534969462015643 -0.66622027643542037 0.59419397071106528 -0.65348795809042615 0.5747443108649064 -0.64207271651163189 0.55703765522571602 -0.63212057975539682 0.54110830783725883 -0.69358587151699025 0.58553972218549188 -0.68772755530730711 0.57228534481159277 -0.68370593446471351 0.56088090750066855 -0.68247934532348153 0.55199834716088836 -0.68247681512816027 0.54425803087690983 -0.68464131258092731 0.53833597799776167 -0.68907084313449551 0.53420836379537762 -0.69584540142190732 0.53183515685686134 -0.77565677372308794 0.58395024623137259 -0.78818525927448613 0.58394678383580778 -0.80332243855196528 0.58554140229366058 -0.82115179571222674 0.58867029955163575 -0.84175285277047629 0.59326085912598592 -0.86430526644794081 0.5986160106725984 -0.9613425032576125 0.65349888406261558 -0.99155039289186442 0.66068068891561171 -1.0248593541141944 0.66888936628235518 -1.061337859675302 0.67799324635836344 -1.1711938667222319 0.73113972566489716 -1.2143065543038458 0.73955882706832909 -1.261749301861963 0.74891038514900909 -1.3127269490293882 0.75845799300413386 -1.4370694970114068 0.80658834946600433 -1.4964344894368109 0.81412789167575295 -1.5596583731062517 0.82113822054591212 -1.6259352517496344 0.82691731021413195 -1.7666759209830891 0.86554466347487768 -1.8432615215549959 0.86729744998122005 -1.9242355880585751 0.86730024053354349 -2.0097612458389111 0.86522271988813482 -2.1000180873886749 0.86070761000175611 -2.1951913200051392 0.85336181395914212 -2.2955356629958903 0.8427752873101092 -2.4022605131618535 0.82880352823426862 -2.513754395976783 0.81025739158650123 -2.6313107867888959 0.78693277198521228 -2.7553923498916699 0.75821626910665485 -2.8875347015415849 0.72364487331932625 -3.0263480008837575 0.68187904272975619 -3.0979326611610283 0.61817299973866935 -3.2551691679679822 0.56382301872893237 -3.3434072501730894 0.48887190182921253 -3.5240401324824511 0.41745459982959632 3.3958364424846974 -0.40051265910915762 3.6021251260395935 -0.52673458154911468 3.4454289658927446 -0.60316798096435031 3.6720449583512726 -0.75138641922996674 3.1099635378400254 -0.72544865231766276 2.8665174676132343 -0.74233087888011207 2.5910771138997606 -0.73291274724069277 2.2868684051492973 -0.69658265606142622 1.108352829442212 -0.35462814205447502 -0.01513861586756297 0.0049192697366973164 -5.2879650617176086 1.591696697360784 0 0
        </DataArray>
        <DataArray type="Float32" Name="u" NumberOfComponents="1">
          0 0.007874015748031496 0.015748031496062992 0.023622047244094488 0.031496062992125984 0.03937007874015748 0.047244094488188976 0.055118110236220472 0.062992125984251968 0.070866141732283464 0.07874015748031496 0.086614173228346455 0.094488188976377951 0.10236220472440945 0.11023622047244094 0.11811023622047244 0.12598425196850394 0.13385826771653545 0.14173228346456693 0.14960629921259844 0.15748031496062992 0.16535433070866143 0.17322834645669291 0.18110236220472442 0.1889763779527559 0.19685039370078741 0.20472440944881889 0.2125984251968504 0.22047244094488189 0.2283464566929134 0.23622047244094488 0.24409448818897639 0.25196850393700787 0.25984251968503935 0.26771653543307089 0.27559055118110237 0.28346456692913385 0.29133858267716534 0.29921259842519687 0.30708661417322836 0.31496062992125984 0.32283464566929132 0.33070866141732286 0.33858267716535434 0.34645669291338582 0.3543307086614173 0.36220472440944884 0.37007874015748032 0.37795275590551181 0.38582677165354329 0.39370078740157483 0.40157480314960631 0.40944881889763779 0.41732283464566927 0.42519685039370081 0.43307086614173229 0.44094488188976377 0.44881889763779526 0.45669291338582679 0.46456692913385828 0.47244094488188976 0.48031496062992124 0.48818897637795278 0.49606299212598426 0.50393700787401574 0.51181102362204722 0.51968503937007871 0.52755905511811019 0.53543307086614178 0.54330708661417326 0.55118110236220474 0.55905511811023623 0.56692913385826771 0.57480314960629919 0.58267716535433067 0.59055118110236215 0.59842519685039375 0.60629921259842523 0.61417322834645671 0.62204724409448819 0.62992125984251968 0.63779527559055116 0.64566929133858264 0.65354330708661412 0.66141732283464572 0.6692913385826772 0.67716535433070868 0.68503937007874016 0.69291338582677164 0.70078740157480313 0.70866141732283461 0.71653543307086609 0.72440944881889768 0.73228346456692917 0.74015748031496065 0.74803149606299213 0.75590551181102361 0.76377952755905509 0.77165354330708658 0.77952755905511806 0.78740157480314965 0.79527559055118113 0.80314960629921262 0.8110236220472441 0.81889763779527558 0.82677165354330706 0.83464566929133854 0.84251968503937003 0.85039370078740162 0.8582677165354331 0.86614173228346458 0.87401574803149606 0.88188976377952755 0.88976377952755903 0.89763779527559051 0.90551181102362199 0.91338582677165359 0.92125984251968507 0.92913385826771655 0.93700787401574803 0.94488188976377951 0.952755905511811 0.96062992125984248 0.96850393700787396 0.97637795275590555 0.98425196850393704 0.99212598425196852 1
        </DataArray>
      </PointData>
      <CellData Scalars="P">
        <DataArray type="Float32" Name="P" NumberOfComponents="1">
          -0.029010864837829713 -0.084516878514267049 -0.13545541404309258 -0.18098790352881974 -0.22072698910525196 -0.25452177805516896 -0.28235588848832799 -0.304291546912414 -0.32043544942414259 -0.33091784820777864 -0.33587721244818269 -0.3354506840049879 -0.32976742501033518 -0.31894361234610658 -0.30307939968361225 -0.28225638433165007 -0.25653349698791017 -0.22594737232899148 -0.19051041506946526 -0.15020874848362706 -0.10500159698325487 -0.054821373281597079 0.00042724040300459645 0.060868150652380229 0.12665364368745158 0.19796709747725696 0.27502149836875805 0.35805782954906951 0.44734828252672526 0.54320779444131995 0.64597068185276707 0.75600331254841024 0.87370415725554385 0.99950464786055382 1.1338688914831072 1.2772938138208296 1.4303042460091286 1.5934591512320992 1.7673526892835885 1.9526073916297659 2.1498748917711117 2.3598368544980084 2.2047752478256806 2.0548593868544387 1.9063213237201888 1.7665299769160465 1.6305658606887141 1.5053905918081834 1.3915403165883269 1.2830004380180855 1.1858090363510954 1.0995204158054428 1.0233981237384633 0.96191120621180037 1.4942757873818657 1.9694693590356207 2.4084794674670889 2.3196201230889146 2.230514750803803 2.138544227476729 2.0472459156514979 1.9570494867316557 1.8683135091045664 1.7813299953937316 1.6992938985214243 1.6193285232841323 1.5414920575960613 1.4658678952819506 1.3924736566146343 1.3213007614028702 1.2523196568686703 1.1854866392861416 1.120748900355595 1.0567484592189313 0.99498228381028908 0.93541155321112324 0.87799598073219887 0.82271955869735613 0.76956651445508184 0.7185325265510234 0.66962555638056487 0.62354811608194538 0.57990001213663578 0.5387312303434092 0.50010210173091219 0.46408193424630373 0.4307250511162477 0.40206159724830604 0.37644328681035466 0.35395765749564728 0.33469014753442028 0.32123279260192156 0.31126536149292788 0.30488823608784998 0.30215905068715887 0.30600575840963523 0.31367743704037382 0.32519361972684124 0.34051747925235815 0.36272972298396977 0.38880211070170995 0.41869649415062798 0.4523606563244354 0.48972956374040116 0.53072664507083778 0.57526842843726977 0.62330768179798279 0.67471458729258127 0.72940657633291694 0.78731608896208782 0.84843897577300065 0.91272255162838911 0.97728590374136493 1.0452249518352157 1.1137428556507145 1.1860993833427311 1.0320619726421005 0.87292012693245191 0.72362671092981745 0.57357173146071438 0.44848420669874822 0.33835318225880151 0.24322335068432424 0.16218893127534764 0.10383770439806933 0.057048814278994907 0.025216845982249984
        </DataArray>
      </CellData>
      <Points>
        <DataArray type="Float32" NumberOfComponents="3" format="ascii">
          4.0352943037594908 6.6677982003637721 0
          4.0310226999908547 6.6744156321504917 0
          4.026795100254553 6.6810612658855675 0
          4.0226336675799583 6.6877485378311787 0
          4.0185551352846378 6.6944866989074203 0
          4.0145734250353442 6.7012825332756307 0
          4.0107007072161585 6.7081410757258686 0
          4.0069479571905067 6.715066002060893 0
          4.0033252839420062 6.7220598698240517 0
          3.9998421405016784 6.7291242797792474 0
          3.9965074622083123 6.7362599886686336 0
          3.9933297644348409 6.7434669932955229 0
          3.9903172099991044 6.7507445934712296 0
          3.987477655601579 6.7580914403133034 0
          3.9848186839645927 6.765505574385613 0
          3.9823476237868718 6.7729844558284089 0
          3.9800715614065725 6.7805249890467056 0
          3.9779973515231677 6.7881235448965294 0
          3.9761316180292554 6.7957759779749516 0
          3.9744807527196473 6.803477642114502 0
          3.973050913259351 6.8112234044885787 0
          3.9718480178727815 6.8190076578790642 0
          3.9708777359704635 6.8268243314378321 0
          3.9701454776063629 6.8346669008191157 0
          3.9696563819782451 6.8425283977990752 0
          3.9694153030245891 6.8504014193983682 0
          3.9694267983630276 6.858278136956816 0
          3.9696951130102138 6.8661503047155543 0
          3.9702241582939952 6.87400926880286 0
          3.9710174955212532 6.8818459765538966 0
          3.972078338450816 6.8896509832320847 0
          3.9734095113612149 6.8974144628880421 0
          3.9750134295832749 6.9051262187960276 0
          3.9768920789233468 6.9127756944312697 0
          3.9790469953628835 6.9203519847638173 0
          3.9814792432225725 6.9278438483046081 0
          3.9841893926244443 6.9352397198705766 0
          3.9871774895612853 6.9425277268930286 0
          3.9904430346244366 6.9496957038680884 0
          3.9939849621559231 6.9567312067180467 0
          3.9978016104189522 6.9636215319526782 0
          4.0018906933378648 6.9703537368238688 0
          4.0062492738121893 6.9769146600168979 0
          4.0105017184696239 6.9835446633652269 0
          4.0146554818052476 6.9902367297697152 0
          4.0187131391019495 6.9969873046994575 0
          4.0226828195880167 7.0037897909985674 0
          4.0265673495435079 7.0106410706633824 0
          4.030375274012191 7.017535035875631 0
          4.0341154031547557 7.0244658328645846 0
          4.0377906546693962 7.0314310765148518 0
          4.0414099770789571 7.0384253762114808 0
          4.0449824609341203 7.0454435509112958 0
          4.0485173040936422 7.0524806009262262 0
          4.0520308562588587 7.0595281496719959 0
          4.0563926073379069 7.0660846607772303 0
          4.0615380233101481 7.0720459603648225 0
          4.0673893180898295 7.0773161032612268 0
          4.073188108137856 7.0826438161427401 0
          4.0789352058391586 7.0880271147201794 0
          4.0846275660760201 7.0934681403680848 0
          4.0902660301225167 7.0989648887613486 0
          4.0958514889480186 7.1045153904201772 0
          4.1013848671163196 7.1101177246531417 0
          4.1068671071435316 7.1157700317460799 0
          4.1123032426528336 7.1214666232698383 0
          4.1176943181577483 7.1272058158903064 0
          4.1230413036062252 7.1329860568957208 0
          4.1283451773680673 7.1388058407495931 0
          4.1336068672878818 7.1446637593436355 0
          4.1388272401659885 7.1505585058162513 0
          4.1440070901152479 7.1564888791773109 0
          4.1491471293938496 7.1624537865737823 0
          4.1542479793480362 7.1684522453922712 0
          4.1593058329922412 7.1744870151547486 0
          4.1643210572034022 7.1805572788686645 0
          4.1692939047605346 7.1866623342226799 0
          4.1742244549116894 7.192801635217716 0
          4.1791127107761605 7.1989747066200751 0
          4.1839585408648707 7.2051811858500123 0
          4.1887616729920758 7.2114208214852109 0
          4.1935216893031821 7.2176934707605822 0
          4.1982336420990718 7.2240023680023526 0
          4.2028967559466244 7.2303475168911575 0
          4.2075100933574268 7.2367290200274583 0
          4.2120725495989202 7.2431470749602065 0
          4.2165828477515861 7.2496019696697811 0
          4.2210395895826789 7.2560940393532762 0
          4.2254367563838278 7.2626266882334614 0
          4.2297724743177838 7.2692003641206959 0
          4.2340446769077218 7.2758155782469931 0
          4.2382511007870027 7.2824728970898169 0
          4.2423849303619559 7.2891756158277561 0
          4.2464434900576569 7.2959242577844687 0
          4.2504238354391122 7.3027194037798804 0
          4.2543228025471524 7.3095616464808328 0
          4.2581326757025986 7.3164539684938941 0
          4.2618497701428018 7.3233968371647151 0
          4.2654701615486772 7.3303906866829784 0
          4.2689897360676952 7.3374358745741608 0
          4.2723997598780263 7.344534792494656 0
          4.2756954794262274 7.3516875474081038 0
          4.2788718688899987 7.358894137401534 0
          4.2819236200969772 7.3661544312037561 0
          4.2848451314251621 7.3734681460351936 0
          4.2876304963580374 7.3808348232411092 0
          4.2902734877297197 7.3882538028768066 0
          4.2927674827430211 7.3957242147284727 0
          4.2951055630018953 7.4032449046708004 0
          4.2972804343141418 7.4108144220059211 0
          4.2992843980408209 7.4184309814623077 0
          4.3011092558810597 7.4260924344868791 0
          4.3027463961481578 7.4337961863147664 0
          4.3041913782332601 7.4415382847710303 0
          4.3054344482927744 7.4493153547694719 0
          4.3064701331972097 7.4571227472474888 0
          4.3072872284653201 7.4649560291444796 0
          4.3083148836088752 7.4727639389615508 0
          4.3095658671235322 7.4805387611090719 0
          4.311030444760779 7.4882758517843202 0
          4.312722662700911 7.4959661205467221 0
          4.3146076707524843 7.5036112565391218 0
          4.3166703869920324 7.511210297314979 0
          4.3188937531160523 7.5187639056302249 0
          4.3212589321690702 7.5262744063466851 0
          4.3236928842075102 7.5337630807875717 0
          4.3261259780789487 7.5412523080613276 0
          4.3282312950410162 7.5488407128828223 0
        </DataArray>
      </Points>
      <Cells>
        <DataArray type="Int32" Name="connectivity" format="ascii">
          0 1 1 2 2 3 3 4 4 5 5 6 6 7 7 8 8 9 9 10 10 11 11 12 12 13 13 14 14 15 15 16 16 17 17 18 18 19 19 20 20 21 21 22 22 23 23 24 24 25 25 26 26 27 27 28 28 29 29 30 30 31 31 32 32 33 33 34 34 35 35 36 36 37 37 38 38 39 39 40 40 41 41 42 42 43 43 44 44 45 45 46 46 47 47 48 48 49 49 50 50 51 51 52 52 53 53 54 54 55 55 56 56 57 57 58 58 59 59 60 60 61 61 62 62 63 63 64 64 65 65 66 66 67 67 68 68 69 69 70 70 71 71 72 72 73 73 74 74 75 75 76 76 77 77 78 78 79 79 80 80 81 81 82 82 83 83 84 84 85 85 86 86 87 87 88 88 89 89 90 90 91 91 92 92 93 93 94 94 95 95 96 96 97 97 98 98 99 99 100 100 101 101 102 102 103 103 104 104 105 105 106 106 107 107 108 108 109 109 110 110 111 111 112 112 113 113 114 114 115 115 116 116 117 117 118 118 119 119 120 120 121 121 122 122 123 123 124 124 125 125 126 126 127 
        </DataArray>
        <DataArray type="Int32" Name="offsets" format="ascii">
          2 4 6 8 10 12 14 16 18 20 22 24 26 28 30 32 34 36 38 40 42 44 46 48 50 52 54 56 58 60 62 64 66 68 70 72 74 76 78 80 82 84 86 88 90 92 94 96 98 100 102 104 106 108 110 112 114 116 118 120 122 124 126 128 130 132 134 136 138 140 142 144 146 148 150 152 154 156 158 160 162 164 166 168 170 172 174 176 178 180 182 184 186 188 190 192 194 196 198 200 202 204 206 208 210 212 214 216 218 220 222 224 226 228 230 232 234 236 238 240 242 244 246 248 250 252 254 
        </DataArray>
        <DataArray type="Int32" Name="types" format="ascii">
          3 3 3 3 3 3 3 3 3 3 3 3 3 3 3 3 3 3 3 3 3 3 3 3 3 3 3 3 3 3 3 3 3 3 3 3 3 3 3 3 3 3 3 3 3 3 3 3 3 3 3 3 3 3 3 3 3 3 3 3 3 3 3 3 3 3 3 3 3 3 3 3 3 3 3 3 3 3 3 3 3 3 3 3 3 3 3 3 3 3 3 3 3 3 3 3 3 3 3 3 3 3 3 3 3 3 3 3 3 3 3 3 3 3 3 3 3 3 3 3 3 3 3 3 3 3 3         </DataArray>
      </Cells>
    </Piece>
  </UnstructuredGrid>
</VTKFile>
