<?xml version="1.0"?>
<VTKFile type="UnstructuredGrid" version="0.1" byte_order="LittleEndian">
  <UnstructuredGrid>
    <Piece NumberOfPoints="128" NumberOfCells="127">
      <PointData Scalars="W">
        <DataArray type="Float32" Name="W" NumberOfComponents="2">
          0 0 0.53580708870466409 -0.32346197726684572 0.81733411298348713 -0.5003994279421754 1.031567559544815 -0.64376519398638843 1.2072732392843366 -0.77102306663573472 1.3561598192951034 -0.88924642489840089 1.4844997105935289 -1.002177999449535 1.5960832393067581 -1.1120327139602233 1.6933961555087191 -1.2202189441338371 1.7780867389024533 -1.3276146728951463 1.8513531624296553 -1.434811254338046 1.9140524557406191 -1.5421734269401852 1.9668000515493875 -1.6498953326776713 2.0100056444661227 -1.7580084208822653 2.0439546346425872 -1.8664293494043771 2.0688704174297015 -1.9750019585333556 2.0849860612764597 -2.083561072039303 2.0924376666470885 -2.1918253464901682 2.0913652248382273 -2.2994839091083348 2.0819253104452087 -2.4062104524789154 2.0642686732391011 -2.5116376385729327 2.0385403191008491 -2.6153499149948263 2.0049192559125983 -2.7169282325202975 1.9636197955688841 -2.8159564232132515 1.9148521755958221 -2.9119652346512566 1.858911269403225 -3.0045633941483514 1.7960886636831965 -3.0933161861829799 1.7266718787525746 -3.1777265598833546 1.6510245810128699 -3.2573724590282125 1.5696907634177966 -3.332173111113665 1.4829359513859224 -3.4014618287116951 1.3912231637994281 -3.4649006156008499 1.2950361585650885 -3.5221683727104476 1.1948954992664638 -3.5730150745877602 1.09133273910288 -3.6172112920305488 0.98489834684437827 -3.6545830229167069 0.87613001781339384 -3.6849019345453908 0.76561490156755929 -3.7081400152349158 0.65393650027032257 -3.724349614005658 0.54163936538676893 -3.733473169017488 0.42927245539287445 -3.7355372821590365 0.31737747834687519 -3.7306527028686234 -0.55122037078567998 5.8846281248675831 -0.82532106483962564 5.8581346431419856 -1.1018597261631349 5.835031042868013 -1.3757804039939721 5.7861705607568252 -1.6484052381486154 5.7257409425312362 -1.9247573282343005 5.6683849592777076 -2.1951174918153011 5.5841879794312437 -2.4627908289674449 5.4876018601900274 -2.7352719753427199 5.3935082929520339 -2.9884570005686606 5.25637706456593 -3.244331569380837 5.1217429599343802 -3.4588075989825993 4.9254652617212891 7.3257175565827772 -11.095415036356679 6.1017134637496593 -11.748427933986878 4.8255620191799871 -12.260658874408618 0.56978696849801214 -1.743706585229319 0.41651108024762806 -1.3317742607325642 0.27320282592042489 -0.90264537504269426 0.13580882992146853 -0.45792767010514696 -0.00041065947728850691 0.001394269115652021 -0.1405778845044944 0.47387452449573636 -0.29032918753109282 0.95795114152750871 -0.6067952111075865 1.9197585921293479 -0.64723581466654789 1.9393270170612866 -0.68811963219978145 1.9556638154621497 -0.91550649567046505 2.4559662412759868 -0.97495426928380047 2.4584752108319119 -1.0341329697889787 2.4565548149207848 -1.0927976587971264 2.4503145505389932 -1.1506549623748832 2.4397649055751875 -1.2136044958062286 2.437054543151981 -1.5263528476383523 2.8920245623110032 -1.6027545937958518 2.8559999759456489 -1.6766849453302439 2.8150609421834285 -1.7477976318755473 2.769404168372434 -1.8158680102504172 2.7194054386689079 -1.8804169561791484 2.665046700780215 -1.9412650108876766 2.6067619919737406 -2.006331901890948 2.5549831950938819 -2.4214728694700463 2.9137077007634336 -2.4932222612730319 2.8246958925502064 -2.5594394415567367 2.7324176686189507 -2.6197379658452391 2.6370840992290172 -2.6741262662469385 2.5393018808964327 -2.7320256880005038 2.4477963048843834 -2.7749220212199539 2.345983429804634 -2.811836502463235 2.2431164168313753 -2.8428349805767712 2.1396398923112674 -2.8680466383324661 2.0359988128435544 -2.8978138752672238 1.9392241310673413 -2.9122624059853108 1.8358897824009863 -3.4219133997372082 2.0200303241771294 -3.452184330043981 1.8954553761312576 -3.4660353088214544 1.7662918511905703 -3.4738796023022767 1.6390771666917765 -3.4761037893787914 1.5141548906276054 -3.483742377469881 1.395900547425645 -3.4762633042680329 1.2758138623033799 -3.4645048097918218 1.1588072371509668 -4.0224377200640662 1.2085083193132637 -4.0128591071290298 1.063127941294993 -4.0094611612466462 0.92372858998344731 -3.9919560801878604 0.78520710104715119 -4.5816932742542509 0.73904732500669323 -4.5641600707309742 0.56676951572274314 -4.5432588691559346 0.39846431125819731 -5.1568857231843195 0.25389730098666002 -5.1212182366421848 0.044561270052954051 -5.0942209639137328 -0.16068141304658912 -5.7238304080709153 -0.42547990283602483 -5.680483609232323 -0.68105196503185517 -5.6485241741303467 -0.93704186158913472 -5.6183023363333895 -1.1948873874238128 -5.5795001945436677 -1.4536931656185548 -5.5565924952945593 -1.7218162008890538 -3.6375742828033237 -1.2809353496184723 -3.4833581482383127 -1.3449446730798773 -3.4089359096287155 -1.4321997774179296 -3.1620646215841437 -1.4348295496890446 -3.1901732236616338 -1.5553647036679534 -3.051170965960333 -1.5930427652838499 -2.8255881407308747 -1.571165555559412 -2.460913972620292 -1.4467268964192614 -1.5417595852250334 -0.94491170159271709 -1.0230058517373586 -0.64383380415631497 0 0
        </DataArray>
        <DataArray type="Float32" Name="u" NumberOfComponents="1">
          0 0.007874015748031496 0.015748031496062992 0.023622047244094488 0.031496062992125984 0.03937007874015748 0.047244094488188976 0.055118110236220472 0.062992125984251968 0.070866141732283464 0.07874015748031496 0.086614173228346455 0.094488188976377951 0.10236220472440945 0.11023622047244094 0.11811023622047244 0.12598425196850394 0.13385826771653545 0.14173228346456693 0.14960629921259844 0.15748031496062992 0.16535433070866143 0.17322834645669291 0.18110236220472442 0.1889763779527559 0.19685039370078741 0.20472440944881889 0.2125984251968504 0.22047244094488189 0.2283464566929134 0.23622047244094488 0.24409448818897639 0.25196850393700787 0.25984251968503935 0.26771653543307089 0.27559055118110237 0.28346456692913385 0.29133858267716534 0.29921259842519687 0.30708661417322836 0.31496062992125984 0.32283464566929132 0.33070866141732286 0.33858267716535434 0.34645669291338582 0.3543307086614173 0.36220472440944884 0.37007874015748032 0.37795275590551181 0.38582677165354329 0.39370078740157483 0.40157480314960631 0.40944881889763779 0.41732283464566927 0.42519685039370081 0.43307086614173229 0.44094488188976377 0.44881889763779526 0.45669291338582679 0.46456692913385828 0.47244094488188976 0.48031496062992124 0.48818897637795278 0.49606299212598426 0.50393700787401574 0.51181102362204722 0.51968503937007871 0.52755905511811019 0.53543307086614178 0.54330708661417326 0.55118110236220474 0.55905511811023623 0.56692913385826771 0.57480314960629919 0.58267716535433067 0.59055118110236215 0.59842519685039375 0.60629921259842523 0.61417322834645671 0.62204724409448819 0.62992125984251968 0.63779527559055116 0.64566929133858264 0.65354330708661412 0.66141732283464572 0.6692913385826772 0.67716535433070868 0.68503937007874016 0.69291338582677164 0.70078740157480313 0.70866141732283461 0.71653543307086609 0.72440944881889768 0.73228346456692917 0.74015748031496065 0.74803149606299213 0.75590551181102361 0.76377952755905509 0.77165354330708658 0.77952755905511806 0.78740157480314965 0.79527559055118113 0.80314960629921262 0.8110236220472441 0.81889763779527558 0.82677165354330706 0.83464566929133854 0.84251968503937003 0.85039370078740162 0.8582677165354331 0.86614173228346458 0.87401574803149606 0.88188976377952755 0.88976377952755903 0.89763779527559051 0.90551181102362199 0.91338582677165359 0.92125984251968507 0.92913385826771655 0.93700787401574803 0.94488188976377951 0.952755905511811 0.96062992125984248 0.96850393700787396 0.97637795275590555 0.98425196850393704 0.99212598425196852 1
        </DataArray>
      </PointData>
      <CellData Scalars="P">
        <DataArray type="Float32" Name="P" NumberOfComponents="1">
          0.00017523342172417723 0.0019208556412056625 0.0064862957119363194 0.014737651717693456 0.027297910390326113 0.044629227932262233 0.067071994988430389 0.094865837390326627 0.12816229408979074 0.167031342113238 0.21146696355262679 0.26139009212352293 0.31665040044934029 0.37702649419233769 0.44222659459097918 0.51189017953112426 0.58559172267931758 0.66284077003901454 0.74308530346658819 0.82571591825183743 0.91006953628946308 0.99543343154472108 1.0810513110941529 1.1661300526451843 1.2498453011936339 1.3313514021641148 1.4097881161424379 1.4842877390271032 1.5539861571317179 1.618038450098348 1.6756158156443639 1.7259224611539834 1.7682052911167514 1.8017640885572392 1.8259605963262222 1.8402275257479119 1.8440767089435299 1.8371074738088418 1.8190125344176526 1.7895838903290331 1.748717969381671 1.6964190986704042 1.7855919022941782 1.886218043183999 1.9984362022797013 2.1216550718094882 2.2553737463145893 2.3993025515089115 2.5521925652447832 2.7129602065196572 2.8808077661485072 3.0532338015702107 3.2290240397533778 3.4044018858229381 2.9786256380505889 2.509358115710481 2.0061182856310356 1.9420689203347012 1.8951533904210633 1.8662915246362568 1.8558293018800778 1.8635748097811302 1.8887922244221091 1.9302146053162075 2.0021982930761921 2.0696307015335309 2.1319230028440939 2.2016588080756794 2.2635655442835065 2.3172093203476369 2.3622631602252153 2.3985023098551794 2.4259326533071963 2.447784474393436 2.458645561885342 2.4587062623093616 2.4482630855422287 2.4277085832565506 2.3975239833822659 2.3582665201471311 2.3103663639048388 2.2449673360086693 2.1708518760252131 2.088924302395716 2.0001341864547086 1.905452099268055 1.8055129261224696 1.7016215834577404 1.5947500170931057 1.4858471423404764 1.3758282648878282 1.2651735193714686 1.1550960210606802 1.0274682964354556 0.90149243423260561 0.7783914179448953 0.6589394853772137 0.54384246354949695 0.4333927433562017 0.32850931372352904 0.22968825418676206 0.12167908832476017 0.02152392466924237 -0.07058055534163106 -0.15397820986468339 -0.23995158724055576 -0.31509942834129467 -0.37903215193565504 -0.43886953346215574 -0.48481724951391486 -0.51647461202838696 -0.53323251595318388 -0.53462671036471132 -0.52061537011143699 -0.49146377476681563 -0.44786697079136445 -0.39068118582376271 -0.34687924190622443 -0.29896739862019844 -0.24744070799510692 -0.19709869756824272 -0.14511741910828901 -0.09648822971072811 -0.054683163592158524 -0.023242710519872357 -0.0081057613498676118 -0.0013366346853792988
        </DataArray>
      </CellData>
      <Points>
        <DataArray type="Float32" NumberOfComponents="3" format="ascii">
          3.7515826250818987 8.7631712207325698 0
          3.7556354565087435 8.769922181793163 0
          3.7597215099144785 8.7766530902857376 0
          3.7638582411232266 8.7833529772298089 0
          3.768058933592672 8.7900129547895709 0
          3.7723344820148133 8.7966251336504406 0
          3.7766941182947669 8.8031821845081453 0
          3.7811458004547935 8.8096771060276726 0
          3.7856964476359449 8.8161030875136106 0
          3.7903520942079725 8.8224534215807395 0
          3.7951179919501907 8.8287214497068298 0
          3.7999986843210789 8.8349005255560922 0
          3.8049980595732049 8.8409839923541949 0
          3.810119388885866 8.8469651708426529 0
          3.8153653517392541 8.8528373573236134 0
          3.8207380535804103 8.8585938288259616 0
          3.82623903964378 8.8642278527909433 0
          3.8318693093715432 8.869732697322064 0
          3.8376293248226347 8.8751016486433123 0
          3.8435190193249897 8.880328030394061 0
          3.849537807159471 8.8854052238869805 0
          3.8556845928872621 8.8903266909156482 0
          3.8619577803270455 8.8950859995568798 0
          3.8683552836476474 8.8996768501944015 0
          3.8748745406581255 8.9040931013674438 0
          3.8815125258547516 8.9083287989130984 0
          3.8882657687262405 8.9123782002744996 0
          3.8951303718663239 8.9162358015018022 0
          3.9021020288457264 8.9198963681154897 0
          3.9091760468171124 8.9233549613150043 0
          3.9163473803122026 8.9266069430198147 0
          3.9236106477832968 8.9296480172305248 0
          3.9309601603997013 8.9324742509991246 0
          3.9383899521379053 8.9350820943389451 0
          3.9458938121596696 8.9374683957136334 0
          3.9534653178749863 8.9396304162336939 0
          3.9610978691786491 8.9415658404001945 0
          3.9687847218927033 8.9432727902004689 0
          3.97651902426988 8.9447498267671843 0
          3.9842938532623009 8.9459959470394494 0
          3.9921022483636417 8.9470105872243693 0
          3.9999372457097881 8.9477936210280493 0
          4.0077919117123741 8.9483453526596239 0
          4.0156123980653664 8.9492619317813009 0
          4.023381718123769 8.9505417166786216 0
          4.031082735103543 8.9521832775255081 0
          4.0386984755277497 8.9541835896073803 0
          4.0462120471419034 8.956538913313473 0
          4.0536063271428855 8.9592457023248926 0
          4.0608645648465238 8.9622987493498716 0
          4.0679701764100953 8.9656920825545097 0
          4.0749062794868456 8.9694198885841949 0
          4.0816571882830122 8.9734736903733605 0
          4.0882070489946623 8.977845170589795 0
          4.0945425749449562 8.9825221959592003 0
          4.101332570859773 8.9865112481959226 0
          4.1085011900312463 8.9897717880459478 0
          4.1159693497585597 8.9922719909605213 0
          4.1234726821458301 8.994663989239557 0
          4.1310016855207721 8.9969733400451517 0
          4.1385474777829607 8.9992266640699672 0
          4.1461015450004828 9.0014515459263738 0
          4.1536554474887986 9.0036764732277508 0
          4.1612005022501108 9.0059307471240952 0
          4.1687274335869535 9.0082443857148249 0
          4.1762166207978737 9.0106770245325958 0
          4.1836655809697172 9.0132298792664347 0
          4.1910718006707492 9.0159039656304927 0
          4.198421194628823 9.0187303043656133 0
          4.2057100957304812 9.0217090544462728 0
          4.2129348505794502 9.0248401005537673 0
          4.2200918348628491 9.0281230596735522 0
          4.2271774717402177 9.0315572815698211 0
          4.2341878662992141 9.0351426018566059 0
          4.2411036355819904 9.0389072330675422 0
          4.2479200481952839 9.0428489458764894 0
          4.2546325238814919 9.0469652057827883 0
          4.2612366552584202 9.0512531851742395 0
          4.2677282220226562 9.0557097865287002 0
          4.2741032209251175 9.0603316412290091 0
          4.2803578771640911 9.065115136444021 0
          4.2864881537353021 9.0700570620533085 0
          4.292468313589314 9.0751796651771048 0
          4.2982939043582729 9.0804774268808721 0
          4.3039608163183951 9.085944624853326 0
          4.3094653065681605 9.0915753465601234 0
          4.3148039987015947 9.097363526957027 0
          4.3199732989536521 9.103303489788134 0
          4.3249705439917321 9.1093889190911401 0
          4.3297934418215576 9.1156134332250893 0
          4.3344400677801342 9.1219706125761206 0
          4.3389088565739238 9.1284540272830572 0
          4.3431979611399507 9.1350576735031854 0
          4.3473064846918197 9.1417751406853469 0
          4.3512028311194566 9.1486178518053851 0
          4.3548851229101428 9.1555780799693185 0
          4.3583525010504767 9.1626478138709953 0
          4.3616044794223017 9.1698191633970332 0
          4.3646409207739021 9.1770843809956375 0
          4.3674613525343453 9.1844361331773339 0
          4.3700662396637124 9.191866973177504 0
          4.3724563126450784 9.199369645718507 0
          4.3745969817960182 9.2069472395641956 0
          4.3764888419448162 9.2145907406129322 0
          4.3781321047911126 9.2222915061698441 0
          4.3795278566676936 9.2300409482862964 0
          4.3806395345193785 9.2378362129059823 0
          4.3814682255381303 9.2456666197270643 0
          4.3820152255959846 9.2535217355133401 0
          4.3822424882764759 9.2613926080632538 0
          4.3821522230935885 9.2692662637791265 0
          4.3817461009046426 9.2771299853974654 0
          4.3809851032537619 9.2849671634057067 0
          4.3798719141804643 9.2927621082194527 0
          4.3784084877135161 9.3004990826102247 0
          4.3765966510668521 9.30816220923343 0
          4.374438749331528 9.3157355244354232 0
          4.3719361328784645 9.3232024585650386 0
          4.3692077194782071 9.3305904716555759 0
          4.3662630000774891 9.337895642026977 0
          4.3631065198980741 9.3451125810237272 0
          4.3597535245942343 9.352241142372705 0
          4.3562022104702471 9.3592738298961891 0
          4.3524611467218977 9.3662082858991642 0
          4.348544282433326 9.3730458475148009 0
          4.3444742061613617 9.3797942287815648 0
          4.3403079259892268 9.3864846382526679 0
          4.3360776168557447 9.3931358005091763 0
        </DataArray>
      </Points>
      <Cells>
        <DataArray type="Int32" Name="connectivity" format="ascii">
          0 1 1 2 2 3 3 4 4 5 5 6 6 7 7 8 8 9 9 10 10 11 11 12 12 13 13 14 14 15 15 16 16 17 17 18 18 19 19 20 20 21 21 22 22 23 23 24 24 25 25 26 26 27 27 28 28 29 29 30 30 31 31 32 32 33 33 34 34 35 35 36 36 37 37 38 38 39 39 40 40 41 41 42 42 43 43 44 44 45 45 46 46 47 47 48 48 49 49 50 50 51 51 52 52 53 53 54 54 55 55 56 56 57 57 58 58 59 59 60 60 61 61 62 62 63 63 64 64 65 65 66 66 67 67 68 68 69 69 70 70 71 71 72 72 73 73 74 74 75 75 76 76 77 77 78 78 79 79 80 80 81 81 82 82 83 83 84 84 85 85 86 86 87 87 88 88 89 89 90 90 91 91 92 92 93 93 94 94 95 95 96 96 97 97 98 98 99 99 100 100 101 101 102 102 103 103 104 104 105 105 106 106 107 107 108 108 109 109 110 110 111 111 112 112 113 113 114 114 115 115 116 116 117 117 118 118 119 119 120 120 121 121 122 122 123 123 124 124 125 125 126 126 127 
        </DataArray>
        <DataArray type="Int32" Name="offsets" format="ascii">
          2 4 6 8 10 12 14 16 18 20 22 24 26 28 30 32 34 36 38 40 42 44 46 48 50 52 54 56 58 60 62 64 66 68 70 72 74 76 78 80 82 84 86 88 90 92 94 96 98 100 102 104 106 108 110 112 114 116 118 120 122 124 126 128 130 132 134 136 138 140 142 144 146 148 150 152 154 156 158 160 162 164 166 168 170 172 174 176 178 180 182 184 186 188 190 192 194 196 198 200 202 204 206 208 210 212 214 216 218 220 222 224 226 228 230 232 234 236 238 240 242 244 246 248 250 252 254 
        </DataArray>
        <DataArray type="Int32" Name="types" format="ascii">
          3 3 3 3 3 3 3 3 3 3 3 3 3 3 3 3 3 3 3 3 3 3 3 3 3 3 3 3 3 3 3 3 3 3 3 3 3 3 3 3 3 3 3 3 3 3 3 3 3 3 3 3 3 3 3 3 3 3 3 3 3 3 3 3 3 3 3 3 3 3 3 3 3 3 3 3 3 3 3 3 3 3 3 3 3 3 3 3 3 3 3 3 3 3 3 3 3 3 3 3 3 3 3 3 3 3 3 3 3 3 3 3 3 3 3 3 3 3 3 3 3 3 3 3 3 3 3         </DataArray>
      </Cells>
    </Piece>
  </UnstructuredGrid>
</VTKFile>
