<?xml version="1.0"?>
<VTKFile type="UnstructuredGrid" version="0.1" byte_order="LittleEndian">
  <UnstructuredGrid>
    <Piece NumberOfPoints="128" NumberOfCells="127">
      <PointData Scalars="W">
        <DataArray type="Float32" Name="W" NumberOfComponents="2">
          0 0 0.4428759937665917 0.5213474118557091 0.66931813687182984 0.77724632761135604 0.8455860741157748 0.96407852379137393 0.99684912613581522 1.1117899782681373 1.1333007897654623 1.2326906748681512 1.2603182230325209 1.333391368304945 1.3810862320459374 1.4178896237018925 1.4976520001299496 1.4888113930003515 1.6113557837494941 1.5479313614292418 1.7231587334670169 1.5965500490845488 1.8337148732874984 1.6355954142760807 1.9434677786996168 1.6657424725888439 2.0527099640722888 1.6874881578531844 2.1616124547429592 1.701193965245434 2.2702574863694016 1.7071269015132478 2.3787311388238979 1.7055364205285779 2.4869978339171208 1.6965650978597355 2.5949994854165204 1.6803324494200147 2.7026752240937886 1.6569479371147686 2.8099234596470741 1.6264873812572977 2.9165882037319233 1.5889916612600856 3.0224979186650396 1.5444947950160026 3.1274680436235549 1.4930262227405693 3.2312706308386985 1.4345986175267702 3.3337284122556823 1.3692519450650655 3.4345878831951793 1.2969959756058402 3.5335213696965351 1.217824653742867 3.6302699402538563 1.1317715374386674 3.7248731190629809 1.0389552401944826 3.8166850571750932 0.93929344228536504 3.9054017504152534 0.83283900679498069 3.9907023324097386 0.71965275711197796 4.0722660322340287 0.5998081436936592 4.1497538467706052 0.47338864907383033 4.2228299923102552 0.3404921154029838 4.2910348668337459 0.20122571155009292 4.3540611214993623 0.05572970350697435 4.4116208653801445 -0.095848697768176339 4.463277182444056 -0.25334736146043829 4.5086261764515827 -0.4165778390319087 4.5472938716878382 -0.58533130947888945 -2.4038469241155043 0.33021835453990173 -2.0364305079744498 0.24325211028886354 14.420592122981834 -2.4522102857470358 14.111442837393033 -4.1186402325401961 13.604366419783419 -5.753136728192878 12.90098041887075 -7.3306966745571636 12.009929986505183 -8.8287715545659768 10.937355541878485 -10.222244556895873 9.6953584690978367 -11.487890620148661 -2.9738620298493159 3.8251821117448768 -3.0840211722599844 3.6704781914067799 -3.181028776589629 3.5096621909999919 -2.551063689894471 2.633973665884533 -2.5777598631482745 2.51347626078624 -2.5698809679280443 2.3694074490051524 -2.5631299138977495 2.2375078027337789 -2.5628668241378292 2.1203135091337204 -2.5254634011160082 1.9821397279019133 -2.478938747962327 1.8480948752394879 -2.4558981229423842 1.7407128521532886 -2.3943641044101636 1.6148959029824874 -2.3247000372908246 1.4937545016851146 -2.2492224576603657 1.3785744947696879 -2.2041399309904581 1.289719763173574 -2.1177120404080596 1.1840337359081161 -2.0661128790222856 1.1047837608667601 -2.0131053634598519 1.0299582785835459 -1.9579254802712451 0.95890609921738013 -1.901650932635766 0.89193074701426522 -1.844722907069352 0.82897146759900053 -1.7875615639097451 0.76994427088762385 -1.6888447325158495 0.6978648609376531 -1.6319343577954935 0.64755048379283342 -1.5759727499184706 0.60075429977059136 -1.5219721087222313 0.55758171350457075 -1.4688809899912865 0.51737885680829643 -1.4176679238221828 0.4802588871296869 -1.3686075387014411 0.4460697839897681 -1.3219586199269322 0.41465911903463837 -1.277981578572271 0.38588014913587398 -1.2368748430275511 0.35957323728422969 -1.1988732602718999 0.33559643512681958 -1.1641847339243623 0.31380567772064377 -1.1330076288629527 0.29406014343208303 -1.1055318364839788 0.2762221667262082 -1.0819567825016319 0.26016092873710278 -1.0624277676304839 0.24573634297727573 -1.0471334618779826 0.23282193070436508 -1.0362433689473867 0.22128795828834752 -1.0299404664246725 0.21100744219242729 -1.0283601866099312 0.20184202531996376 -1.0316854621762579 0.19365998618818328 -1.0400848588576135 0.18632094235164409 -1.0537452391479918 0.17967981245664838 -1.0735543724995313 0.17369089653516606 -1.1427816893800189 0.17454685628581548 -1.1733767363355401 0.16816576979031125 -1.2099794940428632 0.16172886443168841 -1.2527735789043475 0.15499797886290617 -1.301999319832605 0.14771414270467276 -1.3578968776057394 0.13958425490531928 -1.4207230262561477 0.13027768529733641 -1.4915280600224547 0.11947734280295934 -1.524104590891826 0.10383985686255724 -1.6093776180778059 0.089678167465030892 -1.7036346984221773 0.072624937704097919 -1.8056524150770819 0.051974586792351445 -1.9166503469407197 0.027056632098906543 -1.9913413162934532 -0.0025358723135923923 -2.1217382197327126 -0.037072322685722747 -2.2635487129336647 -0.07868017758414228 -2.3676675985967433 -0.12560623063153126 -2.5319506446402271 -0.18346642645424621 -2.6605416403805662 -0.24775163969102396 -2.7985803851346835 -0.32175596574855536 -3.0058353997631109 -0.41596244654459957 -3.1788055260395054 -0.51999607544446247 -3.5770924559678985 -0.68488130791862101 -3.7992800559437612 -0.84498424504137681 7.2898638871317578 1.5145572891595733 7.2264841021945738 1.0681924333179706 6.9045949193097069 0.62783256461074444 6.1141573030426422 0.24029336417024127 4.5890736108295922 -0.013239698074560161 -1.494889871374955 0.022527824802192072 0 0
        </DataArray>
        <DataArray type="Float32" Name="u" NumberOfComponents="1">
          0 0.007874015748031496 0.015748031496062992 0.023622047244094488 0.031496062992125984 0.03937007874015748 0.047244094488188976 0.055118110236220472 0.062992125984251968 0.070866141732283464 0.07874015748031496 0.086614173228346455 0.094488188976377951 0.10236220472440945 0.11023622047244094 0.11811023622047244 0.12598425196850394 0.13385826771653545 0.14173228346456693 0.14960629921259844 0.15748031496062992 0.16535433070866143 0.17322834645669291 0.18110236220472442 0.1889763779527559 0.19685039370078741 0.20472440944881889 0.2125984251968504 0.22047244094488189 0.2283464566929134 0.23622047244094488 0.24409448818897639 0.25196850393700787 0.25984251968503935 0.26771653543307089 0.27559055118110237 0.28346456692913385 0.29133858267716534 0.29921259842519687 0.30708661417322836 0.31496062992125984 0.32283464566929132 0.33070866141732286 0.33858267716535434 0.34645669291338582 0.3543307086614173 0.36220472440944884 0.37007874015748032 0.37795275590551181 0.38582677165354329 0.39370078740157483 0.40157480314960631 0.40944881889763779 0.41732283464566927 0.42519685039370081 0.43307086614173229 0.44094488188976377 0.44881889763779526 0.45669291338582679 0.46456692913385828 0.47244094488188976 0.48031496062992124 0.48818897637795278 0.49606299212598426 0.50393700787401574 0.51181102362204722 0.51968503937007871 0.52755905511811019 0.53543307086614178 0.54330708661417326 0.55118110236220474 0.55905511811023623 0.56692913385826771 0.57480314960629919 0.58267716535433067 0.59055118110236215 0.59842519685039375 0.60629921259842523 0.61417322834645671 0.62204724409448819 0.62992125984251968 0.63779527559055116 0.64566929133858264 0.65354330708661412 0.66141732283464572 0.6692913385826772 0.67716535433070868 0.68503937007874016 0.69291338582677164 0.70078740157480313 0.70866141732283461 0.71653543307086609 0.72440944881889768 0.73228346456692917 0.74015748031496065 0.74803149606299213 0.75590551181102361 0.76377952755905509 0.77165354330708658 0.77952755905511806 0.78740157480314965 0.79527559055118113 0.80314960629921262 0.8110236220472441 0.81889763779527558 0.82677165354330706 0.83464566929133854 0.84251968503937003 0.85039370078740162 0.8582677165354331 0.86614173228346458 0.87401574803149606 0.88188976377952755 0.88976377952755903 0.89763779527559051 0.90551181102362199 0.91338582677165359 0.92125984251968507 0.92913385826771655 0.93700787401574803 0.94488188976377951 0.952755905511811 0.96062992125984248 0.96850393700787396 0.97637795275590555 0.98425196850393704 0.99212598425196852 1
        </DataArray>
      </PointData>
      <CellData Scalars="P">
        <DataArray type="Float32" Name="P" NumberOfComponents="1">
          -0.017111996571423739 -0.049668873661746375 -0.079092006905858298 -0.10465594709527569 -0.12592242238094978 -0.14261364039002161 -0.1545509282275159 -0.16162063309117525 -0.16375274874202761 -0.16090775905290339 -0.15306621365330339 -0.14022252332244667 -0.122380471398444 -0.099549920368821598 -0.071744620316047572 -0.038980478104220576 -0.001272087364413064 0.041366425473795675 0.088922837537133634 0.14138850603210781 0.19875856603569664 0.26103138300249251 0.32820899836658268 0.40029748772552509 0.47730615301278217 0.55924974393000826 0.64614630144195417 0.73801487259334775 0.83487806942560583 0.93677289030695921 1.043726464918914 1.1557681407823923 1.2729287772653726 1.395240593153483 1.522736268398287 1.6554487854213553 1.7934062472641989 1.9366372997215713 2.0851715162223994 2.2390328906226937 2.3982404415288832 2.5628086928739964 2.430512378088598 2.3127705881159053 2.9320576935262594 3.5345321772858287 4.1236335016499446 4.7025617109476698 5.2742524450780053 5.8408983472529474 6.4038829306242011 6.1758478709187417 5.9168786995771692 5.6310897622072762 5.3867933114312043 5.1298869087154042 4.8657049087837372 4.5960793205403059 4.3220832507138205 4.0490839460592047 3.7794423995856201 3.5119565709536218 3.25169957401291 3.0003895724942056 2.7593224023314034 2.5260000447254476 2.3050175297298505 2.0932673803984154 1.8911885643876534 1.6991950104525972 1.5175089218379341 1.346232430667742 1.1853599307407046 1.0380639193054226 0.90075043511507313 0.77314945846679795 0.65488754064400068 0.54563967393306922 0.44499706075733508 0.35252573822974326 0.26777619161215027 0.19029155847063173 0.11961825241083593 0.055311125581626604 -0.0030588559100072684 -0.05589849867144106 -0.10358700882364728 -0.146471723505535 -0.1848631580696356 -0.21903303459450435 -0.24921151081300177 -0.27558562282927224 -0.29829811744397772 -0.31744762118207293 -0.33308904909443565 -0.34523469652567429 -0.35384645782793722 -0.35811453858018055 -0.35854514973594132 -0.3550106751731617 -0.34735755675201668 -0.33541029783064502 -0.31897726117029168 -0.29785674780703264 -0.27181709458237224 -0.24229764833658873 -0.20756645064112803 -0.16741699559604056 -0.12173362247190654 -0.070410284563956524 -0.015255393856540629 0.045574348081179751 0.1120424772457661 0.18200081568456863 0.25717036613923511 0.33527201649349536 0.41572928933307585 0.50002209212702442 0.58552661750559942 0.67831188415817301 0.77031769223589364 0.55223665492755913 0.35853902053938097 0.19925323928875294 0.083878071680438121 0.016582730252790116 0.0092653421044895014
        </DataArray>
      </CellData>
      <Points>
        <DataArray type="Float32" NumberOfComponents="3" format="ascii">
          3.9651211874965231 7.6626140784323322 0
          3.9591058941740132 7.6676961410577658 0
          3.9531180636247831 7.6728105334126875 0
          3.947171737437321 7.6779731243932332 0
          3.9412778458673001 7.6831955000029231 0
          3.9354457686202586 7.6884868203377152 0
          3.9296839669649954 7.6938545829431977 0
          3.9240003171798929 7.699305032755535 0
          3.9184023080487784 7.7048434099949787 0
          3.9128971678113507 7.7104741130035777 0
          3.9074919472761134 7.7162008082944018 0
          3.902193579424408 7.7220265111968374 0
          3.8970089199690561 7.7279536433984957 0
          3.8919447748627105 7.733984074801465 0
          3.887007918438564 7.7401191543351677 0
          3.8822051040171948 7.7463597323701476 0
          3.8775430690072388 7.7527061772722172 0
          3.8730285402442584 7.7591583908678636 0
          3.8686682317851564 7.7657158172816914 0
          3.8644688413065493 7.7723774503436687 0
          3.8604370463302926 7.7791418403727031 0
          3.8565794979234975 7.7860070988738581 0
          3.8529028110248613 7.7929709010686432 0
          3.8494135538063707 7.8000304879996714 0
          3.8461182362270163 7.8071826683513459 0
          3.8430232958955415 7.8144238192307052 0
          3.8401350870755389 7.8217498886407277 0
          3.8374598649624434 7.8291563960811406 0
          3.8350037653605629 7.8366384321678835 0
          3.8327727886225209 7.8441906607092067 0
          3.8307728020964875 7.8518073260565089 0
          3.8290095000706033 7.8594822479948272 0
          3.8274883849157573 7.8672088250167196 0
          3.8262147471821795 7.8749800380900883 0
          3.8251936457014275 7.8827884552094476 0
          3.8244298865572461 7.8906262365697231 0
          3.8239280022555935 7.8984851406310863 0
          3.8236922232157204 7.9063565307627215 0
          3.8237264587026876 7.9142313839397156 0
          3.8240342789662205 7.9221002998713281 0
          3.8246188881375454 7.9299535110552499 0
          3.8254830991736593 7.9377808944647539 0
          3.8266293106569185 7.9455719845000976 0
          3.8276264372365838 7.9533834630052844 0
          3.8284972679088023 7.9612099312651274 0
          3.8302623491333798 7.9688843383087731 0
          3.8329025114129429 7.9763033442707956 0
          3.8363863109103642 7.9833655892805417 0
          3.8406701297155315 7.9899732441096312 0
          3.8456987118637995 7.9960334085091862 0
          3.8514055441546104 8.0014596689924264 0
          3.8577136066363331 8.006173539222754 0
          3.8638372506602101 8.011124615272804 0
          3.8697696445457734 8.0163033026556185 0
          3.8755047722206983 8.021699627718343 0
          3.881081678362643 8.0272592652043961 0
          3.886498709518508 8.0329747405618956 0
          3.8917563557252373 8.0388371170519584 0
          3.8968550375081614 8.0448382130923264 0
          3.9017947735068392 8.0509707596260256 0
          3.9065778848830308 8.0572261862011132 0
          3.911207258500673 8.0635961787083925 0
          3.9156843256211591 8.0700740774094264 0
          3.9200129038883671 8.0766520790483014 0
          3.9241973150908005 8.0833226706408414 0
          3.9282422415158456 8.0900787092569448 0
          3.9321504811767842 8.0969146853564276 0
          3.9359273952395037 8.10382404542489 0
          3.9395761856412363 8.110801876160739 0
          3.9431001415304001 8.117843538905074 0
          3.9465026866183801 8.1249446292311589 0
          3.949787312356341 8.1321009957597461 0
          3.9529575505748595 8.1393087363759484 0
          3.9560169474292288 8.1465641930046679 0
          3.9589716252779921 8.1538628981716474 0
          3.9618251144661083 8.1612017345559416 0
          3.9645808863675369 8.168577803163009 0
          3.9672422906318952 8.1759884298443897 0
          3.9698126203749529 8.1834311247301432 0
          3.972295052135181 8.1909035892313113 0
          3.9746926288512605 8.1984037065962738 0
          3.977008243822123 8.2059295324421342 0
          3.9792446245662068 8.2134792856389822 0
          3.9814043205234393 8.2210513383952009 0
          3.9834896884988362 8.2286442074399684 0
          3.985502879775944 8.2362565450750242 0
          3.9874458278208542 8.243887130428055 0
          3.9893202365105824 8.2515348609023302 0
          3.9911275677691025 8.2591987440512433 0
          3.9928690325580076 8.2668778888792822 0
          3.9945455791767248 8.2745714979868854 0
          3.9961578827495816 8.2822788595142107 0
          3.9977063338758212 8.289999339255786 0
          3.9991910302260654 8.2977323720712093 0
          4.0006117651918123 8.3054774537072156 0
          4.0019680174240628 8.3132341320834833 0
          4.0032589392356881 8.3210019982872794 0
          4.0044833015386709 8.3287806837152552 0
          4.005636810647478 8.3365702430367872 0
          4.0067175683210259 8.3443702829794617 0
          4.0077233036206925 8.3521804066698344 0
          4.008651361506824 8.3600001988585859 0
          4.0094986879169934 8.3678292098540847 0
          4.0102618148533455 8.3756669373394903 0
          4.0109368444384135 8.3835128058620683 0
          4.0115193837586034 8.391366147136587 0
          4.0120074104818357 8.3992259942382308 0
          4.01239563396107 8.4070914701834418 0
          4.0126782060948365 8.4149615184406166 0
          4.0128487971748479 8.422834859215099 0
          4.0129005202224421 8.4307099478262248 0
          4.0128287396652702 8.4385849512225359 0
          4.012625364663303 8.4464577278105537 0
          4.0122815960829161 8.4543256971220568 0
          4.0117909720156009 8.462185950603736 0
          4.0111432985834536 8.4700348993043377 0
          4.0103305950412587 8.477868557556361 0
          4.0093442940326769 8.4856823368343708 0
          4.0081715345618711 8.4934703927912434 0
          4.0068015812843383 8.5012262734287152 0
          4.0052097235532562 8.5089397418313055 0
          4.0033821721004061 8.5166008662419426 0
          4.0020068776558571 8.5243556268371332 0
          4.0010798510594459 8.5321763620635203 0
          4.0005810793630516 8.5400357803529818 0
          4.0004615008301689 8.5479098584385138 0
          4.0006265061118373 8.5557828735471677 0
          4.0006988098129606 8.5636569587929614 0
        </DataArray>
      </Points>
      <Cells>
        <DataArray type="Int32" Name="connectivity" format="ascii">
          0 1 1 2 2 3 3 4 4 5 5 6 6 7 7 8 8 9 9 10 10 11 11 12 12 13 13 14 14 15 15 16 16 17 17 18 18 19 19 20 20 21 21 22 22 23 23 24 24 25 25 26 26 27 27 28 28 29 29 30 30 31 31 32 32 33 33 34 34 35 35 36 36 37 37 38 38 39 39 40 40 41 41 42 42 43 43 44 44 45 45 46 46 47 47 48 48 49 49 50 50 51 51 52 52 53 53 54 54 55 55 56 56 57 57 58 58 59 59 60 60 61 61 62 62 63 63 64 64 65 65 66 66 67 67 68 68 69 69 70 70 71 71 72 72 73 73 74 74 75 75 76 76 77 77 78 78 79 79 80 80 81 81 82 82 83 83 84 84 85 85 86 86 87 87 88 88 89 89 90 90 91 91 92 92 93 93 94 94 95 95 96 96 97 97 98 98 99 99 100 100 101 101 102 102 103 103 104 104 105 105 106 106 107 107 108 108 109 109 110 110 111 111 112 112 113 113 114 114 115 115 116 116 117 117 118 118 119 119 120 120 121 121 122 122 123 123 124 124 125 125 126 126 127 
        </DataArray>
        <DataArray type="Int32" Name="offsets" format="ascii">
          2 4 6 8 10 12 14 16 18 20 22 24 26 28 30 32 34 36 38 40 42 44 46 48 50 52 54 56 58 60 62 64 66 68 70 72 74 76 78 80 82 84 86 88 90 92 94 96 98 100 102 104 106 108 110 112 114 116 118 120 122 124 126 128 130 132 134 136 138 140 142 144 146 148 150 152 154 156 158 160 162 164 166 168 170 172 174 176 178 180 182 184 186 188 190 192 194 196 198 200 202 204 206 208 210 212 214 216 218 220 222 224 226 228 230 232 234 236 238 240 242 244 246 248 250 252 254 
        </DataArray>
        <DataArray type="Int32" Name="types" format="ascii">
          3 3 3 3 3 3 3 3 3 3 3 3 3 3 3 3 3 3 3 3 3 3 3 3 3 3 3 3 3 3 3 3 3 3 3 3 3 3 3 3 3 3 3 3 3 3 3 3 3 3 3 3 3 3 3 3 3 3 3 3 3 3 3 3 3 3 3 3 3 3 3 3 3 3 3 3 3 3 3 3 3 3 3 3 3 3 3 3 3 3 3 3 3 3 3 3 3 3 3 3 3 3 3 3 3 3 3 3 3 3 3 3 3 3 3 3 3 3 3 3 3 3 3 3 3 3 3         </DataArray>
      </Cells>
    </Piece>
  </UnstructuredGrid>
</VTKFile>
