<?xml version="1.0"?>
<VTKFile type="UnstructuredGrid" version="0.1" byte_order="LittleEndian">
  <UnstructuredGrid>
    <Piece NumberOfPoints="128" NumberOfCells="127">
      <PointData Scalars="W">
        <DataArray type="Float32" Name="W" NumberOfComponents="2">
          0 0 0.45965423401214767 0.29973552954612759 0.68435613083984936 0.44104580935479815 0.86344254964400413 0.5476655139946538 1.01950767850324 0.6342101373412441 1.1618374491426631 0.7066059691846468 1.2954647411561655 0.76798798181321815 1.4234494697418518 0.82018526303574102 1.5477981214939165 0.86432179907571771 1.6698439847893494 0.90107264870808579 1.790558691768722 0.9308633401526315 1.9106154256568597 0.95392025598244767 2.0304912399341521 0.9703390754696346 2.1504849897151832 0.98010624375222688 2.2707472491383758 0.98312657837164619 2.3913593702572431 0.97926849473606559 2.5123941719647269 0.96839107209013542 2.6337769721394939 0.95029187966452877 2.7554083001854388 0.92476414658906869 2.8771612058157769 0.89159591828657003 2.9988381358806104 0.85055884513199376 3.1201728354581557 0.80141615329058469 3.2408622203211626 0.74393721869117624 3.3605775821540358 0.67790245940095661 3.4789095934061725 0.60309556840523593 3.5954802535475907 0.51932866619664442 3.7098049493307235 0.42641977935616848 3.821298872302092 0.32420906486840639 3.9294158415273372 0.21257988707947628 4.0339058017444147 0.091451067214000939 4.1338004220685045 -0.03925745652972755 4.2284483259502483 -0.17954846535501484 4.3171512010309829 -0.32937634379610009 4.3992166123670273 -0.48864540388545441 4.473897340478878 -0.65720173217622335 4.5404402299751458 -0.83483110969296592 4.5979966386196942 -1.021234901202094 4.6458434939290481 -1.2160673155654409 4.683276899812161 -1.4189273636955444 4.7094572558313734 -1.6293033034279727 4.7235852732670054 -1.8466036670586621 4.7249328771811401 -2.0701724642120731 -3.9305914976396381 1.7380466086878896 -3.8889071976557843 1.5664025581435492 -3.8365082487496127 1.4018155324741306 -3.7748018567182648 1.2450057722115333 -3.7249775942638683 1.1020172723734172 -3.6477136357582403 0.96059128731643251 -3.5852695672568142 0.83247899341511822 -3.5180583985813034 0.71141712262460011 -3.4463863563023027 0.59736161658815268 -3.3709280106641133 0.49031630319042363 -3.2927418883332238 0.39027272332811319 -3.2128787406331889 0.29712186437645499 -3.1310830612394702 0.21059047420340271 -3.0695947155296075 0.13116618328284821 -2.9418808223201154 0.055971491135832732 -2.8349171764634424 -0.010554197473710397 -2.7271180510003057 -0.069897971560650529 -2.6191694898501883 -0.12237527168960954 -2.5117633400653183 -0.16834759795900506 -2.4045904452119138 -0.20812360806182886 -2.2986099084308682 -0.24210538497237408 -2.164519917863938 -0.26676554831346411 -2.0293508637497424 -0.28449115738171643 -1.9569370851993344 -0.30607210428071019 -1.8548816346965047 -0.31908117995270457 -1.7876680449896025 -0.33440590361186295 -1.7227275973987399 -0.34742945015284615 -1.6605899879254911 -0.35847957245630518 -1.5693651872688523 -0.36024617654339797 -1.5132745896396156 -0.36729384783395114 -1.4602194881352806 -0.37312688020957752 -1.41071070907461 -0.37808790732135505 -1.3639218070761092 -0.38215737162518609 -1.2873438391614811 -0.37582079568807447 -1.2472339491936697 -0.37824653849613232 -1.2108761079450872 -0.38065440734129341 -1.177410063517853 -0.38294586613084253 -1.1473385742997739 -0.38543407805209712 -1.0875639729044473 -0.37664059360731006 -1.064594205543592 -0.37942713334663553 -1.0451381591554845 -0.38292896496172057 -1.0292305073892702 -0.38730342477065238 -1.0173733322095271 -0.39288973775748826 -1.0086821816990896 -0.39949445006654366 -0.96960279345466593 -0.39346061200994281 -0.96900348448291662 -0.40256052776188544 -0.97169091974525135 -0.41315332009585293 -0.97818522408068909 -0.4256017903437247 -0.98852467359945906 -0.44008352403306933 -1.0032528212997207 -0.4570190332103829 -1.0214271332030453 -0.47616773136136809 -1.0092777878406536 -0.4814094894689267 -1.0357462182157149 -0.50544975068132802 -1.0667791556535215 -0.53284388062628296 -1.1014065792797763 -0.56336754748573181 -1.1401676027874559 -0.59756408839966035 -1.1835773965676133 -0.63602859182358729 -1.1962405181709244 -0.6593757639758876 -1.247871076150409 -0.70587915771579157 -1.3036691472078852 -0.75750357059378304 -1.3641018932683595 -0.8150259647898479 -1.428102816985255 -0.87837676086964378 -1.4623593877377876 -0.9267181164346211 -1.5348517515909317 -1.0031252258087036 -1.6111276065036595 -1.0875121718979635 -1.6571857174526965 -1.1566621803381869 -1.741209938355462 -1.2583131247496613 -1.8288814523683925 -1.3709005654820339 -1.8846565751860631 -1.467650164475806 -1.9783888845000426 -1.6033590614877387 -2.073378190425641 -1.7527355072240802 -2.1365567808841948 -1.8879636293505406 -2.2347790231839055 -2.0691175614666761 -2.2993189240281402 -2.2364979213233487 -2.3608345017154333 -2.4186227475842386 -2.4567969735137041 -2.6598147200215161 -2.5151593827912038 -2.8886006712518753 -2.6878583375279819 -3.2928819229718744 3.5261489730970279 4.2753023233232748 3.7210612911777812 4.1298343165342448 3.6518461921493723 3.7226126445919991 3.7908819231833562 3.5598828242163174 3.3720551600223523 2.9332034644758749 2.5934340118460799 2.1192859613949122 -1.2608657112871049 -1.0161024314389024 0 0
        </DataArray>
        <DataArray type="Float32" Name="u" NumberOfComponents="1">
          0 0.007874015748031496 0.015748031496062992 0.023622047244094488 0.031496062992125984 0.03937007874015748 0.047244094488188976 0.055118110236220472 0.062992125984251968 0.070866141732283464 0.07874015748031496 0.086614173228346455 0.094488188976377951 0.10236220472440945 0.11023622047244094 0.11811023622047244 0.12598425196850394 0.13385826771653545 0.14173228346456693 0.14960629921259844 0.15748031496062992 0.16535433070866143 0.17322834645669291 0.18110236220472442 0.1889763779527559 0.19685039370078741 0.20472440944881889 0.2125984251968504 0.22047244094488189 0.2283464566929134 0.23622047244094488 0.24409448818897639 0.25196850393700787 0.25984251968503935 0.26771653543307089 0.27559055118110237 0.28346456692913385 0.29133858267716534 0.29921259842519687 0.30708661417322836 0.31496062992125984 0.32283464566929132 0.33070866141732286 0.33858267716535434 0.34645669291338582 0.3543307086614173 0.36220472440944884 0.37007874015748032 0.37795275590551181 0.38582677165354329 0.39370078740157483 0.40157480314960631 0.40944881889763779 0.41732283464566927 0.42519685039370081 0.43307086614173229 0.44094488188976377 0.44881889763779526 0.45669291338582679 0.46456692913385828 0.47244094488188976 0.48031496062992124 0.48818897637795278 0.49606299212598426 0.50393700787401574 0.51181102362204722 0.51968503937007871 0.52755905511811019 0.53543307086614178 0.54330708661417326 0.55118110236220474 0.55905511811023623 0.56692913385826771 0.57480314960629919 0.58267716535433067 0.59055118110236215 0.59842519685039375 0.60629921259842523 0.61417322834645671 0.62204724409448819 0.62992125984251968 0.63779527559055116 0.64566929133858264 0.65354330708661412 0.66141732283464572 0.6692913385826772 0.67716535433070868 0.68503937007874016 0.69291338582677164 0.70078740157480313 0.70866141732283461 0.71653543307086609 0.72440944881889768 0.73228346456692917 0.74015748031496065 0.74803149606299213 0.75590551181102361 0.76377952755905509 0.77165354330708658 0.77952755905511806 0.78740157480314965 0.79527559055118113 0.80314960629921262 0.8110236220472441 0.81889763779527558 0.82677165354330706 0.83464566929133854 0.84251968503937003 0.85039370078740162 0.8582677165354331 0.86614173228346458 0.87401574803149606 0.88188976377952755 0.88976377952755903 0.89763779527559051 0.90551181102362199 0.91338582677165359 0.92125984251968507 0.92913385826771655 0.93700787401574803 0.94488188976377951 0.952755905511811 0.96062992125984248 0.96850393700787396 0.97637795275590555 0.98425196850393704 0.99212598425196852 1
        </DataArray>
      </PointData>
      <CellData Scalars="P">
        <DataArray type="Float32" Name="P" NumberOfComponents="1">
          -0.0072906143710301805 -0.020862265590583927 -0.032442858356595675 -0.041359444614480156 -0.047044589292166476 -0.048983921980526125 -0.046691086499487083 -0.039694575631443844 -0.027530176202262991 -0.0097374758273116712 0.014143066688149186 0.044570668809707156 0.082004247668498231 0.12690091847665663 0.17971359241519025 0.24088962421073906 0.31087085691808813 0.39008873965025176 0.47896268607799952 0.57789818508129165 0.68728299088677847 0.80748286243978074 0.93883822841274367 1.0816611725213106 1.2362296906820525 1.4027869645561 1.5815339399990742 1.7726215195278181 1.9761496959103886 2.1921816191909604 2.4207013417360139 2.6616278249040044 2.9148092624482622 3.1800204904889022 3.4569566766144835 3.7452299352350957 4.0443600077262882 4.3537795167045124 4.6728327208933251 5.0007634209680738 5.3367148220870826 5.679731993132819 5.3722338270328205 5.0594655994250806 4.7436898809473904 4.4269884235010286 4.1095435437655405 3.7948235571871418 3.4825620268120172 3.1741030505463161 2.8706922876265413 2.5734439081492697 2.2833063061372938 2.0010639877075662 1.7274556636876852 1.4612073360679918 1.2085284114129988 0.96793872776919587 0.7397673504156439 0.52421301060359771 0.32134915483814364 0.13121001053019768 -0.046307700075248197 -0.20915538356837243 -0.35750970860504283 -0.49613998955754873 -0.62311446780037427 -0.74099997423614505 -0.8500813806407046 -0.950690303952614 -1.0413556522065555 -1.12435597524032 -1.2000499215922771 -1.2688162374987133 -1.3309855001848536 -1.3855725440769924 -1.4343666430571813 -1.4777016730015309 -1.5158616481273197 -1.5491266318742956 -1.5770194806684226 -1.6006384102692395 -1.6201879053453736 -1.6358432383569319 -1.6477525002719422 -1.6560237794909169 -1.6607507158856882 -1.6621001854806854 -1.6600856308784173 -1.6546871355191974 -1.6458519581694842 -1.6334859428476054 -1.6174801551415483 -1.5985597811075154 -1.5757967813997997 -1.5489726256917944 -1.5178761504472635 -1.482261892716479 -1.4418480701918182 -1.3978831261491877 -1.3486740922245009 -1.2939354928055959 -1.233361811570187 -1.166710610319958 -1.0956011016146676 -1.0180036075790349 -0.93373615241122909 -0.84470278785403263 -0.74882774597580914 -0.64608485817063366 -0.53876130543175682 -0.4248782775210474 -0.30481255584335487 -0.18116343364221479 -0.052434495978413223 0.078416879535779374 0.21020420011092092 0.34382229474042725 0.47564664335842349 0.61038602087690608 0.44713525157292405 0.30143275159658817 0.18422179281950357 0.088056118559988336 0.024997331691802824 -0.0069272296426980589 0.0010978642491740898
        </DataArray>
      </CellData>
      <Points>
        <DataArray type="Float32" NumberOfComponents="3" format="ascii">
          4.0829691853703522 6.7084710461714332 0
          4.0786540151757382 6.7150573571090062 0
          4.0743673433574363 6.7216622521253413 0
          4.0701231013041168 6.728294492771461 0
          4.0659323922610051 6.7349606897656331 0
          4.0618048921607839 6.7416662091822861 0
          4.0577494253519406 6.7484155398910284 0
          4.053774276641029 6.7552124879276505 0
          4.0498873810124207 6.7620602898974562 0
          4.0460964480360166 6.7689616826607741 0
          4.0424090445367877 6.7759189451840092 0
          4.0388326548415652 6.7829339249191358 0
          4.035374722521742 6.7900080518356374 0
          4.0320426799755902 6.7971423443484085 0
          4.0288439669618086 6.8043374084727217 0
          4.0257860399391134 6.8115934319179372 0
          4.022876377113473 6.818910175923941 0
          4.020122482955701 6.8262869665184782 0
          4.0175318835732305 6.8337226819605963 0
          4.0151121205442877 6.841215739914781 0
          4.0128707430475785 6.8487640843035571 0
          4.010815295613777 6.8563651711434641 0
          4.0089533016166365 6.8640159538586953 0
          4.0072922444798351 6.8717128689760303 0
          4.0058395472942951 6.879451822504504 0
          4.0046025474361855 6.887228176518275 0
          4.0035884731264746 6.8950367375023003 0
          4.0028044133795602 6.902871745064509 0
          4.0022572817388582 6.9107268620205282 0
          4.0019537824066873 6.9185951671578154 0
          4.0019003947340694 6.9264691501987787 0
          4.002103313175275 6.9343407068337921 0
          4.0025684068937535 6.9422011385464728 0
          4.003301176457585 6.9500411554404504 0
          4.0043067108991064 6.9578508821715603 0
          4.005589641377636 6.9656198674910232 0
          4.0071540944741582 6.973337097528586 0
          4.0090036395656607 6.980991014310594 0
          4.0111412439854526 6.9885695372026824 0
          4.0135692293729148 6.9960600877757138 0
          4.0162892196096625 7.0034496215394686 0
          4.0193020912558044 7.0107246646202466 0
          4.0226079284024632 7.0178713544396354 0
          4.0256700528195237 7.0251258062157822 0
          4.0284910492321151 7.0324773767069493 0
          4.0310741667783709 7.0399158602444958 0
          4.033423231753722 7.0474315334044739 0
          4.0355413338596104 7.0550155300726436 0
          4.0374332640910078 7.0626590807398975 0
          4.0391028946706253 7.0703542417492988 0
          4.040554393400992 7.0780935066367201 0
          4.0417922046717383 7.0858698033914935 0
          4.0428210076305708 7.0936764946921738 0
          4.0436456505488261 7.1015073773861435 0
          4.0442710856688144 7.1093566757344027 0
          4.0447023850415782 7.1172190244555908 0
          4.0449433616033179 7.1250894992394924 0
          4.0450019343967476 7.1329634372071151 0
          4.0448847359150131 7.1408367133108639 0
          4.0445984504465304 7.1487056478417212 0
          4.0441497715332577 7.1565669868764434 0
          4.0435453590689701 7.1644178798691254 0
          4.0427918584625626 7.1722558605082734 0
          4.041895841165986 7.1800788217963252 0
          4.0408656214646603 7.1878852344666688 0
          4.0397095805128354 7.1956739992921879 0
          4.0384322084225577 7.2034437786592633 0
          4.0370398331159398 7.2111937661926095 0
          4.0355366221800004 7.2189230122701895 0
          4.0339266022113467 7.2266307099720066 0
          4.0322136259748751 7.2343161747622782 0
          4.0304033496482106 7.241979297541401 0
          4.0284992509640229 7.2496196420301997 0
          4.0265046193991925 7.257236847288473 0
          4.0244225245039136 7.264830606473228 0
          4.0222558671434401 7.2724006680476636 0
          4.020009395080459 7.279947425612618 0
          4.0176855949620771 7.2874707296531174 0
          4.0152867207550926 7.2949704317951349 0
          4.0128148470824243 7.3024463909136701 0
          4.0102718380517679 7.3098984537174898 0
          4.007661399296067 7.3173271664702195 0
          4.0049849544908467 7.3247323575016079 0
          4.0022437094055041 7.3321138108251924 0
          3.9994386497524017 7.339471256382363 0
          3.9965705100569466 7.3468043490065007 0
          3.9936398284904957 7.3541126804191075 0
          3.9906490271614961 7.3613966261964849 0
          3.9875981423973577 7.3686556234622183 0
          3.9844870066765656 7.3758890168032067 0
          3.9813152163775993 7.3830960357683564 0
          3.9780821294010362 7.3902757838527293 0
          3.9747868314655697 7.3974272124131133 0
          3.9714281945360344 7.4045491355876409 0
          3.9680069704099235 7.4116412302267483 0
          3.9645215165872432 7.4187020072231071 0
          3.9609699074563127 7.425729769484759 0
          3.9573499944218966 7.4327226258457806 0
          3.9536593724723752 7.4396784573562247 0
          3.9498953482316299 7.4465948803585436 0
          3.9460571342633171 7.4534704491401333 0
          3.9421415271449787 7.4603022814909039 0
          3.9381450648878489 7.4670871775458663 0
          3.9340639979643859 7.4738215715712055 0
          3.929894355413396 7.480501536271432 0
          3.9256340099497256 7.4871240756988433 0
          3.9212784636506695 7.4936844526084485 0
          3.9168229837768433 7.5001774346687711 0
          3.912264710525601 7.5065987350489563 0
          3.9075984301911442 7.512942050299185 0
          3.9028187026791481 7.5192003983752462 0
          3.8979220648089146 7.5253677800387511 0
          3.8929027001184382 7.5314357785503026 0
          3.8877547139611512 7.5373951290523724 0
          3.8824741832329912 7.5432374446488533 0
          3.8770550123285852 7.5489514885184166 0
          3.8714931931871361 7.5545268785262722 0
          3.8657849048971031 7.5599523174987739 0
          3.8599241913783375 7.5652128427260745 0
          3.853907426970796 7.5702942612713642 0
          3.8477239005403043 7.5751714896813915 0
          3.8417593146172675 7.5803136732628307 0
          3.8360256954448957 7.5857117927426536 0
          3.8305187028988041 7.591340595452774 0
          3.8252469090611743 7.5971900037388505 0
          3.820184310257194 7.6032211654941557 0
          3.8152826000672619 7.6093836257032041 0
          3.8103027938786367 7.6154829868466534 0
        </DataArray>
      </Points>
      <Cells>
        <DataArray type="Int32" Name="connectivity" format="ascii">
          0 1 1 2 2 3 3 4 4 5 5 6 6 7 7 8 8 9 9 10 10 11 11 12 12 13 13 14 14 15 15 16 16 17 17 18 18 19 19 20 20 21 21 22 22 23 23 24 24 25 25 26 26 27 27 28 28 29 29 30 30 31 31 32 32 33 33 34 34 35 35 36 36 37 37 38 38 39 39 40 40 41 41 42 42 43 43 44 44 45 45 46 46 47 47 48 48 49 49 50 50 51 51 52 52 53 53 54 54 55 55 56 56 57 57 58 58 59 59 60 60 61 61 62 62 63 63 64 64 65 65 66 66 67 67 68 68 69 69 70 70 71 71 72 72 73 73 74 74 75 75 76 76 77 77 78 78 79 79 80 80 81 81 82 82 83 83 84 84 85 85 86 86 87 87 88 88 89 89 90 90 91 91 92 92 93 93 94 94 95 95 96 96 97 97 98 98 99 99 100 100 101 101 102 102 103 103 104 104 105 105 106 106 107 107 108 108 109 109 110 110 111 111 112 112 113 113 114 114 115 115 116 116 117 117 118 118 119 119 120 120 121 121 122 122 123 123 124 124 125 125 126 126 127 
        </DataArray>
        <DataArray type="Int32" Name="offsets" format="ascii">
          2 4 6 8 10 12 14 16 18 20 22 24 26 28 30 32 34 36 38 40 42 44 46 48 50 52 54 56 58 60 62 64 66 68 70 72 74 76 78 80 82 84 86 88 90 92 94 96 98 100 102 104 106 108 110 112 114 116 118 120 122 124 126 128 130 132 134 136 138 140 142 144 146 148 150 152 154 156 158 160 162 164 166 168 170 172 174 176 178 180 182 184 186 188 190 192 194 196 198 200 202 204 206 208 210 212 214 216 218 220 222 224 226 228 230 232 234 236 238 240 242 244 246 248 250 252 254 
        </DataArray>
        <DataArray type="Int32" Name="types" format="ascii">
          3 3 3 3 3 3 3 3 3 3 3 3 3 3 3 3 3 3 3 3 3 3 3 3 3 3 3 3 3 3 3 3 3 3 3 3 3 3 3 3 3 3 3 3 3 3 3 3 3 3 3 3 3 3 3 3 3 3 3 3 3 3 3 3 3 3 3 3 3 3 3 3 3 3 3 3 3 3 3 3 3 3 3 3 3 3 3 3 3 3 3 3 3 3 3 3 3 3 3 3 3 3 3 3 3 3 3 3 3 3 3 3 3 3 3 3 3 3 3 3 3 3 3 3 3 3 3         </DataArray>
      </Cells>
    </Piece>
  </UnstructuredGrid>
</VTKFile>
