<?xml version="1.0"?>
<VTKFile type="UnstructuredGrid" version="0.1" byte_order="LittleEndian">
  <UnstructuredGrid>
    <Piece NumberOfPoints="128" NumberOfCells="127">
      <PointData Scalars="W">
        <DataArray type="Float32" Name="W" NumberOfComponents="2">
          0 0 -0.074082705505467292 -0.7245581032463364 -0.11959871557904586 -1.0920364490522616 -0.16374512131523053 -1.3712878576379726 -0.21041499492032756 -1.601426323083343 -0.2610859135177348 -1.7985360907123387 -0.31646105741940489 -1.9713104011001139 -0.37691119837969628 -2.1251275923861077 -0.4426372711791281 -2.2635541058371627 -0.51372451859392265 -2.3889668781472206 -0.59021048913123386 -2.5031072682952615 -0.67209650779354024 -2.6072401979513926 -0.75935669935360273 -2.7022821445357859 -0.85192664821919406 -2.7888385231940007 -0.94970148057191039 -2.8672769557468678 -1.052559628082312 -2.9378543316354881 -1.1603864707170664 -3.0007954932293748 -1.273030945086097 -3.0561848200079531 -1.3903147823728024 -3.1040251469068814 -1.5120649177278833 -3.1443237259231891 -1.638076940227436 -3.1770136743919211 -1.7681144898289833 -3.2019736907882419 -1.9019344353501173 -3.2190855473745748 -2.039286373634607 -3.2282300051126831 -2.1798652261030176 -3.2292171183638003 -2.3234055930368478 -3.2219379008298161 -2.4695908777260498 -3.2062213790574239 -2.6180347019707209 -3.1818343042684778 -2.7683758351901231 -3.1486113518435999 -2.9204910270369377 -3.1066542928592842 -3.0737649935619515 -3.055528252487576 -3.2277977162859202 -2.9950936871976626 -3.3821682713949848 -2.9252132625250895 -3.5364511532931826 -2.8457676999882753 -3.6901905351246671 -2.7566346154662424 -3.8429328678045387 -2.6577164528882955 -3.9941307321413304 -2.5488769616964926 -4.1433554936087393 -2.4300859343461174 -4.2901519765912122 -2.301304676989461 -4.4339234263677652 -2.1624385414763534 -4.574092606107941 -2.0134417526812021 -4.7101019037736389 -1.8543078288342427 4.0880583983782044 1.5969155821536349 3.9486901151533043 1.7003314155300882 3.823562575492192 1.8008883339910648 3.6783266042434377 1.8827747014654044 3.5497041719439353 1.9638476556594913 3.4021544234974894 2.0249958517808331 3.2728694252957968 2.087487396668132 3.1268755170752307 2.1297746152545862 3.0000595607675145 2.1755905952031127 2.8578367317938964 2.20072159407643 2.7356659924712154 2.2318500711172646 2.5810367828207723 2.2258498447914157 2.4098740888495676 2.1910943906811928 -12.372224855344777 -10.162058596706794 3.1232558779708937 2.3248392759550374 2.630326389473383 2.0770855303132247 2.5217462037162153 2.1005503536736749 2.4153422895325205 2.1188383643792026 2.311851125448118 2.1327848393308653 2.2112067810113643 2.1425835602672074 2.1021709193971154 2.1367753126568285 2.0082041399330643 2.1389485319465318 1.906452482323479 2.1256463426230674 1.8195190786697435 2.1218416873763655 1.7358752323278548 2.1158614600551546 1.6555327641329822 2.1080578784474326 1.5784745557229845 2.0987603733285796 1.5046679765364019 2.0882882772143754 1.4338761413745134 2.0766693300746977 1.3664222974415186 2.0647444549798197 1.30203150567951 2.0525224012085048 1.2406163974892965 2.0402689007233494 1.1820798474060024 2.0282371751335475 1.1263160368178164 2.0166682569892505 1.0732114838220985 2.0057915776168618 1.0302694034459412 2.0110357571128317 0.98158383668257632 2.0024546482612227 0.93518300341518246 1.9951754848503864 0.89079906295769262 1.9890927977190753 0.84855935681929362 1.9849801957671702 0.80817727929441008 1.9827249678299457 0.76949658864230741 1.9824883938240356 0.73236079368593399 1.984437346310421 0.69660615216961086 1.9887292845403262 0.6670173836297032 2.0108774616362086 0.63299960198657401 2.0204753702615332 0.59983067423650738 2.0328573261695593 0.56731504481811812 2.048158486408068 0.53525151156121509 2.0665231805768998 0.50335850427369733 2.0877941026799074 0.47155852913718882 2.1126964511896875 0.44260012385295716 2.1566895808138922 0.40955442160579503 2.1887831253760783 0.3757020739442557 2.2243194605966177 0.34085438299133969 2.2640093186300598 0.30464122640194846 2.3076971008470939 0.26672418025658712 2.3555142695658318 0.22673685850752914 2.4075913439419199 0.18426290630247918 2.4637745083954781 0.1389169872301923 2.5247607597227697 0.090195460717275661 2.5903857771091299 0.037579166274950684 2.6607760817698694 -0.019503084777464454 2.7360464595147658 -0.081681393521825713 2.8163186303517338 -0.1496531934645704 2.9016965491415547 -0.22419283921235267 2.9922805112262698 -0.3061634103791735 3.0881618106598445 -0.39436901303362337 3.1736568323337266 -0.49343819843513803 3.2807484574693317 -0.60314346707080946 3.3930997290701228 -0.72135446099071832 3.4949637224173871 -0.85590383744301402 3.6190073028619292 -1.0011894627098024 3.7320931631521037 -1.1677890052676863 3.8678572802498232 -0.6625898225305088 2.0163952318373064 -0.68776200967950418 1.9813705343165215 -0.7385378011581738 2.0180784354996932 -0.77584926090985584 2.0135524966929075 -0.85120867446423798 2.0993901959676498 -0.93486646765661585 2.1897811733824364 -0.96796430225346997 2.1549255491625345 -0.91264680857026803 1.9389811608335827 -0.81464564092816405 1.6623903787175882 -0.43098567485474309 0.85540077794669678 -0.14255287033530883 0.27944084404526265 0 0
        </DataArray>
        <DataArray type="Float32" Name="u" NumberOfComponents="1">
          0 0.007874015748031496 0.015748031496062992 0.023622047244094488 0.031496062992125984 0.03937007874015748 0.047244094488188976 0.055118110236220472 0.062992125984251968 0.070866141732283464 0.07874015748031496 0.086614173228346455 0.094488188976377951 0.10236220472440945 0.11023622047244094 0.11811023622047244 0.12598425196850394 0.13385826771653545 0.14173228346456693 0.14960629921259844 0.15748031496062992 0.16535433070866143 0.17322834645669291 0.18110236220472442 0.1889763779527559 0.19685039370078741 0.20472440944881889 0.2125984251968504 0.22047244094488189 0.2283464566929134 0.23622047244094488 0.24409448818897639 0.25196850393700787 0.25984251968503935 0.26771653543307089 0.27559055118110237 0.28346456692913385 0.29133858267716534 0.29921259842519687 0.30708661417322836 0.31496062992125984 0.32283464566929132 0.33070866141732286 0.33858267716535434 0.34645669291338582 0.3543307086614173 0.36220472440944884 0.37007874015748032 0.37795275590551181 0.38582677165354329 0.39370078740157483 0.40157480314960631 0.40944881889763779 0.41732283464566927 0.42519685039370081 0.43307086614173229 0.44094488188976377 0.44881889763779526 0.45669291338582679 0.46456692913385828 0.47244094488188976 0.48031496062992124 0.48818897637795278 0.49606299212598426 0.50393700787401574 0.51181102362204722 0.51968503937007871 0.52755905511811019 0.53543307086614178 0.54330708661417326 0.55118110236220474 0.55905511811023623 0.56692913385826771 0.57480314960629919 0.58267716535433067 0.59055118110236215 0.59842519685039375 0.60629921259842523 0.61417322834645671 0.62204724409448819 0.62992125984251968 0.63779527559055116 0.64566929133858264 0.65354330708661412 0.66141732283464572 0.6692913385826772 0.67716535433070868 0.68503937007874016 0.69291338582677164 0.70078740157480313 0.70866141732283461 0.71653543307086609 0.72440944881889768 0.73228346456692917 0.74015748031496065 0.74803149606299213 0.75590551181102361 0.76377952755905509 0.77165354330708658 0.77952755905511806 0.78740157480314965 0.79527559055118113 0.80314960629921262 0.8110236220472441 0.81889763779527558 0.82677165354330706 0.83464566929133854 0.84251968503937003 0.85039370078740162 0.8582677165354331 0.86614173228346458 0.87401574803149606 0.88188976377952755 0.88976377952755903 0.89763779527559051 0.90551181102362199 0.91338582677165359 0.92125984251968507 0.92913385826771655 0.93700787401574803 0.94488188976377951 0.952755905511811 0.96062992125984248 0.96850393700787396 0.97637795275590555 0.98425196850393704 0.99212598425196852 1
        </DataArray>
      </PointData>
      <CellData Scalars="P">
        <DataArray type="Float32" Name="P" NumberOfComponents="1">
          -0.011531130884689218 -0.032762740705392125 -0.050473315569370535 -0.06374712007979913 -0.071982687186329594 -0.074762197275912171 -0.07178584403507747 -0.06283276430195979 -0.047736211805595501 -0.026368594516351429 0.0013710421393372306 0.035565506650288077 0.07628554994949828 0.12359304894656949 0.17754289991286065 0.23818602468565236 0.30557342078235122 0.37975627696080766 0.46078661962872663 0.54872003735584296 0.64361541821485513 0.74553461103330143 0.85454371468065871 0.97071406387737658 1.0941199439288027 1.2248424362932731 1.3629670113955972 1.5085801197926738 1.6617717540282515 1.822650390264116 1.9913128426067022 2.1678585129808745 2.3523882678296135 2.5450041522899407 2.7458074212594461 2.9548983705788756 3.1723704121005181 3.398316460478457 3.6328264165317292 3.8759779656615878 4.1278367540445995 4.3884562784295058 4.1235615213712435 3.8501483136366015 3.5693524102018901 3.2846372211879258 2.9966737033375241 2.708804032798759 2.4212570511199556 2.1371110684506291 1.8561985625082691 1.5813660347882768 1.312060708471366 1.052689000271654 0.80620488611535701 1.9066446802067538 1.621774816316162 1.3759592671884497 1.1364314376975617 0.90384907643280465 0.67872650768989418 0.46151076629558074 0.25365714227246527 0.054329569936342234 -0.1352121927792152 -0.31591428370200847 -0.48769808831812778 -0.65053718415666595 -0.80445052704605768 -0.94949691463197794 -1.0857527638860713 -1.2133578674760792 -1.3324584876764136 -1.4432202758999888 -1.5458239279849395 -1.6404611448927922 -1.7273309104804446 -1.8071432564305359 -1.8795361945663569 -1.9447092060727238 -2.0028506072626913 -2.0541565844648626 -2.0988069446000832 -2.1369710599054628 -2.1688066867583373 -2.194458758271177 -2.2141001731373708 -2.2277521329262728 -2.2355161873341451 -2.2374790255774282 -2.2337125674551435 -2.2242777719710816 -2.2092157710686191 -2.1882945610750317 -2.1617500435924621 -2.1295967019701121 -2.0918282174918263 -2.0484364533068313 -1.9994081325567901 -1.9447272546365373 -1.8843866671664722 -1.8183650130604172 -1.7466558718202048 -1.6692628874200124 -1.5862041791630266 -1.4975164724966212 -1.4032605217175653 -1.3035264595720202 -1.1984397968344467 -1.0888053701779294 -0.9741985049477232 -0.85490237142530212 -0.73190945121791229 -0.60496280986837048 -0.47522602855945162 -0.34261226038627624 -0.28464483941940788 -0.23071385148802567 -0.17876778567280732 -0.13095356957913887 -0.085147193596660287 -0.042430534016353709 -0.0073312286282698896 0.015632072962963629 0.026273977434002189 0.020063175844496097 0.0067086810426295997
        </DataArray>
      </CellData>
      <Points>
        <DataArray type="Float32" NumberOfComponents="3" format="ascii">
          5.6711489275767919 10.321366668747517 0
          5.6789848093477806 10.320588184883546 0
          5.686816095790344 10.319764773468215 0
          5.6946399638004692 10.318873648382118 0
          5.7024536754142527 10.317897494227783 0
          5.7102543363145859 10.316822040993525 0
          5.7180388041727435 10.315635066718583 0
          5.7258036450272121 10.314325858450879 0
          5.7335451102828996 10.312884878751358 0
          5.7412591242460671 10.311303544548341 0
          5.7489412788357193 10.30957407974925 0
          5.7565868312540296 10.307689407262462 0
          5.7641907039039806 10.305643070561471 0
          5.7717474859943305 10.303429176854884 0
          5.7792514375348221 10.301042359544246 0
          5.7866964958403937 10.298477755426489 0
          5.7940762830707833 10.29573098876236 0
          5.8013841133394424 10.292798157331848 0
          5.8086130020822457 10.289675827199041 0
          5.8157556771131214 10.286361032533048 0
          5.8228045893569869 10.282851275154894 0
          5.8297519255262786 10.279144528680996 0
          5.8365896227784058 10.275239246040744 0
          5.8433093837929144 10.271134366803279 0
          5.849902692299402 10.266829324566805 0
          5.8563608319954001 10.262324058731878 0
          5.8626749030037466 10.257619021254644 0
          5.8688358415041817 10.252715187243421 0
          5.8748344436914577 10.247614069416471 0
          5.8806613881738468 10.242317728348015 0
          5.8863072436155033 10.236828766152978 0
          5.8917625068868 10.231150353446155 0
          5.8970176278668358 10.225286237989343 0
          5.9020630355417616 10.219240753201476 0
          5.9068891643868069 10.213018825549172 0
          5.9114864826279376 10.206625982129854 0
          5.9158455203618443 10.200068356715466 0
          5.9199569034958017 10.193352698195474 0
          5.9238113803220065 10.186486372444897 0
          5.9273998497371547 10.179477364718684 0
          5.9307133982399671 10.172334285515625 0
          5.9337433357180993 10.165066373412168 0
          5.9364812300178249 10.157683495460168 0
          5.9394725901464289 10.150399644584263 0
          5.9427087736388389 10.143221231948198 0
          5.9461820212396859 10.136154491168982 0
          5.9498833269617073 10.129204498431776 0
          5.9538047151492952 10.122376279239662 0
          5.9579370366418987 10.115673623913104 0
          5.9622722749824915 10.109100405854409 0
          5.9668013777575757 10.102659245943411 0
          5.9715164818621824 10.096352983683195 0
          5.9764087689630809 10.090183176250298 0
          5.9814706642150668 10.084151752543798 0
          5.9866925802280901 10.078258339723734 0
          5.9920639045654625 10.07250078219556 0
          5.9966681420433092 10.066113173495532 0
          6.0014660213250739 10.059869708336748 0
          6.0064269789921099 10.053755027332794 0
          6.0115442830995827 10.047770584641682 0
          6.0168113366957572 10.041917513491168 0
          6.0222217234812438 10.036196677965741 0
          6.0277692037160202 10.030608685023573 0
          6.0334470174149537 10.025153174044293 0
          6.0392493389616444 10.019830279262548 0
          6.0451698601142096 10.014639175480163 0
          6.0512031914296749 10.009579626365683 0
          6.0573441474583367 10.004651260740779 0
          6.0635877474737594 9.9998535944175231 0
          6.0699292144088268 9.9951860506227792 0
          6.0763639728303263 9.9906479797964352 0
          6.0828876342508096 9.986238661310276 0
          6.0894960171669226 9.9819573556058749 0
          6.0961851300121142 9.9778033047363266 0
          6.1029511657384949 9.9737757488414012 0
          6.1097904957940132 9.9698739418471725 0
          6.1166996635608717 9.966097166410087 0
          6.1236753773190058 9.962444748141932 0
          6.1307149753397567 9.9589170122520585 0
          6.1378154399054088 9.9555134267586496 0
          6.1449738949739947 9.952233540438348 0
          6.1521875895757132 9.9490769762868769 0
          6.1594539057034368 9.9460434794873684 0
          6.1667703405453924 9.9431329104227952 0
          6.1741344967984162 9.9403452546776023 0
          6.1815440729656439 9.9376806333865542 0
          6.1889968532046531 9.9351393130003895 0
          6.1964910037915741 9.9327226672111166 0
          6.204024416592417 9.9304312915548287 0
          6.2115950361244741 9.9282659542411373 0
          6.2192008474316776 9.9262276045381395 0
          6.2268398636094862 9.9243173817267962 0
          6.2345101083512882 9.9225366053523683 0
          6.2422096111338981 9.9208868201984384 0
          6.2499365773658146 9.9193707548931176 0
          6.2576889592970444 9.9179904002723536 0
          6.265464659183122 9.9167479607360551 0
          6.2732615175720978 9.9156458983288172 0
          6.2810772903572243 9.9146869231020691 0
          6.2889096277890415 9.91387400127741 0
          6.2967560517525136 9.9132103633525634 0
          6.3046139299508797 9.9126994945773532 0
          6.3124804519924229 9.9123451781885468 0
          6.320352598158415 9.9121514852367536 0
          6.3282271072003331 9.9121227824493641 0
          6.3361004409086261 9.9122637393671127 0
          6.3439687450252684 9.9125793359118948 0
          6.3518278059780195 9.9130748688542294 0
          6.3596730028408288 9.913755958054967 0
          6.3674992537878392 9.9146285521498463 0
          6.375301090689927 9.9156979560693443 0
          6.3830723711339798 9.9169708142735775 0
          6.3908062929468361 9.9184540977386018 0
          6.3984955267653527 9.9201541275673026 0
          6.4061317292223965 9.9220786006119823 0
          6.4137058913569254 9.924234534746855 0
          6.4212076814440051 9.9266303545500225 0
          6.4286685026442001 9.929151267392605 0
          6.4360868072078254 9.9317951128814617 0
          6.4434594578660755 9.9345641801408391 0
          6.4507841552521157 9.937458203342354 0
          6.4580562372919692 9.9404825221876685 0
          6.4652705277238907 9.9436427613558518 0
          6.4724249942004519 9.9469367818956815 0
          6.4795231024291295 9.9503512185148963 0
          6.4865709765944848 9.9538689487928949 0
          6.4935925098919105 9.9574399596678482 0
          6.5006056990907171 9.9610285685727131 0
        </DataArray>
      </Points>
      <Cells>
        <DataArray type="Int32" Name="connectivity" format="ascii">
          0 1 1 2 2 3 3 4 4 5 5 6 6 7 7 8 8 9 9 10 10 11 11 12 12 13 13 14 14 15 15 16 16 17 17 18 18 19 19 20 20 21 21 22 22 23 23 24 24 25 25 26 26 27 27 28 28 29 29 30 30 31 31 32 32 33 33 34 34 35 35 36 36 37 37 38 38 39 39 40 40 41 41 42 42 43 43 44 44 45 45 46 46 47 47 48 48 49 49 50 50 51 51 52 52 53 53 54 54 55 55 56 56 57 57 58 58 59 59 60 60 61 61 62 62 63 63 64 64 65 65 66 66 67 67 68 68 69 69 70 70 71 71 72 72 73 73 74 74 75 75 76 76 77 77 78 78 79 79 80 80 81 81 82 82 83 83 84 84 85 85 86 86 87 87 88 88 89 89 90 90 91 91 92 92 93 93 94 94 95 95 96 96 97 97 98 98 99 99 100 100 101 101 102 102 103 103 104 104 105 105 106 106 107 107 108 108 109 109 110 110 111 111 112 112 113 113 114 114 115 115 116 116 117 117 118 118 119 119 120 120 121 121 122 122 123 123 124 124 125 125 126 126 127 
        </DataArray>
        <DataArray type="Int32" Name="offsets" format="ascii">
          2 4 6 8 10 12 14 16 18 20 22 24 26 28 30 32 34 36 38 40 42 44 46 48 50 52 54 56 58 60 62 64 66 68 70 72 74 76 78 80 82 84 86 88 90 92 94 96 98 100 102 104 106 108 110 112 114 116 118 120 122 124 126 128 130 132 134 136 138 140 142 144 146 148 150 152 154 156 158 160 162 164 166 168 170 172 174 176 178 180 182 184 186 188 190 192 194 196 198 200 202 204 206 208 210 212 214 216 218 220 222 224 226 228 230 232 234 236 238 240 242 244 246 248 250 252 254 
        </DataArray>
        <DataArray type="Int32" Name="types" format="ascii">
          3 3 3 3 3 3 3 3 3 3 3 3 3 3 3 3 3 3 3 3 3 3 3 3 3 3 3 3 3 3 3 3 3 3 3 3 3 3 3 3 3 3 3 3 3 3 3 3 3 3 3 3 3 3 3 3 3 3 3 3 3 3 3 3 3 3 3 3 3 3 3 3 3 3 3 3 3 3 3 3 3 3 3 3 3 3 3 3 3 3 3 3 3 3 3 3 3 3 3 3 3 3 3 3 3 3 3 3 3 3 3 3 3 3 3 3 3 3 3 3 3 3 3 3 3 3 3         </DataArray>
      </Cells>
    </Piece>
  </UnstructuredGrid>
</VTKFile>
