<?xml version="1.0"?>
<VTKFile type="UnstructuredGrid" version="0.1" byte_order="LittleEndian">
  <UnstructuredGrid>
    <Piece NumberOfPoints="128" NumberOfCells="127">
      <PointData Scalars="W">
        <DataArray type="Float32" Name="W" NumberOfComponents="2">
          0 0 0.57075614265931685 -0.30994077607444948 0.86371859364202197 -0.47625818430648165 1.0837146092771963 -0.61003306745303743 1.2622717172206075 -0.72832795546529283 1.4123347315300627 -0.83805168547916475 1.5409062333093722 -0.94286478943612062 1.6522694087358689 -1.04494753385846 1.7492708337685363 -1.1457059672810037 1.8338350283074649 -1.2460451539021453 1.9073823466532946 -1.3466060277770493 1.9709479902819338 -1.447824020215946 2.0252912963963681 -1.5499847068036452 2.0709348211284277 -1.653231754844217 2.108249059985825 -1.7576118335708235 2.1375167599947882 -1.8631137293615376 2.1590070258549985 -1.9697282389529849 2.1728632467578177 -2.0773449737144212 2.179207620990065 -2.1858337880123804 2.1781514446434662 -2.2950545461146294 2.1697717738946043 -2.404831485143581 2.1541102837830906 -2.5149436428293641 2.1312143381249022 -2.6251650275328577 2.1011381835635028 -2.7352680930127127 2.0639007402012224 -2.8449664143251865 2.0195804636503798 -2.9540383603877705 1.9682223941667496 -3.0622065199443087 1.9098375130050951 -3.1691153903795901 1.8444905172863062 -3.2744615549236107 1.7724166346428634 -3.3782519528958459 1.6935253484616879 -3.4798953225834235 1.6079180481771436 -3.5790898383153955 1.5157010013117949 -3.6755175349667022 1.4170068825457722 -3.7688953324495928 1.3119704937032617 -3.8589234256259726 1.2007419094634986 -3.9453179976995121 1.0834556087879503 -4.0277009115509825 0.96030520761499372 -4.1058514071956269 0.83148947674535756 -4.179588351351426 0.69717686513407562 -4.248579292418186 0.55755960027573492 -4.3125344349996997 0.41284565498487052 -4.3712079088325648 -0.48687294494641098 5.0176641305818341 -0.67563321145189492 4.9308668510731657 -0.85954991163367489 4.8562013075250814 -1.0319582179717817 4.7539666872185808 -1.1949760554925124 4.6451122779301102 -1.3551424587438281 4.5515149657144143 -1.5007611006871704 4.4320349399787871 -1.6366596121635293 4.3080509032689234 -1.7725191266207012 4.2021560711441568 -1.8802362567432678 4.049401718727534 -1.9872479815970052 3.9163224224535234 -2.042710578317978 3.7079792208542237 6.6408835588895387 -13.355328742177633 5.0389410648777053 -14.074885208648183 3.3553343538362981 -14.600960318221585 -0.13072935350891715 0.76200447426593743 -0.22737866416639901 1.2638490520086887 -0.34264028313979178 1.7797290491720197 -0.48374832920145 2.3078787088227957 -0.65875217684839305 2.8467252865244368 -0.87614457976876026 3.392928225715802 -1.1452717891109221 3.9431050896307629 -1.2469765752785944 3.830723612493236 -1.3466843177124428 3.7333398812809486 -1.4396689678531398 3.633882718264283 -1.5261162616819857 3.5330012870977656 -1.6063644196982514 3.4315019542181808 -1.6804922349103211 3.3294869711750348 -1.748890955192024 3.2276451163068436 -1.8119054565731501 3.1264270408428199 -1.8801206782763298 3.042256085313408 -1.9343205041849612 2.9427813438171246 -1.9841947572606708 2.8448928997714371 -2.0301491075618605 2.7488553182919775 -2.0725738392453166 2.6548622957084396 -2.1120182904039413 2.5632575298825917 -2.1485811007820375 2.4737985055283955 -2.1827945682761847 2.3867637325330189 -2.2278105689424468 2.3151507306658496 -2.2591075174206225 2.23246623381874 -2.2891492571114407 2.1522808991783262 -2.3184786417236598 2.0747288977214957 -2.34708500168699 1.9994293834143533 -2.3754816628208597 1.9264764500782561 -2.4180398520756454 1.8663473735622209 -2.447490692643592 1.7971048201629307 -2.4776585022620647 1.7298461525272111 -2.5088300608801175 1.6644064444919004 -2.541316019530961 1.6006240779607142 -2.5900916210086979 1.5468447162381804 -2.6264027829448606 1.4850493963580611 -2.6648188279247411 1.4242511326027523 -2.720360428554391 1.3714167186292376 -2.7640541977163955 1.3110925314521911 -2.8105773976186814 1.2509146226527379 -2.8601526140379208 1.190551011082428 -2.9278973363487113 1.1352128882410981 -2.984534619096527 1.0726520428249722 -3.0448730556132291 1.0087393683537389 -3.1091100274972208 0.94302212531274399 -3.1774807334815045 0.87502223740492846 -3.2648874119309599 0.80763937284881937 -3.3422757205545204 0.73263253705605125 -3.4243411670149806 0.65356536089399164 -3.5112466282756589 0.56973724468623943 -3.6031938045153376 0.48038489514616645 -3.7003114017823169 0.38465403006242133 -3.7874270543867561 0.28069962635913692 -3.8953061315384416 0.17022698323382737 -4.0088309339584338 0.05025314076595537 -4.1122428343630792 -0.079975213756926511 -4.2374554729606242 -0.22202624242837782 -4.3689639450362971 -0.37808247278893364 -4.4900768265510491 -0.54779489712298968 -4.6342073467709142 -0.73688148632977502 -2.0009057895982392 -0.3727508095103923 -1.8986503907849399 -0.38452262833109413 -1.8996506998002916 -0.41504694772355005 -1.6266531096604382 -0.37973704359349936 -1.7458515505994876 -0.43279412257056576 -1.5922600882917111 -0.41772447816911612 -1.2756619531102666 -0.3506576759100507 -0.7001504216841451 -0.1985547167748673 0.81690752834349034 0.23124414932091952 1.8124197165225138 0.49208238366487789 0 0
        </DataArray>
        <DataArray type="Float32" Name="u" NumberOfComponents="1">
          0 0.007874015748031496 0.015748031496062992 0.023622047244094488 0.031496062992125984 0.03937007874015748 0.047244094488188976 0.055118110236220472 0.062992125984251968 0.070866141732283464 0.07874015748031496 0.086614173228346455 0.094488188976377951 0.10236220472440945 0.11023622047244094 0.11811023622047244 0.12598425196850394 0.13385826771653545 0.14173228346456693 0.14960629921259844 0.15748031496062992 0.16535433070866143 0.17322834645669291 0.18110236220472442 0.1889763779527559 0.19685039370078741 0.20472440944881889 0.2125984251968504 0.22047244094488189 0.2283464566929134 0.23622047244094488 0.24409448818897639 0.25196850393700787 0.25984251968503935 0.26771653543307089 0.27559055118110237 0.28346456692913385 0.29133858267716534 0.29921259842519687 0.30708661417322836 0.31496062992125984 0.32283464566929132 0.33070866141732286 0.33858267716535434 0.34645669291338582 0.3543307086614173 0.36220472440944884 0.37007874015748032 0.37795275590551181 0.38582677165354329 0.39370078740157483 0.40157480314960631 0.40944881889763779 0.41732283464566927 0.42519685039370081 0.43307086614173229 0.44094488188976377 0.44881889763779526 0.45669291338582679 0.46456692913385828 0.47244094488188976 0.48031496062992124 0.48818897637795278 0.49606299212598426 0.50393700787401574 0.51181102362204722 0.51968503937007871 0.52755905511811019 0.53543307086614178 0.54330708661417326 0.55118110236220474 0.55905511811023623 0.56692913385826771 0.57480314960629919 0.58267716535433067 0.59055118110236215 0.59842519685039375 0.60629921259842523 0.61417322834645671 0.62204724409448819 0.62992125984251968 0.63779527559055116 0.64566929133858264 0.65354330708661412 0.66141732283464572 0.6692913385826772 0.67716535433070868 0.68503937007874016 0.69291338582677164 0.70078740157480313 0.70866141732283461 0.71653543307086609 0.72440944881889768 0.73228346456692917 0.74015748031496065 0.74803149606299213 0.75590551181102361 0.76377952755905509 0.77165354330708658 0.77952755905511806 0.78740157480314965 0.79527559055118113 0.80314960629921262 0.8110236220472441 0.81889763779527558 0.82677165354330706 0.83464566929133854 0.84251968503937003 0.85039370078740162 0.8582677165354331 0.86614173228346458 0.87401574803149606 0.88188976377952755 0.88976377952755903 0.89763779527559051 0.90551181102362199 0.91338582677165359 0.92125984251968507 0.92913385826771655 0.93700787401574803 0.94488188976377951 0.952755905511811 0.96062992125984248 0.96850393700787396 0.97637795275590555 0.98425196850393704 0.99212598425196852 1
        </DataArray>
      </PointData>
      <CellData Scalars="P">
        <DataArray type="Float32" Name="P" NumberOfComponents="1">
          -0.0066724963785758052 -0.018500540249441338 -0.027367152245893329 -0.032479872391127498 -0.033316111161734628 -0.029516138519699912 -0.020829431982598182 -0.0070836458763670817 0.011835543425128547 0.035996888913327495 0.065433870922603651 0.10015147399997765 0.14013107326596261 0.18533305558453522 0.23569916852559966 0.29115505585865603 0.3516141538314706 0.41697726068107993 0.48713458235994572 0.56196782779417742 0.64135109759184405 0.72515122856899605 0.81322952554787165 0.90544352088325464 1.0016465145306803 1.1016917268427207 1.2054318510058988 1.3127178502742414 1.4234026490039593 1.5373541210278516 1.6544346310342315 1.7745136845742686 1.897469094758258 2.0231900220822325 2.1515781581451332 2.2825501324441637 2.4160360687517648 2.5519871150314026 2.690378681092489 2.8312070628808015 2.9744930382039985 3.1202854902793047 2.9298519281223192 2.7329555446442968 2.5301356169898956 2.3234786451355367 2.1141708012591702 1.9022872128480934 1.6897087997527243 1.4772791389415751 1.2645968413086137 1.054494204783553 0.84634703225048724 0.64459723977420569 1.3267716505679239 2.0013149296740576 2.6666614104255784 2.6018482498486972 2.5095101488516645 2.386391090536792 2.2292162720785931 2.0348912406835877 1.8007563626992997 1.5638766592933644 1.3272666010356104 1.0915717372268896 0.85834373636123862 0.6289654123403452 0.40464250281517361 0.18645437796236225 -0.024679911619546857 -0.22798028719312646 -0.42384717094486996 -0.61065215596397049 -0.78796041055186272 -0.95543647035931822 -1.1128324555963358 -1.2599893914833684 -1.3967959804129648 -1.5232123256816594 -1.6398958632586178 -1.7461942736138703 -1.8421977242405223 -1.9280333898088877 -2.003839306586034 -2.0697799147545028 -2.1263290647875155 -2.173315527762631 -2.2109334732901451 -2.2393803193000386 -2.2588544832512638 -2.2695750988256225 -2.2716546146093339 -2.2652831562956606 -2.2505261475627574 -2.227630840356897 -2.1967734743166036 -2.1581261959278599 -2.1115809966543311 -2.0575381702299427 -1.9961664185874024 -1.9276371407094059 -1.852126107706539 -1.7694055586644291 -1.6800537530977884 -1.5842848331687718 -1.4823340669079448 -1.3744616738643682 -1.2609607846014996 -1.1426815243468409 -1.0194940026146975 -0.89182698504239466 -0.7607200290053524 -0.62619396463109467 -0.48888992927280117 -0.3501101627220442 -0.21015309243724981 -0.15801622514560054 -0.11172303853133603 -0.068520123982910061 -0.036187018955394883 -0.0045868127937499286 0.019298235823088337 0.032894237913331702 0.034238755440900881 0.018224510069295242 0.0022275866664511999
        </DataArray>
      </CellData>
      <Points>
        <DataArray type="Float32" NumberOfComponents="3" format="ascii">
          3.7591104347455722 8.7573428233808581 0
          3.7628504324465726 8.7642722250946594 0
          3.7666258182858257 8.7711824071173154 0
          3.7704547566735851 8.7780630563193149 0
          3.7743508879369694 8.7849058777103792 0
          3.7783252830785337 8.791703536325322 0
          3.782387246378319 8.7984492287750431 0
          3.786544749568356 8.8051364562378769 0
          3.7908046973999796 8.8117588892485141 0
          3.7951731041384948 8.818310280499956 0
          3.7996552128881604 8.8247844087136542 0
          3.8042555836576346 8.8311750388902457 0
          3.8089781575447499 8.8374758953046939 0
          3.813826303816767 8.8436806437949187 0
          3.8188028523093194 8.8497828828507021 0
          3.8239101163970495 8.8557761407180244 0
          3.8291499105234901 8.8616538760933583 0
          3.834523566885097 8.8674094786942508 0
          3.8400319443205539 8.8730362761045498 0
          3.8456754358863425 8.8785275418454148 0
          3.8514539757565736 8.8838765040664693 0
          3.8573670440001813 8.8890763564466013 0
          3.8634136691648528 8.8941202718979024 0
          3.8695924312142838 8.8990014165819868 0
          3.8759014648928938 8.9037129640231818 0
          3.882338460901102 8.9082481128727693 0
          3.8889006707629852 8.9126001006561371 0
          3.8955849096232567 8.9167622209785833 0
          3.9023875569338586 8.9207278455729835 0
          3.9093045604725347 8.9244904431177812 0
          3.9163314509362421 8.9280435788118613 0
          3.9234633363394686 8.931380951038502 0
          3.9306949083129603 8.9344964100826516 0
          3.9380204487068 8.9373839778475794 0
          3.9454338378326916 8.9400378654069197 0
          3.9529285628400435 8.9424524915916308 0
          3.9604977270408255 8.9446225005831508 0
          3.9681340582692002 8.9465427853515589 0
          3.9758299209092471 8.9482085013326991 0
          3.9835773282435341 8.9496150776445162 0
          3.9913679529225834 8.950758237680839 0
          3.9991931389090971 8.9516340170554756 0
          4.0070439143982686 8.9522387788174864 0
          4.01486449529816 8.9531546366911385 0
          4.0226431807628087 8.9543762086358427 0
          4.0303685706888981 8.9558988652489564 0
          4.0380299788364598 8.9577162683676193 0
          4.0456173015601351 8.9598216700132003 0
          4.0531206122740073 8.9622092688118826 0
          4.0605308866561307 8.9648716594038635 0
          4.0678397032585343 8.9678011579809915 0
          4.0750386430074004 8.9709912030496071 0
          4.0821210320716297 8.9744323288026084 0
          4.089080240165397 8.9781162901429301 0
          4.0959128340464472 8.9820301769156217 0
          4.1031572181597369 8.9851160083608281 0
          4.1107140775174029 8.9873291582837709 0
          4.1184790321340357 8.9886369934837127 0
          4.1262356903997137 8.989992042861001 0
          4.1339781515399654 8.9914254344014655 0
          4.1416993721877944 8.9929691703921186 0
          4.1493907180637741 8.9946560226993633 0
          4.1570414644842515 8.996519441025308 0
          4.1646382693147537 8.9985933528906958 0
          4.1721639531085053 9.0009117542513319 0
          4.1796122192667573 9.0034676692092077 0
          4.1869768957146203 9.0062550534494648 0
          4.1942522272382519 9.0092677354066257 0
          4.2014328637939089 9.0124994564238978 0
          4.2085138393944588 9.0159439206474268 0
          4.215490567096901 9.0195948012468321 0
          4.2223588146550295 9.0234457830050392 0
          4.229114683067289 9.0274905901404026 0
          4.235753950411663 9.031724004577061 0
          4.242273262859948 9.0361398597628479 0
          4.2486695341065701 9.0407320879230522 0
          4.254939920218531 9.0454947363672851 0
          4.2610817954507922 9.0504219794113148 0
          4.2670927182102885 9.0555081396090866 0
          4.2729704249688334 9.060747672647512 0
          4.2787127972970795 9.066135184556753 0
          4.2843170464662546 9.0716662374900121 0
          4.2897812338389567 9.0773357071026073 0
          4.2951034981677987 9.0831386239171437 0
          4.3002820219800872 9.0890701816173891 0
          4.3053150322823877 9.09512571342011 0
          4.3102007687738029 9.1013006978975408 0
          4.3149365927673733 9.1075914084564094 0
          4.3195206780799174 9.1139935534041214 0
          4.323951153876064 9.1205029639129318 0
          4.328226086917021 9.1271155838007232 0
          4.3323434623257757 9.133827459519118 0
          4.3363002550057725 9.1406352574278991 0
          4.3400942126849458 9.1475351469379866 0
          4.3437229525032306 9.1545233591927069 0
          4.3471830295939009 9.1615966188257278 0
          4.3504717337415348 9.168751186218417 0
          4.353586179251054 9.1759833307787364 0
          4.3565232911505269 9.1832893103724285 0
          4.3592788677518755 9.1906656941953333 0
          4.361849396134498 9.1981086038413071 0
          4.3642311338480999 9.2056140770999662 0
          4.3664200966664328 9.2131780398976453 0
          4.368412043992981 9.2207962766654266 0
          4.3702015547600928 9.2284646098497145 0
          4.3717838290884261 9.2361783895052465 0
          4.3731537769863209 9.2439327139914482 0
          4.374306008227145 9.2517223865364109 0
          4.3752348198155175 9.2595418679096291 0
          4.3759341879759734 9.2673852234506917 0
          4.3763987089364571 9.2752460090191065 0
          4.3766216911461537 9.2831173760261709 0
          4.3765960926812735 9.2909918867913994 0
          4.3763154983520023 9.2988614682086634 0
          4.3757721407317183 9.3067173136836452 0
          4.3749578615518683 9.3145497481195623 0
          4.3738651466189395 9.3223482499493535 0
          4.3724850538960949 9.3301010955696579 0
          4.3709808572412054 9.3378309507237045 0
          4.3693588873503844 9.3455371055739587 0
          4.3676190706921725 9.353217686317171 0
          4.3657783226738056 9.3608749150291626 0
          4.363829236323979 9.3685055217069806 0
          4.3617813188653969 9.3761104760837561 0
          4.3596541850021548 9.3836939869390399 0
          4.3574835073168705 9.3912655617407665 0
          4.3553633655801436 9.3988520104055642 0
          4.3533555100094166 9.4064696691440162 0
        </DataArray>
      </Points>
      <Cells>
        <DataArray type="Int32" Name="connectivity" format="ascii">
          0 1 1 2 2 3 3 4 4 5 5 6 6 7 7 8 8 9 9 10 10 11 11 12 12 13 13 14 14 15 15 16 16 17 17 18 18 19 19 20 20 21 21 22 22 23 23 24 24 25 25 26 26 27 27 28 28 29 29 30 30 31 31 32 32 33 33 34 34 35 35 36 36 37 37 38 38 39 39 40 40 41 41 42 42 43 43 44 44 45 45 46 46 47 47 48 48 49 49 50 50 51 51 52 52 53 53 54 54 55 55 56 56 57 57 58 58 59 59 60 60 61 61 62 62 63 63 64 64 65 65 66 66 67 67 68 68 69 69 70 70 71 71 72 72 73 73 74 74 75 75 76 76 77 77 78 78 79 79 80 80 81 81 82 82 83 83 84 84 85 85 86 86 87 87 88 88 89 89 90 90 91 91 92 92 93 93 94 94 95 95 96 96 97 97 98 98 99 99 100 100 101 101 102 102 103 103 104 104 105 105 106 106 107 107 108 108 109 109 110 110 111 111 112 112 113 113 114 114 115 115 116 116 117 117 118 118 119 119 120 120 121 121 122 122 123 123 124 124 125 125 126 126 127 
        </DataArray>
        <DataArray type="Int32" Name="offsets" format="ascii">
          2 4 6 8 10 12 14 16 18 20 22 24 26 28 30 32 34 36 38 40 42 44 46 48 50 52 54 56 58 60 62 64 66 68 70 72 74 76 78 80 82 84 86 88 90 92 94 96 98 100 102 104 106 108 110 112 114 116 118 120 122 124 126 128 130 132 134 136 138 140 142 144 146 148 150 152 154 156 158 160 162 164 166 168 170 172 174 176 178 180 182 184 186 188 190 192 194 196 198 200 202 204 206 208 210 212 214 216 218 220 222 224 226 228 230 232 234 236 238 240 242 244 246 248 250 252 254 
        </DataArray>
        <DataArray type="Int32" Name="types" format="ascii">
          3 3 3 3 3 3 3 3 3 3 3 3 3 3 3 3 3 3 3 3 3 3 3 3 3 3 3 3 3 3 3 3 3 3 3 3 3 3 3 3 3 3 3 3 3 3 3 3 3 3 3 3 3 3 3 3 3 3 3 3 3 3 3 3 3 3 3 3 3 3 3 3 3 3 3 3 3 3 3 3 3 3 3 3 3 3 3 3 3 3 3 3 3 3 3 3 3 3 3 3 3 3 3 3 3 3 3 3 3 3 3 3 3 3 3 3 3 3 3 3 3 3 3 3 3 3 3         </DataArray>
      </Cells>
    </Piece>
  </UnstructuredGrid>
</VTKFile>
