<?xml version="1.0"?>
<VTKFile type="UnstructuredGrid" version="0.1" byte_order="LittleEndian">
  <UnstructuredGrid>
    <Piece NumberOfPoints="128" NumberOfCells="127">
      <PointData Scalars="W">
        <DataArray type="Float32" Name="W" NumberOfComponents="2">
          0 0 -0.0016732812963831383 0.011274421207227178 -0.011250561386085557 0.075625144127019248 -0.019621676387082683 0.13115312842505938 -0.027737244287110281 0.18382277349355572 -0.035993268217336324 0.23586524505596068 -0.044575155285205843 0.28806994754557447 -0.053591171038611274 0.34068607515991556 -0.063117415945814284 0.39373275877783803 -0.073234848194200508 0.44724265813880471 -0.084010757672459399 0.50114929493973503 -0.095512555875533242 0.55537964520143968 -0.10780805691029706 0.60985840785687584 -0.12097776480860976 0.66457666259326664 -0.13511303382969661 0.71957150099249412 -0.15030607330026916 0.77486552579952539 -0.16663823104689307 0.83040985665514622 -0.18420438520785906 0.88621231810896228 -0.20310178209991514 0.94227444551849737 -0.22341957399433424 0.99854508886126336 -0.24525650351175074 1.0550051762713977 -0.26871980335458373 1.1116555082082256 -0.29391449685691512 1.1684688666620717 -0.32093977214372826 1.2253808135901401 -0.34991064330534866 1.2823748083130508 -0.38091825028225917 1.3393329977623285 -0.41407051203411516 1.396193068990196 -0.44949954672412035 1.4529582821315434 -0.4873222995935283 1.5095601170403616 -0.52753056386945651 1.5655531525657245 -0.57032923107171729 1.6211498683143231 -0.61581860900915864 1.6762155850135687 -0.66410197512015934 1.7306212539877825 -0.71526971522339444 1.7842024765678168 -0.76941772450310153 1.8368103497786872 -0.82662396530878612 1.8882545599146874 -0.8869980880456132 1.938419008051776 -0.95058351320114354 1.9870419348553434 -1.0174058368487009 2.0338459749437772 -1.0875517691790373 2.0786911672984694 -1.1610709183612649 2.121364835879699 -1.2379914052962149 2.1616248651524876 -6.8955622759275537 10.535963263608677 -7.9543832593022357 9.8566240155319598 -8.9520490615573607 9.0660581129151829 -9.8737362819651295 8.1669676234924662 -10.709463110960707 7.1681546858585481 -11.444614159042274 6.0757571228127611 -12.070803342887901 4.9011581167072151 -12.574554422484518 3.6540903336130834 -12.949828888670984 2.3482920040951045 -13.185198467015923 0.99693294757602879 -13.27778817618934 -0.38433587283260084 -13.21929816812133 -1.7793432709736114 -13.004929606908771 -3.1695824023510699 4.4094132803516608 1.2381730353671621 5.0039127626906028 1.2004744633324582 4.9905250335584368 0.98652047060794612 6.2459827222152242 0.94560059687851139 6.2104833283779115 0.62809638040567606 6.1532755960410119 0.31991918464191371 6.0760158999355953 0.022798529605487252 5.0526762854470837 -0.2026634893583297 4.8820208970471954 -0.38789343167680645 4.6981996101790822 -0.55316652708147818 4.5791638551728866 -0.71117884230164463 4.4538652475603095 -0.8574185142112567 4.3235288297576258 -0.99187589811716348 4.1527300053092908 -1.104262876307776 4.016516099554579 -1.2132008270707824 3.878636930263887 -1.3111382518134409 3.7400186046286086 -1.3984729993632217 3.6015077323368079 -1.4756694848461325 3.4625394155193332 -1.5426295394514318 3.2912988393299254 -1.583502195074614 3.1585005560296366 -1.6315488635383413 3.0284310821527716 -1.6718762521481128 2.9015668401682038 -1.7051271508826742 2.7782984069058632 -1.7319440086687392 2.6240812633205257 -1.7293569673585896 2.510112071664123 -1.7435730671558676 2.4005692813752799 -1.753391899253427 2.2956198334100018 -1.759435446787343 2.1953889986117776 -1.7623141142331611 2.0989398676666084 -1.761745901481963 2.0084137313872237 -1.7600291790670206 1.8919853655796428 -1.7281913331080108 1.8123820073367685 -1.7229892452615077 1.7376298107905237 -1.7175364932181145 1.6667655159879424 -1.7113904627521432 1.6016114826782037 -1.7069585879399252 1.5121873586674299 -1.6712321194740227 1.4574031401456329 -1.6687901662906803 1.4062604178167588 -1.6676357961347594 1.3603162183770818 -1.6701843029377554 1.3186029463578259 -1.6759551321863921 1.254000964519401 -1.6493079773003023 1.2207340060833725 -1.6609730064190511 1.1919989966366074 -1.6782531076940397 1.1668582137878427 -1.7006419925379122 1.1451141155590525 -1.7286289897238889 1.1017853646142126 -1.7232806910400911 1.0868331129387276 -1.7621742247298611 1.0752232460400764 -1.8092513781595148 1.0424424553499321 -1.8220999213018896 1.0366850123217031 -1.8845111708071891 1.0326453828209161 -1.9559902684659425 1.0077741103007796 -1.9925778266050846 1.0073307537484495 -2.0835027280694307 1.0070841214339659 -2.185759638924814 0.9865854273558835 -2.2539388239707234 0.98632086996694968 -2.380802029823379 0.98382522515087456 -2.5219300977957975 0.96060430285631437 -2.6294056770954191 0.95217391492636938 -2.8018668267901634 0.92199777073594313 -2.9409226640599586 0.88596871007093969 -3.0927404069140878 0.90386089907521616 -3.5097137854519107 0.85493045854744187 -3.7783085193660808 0.77801370880442611 -4.0206437788666749 0.69062584081553213 -4.3431483492274419 -0.75387561472882014 4.6979186878972428 -0.9346564701096518 4.6905517700463877 -1.0979036620108664 4.6027476042039446 -1.0607857838753576 3.8548643968482095 -0.8048053812345245 2.6469162526807302 0.89336159444105978 -2.9513977217032603 0 0
        </DataArray>
        <DataArray type="Float32" Name="u" NumberOfComponents="1">
          0 0.007874015748031496 0.015748031496062992 0.023622047244094488 0.031496062992125984 0.03937007874015748 0.047244094488188976 0.055118110236220472 0.062992125984251968 0.070866141732283464 0.07874015748031496 0.086614173228346455 0.094488188976377951 0.10236220472440945 0.11023622047244094 0.11811023622047244 0.12598425196850394 0.13385826771653545 0.14173228346456693 0.14960629921259844 0.15748031496062992 0.16535433070866143 0.17322834645669291 0.18110236220472442 0.1889763779527559 0.19685039370078741 0.20472440944881889 0.2125984251968504 0.22047244094488189 0.2283464566929134 0.23622047244094488 0.24409448818897639 0.25196850393700787 0.25984251968503935 0.26771653543307089 0.27559055118110237 0.28346456692913385 0.29133858267716534 0.29921259842519687 0.30708661417322836 0.31496062992125984 0.32283464566929132 0.33070866141732286 0.33858267716535434 0.34645669291338582 0.3543307086614173 0.36220472440944884 0.37007874015748032 0.37795275590551181 0.38582677165354329 0.39370078740157483 0.40157480314960631 0.40944881889763779 0.41732283464566927 0.42519685039370081 0.43307086614173229 0.44094488188976377 0.44881889763779526 0.45669291338582679 0.46456692913385828 0.47244094488188976 0.48031496062992124 0.48818897637795278 0.49606299212598426 0.50393700787401574 0.51181102362204722 0.51968503937007871 0.52755905511811019 0.53543307086614178 0.54330708661417326 0.55118110236220474 0.55905511811023623 0.56692913385826771 0.57480314960629919 0.58267716535433067 0.59055118110236215 0.59842519685039375 0.60629921259842523 0.61417322834645671 0.62204724409448819 0.62992125984251968 0.63779527559055116 0.64566929133858264 0.65354330708661412 0.66141732283464572 0.6692913385826772 0.67716535433070868 0.68503937007874016 0.69291338582677164 0.70078740157480313 0.70866141732283461 0.71653543307086609 0.72440944881889768 0.73228346456692917 0.74015748031496065 0.74803149606299213 0.75590551181102361 0.76377952755905509 0.77165354330708658 0.77952755905511806 0.78740157480314965 0.79527559055118113 0.80314960629921262 0.8110236220472441 0.81889763779527558 0.82677165354330706 0.83464566929133854 0.84251968503937003 0.85039370078740162 0.8582677165354331 0.86614173228346458 0.87401574803149606 0.88188976377952755 0.88976377952755903 0.89763779527559051 0.90551181102362199 0.91338582677165359 0.92125984251968507 0.92913385826771655 0.93700787401574803 0.94488188976377951 0.952755905511811 0.96062992125984248 0.96850393700787396 0.97637795275590555 0.98425196850393704 0.99212598425196852 1
        </DataArray>
      </PointData>
      <CellData Scalars="P">
        <DataArray type="Float32" Name="P" NumberOfComponents="1">
          -0.0091970136993589531 -0.027591435308094599 -0.045922993214775776 -0.064125630209322382 -0.082121517622256265 -0.09981848462674206 -0.11710988204160054 -0.13387513787989738 -0.14998068919917587 -0.16528027602102363 -0.17961617292087559 -0.19282014980808268 -0.20471450246859157 -0.21511229037340096 -0.22381743036890839 -0.23062539036226351 -0.23532494189758296 -0.23769804384848769 -0.23752053593376202 -0.23456386243186278 -0.22859518423523179 -0.21937748078745245 -0.20667071488367342 -0.19023343826486785 -0.16982203760561035 -0.14519432343161043 -0.11610856739089871 -0.082321564113100709 -0.043591197152255241 0.00030820188524264988 0.049610367986533004 0.10454403233056429 0.16533277734937735 0.23219311840896953 0.30533489836894395 0.38495902489186706 0.47126114854986179 0.56442396200761136 0.66461561751667053 0.77199728573978299 0.88671925020292097 1.0089191066221688 1.7079364080144119 2.4182919003502819 3.1376618780474796 3.8630352288289811 4.591071739787135 5.3176889617015792 6.0384523278962421 6.7481818688742168 7.4413678099526601 8.1118089125473691 8.753055131109944 9.358094671403947 9.9195690585053562 9.6905457282920935 9.3929930968132744 9.0574503258725532 8.644367562115109 8.1964046909503825 7.7189657893062531 7.2173906863769197 6.7811840165914328 6.3426247295012166 5.9063324950690994 5.4689309374207333 5.0334281539796288 4.6025582574551027 4.1826649838446182 3.7720788904045102 3.3726767094572421 2.9860726730534979 2.6136289481356676 2.2566126811689009 1.9195725295795993 1.5993135932417204 1.2963095222154501 1.010856443825711 0.74309210438392848 0.49647995999971561 0.2672702293304256 0.055212713173386087 -0.14003386635953594 -0.31888673230669745 -0.48174007469753505 -0.62921124808314788 -0.75959677635985023 -0.87594826886293042 -0.9788670197516165 -1.0689020790790784 -1.1467080213883643 -1.2115197966770659 -1.2654462387170844 -1.3089818260149992 -1.3426459710318872 -1.3668829253971293 -1.3817234418692226 -1.3880880456306566 -1.386283855698389 -1.3765569520354659 -1.3591033555063567 -1.3346325915313835 -1.3028822521834587 -1.2638903367870058 -1.2187423419100378 -1.1665110598024859 -1.107153355266278 -1.0421269109019293 -0.96999608386799296 -0.89072202414501056 -0.80611017833246801 -0.71448926140380342 -0.61599244722032309 -0.51286953993618645 -0.40353774822914812 -0.29062779008198708 -0.17510451770502805 -0.048803660088346093 0.079991442700188389 0.20753519032739343 0.33309293520880728 0.22081763454469591 0.12350851404276429 0.044690793110916963 -0.0043894846263371912 -0.024127573289160417 -0.0020418490602737253
        </DataArray>
      </CellData>
      <Points>
        <DataArray type="Float32" NumberOfComponents="3" format="ascii">
          4.5394148873328986 10.036144890073556 0
          4.5472037177567737 10.037300503895183 0
          4.55499244080828 10.038456816207248 0
          4.5627804609327383 10.039617816570528 0
          4.5705672580690395 10.040786947614935 0
          4.5783523284585979 10.041967474801382 0
          4.5861351599777977 10.043162624739971 0
          4.5939152205725975 10.044375634124858 0
          4.6016919514959129 10.04560976517935 0
          4.6094647625498233 10.046868306839157 0
          4.617233027032916 10.048154576775959 0
          4.6249960775392625 10.04947191727539 0
          4.6327532017528501 10.050823690709908 0
          4.6405036382193776 10.052213274870931 0
          4.6482465713331909 10.053644062416842 0
          4.6559811256531622 10.055119463173785 0
          4.6637063601670921 10.056642905538094 0
          4.6714212632309513 10.05821783344655 0
          4.6791247466706523 10.05984770686208 0
          4.6868156397383549 10.061536001869156 0
          4.6944926835720002 10.063286207502301 0
          4.702154525061613 10.065101824562952 0
          4.7097997101906524 10.066986365667942 0
          4.7174266775157507 10.068943353560323 0
          4.725033752009697 10.07097631711204 0
          4.7326191379246607 10.07308879029577 0
          4.7401809131371131 10.075284304874893 0
          4.7477170224538918 10.077566386536541 0
          4.7552252694193893 10.079938555089909 0
          4.7627033090648991 10.082404320213866 0
          4.7701486484189557 10.08496715383607 0
          4.7775586338067333 10.087630503302483 0
          4.7849304446350613 10.090397783022723 0
          4.7922610869945492 10.093272366464602 0
          4.7995473880621828 10.096257575957127 0
          4.8067859901633776 10.099356673454585 0
          4.8139733459468195 10.10257284873351 0
          4.8211057115953952 10.105909212191676 0
          4.8281791441441335 10.109368778616538 0
          4.8351894999038061 10.112954449986796 0
          4.8421324290956154 10.116669006794162 0
          4.8490033727863944 10.120515094857579 0
          4.8557975611560149 10.124495210313158 0
          4.8621642111124483 10.12912858181976 0
          4.8680376719987786 10.134373088777691 0
          4.8733560850563515 10.140179713860869 0
          4.8780623026397203 10.146492710628641 0
          4.8821045071695881 10.153250149321844 0
          4.8854371174138933 10.160384297551429 0
          4.888021308465107 10.167822326157175 0
          4.8898258473308642 10.175486912817171 0
          4.8908274673037484 10.183297093935074 0
          4.8910115764997979 10.191169081363453 0
          4.8903724360262197 10.199017232864092 0
          4.8889136744801958 10.206755054887415 0
          4.8866485853336528 10.214296350113534 0
          4.8846568228736356 10.22191468133301 0
          4.8829752436182883 10.229607904321766 0
          4.8816030444505172 10.2373629396968 0
          4.8806182469197559 10.245176585857353 0
          4.8800186436024866 10.253029148265238 0
          4.8798006804892156 10.26090151154825 0
          4.8799595598190137 10.268775246773428 0
          4.8804318047072472 10.276636334934443 0
          4.8812068218707498 10.284473287456899 0
          4.8822732019026072 10.292275854341376 0
          4.8836235541541528 10.300034239295458 0
          4.8852501002871636 10.307739376735443 0
          4.8871447502786562 10.315382932283669 0
          4.8892969053341373 10.322957939575121 0
          4.8916981124335273 10.330457647688778 0
          4.8943398160524607 10.337875988146168 0
          4.8972134155781379 10.345207550158095 0
          4.9003103177871701 10.352447551751336 0
          4.9036219017773961 10.359591845757288 0
          4.9071375458395528 10.366637901924339 0
          4.9108490130138227 10.37358274602162 0
          4.9147482361558801 10.38042388240884 0
          4.918827347439505 10.387159254142341 0
          4.9230787025355349 10.39378720310882 0
          4.9274927383463778 10.400307893696292 0
          4.932062388165928 10.4067204489061 0
          4.9367808601805248 10.41302426421626 0
          4.941641647785227 10.419218969005945 0
          4.9466385373186279 10.425304388701665 0
          4.9517655499370727 10.431280562248904 0
          4.9570170743654955 10.437147599626588 0
          4.9623858935497172 10.442907478010664 0
          4.9678670741071249 10.448560523191455 0
          4.9734559836968568 10.454107076313313 0
          4.9791482312797175 10.459547521318498 0
          4.9849397800926667 10.464882135690633 0
          4.9908250889375436 10.470113137083359 0
          4.9968007645160482 10.475240679326866 0
          5.0028636395151622 10.480264836240368 0
          5.0090108691278772 10.485185451872599 0
          5.0152398710592463 10.490002170293199 0
          5.021546644446377 10.494716645621157 0
          5.0279291311683183 10.499328156169215 0
          5.0343855542680069 10.50383563187598 0
          5.0409143598213051 10.508237685684545 0
          5.0475142046902839 10.512532583179841 0
          5.0541824083019939 10.516720657069694 0
          5.0609180491463492 10.520799496203324 0
          5.067720413128356 10.52476618164598 0
          5.07458747457523 10.528619917066369 0
          5.0815188827911824 10.532356831991624 0
          5.0885143937912556 10.535972493178889 0
          5.0955724732710879 10.539464631140378 0
          5.1026931007741778 10.542827605724479 0
          5.1098762682277039 10.54605507335422 0
          5.1171207133653445 10.549142803691417 0
          5.1244264274842415 10.55208292561333 0
          5.1317932636459691 10.554866682317876 0
          5.1392197915422733 10.557487403715852 0
          5.1467054964540502 10.559934387376986 0
          5.1542485170705374 10.562199002065261 0
          5.1618466294196788 10.564271823575336 0
          5.1695009427803242 10.5661269759183 0
          5.1772084283538709 10.567747786765429 0
          5.1849643228927924 10.569119211129669 0
          5.1927632096341059 10.570221228051196 0
          5.2005149572435618 10.571614616246595 0
          5.2082084034414491 10.573298887370774 0
          5.2158334687048029 10.575268569371184 0
          5.2233924756942933 10.577477252351802 0
          5.2309013110765274 10.579850003469776 0
          5.2384651983479822 10.582039634760681 0
        </DataArray>
      </Points>
      <Cells>
        <DataArray type="Int32" Name="connectivity" format="ascii">
          0 1 1 2 2 3 3 4 4 5 5 6 6 7 7 8 8 9 9 10 10 11 11 12 12 13 13 14 14 15 15 16 16 17 17 18 18 19 19 20 20 21 21 22 22 23 23 24 24 25 25 26 26 27 27 28 28 29 29 30 30 31 31 32 32 33 33 34 34 35 35 36 36 37 37 38 38 39 39 40 40 41 41 42 42 43 43 44 44 45 45 46 46 47 47 48 48 49 49 50 50 51 51 52 52 53 53 54 54 55 55 56 56 57 57 58 58 59 59 60 60 61 61 62 62 63 63 64 64 65 65 66 66 67 67 68 68 69 69 70 70 71 71 72 72 73 73 74 74 75 75 76 76 77 77 78 78 79 79 80 80 81 81 82 82 83 83 84 84 85 85 86 86 87 87 88 88 89 89 90 90 91 91 92 92 93 93 94 94 95 95 96 96 97 97 98 98 99 99 100 100 101 101 102 102 103 103 104 104 105 105 106 106 107 107 108 108 109 109 110 110 111 111 112 112 113 113 114 114 115 115 116 116 117 117 118 118 119 119 120 120 121 121 122 122 123 123 124 124 125 125 126 126 127 
        </DataArray>
        <DataArray type="Int32" Name="offsets" format="ascii">
          2 4 6 8 10 12 14 16 18 20 22 24 26 28 30 32 34 36 38 40 42 44 46 48 50 52 54 56 58 60 62 64 66 68 70 72 74 76 78 80 82 84 86 88 90 92 94 96 98 100 102 104 106 108 110 112 114 116 118 120 122 124 126 128 130 132 134 136 138 140 142 144 146 148 150 152 154 156 158 160 162 164 166 168 170 172 174 176 178 180 182 184 186 188 190 192 194 196 198 200 202 204 206 208 210 212 214 216 218 220 222 224 226 228 230 232 234 236 238 240 242 244 246 248 250 252 254 
        </DataArray>
        <DataArray type="Int32" Name="types" format="ascii">
          3 3 3 3 3 3 3 3 3 3 3 3 3 3 3 3 3 3 3 3 3 3 3 3 3 3 3 3 3 3 3 3 3 3 3 3 3 3 3 3 3 3 3 3 3 3 3 3 3 3 3 3 3 3 3 3 3 3 3 3 3 3 3 3 3 3 3 3 3 3 3 3 3 3 3 3 3 3 3 3 3 3 3 3 3 3 3 3 3 3 3 3 3 3 3 3 3 3 3 3 3 3 3 3 3 3 3 3 3 3 3 3 3 3 3 3 3 3 3 3 3 3 3 3 3 3 3         </DataArray>
      </Cells>
    </Piece>
  </UnstructuredGrid>
</VTKFile>
