<?xml version="1.0"?>
<VTKFile type="UnstructuredGrid" version="0.1" byte_order="LittleEndian">
  <UnstructuredGrid>
    <Piece NumberOfPoints="128" NumberOfCells="127">
      <PointData Scalars="W">
        <DataArray type="Float32" Name="W" NumberOfComponents="2">
          0 0 -0.0354617988667787 -0.091914678412209072 -0.064248413399656173 -0.16707112226861251 -0.07998309867265134 -0.20897613525027051 -0.088029523674968246 -0.23128404490877505 -0.090687314518574202 -0.23969599983148135 -0.089173467425082184 -0.2371313475748357 -0.084252499203709558 -0.22537490960225853 -0.076443904438723967 -0.20562158621098353 -0.066145675867193873 -0.17880425653972831 -0.053640621922732314 -0.14560970672042889 -0.039152560993305711 -0.10662898224346518 -0.022851539499787018 -0.062370992900647008 -0.0048813722901106717 -0.01333632216915267 0.014646040690395774 0.040000367577786043 0.035660849963213767 0.097221418805384263 0.05814779857241173 0.15800370376735356 0.082087622395536713 0.22196221514583364 0.1074937355397039 0.28875436027134371 0.13441142993506613 0.3580811363338211 0.1628988569363225 0.42963947589784773 0.19302196829697224 0.50311370747594419 0.22486311952590207 0.57820321675743813 0.25852262457481301 0.65463005114402051 0.29408944855656621 0.73206901990283624 0.3316926591868164 0.81028184630883004 0.37144034915248908 0.88896709018217801 0.41341742351997512 0.96776646880801354 0.45773362515820948 1.0463861787186346 0.50463121748441431 1.1248301611218552 0.55407656770159575 1.202481577571644 0.60616272574826857 1.2790405379670853 0.66096042425770107 1.3541805771189535 0.71853844436754277 1.4275972621056736 0.77893812003954799 1.4989602424674755 0.8421852728987711 1.5679440240634788 0.90823840165435898 1.6341398993559921 0.97709596170052182 1.6972609379584553 1.0487420833702272 1.7570336354691971 1.1230526552767228 1.8130497058050046 1.1998834922411001 1.8649342864460221 1.2790716505001605 1.9123482334073652 0.13863620056470966 0.20284358541600275 0.33656165278964206 0.48895788850770266 0.37832151305208234 0.54384624682605021 0.58411292689218974 0.82796555400475058 0.626923512000508 0.87331065547100162 0.84410543916338598 1.1517108764154667 0.88938035873827659 1.1847712667881607 1.1212212844688427 1.4536657929400172 1.3687836009573202 1.7175331969694569 1.4242159547601232 1.7244487884773996 1.6885578294785795 1.9671040517092078 2.2094011398739544 2.4561148371177226 9.2677852423268074 9.0617511968637618 10.187381022383374 8.1012063293276562 10.951624358491896 7.0090951064077061 11.658093368093001 5.8730253904318852 12.250023444374399 4.6612205485675657 12.722186014743482 3.3854288171559141 13.063278831133509 2.0558814149465796 1.0812943523041165 0.10817577522462901 1.1095678361965857 0.10129817479994233 0.88627409324502726 0.073865661093253626 1.1744815670026281 0.088264121141826787 1.2136453879203186 0.079707434485801712 1.2548535188821768 0.070146618967901739 1.2977867106220451 0.0594491664271177 1.3421403110692112 0.047492551732685906 1.384648973325876 0.034107379180454159 1.1729074399643191 0.017071192966810013 1.2197028832086796 0.0062582469792890599 1.2668437537138766 -0.0059049142769555356 1.3141999043441415 -0.019485210724102694 1.3614577355814235 -0.034539683238084637 1.4083795268234005 -0.051113649078866161 1.2055369205307307 -0.056192538347473169 1.2513483313452671 -0.07048243096948871 1.2962713897748939 -0.086090303378282038 1.3400922348151683 -0.10301968106261375 1.3826071808560119 -0.12126192854087096 1.4235607539321264 -0.1407895272939822 1.2232002587296089 -0.13392952234079331 1.2612619304271895 -0.15067879976609377 1.2974178738730386 -0.16837519119538613 1.3314962271667639 -0.18695954380561322 1.3633361283542664 -0.20636062946547609 1.1626263061454472 -0.18797014656423774 1.1903486662474916 -0.20394199745518965 1.2155123118133728 -0.22030834807416899 1.2379729029292541 -0.23696644961282728 1.0366554944692035 -0.20825550807084581 1.0541204866179728 -0.22099565242626742 1.0686351556341722 -0.23359121578693834 1.080002479389262 -0.24590314229950089 0.87601958276409442 -0.20675564129926871 0.88148137307648455 -0.21467763236105206 0.8835066047173703 -0.22188221004021022 0.88188439200310986 -0.22821160605843754 0.67280658809224325 -0.17865647496705192 0.66408228344173115 -0.18021973356642779 0.65128548197994729 -0.18050730884533561 0.63119628279227191 -0.17850845521173503 0.60951676529941889 -0.17572605140485145 0.38746021066438052 -0.11342343468942762 0.3564015671380068 -0.10551378676768884 0.31994562169183977 -0.095688443989571728 0.27467651105160057 -0.082881477903465714 0.22626628820061159 -0.068783097733595228 0.17119673814359332 -0.05234849919039878 0.30071439515164566 -0.092591883210338802 0.23049067036803239 -0.071522290759834739 0.1486846186492827 -0.046392464313809514 0.26231507270224791 -0.082335727962159641 0.16135650622942163 -0.050956883632148092 0.26100659812804033 -0.082927712823489388 0.13757056026031356 -0.043958860528848676 -0.47191185157641846 0.15007517688422975 -0.65249085680233243 0.20417180970989518 -0.65615808579922763 0.20143936448800559 -0.91277802560709886 0.27378630071978688 -1.161614751475663 0.33766908276369112 -1.2543317240997289 0.35120103034264127 -1.4300844298561044 0.38355781577787329 -1.7016594713887008 0.43322344200405399 -1.9848302242935056 0.47383123586412917 -1.3675515235546194 0.3069355151358506 0 0
        </DataArray>
        <DataArray type="Float32" Name="u" NumberOfComponents="1">
          0 0.007874015748031496 0.015748031496062992 0.023622047244094488 0.031496062992125984 0.03937007874015748 0.047244094488188976 0.055118110236220472 0.062992125984251968 0.070866141732283464 0.07874015748031496 0.086614173228346455 0.094488188976377951 0.10236220472440945 0.11023622047244094 0.11811023622047244 0.12598425196850394 0.13385826771653545 0.14173228346456693 0.14960629921259844 0.15748031496062992 0.16535433070866143 0.17322834645669291 0.18110236220472442 0.1889763779527559 0.19685039370078741 0.20472440944881889 0.2125984251968504 0.22047244094488189 0.2283464566929134 0.23622047244094488 0.24409448818897639 0.25196850393700787 0.25984251968503935 0.26771653543307089 0.27559055118110237 0.28346456692913385 0.29133858267716534 0.29921259842519687 0.30708661417322836 0.31496062992125984 0.32283464566929132 0.33070866141732286 0.33858267716535434 0.34645669291338582 0.3543307086614173 0.36220472440944884 0.37007874015748032 0.37795275590551181 0.38582677165354329 0.39370078740157483 0.40157480314960631 0.40944881889763779 0.41732283464566927 0.42519685039370081 0.43307086614173229 0.44094488188976377 0.44881889763779526 0.45669291338582679 0.46456692913385828 0.47244094488188976 0.48031496062992124 0.48818897637795278 0.49606299212598426 0.50393700787401574 0.51181102362204722 0.51968503937007871 0.52755905511811019 0.53543307086614178 0.54330708661417326 0.55118110236220474 0.55905511811023623 0.56692913385826771 0.57480314960629919 0.58267716535433067 0.59055118110236215 0.59842519685039375 0.60629921259842523 0.61417322834645671 0.62204724409448819 0.62992125984251968 0.63779527559055116 0.64566929133858264 0.65354330708661412 0.66141732283464572 0.6692913385826772 0.67716535433070868 0.68503937007874016 0.69291338582677164 0.70078740157480313 0.70866141732283461 0.71653543307086609 0.72440944881889768 0.73228346456692917 0.74015748031496065 0.74803149606299213 0.75590551181102361 0.76377952755905509 0.77165354330708658 0.77952755905511806 0.78740157480314965 0.79527559055118113 0.80314960629921262 0.8110236220472441 0.81889763779527558 0.82677165354330706 0.83464566929133854 0.84251968503937003 0.85039370078740162 0.8582677165354331 0.86614173228346458 0.87401574803149606 0.88188976377952755 0.88976377952755903 0.89763779527559051 0.90551181102362199 0.91338582677165359 0.92125984251968507 0.92913385826771655 0.93700787401574803 0.94488188976377951 0.952755905511811 0.96062992125984248 0.96850393700787396 0.97637795275590555 0.98425196850393704 0.99212598425196852 1
        </DataArray>
      </PointData>
      <CellData Scalars="P">
        <DataArray type="Float32" Name="P" NumberOfComponents="1">
          -0.024241222509537169 -0.072632635286728975 -0.12089306054822216 -0.16910681959091176 -0.21739392498246365 -0.26587652408610996 -0.31465957052298538 -0.36381777527790965 -0.41338640460498882 -0.46335511695879172 -0.51366369607331064 -0.56419984742841234 -0.61479848190067543 -0.6652429655990052 -0.71526757559440846 -0.76456044091985853 -0.81276613174916479 -0.85949156789301584 -0.90431080841192835 -0.94676988179156296 -0.986393047826851 -1.0226898442756704 -1.0551616398000896 -1.0833079469447682 -1.1066356471021761 -1.1246628805618495 -1.1369291378721589 -1.1430060113398757 -1.1425021411335121 -1.1350538414999203 -1.1203667349751854 -1.0982070230702132 -1.0684107217523557 -1.0308898135683244 -0.98564126473909075 -0.93275391328539414 -0.87242147163762906 -0.80494066093850991 -0.7307161276138191 -0.65027637672240068 -0.56427694886028823 -0.47350254185490981 -0.49898926979433122 -0.50233007488080761 -0.50264509472684027 -0.48320101558125717 -0.4631320346822414 -0.42689975277009345 -0.39295804460674999 -0.34730849854804485 -0.29271009864677516 -0.24560956041985613 -0.19482196164441931 -0.13163642697758879 0.18036938042709819 0.45505907623316932 0.70323062375222367 0.93917761104092745 1.1755453421875879 1.4247959102553271 1.6987651531163934 1.6826676585223797 1.6715198668413682 1.6560705434518777 1.654209560733785 1.6567749204728384 1.6635522411624042 1.6743054982481123 1.6887756993362368 1.7065438101238115 1.7153755765991501 1.726900940428717 1.7407991702669279 1.7567299996231347 1.7743284708556064 1.7932126624707538 1.8017135747602984 1.8109651480620292 1.820566684695335 1.8301104073720791 1.8391874809806354 1.8473917441231025 1.8455709237289697 1.8425940468346642 1.838087294403705 1.8316943147867499 1.8230819115951842 1.8059930269806819 1.7866720778778611 1.7648513207377867 1.7402959088495753 1.7092456270488636 1.675673969966804 1.6394288959579602 1.6003966021319431 1.5572214086424567 1.5116953416718062 1.4637937903275668 1.413533089565657 1.3617266608885974 1.3081949002029136 1.2530393523670968 1.1964316253606508 1.1385261412470635 1.0823740338998293 1.0257516696453433 0.96890121239279992 0.912154201850776 0.85575308212674472 0.80001755344996139 0.74075006893686313 0.68265288787209522 0.62620417833297437 0.5665120023306226 0.50917903369194162 0.4490937817845298 0.39214042700325108 0.35033009465104925 0.31225237735794953 0.27337788909871064 0.23877068463818027 0.20711377593371855 0.1745174403064457 0.14136652596256785 0.10736513452782656 0.070515206702211355 0.024940807429346418
        </DataArray>
      </CellData>
      <Points>
        <DataArray type="Float32" NumberOfComponents="3" format="ascii">
          4.2159676443108767 8.2028958842473401 0
          4.2086213690443453 8.2057334409402412 0
          4.2012729351540541 8.2085652814659706 0
          4.1939205776557307 8.2113867370810087 0
          4.1865633338253954 8.2141952042725652 0
          4.1792007132801912 8.2169892967882721 0
          4.1718325565283889 8.2197684915160014 0
          4.1644589601483357 8.2225329470930273 0
          4.1570802298021992 8.225283392974827 0
          4.1496968483270589 8.2280210551475612 0
          4.1423094512924656 8.2307475981310141 0
          4.1349188096578509 8.2334650822741349 0
          4.1275258160592507 8.2361759270138588 0
          4.1201314744102202 8.2388828792499122 0
          4.1127368911145208 8.2415889822563777 0
          4.1053432682465472 8.2442975462189381 0
          4.097951899330095 8.2470121223232677 0
          4.0905641684946605 8.2497364827192836 0
          4.0831815493771293 8.2524745966620632 0
          4.0758056060443506 8.2552306092944718 0
          4.0684379958877024 8.2580088231428785 0
          4.0610804733111614 8.2608136793700684 0
          4.0537348938998017 8.2636497382546708 0
          4.0464032196027038 8.2665216606108789 0
          4.0390875250272229 8.2694341906188011 0
          4.0317900030281155 8.2723921357304331 0
          4.0245129727821016 8.2754003519679227 0
          4.0172588865614998 8.2784637253080451 0
          4.0100303350701072 8.2815871495434745 0
          4.0028300543196424 8.2847755081423635 0
          3.9956609407249077 8.2880336745711212 0
          3.9885260490925143 8.291366474122432 0
          3.9814285984665769 8.2947786653942028 0
          3.9743719765926837 8.2982749201177963 0
          3.9673597442632231 8.3018598043493483 0
          3.9603956379631886 8.3055377580498639 0
          3.95348357155672 8.3093130749620698 0
          3.9466276338006616 8.313189877320438 0
          3.9398320883391413 8.3171720981092392 0
          3.9331013728128226 8.3212634641487124 0
          3.9264400912559023 8.3254674708140222 0
          3.9198530052493741 8.3297873588206386 0
          3.9133450239119942 8.3342260932190744 0
          3.9068457912581667 8.33867731549309 0
          3.9003675969567912 8.3431587725109537 0
          3.8939130249657175 8.3476738718341945 0
          3.8874948496882271 8.3522402340302833 0
          3.8811157183220582 8.3568606732865387 0
          3.8747891084915693 8.3615524528768539 0
          3.8685178183754116 8.3663176237730248 0
          3.8623162313296939 8.3711728573242397 0
          3.8561997030463875 8.3761345115140653 0
          3.850171657758712 8.3812030141814411 0
          3.8442484875497271 8.386393406336035 0
          3.8384624997371612 8.3917359982391471 0
          3.8332511724948448 8.3976407796182855 0
          3.8286715834317184 8.4040482327811254 0
          3.8247711864321863 8.4108906773270107 0
          3.8215938674139456 8.4180976968426293 0
          3.8191764207935215 8.4255941671837817 0
          3.8175482239784344 8.4333009824127529 0
          3.8167305344567728 8.4411356871419549 0
          3.8159799530498888 8.4489769676950282 0
          3.8152982304682714 8.4568243979698661 0
          3.8146715076196478 8.4646762912372626 0
          3.8141176642950532 8.4725335271086752 0
          3.8136391264765193 8.4803955757412854 0
          3.813238446812226 8.4882618451894185 0
          3.8129182848078473 8.4961316731831946 0
          3.8126813879268697 8.5040043195290362 0
          3.8125303890309232 8.5118789557494541 0
          3.8124521493403933 8.5197545390983702 0
          3.8124495684651372 8.5276304001750223 0
          3.8125255672917482 8.5355057859847463 0
          3.812683079919156 8.5433798557914962 0
          3.8129250342174408 8.5512516775936476 0
          3.8132543370961858 8.5591202253252661 0
          3.8136584051965663 8.5669851957230918 0
          3.8141400772021341 8.5748457040217669 0
          3.8147021366016309 8.5827007838863096 0
          3.815347298442139 8.590549387208501 0
          3.8160781967158317 8.5983903846582361 0
          3.816897368537874 8.606222567408496 0
          3.8177923872159534 8.6140463705191728 0
          3.8187656110805115 8.621860757144546 0
          3.8198192802644848 8.629664631925424 0
          3.8209555060699656 8.6374568446752722 0
          3.8221762610193912 8.6452361948153271 0
          3.8234690987093654 8.6530038307411221 0
          3.8248357368399497 8.6607587642917601 0
          3.826277734514024 8.6684999831151046 0
          3.8277964833158888 8.6762264570583412 0
          3.8293795005191398 8.683939973169899 0
          3.83102786841118 8.6916397441067481 0
          3.8327424864715609 8.6993249918062592 0
          3.8345240591857359 8.7069949561304263 0
          3.8363599396579033 8.7146520702434493 0
          3.8382504666402615 8.722295846194358 0
          3.8401957659969392 8.7299258408891003 0
          3.8421957376567151 8.7375416658970249 0
          3.8442374196948013 8.745146399028954 0
          3.8463202720864098 8.7527399475124543 0
          3.8484435025389039 8.7603222981218565 0
          3.8506058668772112 8.7678935798721582 0
          3.8528060225885192 8.7754539708618839 0
          3.8550302037581647 8.7830073391948531 0
          3.8572764866265272 8.790554181258587 0
          3.8595426130297121 8.798095112804603 0
          3.8618257785969843 8.8056309350448743 0
          3.8641229844233118 8.8131625299443233 0
          3.8664308189074248 8.8206909250231949 0
          3.8687573166385407 8.8282136374222429 0
          3.8710981272827363 8.8357319843673778 0
          3.8734481824512823 8.8432475356281621 0
          3.875814533837652 8.8507580796999132 0
          3.8781909262985259 8.858265576558729 0
          3.8805835465628253 8.8657680649541462 0
          3.8829847463600631 8.8732679786016408 0
          3.8853567288995965 8.8807773524100124 0
          3.8876882978543272 8.8882995575149 0
          3.8899792303084832 8.895834449412952 0
          3.8922136109553516 8.903386532758681 0
          3.8943760050805021 8.9109597897731447 0
          3.896460662196549 8.9185550898837445 0
          3.8984566782939067 8.9261744706959085 0
          3.9003472007641911 8.9338210438080505 0
          3.9021146537228288 8.9414973652582859 0
          3.903797346694152 8.9491931844366164 0
        </DataArray>
      </Points>
      <Cells>
        <DataArray type="Int32" Name="connectivity" format="ascii">
          0 1 1 2 2 3 3 4 4 5 5 6 6 7 7 8 8 9 9 10 10 11 11 12 12 13 13 14 14 15 15 16 16 17 17 18 18 19 19 20 20 21 21 22 22 23 23 24 24 25 25 26 26 27 27 28 28 29 29 30 30 31 31 32 32 33 33 34 34 35 35 36 36 37 37 38 38 39 39 40 40 41 41 42 42 43 43 44 44 45 45 46 46 47 47 48 48 49 49 50 50 51 51 52 52 53 53 54 54 55 55 56 56 57 57 58 58 59 59 60 60 61 61 62 62 63 63 64 64 65 65 66 66 67 67 68 68 69 69 70 70 71 71 72 72 73 73 74 74 75 75 76 76 77 77 78 78 79 79 80 80 81 81 82 82 83 83 84 84 85 85 86 86 87 87 88 88 89 89 90 90 91 91 92 92 93 93 94 94 95 95 96 96 97 97 98 98 99 99 100 100 101 101 102 102 103 103 104 104 105 105 106 106 107 107 108 108 109 109 110 110 111 111 112 112 113 113 114 114 115 115 116 116 117 117 118 118 119 119 120 120 121 121 122 122 123 123 124 124 125 125 126 126 127 
        </DataArray>
        <DataArray type="Int32" Name="offsets" format="ascii">
          2 4 6 8 10 12 14 16 18 20 22 24 26 28 30 32 34 36 38 40 42 44 46 48 50 52 54 56 58 60 62 64 66 68 70 72 74 76 78 80 82 84 86 88 90 92 94 96 98 100 102 104 106 108 110 112 114 116 118 120 122 124 126 128 130 132 134 136 138 140 142 144 146 148 150 152 154 156 158 160 162 164 166 168 170 172 174 176 178 180 182 184 186 188 190 192 194 196 198 200 202 204 206 208 210 212 214 216 218 220 222 224 226 228 230 232 234 236 238 240 242 244 246 248 250 252 254 
        </DataArray>
        <DataArray type="Int32" Name="types" format="ascii">
          3 3 3 3 3 3 3 3 3 3 3 3 3 3 3 3 3 3 3 3 3 3 3 3 3 3 3 3 3 3 3 3 3 3 3 3 3 3 3 3 3 3 3 3 3 3 3 3 3 3 3 3 3 3 3 3 3 3 3 3 3 3 3 3 3 3 3 3 3 3 3 3 3 3 3 3 3 3 3 3 3 3 3 3 3 3 3 3 3 3 3 3 3 3 3 3 3 3 3 3 3 3 3 3 3 3 3 3 3 3 3 3 3 3 3 3 3 3 3 3 3 3 3 3 3 3 3         </DataArray>
      </Cells>
    </Piece>
  </UnstructuredGrid>
</VTKFile>
