<?xml version="1.0"?>
<VTKFile type="UnstructuredGrid" version="0.1" byte_order="LittleEndian">
  <UnstructuredGrid>
    <Piece NumberOfPoints="128" NumberOfCells="127">
      <PointData Scalars="W">
        <DataArray type="Float32" Name="W" NumberOfComponents="2">
          0 0 0.19454441480339379 -0.7306532478322072 0.28215655145961177 -1.0922248004881325 0.33920460580519346 -1.3694416123115656 0.37602729692516718 -1.6003371881336699 0.39706514735596066 -1.8005625328918364 0.40486344819164588 -1.9785737778451613 0.40110175862372549 -2.1395989121534367 0.3869712293167013 -2.2870847218018304 0.36335395246785845 -2.4233507825548339 0.33094472775038397 -2.5500739524859397 0.29030205941595549 -2.6684599768008956 0.24188997859594394 -2.7794081048830352 0.18609652613804742 -2.883507958130243 0.12326222522057838 -2.9811040151306107 0.053704354242629482 -3.0724317732658037 -0.022276825200144786 -3.1577038177189025 -0.1043953710644982 -3.236985549865798 -0.19236706259636208 -3.3102653494767487 -0.28590887967316947 -3.3775393914433933 -0.38473691847657693 -3.438765801292301 -0.48855804226127703 -3.4938386408850692 -0.59707591226878953 -3.5426742028288629 -0.70999191934956651 -3.5851949247504211 -0.8269785527412532 -3.6212141618185067 -0.94772670341736065 -3.6506827033012574 -1.0719090700856002 -3.6734882275147522 -1.1991687488255318 -3.6894595696725552 -1.3291499707140468 -3.6984846681835593 -1.4616441132936968 -3.700839955614724 -1.5961895282309204 -3.6961135094695043 -1.7324292018840195 -3.6842530740692103 -1.8700048311433981 -3.6652195947245509 -2.0085702643883026 -3.6390092451417866 -2.1477732686603832 -3.6056131256754385 -2.2872796665116404 -3.5650590394820929 -2.4267084077243286 -3.5173095028289372 -2.5657695693073164 -3.4624710343837219 -2.7041851405656678 -3.4006463268089679 -2.8416067583356059 -3.3318418936315943 -2.9777112125569287 -3.2561069585637061 -3.1121976944689451 -3.1735190388893848 3.3008250932993501 3.3731514462823098 3.1281062971094165 3.4419429899152516 2.9765382406187633 3.5253639342861898 2.8041921783777957 3.5751316930028785 2.6341629824742423 3.6156429987244754 2.4854989182347187 3.6759160647260392 2.3197923707087087 3.7011501702014571 2.1748948468174492 3.7495863492383656 2.0149590095349734 3.761864960707956 1.8747932784832015 3.8006968472146787 1.7066087432134156 3.7679843135176339 1.5446567392180011 3.7246889460391523 -6.2292079917560486 -13.390420991949551 -7.7534879312618985 -12.593762269253913 -9.1714955844754069 -11.614345740696407 -10.470496609107631 -10.477641921794881 -11.628195415070831 -9.1934921425047484 -12.627895010637811 -7.7800640321858623 -13.455674977576489 -6.2574273116630845 -14.099470018461247 -4.6466735689451628 2.2556596622128859 0.62205384530904184 3.4578532047311534 1.0413520338928604 4.0074897417293744 1.3430714990655004 3.9433650703460539 1.4689405381350229 3.8737812446764042 1.5907132947380744 3.7986711467699301 1.7079116028998627 3.7188670666981958 1.8204579257461913 3.6348813483239666 1.9282189684314035 3.5472087325291297 2.0311101323656815 3.4808450749508508 2.1447469898906184 3.3861790809067216 2.2393679883606974 3.2891133094880041 2.3290501840912072 3.1903257574712578 2.4140764012318425 3.0896551788680751 2.4941535301742555 2.9877304590990428 2.5696021489482632 2.905332286326892 2.6598940284297887 2.8006369817252628 2.727809969364162 2.6955285693678248 2.7915542757213272 2.5902472922567745 2.8513372216612134 2.4850086291752307 2.9073873663017329 2.3967141595375572 2.9813867858473504 2.2907734139803915 3.0316461799015877 2.1853025392530814 3.0788237926293736 2.080403022163094 3.123172906945078 1.9761492713133733 3.1649493291602231 1.8855333212474017 3.2273276140674012 1.7813450575398397 3.2654729542597076 1.6778479281564831 3.301752544876245 1.5750159222864153 3.3364206000926155 1.4826508785695194 3.3931967813541979 1.3796083276762683 3.425951602520755 1.2769870846904909 3.4577755675362805 1.1746643484777706 3.48890609453258 1.0793233115304934 3.5432219855935014 0.97575269632285244 3.5740432434763569 0.8719443274921761 3.6047888549200566 0.77224616873935126 3.659023479435461 0.66588320818330637 3.690508847676941 0.55850411243421805 3.7224811536319029 0.4497917527629568 3.7551171531271303 0.33939766148896844 3.7886035186519145 0.22794945236878425 3.8461021971350728 0.11159057339005425 3.8822015869059179 -0.0077893715778575611 3.9192357462122467 -0.13069398496580831 3.9576967870392608 -0.25771287217900324 3.9977229110154542 -0.38954539083082235 4.0398014520575334 -0.52687500005558285 4.0833407391626046 -0.66656089803902119 4.1065311147039596 -0.81605620340933172 4.154330799063807 -0.97401549938012355 4.2047662897202569 -1.1349841844591926 4.2343305450403328 -1.3121465630346498 4.2901745270487526 -1.5020818925320583 4.3484732502300103 -1.6978923708032407 4.3874930799499117 -0.41592529769399667 1.0059858270561695 -0.39205762685829637 0.92654025361804893 -0.31504913248989574 0.73007570005617894 -0.18777611871415562 0.42925659164238245 -0.175662998721835 0.39770705278934754 -0.040772877411225684 0.091787255548355387 0.22426359340804203 -0.50730291588498688 0.5508035265829887 -1.2721745374844495 1.2314938951043244 -2.9926374031226519 1.8577172859535627 -4.9856241949042879 0 0
        </DataArray>
        <DataArray type="Float32" Name="u" NumberOfComponents="1">
          0 0.007874015748031496 0.015748031496062992 0.023622047244094488 0.031496062992125984 0.03937007874015748 0.047244094488188976 0.055118110236220472 0.062992125984251968 0.070866141732283464 0.07874015748031496 0.086614173228346455 0.094488188976377951 0.10236220472440945 0.11023622047244094 0.11811023622047244 0.12598425196850394 0.13385826771653545 0.14173228346456693 0.14960629921259844 0.15748031496062992 0.16535433070866143 0.17322834645669291 0.18110236220472442 0.1889763779527559 0.19685039370078741 0.20472440944881889 0.2125984251968504 0.22047244094488189 0.2283464566929134 0.23622047244094488 0.24409448818897639 0.25196850393700787 0.25984251968503935 0.26771653543307089 0.27559055118110237 0.28346456692913385 0.29133858267716534 0.29921259842519687 0.30708661417322836 0.31496062992125984 0.32283464566929132 0.33070866141732286 0.33858267716535434 0.34645669291338582 0.3543307086614173 0.36220472440944884 0.37007874015748032 0.37795275590551181 0.38582677165354329 0.39370078740157483 0.40157480314960631 0.40944881889763779 0.41732283464566927 0.42519685039370081 0.43307086614173229 0.44094488188976377 0.44881889763779526 0.45669291338582679 0.46456692913385828 0.47244094488188976 0.48031496062992124 0.48818897637795278 0.49606299212598426 0.50393700787401574 0.51181102362204722 0.51968503937007871 0.52755905511811019 0.53543307086614178 0.54330708661417326 0.55118110236220474 0.55905511811023623 0.56692913385826771 0.57480314960629919 0.58267716535433067 0.59055118110236215 0.59842519685039375 0.60629921259842523 0.61417322834645671 0.62204724409448819 0.62992125984251968 0.63779527559055116 0.64566929133858264 0.65354330708661412 0.66141732283464572 0.6692913385826772 0.67716535433070868 0.68503937007874016 0.69291338582677164 0.70078740157480313 0.70866141732283461 0.71653543307086609 0.72440944881889768 0.73228346456692917 0.74015748031496065 0.74803149606299213 0.75590551181102361 0.76377952755905509 0.77165354330708658 0.77952755905511806 0.78740157480314965 0.79527559055118113 0.80314960629921262 0.8110236220472441 0.81889763779527558 0.82677165354330706 0.83464566929133854 0.84251968503937003 0.85039370078740162 0.8582677165354331 0.86614173228346458 0.87401574803149606 0.88188976377952755 0.88976377952755903 0.89763779527559051 0.90551181102362199 0.91338582677165359 0.92125984251968507 0.92913385826771655 0.93700787401574803 0.94488188976377951 0.952755905511811 0.96062992125984248 0.96850393700787396 0.97637795275590555 0.98425196850393704 0.99212598425196852 1
        </DataArray>
      </PointData>
      <CellData Scalars="P">
        <DataArray type="Float32" Name="P" NumberOfComponents="1">
          -0.010317624832418184 -0.029068781274131816 -0.044277737954799279 -0.055085318048578837 -0.060967203998017895 -0.061600580247993461 -0.05679648297465837 -0.046459283088646851 -0.030561093830145634 -0.0091254989861751339 0.017785107453520851 0.050078191821341135 0.087638044122771791 0.13032931259664451 0.17799918138535153 0.23048067626306884 0.28759689687151652 0.34916151226495723 0.41498005501476293 0.48485283221618586 0.55857634801061218 0.63594365017856691 0.71674670699530274 0.80077821773732327 0.88782992832560437 0.97769783203434224 1.0701815608050449 1.1650836318194797 1.2622121100215953 1.3613937775644998 1.4624535669652012 1.5652263914867968 1.6695582963288411 1.775308316748911 1.8823489805421503 1.9905682040271733 2.0998675728963643 2.2101680169598064 2.3214104677858325 2.4335529168669074 2.5465724722970751 2.6604669776050711 2.5017548632830735 2.3401976622159171 2.1767031557669889 2.0141629985420515 1.8542621155299792 1.6974011696665878 1.5460824772053696 1.4004383931441762 1.2626833332765306 1.1327487169188624 1.0135145963035466 0.90562525410676487 1.1880213401853703 1.4246990597433919 1.6215599894243686 1.7857305504091212 1.9249702233261807 2.0475514791743326 2.1620042438420422 2.2768478523552043 2.2297823836209383 2.1560252280352952 2.0710370811778445 1.9758787200610035 1.8719570683554301 1.7606423210267219 1.6432416115453143 1.5210000102191827 1.39509648032599 1.2658015258818587 1.1349732612903438 1.0035938016641746 0.8725626862062108 0.74272750812144028 0.61485497964963731 0.4888290778497103 0.3661145185716988 0.24728783285307412 0.13286296760714247 0.023293982147694899 -0.081674014168719125 -0.18100040123588329 -0.27438207582643237 -0.36156296086866269 -0.44233073491749442 -0.51693859679017795 -0.58477128719671401 -0.64572197318516888 -0.69971528630855817 -0.74692590971508577 -0.78705295045515178 -0.82009441849908638 -0.84606974007423219 -0.86503963905803782 -0.87698111596899486 -0.88196290788565013 -0.87995287702849423 -0.87110967843207299 -0.85553974681023903 -0.83336135806515121 -0.80470412708445704 -0.76939760097283505 -0.72785640208859559 -0.68024791498194059 -0.62674730859440764 -0.56754318297524631 -0.50283164990679774 -0.43283931849035123 -0.35830639140374909 -0.27901366057661892 -0.19523435919750251 -0.10785868605891041 -0.016656539659365099 0.077990435286460949 0.17508004549314896 0.18319398082384467 0.18881359036032883 0.18879639941746715 0.18077229842606526 0.17154946952922703 0.1555670287579029 0.12920718388286223 0.094237729146599766 0.047590061008956484 0.0058524632693972619
        </DataArray>
      </CellData>
      <Points>
        <DataArray type="Float32" NumberOfComponents="3" format="ascii">
          7.153794613486629 9.8856473359523829 0
          7.1613979561355032 9.8876960682663562 0
          7.1690133607235085 9.8896994937809328 0
          7.1766462592977547 9.8916351920107886 0
          7.1843001888839639 9.8934859732429405 0
          7.1919774324661887 9.8952375201187728 0
          7.1996792942941861 9.8968774171305434 0
          7.2074062576920142 9.8983946262647624 0
          7.2151580891932872 9.8997791628196197 0
          7.2229339123956642 9.9010218816731719 0
          7.2307322626537536 9.9021143334487824 0
          7.2385511301598671 9.9030486605350436 0
          7.2463879945743459 9.9038175223190557 0
          7.254239853798488 9.9044140394253954 0
          7.2621032480359871 9.9048317571548399 0
          7.269974280908313 9.9050646241241385 0
          7.2778486391291004 9.9051069776637313 0
          7.2857216111236944 9.9049535306364351 0
          7.2935881047610831 9.9045993673828008 0
          7.3014426649794082 9.9040399444424718 0
          7.3092794913373345 9.9032710907923125 0
          7.3170924556205446 9.9022890104438854 0
          7.3248751200210727 9.9010902890133217 0
          7.3326207555155296 9.899671898912656 0
          7.3403223603844623 9.89803120416002 0
          7.3479726805241601 9.8961659719534847 0
          7.3555642286178013 9.8940743757228145 0
          7.3630893044350056 9.8917550020942233 0
          7.3705400169672783 9.889206861503343 0
          7.3779083064934072 9.8864293951429385 0
          7.3851859575211938 9.8834224578211263 0
          7.3923646274186172 9.8801863435011406 0
          7.3994358685571981 9.8767217885388217 0
          7.4063911505354492 9.8730299741007723 0
          7.4132218816489663 9.8691125263972772 0
          7.419919430737556 9.864971517228879 0
          7.426475147912714 9.860609462256182 0
          7.4328803881911973 9.8560293233167098 0
          7.4391265294778925 9.851234501811799 0
          7.4452049898095769 9.8462288323296452 0
          7.4511072489601933 9.8410165822307487 0
          7.4568248684856488 9.8356024485840194 0
          7.4623495103786386 9.8299915533474032 0
          7.4680787960014072 9.8245898245428123 0
          7.4740020146642596 9.8194015248708908 0
          7.4801097678130635 9.8144318237130168 0
          7.4863913686433214 9.8096838041091612 0
          7.4928362744392807 9.8051599751200484 0
          7.4994352679018048 9.8008640708626853 0
          7.5061780751960994 9.7967976532358385 0
          7.5130557133750662 9.7929637226141608 0
          7.5200582672683511 9.7893630378387311 0
          7.5271770480957372 9.7859980041216161 0
          7.5344016299644618 9.7828665912394968 0
          7.5417219739554922 9.7799661129860045 0
          7.5486561034844524 9.776235427203753 0
          7.5551095139916686 9.7717239271891394 0
          7.5609942898418181 9.7664923367676124 0
          7.5662298936973444 9.7606111311024275 0
          7.5707445487030034 9.7541599265299244 0
          7.5744762735386182 9.7472263542021267 0
          7.5773737453226264 9.7399048158332864 0
          7.5793970474994854 9.7322951761278027 0
          7.5815602022204258 9.7247241012348926 0
          7.5839377945660225 9.717217442311906 0
          7.5865638507107569 9.7097940901051576 0
          7.5894343931765134 9.7024618436248158 0
          7.5925451065601068 9.6952282480989336 0
          7.5958913333196696 9.6881005653922507 0
          7.5994681253265206 9.681085769240287 0
          7.6032702755769073 9.6741905370175409 0
          7.6072923488125799 9.6674212445137613 0
          7.6115302312704349 9.660784934038583 0
          7.6159780545797107 9.6542874694142 0
          7.6206298017664515 9.6479344086106877 0
          7.6254793492480877 9.6417310212722889 0
          7.6305204567987843 9.635682270531774 0
          7.6357468065081937 9.6297928328693523 0
          7.6411532910932234 9.6240683054190921 0
          7.6467334208876583 9.618512898243889 0
          7.6524806806109664 9.613130563015277 0
          7.6583885442476314 9.6079250060296975 0
          7.6644504883945155 9.6028997023589007 0
          7.670661039990704 9.5980592402727556 0
          7.6770136319742619 9.5934067361953907 0
          7.683501726365189 9.5889451156300201 0
          7.690118820555961 9.5846771288474049 0
          7.6968584519249639 9.5806053667324971 0
          7.7037150030934081 9.5767336977938289 0
          7.710682015356813 9.573064488002121 0
          7.7177530728169597 9.569599987739652 0
          7.7249218007735871 9.5663423475558425 0
          7.7321824731242605 9.563295088995508 0
          7.7395287020055603 9.5604602441357347 0
          7.7469541256502117 9.557839787413215 0
          7.7544524007784066 9.5554356503459434 0
          7.7620176165763359 9.5532512022353764 0
          7.7696433523259287 9.5512883555703496 0
          7.7773231725608838 9.5495490182365561 0
          7.7850508962155489 9.5480365547368446 0
          7.7928199293893297 9.5467529190021718 0
          7.8006236151790329 9.5457000952692734 0
          7.8084552140165107 9.5448801090538034 0
          7.8163078820613388 9.5442950387404082 0
          7.824174709599153 9.5439484518177888 0
          7.8320484828985339 9.5438425889979506 0
          7.8399218009047047 9.5439797491495284 0
          7.8477870439963855 9.5443623198366581 0
          7.8556363374138689 9.5449927859148005 0
          7.8634615078679753 9.545873759777356 0
          7.8712540411568535 9.5470079446993825 0
          7.8790052775032189 9.5483967825644065 0
          7.8867059481583759 9.5500432415865752 0
          7.8943462593576141 9.5519504538356692 0
          7.9019162312206701 9.5541202577620687 0
          7.9094048787314248 9.556556121813891 0
          7.9168004244494892 9.5592616671866733 0
          7.9240907268736782 9.5622393203509084 0
          7.9313554088842917 9.5652794329926092 0
          7.9385959745383072 9.5683770934428427 0
          7.945817231764015 9.5715201356775665 0
          7.9530271163091646 9.5746899238161483 0
          7.96022641435707 9.5778845198595359 0
          7.9674235482316433 9.5810849725216354 0
          7.9746350436431115 9.5842541469321727 0
          7.9818812742645893 9.5873446182448507 0
          7.9892046945961281 9.5902496619345552 0
          7.9966444745931202 9.5928455803227664 0
        </DataArray>
      </Points>
      <Cells>
        <DataArray type="Int32" Name="connectivity" format="ascii">
          0 1 1 2 2 3 3 4 4 5 5 6 6 7 7 8 8 9 9 10 10 11 11 12 12 13 13 14 14 15 15 16 16 17 17 18 18 19 19 20 20 21 21 22 22 23 23 24 24 25 25 26 26 27 27 28 28 29 29 30 30 31 31 32 32 33 33 34 34 35 35 36 36 37 37 38 38 39 39 40 40 41 41 42 42 43 43 44 44 45 45 46 46 47 47 48 48 49 49 50 50 51 51 52 52 53 53 54 54 55 55 56 56 57 57 58 58 59 59 60 60 61 61 62 62 63 63 64 64 65 65 66 66 67 67 68 68 69 69 70 70 71 71 72 72 73 73 74 74 75 75 76 76 77 77 78 78 79 79 80 80 81 81 82 82 83 83 84 84 85 85 86 86 87 87 88 88 89 89 90 90 91 91 92 92 93 93 94 94 95 95 96 96 97 97 98 98 99 99 100 100 101 101 102 102 103 103 104 104 105 105 106 106 107 107 108 108 109 109 110 110 111 111 112 112 113 113 114 114 115 115 116 116 117 117 118 118 119 119 120 120 121 121 122 122 123 123 124 124 125 125 126 126 127 
        </DataArray>
        <DataArray type="Int32" Name="offsets" format="ascii">
          2 4 6 8 10 12 14 16 18 20 22 24 26 28 30 32 34 36 38 40 42 44 46 48 50 52 54 56 58 60 62 64 66 68 70 72 74 76 78 80 82 84 86 88 90 92 94 96 98 100 102 104 106 108 110 112 114 116 118 120 122 124 126 128 130 132 134 136 138 140 142 144 146 148 150 152 154 156 158 160 162 164 166 168 170 172 174 176 178 180 182 184 186 188 190 192 194 196 198 200 202 204 206 208 210 212 214 216 218 220 222 224 226 228 230 232 234 236 238 240 242 244 246 248 250 252 254 
        </DataArray>
        <DataArray type="Int32" Name="types" format="ascii">
          3 3 3 3 3 3 3 3 3 3 3 3 3 3 3 3 3 3 3 3 3 3 3 3 3 3 3 3 3 3 3 3 3 3 3 3 3 3 3 3 3 3 3 3 3 3 3 3 3 3 3 3 3 3 3 3 3 3 3 3 3 3 3 3 3 3 3 3 3 3 3 3 3 3 3 3 3 3 3 3 3 3 3 3 3 3 3 3 3 3 3 3 3 3 3 3 3 3 3 3 3 3 3 3 3 3 3 3 3 3 3 3 3 3 3 3 3 3 3 3 3 3 3 3 3 3 3         </DataArray>
      </Cells>
    </Piece>
  </UnstructuredGrid>
</VTKFile>
