<?xml version="1.0"?>
<VTKFile type="UnstructuredGrid" version="0.1" byte_order="LittleEndian">
  <UnstructuredGrid>
    <Piece NumberOfPoints="128" NumberOfCells="127">
      <PointData Scalars="W">
        <DataArray type="Float32" Name="W" NumberOfComponents="2">
          0 0 0.70109433161356827 0.40664556672633939 1.107686516318275 0.6547620136230049 1.3998768260502445 0.84938348013818665 1.6288628857002179 1.019831928843461 1.815547438617326 1.1778027072917179 1.9706178070754268 1.3290729601675715 2.1002834105022177 1.4768311093350219 2.2084962395674088 1.6229640035994652 2.2979846916182267 1.7686659767405684 2.3706521022946996 1.9146573191855394 2.4278920995145623 2.0613696989650259 2.4707321789582193 2.2090225508499808 2.5000040142631001 2.3577425283984943 2.5163934502782239 2.5076005324419168 2.5204265538298563 2.6585884320376652 2.5124592562214758 2.8105851988383939 2.4928034301926498 2.9634733503025368 2.4617021110340951 3.1171130896846364 2.4192927888431206 3.2712847276997845 2.365667825767555 3.4257468159555282 2.3008933185670482 3.580260316217263 2.2249693711678602 3.73452428479247 2.137852512786178 3.8881901363789617 2.0395142052631239 4.0409622386133108 1.9298348311946427 4.1923958122582343 1.8087062206616853 4.342065680304434 1.6760238863060133 4.4895716165709825 1.5316392198660271 4.6344193357297536 1.3752888912155881 4.7756846908557709 1.206942097021509 4.9131001505736327 1.026436825940904 5.0460087987347055 0.83361811051799162 5.1736917894528647 0.62834560419774721 5.295358624747184 0.41050610796813292 5.4101791202903602 0.18001539862317312 5.5172263760982228 -0.063168988209962362 5.6156141905836678 -0.31904624329773223 5.7042351337952715 -0.58754126227853654 5.7819273363003338 -0.86851718924388721 5.8475976588340339 -1.1617628613430642 5.9000462451782196 -1.4669770100078054 5.9379978287044999 0.30881602270451225 -1.1534868333019506 0.25303156212756633 -0.97908468252003511 0.17778484020626645 -0.70792756768368992 0.15069290199064592 -0.61397269322392434 0.10175042777565675 -0.42221758639280993 0.054219783622599611 -0.2276156869264917 0.0069662395957846195 -0.029379969592972427 -0.041252935453954226 0.17353228132286377 -0.090635419016085905 0.37751634651775201 -0.14253199123588475 0.58365371216540485 -0.22835345395891521 0.91107432646383768 -0.32488196233407268 1.2495615371598057 0.63009496800313125 -2.473875909157397 0.55980737168211359 -2.3945198189926735 0.22338812833492067 -1.0186883343919029 0.18723576452129523 -0.88627561232860763 0.15443868286973275 -0.75567216912879298 0.12406726716967668 -0.62470006761960639 0.10592111607587552 -0.54676992409677372 0.079958139814750057 -0.42150475424909584 0.055875247696767251 -0.29926736012701549 0.032829920879637473 -0.1777177186603234 0.010951778758275209 -0.059602061008996787 8.2430779914361034e-05 -0.00044921441369619907 -0.020659141870654856 0.11230070766480504 -0.030100711026624493 0.16261788955791359 -0.038883831208234416 0.20833856649556609 -0.047020985745946674 0.24940079161288842 -0.054507382595633987 0.28574187038099069 -0.061325194662951998 0.31731274543409904 -0.067702504446400982 0.34538052077888426 -0.073096072331336928 0.36732675455209535 -0.089883114052732166 0.4441207375496129 -0.094061130388563147 0.45626756798777557 -0.097355302137871941 0.46356885313677337 -0.09969819268502593 0.46604937376355271 -0.10102237086233806 0.46374267408961833 -0.10126206811227492 0.45668896763331102 -0.10035519103509886 0.44493493182468813 -0.098537962715875685 0.4297999784057136 -0.095183326527546033 0.4088030449443909 -0.090534194620002562 0.38327287247296432 -0.084559899882154288 0.3532711132836161 -0.077241277197348801 0.31885956080057554 -0.068572147761564284 0.2800997483467757 -0.058859651084743572 0.23825762527890143 -0.047532305359068064 0.19097699453925118 -0.034923542956891616 0.13951844425158066 -0.021089771956002739 0.083929731749667585 -0.0063990001955767381 0.025417981263266567 0.0096471720773023493 -0.038328791297658031 0.026635982479909674 -0.10608908443538684 0.044438550907581559 -0.17786301462493978 0.062622769250587351 -0.25251862818126969 0.08157660540885131 -0.33231923442198974 0.10082031003623304 -0.41616063424312938 0.12013329089084661 -0.50408077887426095 0.13927100916976498 -0.59613587413115965 0.15771678519045587 -0.69130572994792794 0.17568177236644342 -0.79187769388286433 0.19258295524009408 -0.89688285845336957 0.20806466834337561 -1.0064751291001637 0.20977309532339247 -1.0589853310002837 0.22240881186257577 -1.1781271989787447 0.23252315773246707 -1.3025318075241104 0.23960653092609327 -1.4325302462463787 0.23349893183964851 -1.5040720079458911 0.23447807162444398 -1.6463167325831722 0.2226122606225025 -1.7287807450925516 0.21551305521516054 -1.8868971970300072 0.19579168209716058 -1.9833727975123427 0.17757350494934998 -2.1602511253343448 0.1469947787378946 -2.275742562565092 0.11346418710038353 -2.4780335821027242 0.067288117293386823 -2.62125977366675 -0.21139146965793404 5.6305084287966158 -0.46977315582642587 5.6999150068932538 -0.69087661568269754 5.4392883146074826 -0.92678534148896363 5.4135696002661184 -1.0882343196842803 5.066369829699819 -1.1776828317706316 4.5992029967118713 -1.2255977176483148 4.16093998125341 -1.116782382328154 3.397205369410826 -0.75945209396339053 2.1425928879106984 1.2501823501067411 -3.5958915924777743 0 0
        </DataArray>
        <DataArray type="Float32" Name="u" NumberOfComponents="1">
          0 0.007874015748031496 0.015748031496062992 0.023622047244094488 0.031496062992125984 0.03937007874015748 0.047244094488188976 0.055118110236220472 0.062992125984251968 0.070866141732283464 0.07874015748031496 0.086614173228346455 0.094488188976377951 0.10236220472440945 0.11023622047244094 0.11811023622047244 0.12598425196850394 0.13385826771653545 0.14173228346456693 0.14960629921259844 0.15748031496062992 0.16535433070866143 0.17322834645669291 0.18110236220472442 0.1889763779527559 0.19685039370078741 0.20472440944881889 0.2125984251968504 0.22047244094488189 0.2283464566929134 0.23622047244094488 0.24409448818897639 0.25196850393700787 0.25984251968503935 0.26771653543307089 0.27559055118110237 0.28346456692913385 0.29133858267716534 0.29921259842519687 0.30708661417322836 0.31496062992125984 0.32283464566929132 0.33070866141732286 0.33858267716535434 0.34645669291338582 0.3543307086614173 0.36220472440944884 0.37007874015748032 0.37795275590551181 0.38582677165354329 0.39370078740157483 0.40157480314960631 0.40944881889763779 0.41732283464566927 0.42519685039370081 0.43307086614173229 0.44094488188976377 0.44881889763779526 0.45669291338582679 0.46456692913385828 0.47244094488188976 0.48031496062992124 0.48818897637795278 0.49606299212598426 0.50393700787401574 0.51181102362204722 0.51968503937007871 0.52755905511811019 0.53543307086614178 0.54330708661417326 0.55118110236220474 0.55905511811023623 0.56692913385826771 0.57480314960629919 0.58267716535433067 0.59055118110236215 0.59842519685039375 0.60629921259842523 0.61417322834645671 0.62204724409448819 0.62992125984251968 0.63779527559055116 0.64566929133858264 0.65354330708661412 0.66141732283464572 0.6692913385826772 0.67716535433070868 0.68503937007874016 0.69291338582677164 0.70078740157480313 0.70866141732283461 0.71653543307086609 0.72440944881889768 0.73228346456692917 0.74015748031496065 0.74803149606299213 0.75590551181102361 0.76377952755905509 0.77165354330708658 0.77952755905511806 0.78740157480314965 0.79527559055118113 0.80314960629921262 0.8110236220472441 0.81889763779527558 0.82677165354330706 0.83464566929133854 0.84251968503937003 0.85039370078740162 0.8582677165354331 0.86614173228346458 0.87401574803149606 0.88188976377952755 0.88976377952755903 0.89763779527559051 0.90551181102362199 0.91338582677165359 0.92125984251968507 0.92913385826771655 0.93700787401574803 0.94488188976377951 0.952755905511811 0.96062992125984248 0.96850393700787396 0.97637795275590555 0.98425196850393704 0.99212598425196852 1
        </DataArray>
      </PointData>
      <CellData Scalars="P">
        <DataArray type="Float32" Name="P" NumberOfComponents="1">
          -0.030740679119980775 -0.089397493073357079 -0.14246165221627599 -0.18878512392202468 -0.22780690174354293 -0.25926340006035231 -0.28305926321475683 -0.29919706058048112 -0.30773370922956483 -0.30875026828094149 -0.30233271656880539 -0.28855771047021117 -0.26748285721214615 -0.2391375222618955 -0.20351551600275256 -0.16057099068662195 -0.11021739667347938 -0.052323247449683356 0.013290263804779363 0.08684871907347666 0.16862573416020035 0.2589448785039874 0.35817874051360044 0.46674835318845054 0.58512677789035494 0.71383396403961807 0.85343871275198879 1.004560980433457 1.1678688038311629 1.3440586360527631 1.5338871036233312 1.7381532558760486 1.9576958449950697 2.1933896428878983 2.4461429568316104 2.7168914026819873 3.006598969139469 3.3162428833126172 3.646806658585771 3.9992803903901857 4.3746489673920692 4.7738805942416604 4.6387122274297186 4.5143159795794192 4.4113604678387972 4.315434960600129 4.2365965715148013 4.1760039820064936 4.1345803435666761 4.1130718710821288 4.1116216275754969 4.1302641432394509 4.1805260412763241 4.2628282635117349 3.9844285068686798 3.716376295306115 3.5812674114430556 3.4602983041859408 3.3529412904224971 3.2586962110921109 3.1725286566735282 3.0977131042096868 3.033136550282995 2.9777839394401888 2.9303831433384238 2.8862647731308799 2.8478619649494035 2.8108653468497011 2.7745479749158952 2.7382462904421341 2.7013670263475746 2.6633933996408374 2.6239230406562317 2.5825646928358403 2.5399645855377782 2.4947209819557292 2.446750378712236 2.3960539211016099 2.3427136512178888 2.2868877365145184 2.2288048021609903 2.1687348710477861 2.1070447428976795 2.044133615994713 1.9804419602597438 1.916443248992709 1.8526355378665249 1.7894851781917589 1.7275585586431987 1.6673777877908846 1.6094569156753438 1.5542366493239481 1.5022498133955942 1.4539438298740293 1.4097328356084322 1.3699292309345743 1.3349273125154686 1.3050138821996804 1.2804275986257485 1.2613578257751874 1.2478808775421277 1.2401517558379449 1.2382153651645076 1.2420732348803238 1.2482116189965446 1.2600790793711887 1.277574358343972 1.3005733019204688 1.3255811419334429 1.3558892151620998 1.3880480578564238 1.4253908373220501 1.4645297629750083 1.5088188762394985 1.5550767157797332 1.6067592224890437 1.6610180486214885 1.4038338002885788 1.149806677655276 0.91598148437115989 0.69683710680173072 0.50591364787206228 0.3469025036851987 0.2174264319857625 0.12030757083893188 0.05347446107806824 0.024418066317802401
        </DataArray>
      </CellData>
      <Points>
        <DataArray type="Float32" NumberOfComponents="3" format="ascii">
          6.6297563986349264 9.8659208441463164 0
          6.6336867703492102 9.8590944059587464 0
          6.637660641129985 9.8522932035797464 0
          6.6417032385895505 9.8455326329304143 0
          6.6458326924586846 9.8388247695883067 0
          6.6500632110465103 9.8321801887218303 0
          6.6544063781291793 9.8256086910107534 0
          6.6588718160404436 9.8191196612469902 0
          6.6634675709349693 9.8127222662612237 0
          6.6682003579893143 9.8064255720627447 0
          6.6730757306832267 9.8002386179937773 0
          6.6780981988871728 9.7941704614595384 0
          6.683271315322135 9.7882302047420708 0
          6.6885977392996816 9.7824270086395817 0
          6.6940792883095401 9.7767701003440965 0
          6.6997169805566488 9.7712687778556475 0
          6.7055110675822673 9.7659324094890678 0
          6.7114610563265868 9.7607704263722237 0
          6.7175657284558499 9.7557923151609174 0
          6.7238231554167163 9.7510076093658835 0
          6.7302307069404099 9.7464258757191615 0
          6.7367850567457337 9.7420566991868025 0
          6.7434821866115895 9.7379096681274575 0
          6.7503173863543182 9.7339943556059314 0
          6.7572852511012149 9.7303202977465375 0
          6.7643796794909532 9.7268969753679109 0
          6.7715938662234239 9.7237337863588476 0
          6.7789202953212229 9.7208400192657702 0
          6.7863507336215498 9.7182248284236081 0
          6.7938762215330097 9.7158972032453175 0
          6.8014870566772059 9.7138659108330323 0
          6.8091727919628493 9.7121394793276146 0
          6.816922225523375 9.7107261570916172 0
          6.8247233910976624 9.7096338680445342 0
          6.8325635493250552 9.7088701625473579 0
          6.8404291807331461 9.708442165820367 0
          6.8483059805329578 9.7083565203560447 0
          6.8561788560159416 9.7086193308546793 0
          6.8640319266481313 9.7092360954308337 0
          6.8718485287875799 9.7102116334415722 0
          6.8796112242479071 9.7115500175809153 0
          6.8873018134881363 9.7132544993558234 0
          6.8949013544101145 9.7153274298887276 0
          6.9025198870918718 9.7173287426112704 0
          6.9101539457932617 9.7192692623113999 0
          6.9177988532416723 9.7211658144702291 0
          6.9254529310455153 9.7230242318735485 0
          6.9331131409333633 9.7248564126637937 0
          6.9407765334525493 9.72667443040819 0
          6.9484401775722944 9.728490582870652 0
          6.9561010836005837 9.7303174566535695 0
          6.9637561911440899 9.7321677036421335 0
          6.9714022853253743 9.7340541081157905 0
          6.9790340444153802 9.7359969740361905 0
          6.9866454851372408 9.7380172898930812 0
          6.9942959650618315 9.7398841780507261 0
          7.0019811238689487 9.7416025617541919 0
          7.0096800571495299 9.7432577553917223 0
          7.017390523566311 9.7448579723174245 0
          7.0251104904640442 9.7464113133460835 0
          7.0328380761460672 9.747925901799853 0
          7.0405721588392556 9.7494065718396001 0
          7.0483111312357654 9.7508610923047101 0
          7.0560535031708307 9.7522970440019829 0
          7.0637978493054314 9.7537219648211053 0
          7.0715428171979005 9.7551431794943451 0
          7.0792877383590174 9.7565643568014391 0
          7.0870313315277507 9.7579924884513254 0
          7.0947730172042744 9.7594306951899643 0
          7.1025122567648635 9.7608818127275683 0
          7.1102485516411287 9.7623483879195447 0
          7.1179814435709829 9.7638326748973139 0
          7.1257105156586018 9.7653366320405652 0
          7.1334353781852764 9.7668620005469151 0
          7.1411557022605754 9.7684101420952487 0
          7.1488704524134459 9.7699858189558917 0
          7.1565793748589215 9.771589785323723 0
          7.1642822703170275 9.7732224949881576 0
          7.1719789981618183 9.7748841028582714 0
          7.1796694805739296 9.7765744670280661 0
          7.1873537065941111 9.7782931512525693 0
          7.1950317359531493 9.7800394278226257 0
          7.2027036844250079 9.7818123593537898 0
          7.2103697626676428 9.7836106449289879 0
          7.218030261166521 9.7854327024630336 0
          7.2256855521334842 9.7872766725040314 0
          7.2333360906965716 9.7891404220446692 0
          7.2409824152885767 9.7910215483191365 0
          7.2486251286357248 9.7929174572885618 0
          7.2562649331598141 9.7948252175207084 0
          7.2639026103404953 9.7967416383469246 0
          7.2715390172360452 9.7986632728165954 0
          7.2791750637127155 9.8005864925521884 0
          7.2868117433182649 9.8025073443763162 0
          7.2944501077388662 9.8044216260647552 0
          7.3020912588334399 9.8063248863479409 0
          7.3097363218966498 9.8082124951234597 0
          7.3173864696861433 9.8100795031107069 0
          7.3250428927316431 9.8119207103484687 0
          7.3327067856859758 9.8137306638645825 0
          7.3403793321915085 9.8155036542163838 0
          7.3480616729026629 9.817233778789598 0
          7.3557549185480697 9.8189147999718838 0
          7.3634601138389577 9.8205402052746553 0
          7.3711782154448322 9.8221031978212388 0
          7.3789093277583211 9.8236005209550665 0
          7.3866542310282561 9.8250247857851498 0
          7.3944135492153027 9.8263682772133869 0
          7.4021877184218479 9.8276229334333802 0
          7.4099763587519325 9.8287843181098182 0
          7.4177795280437415 9.8298436103578659 0
          7.4255964896863889 9.8307956968316415 0
          7.4334268008911106 9.8316307727917209 0
          7.4412692383451446 9.8323428563280011 0
          7.4491226701889319 9.8329209796610542 0
          7.4569852003237687 9.8333579820013508 0
          7.4648547478391309 9.8336413201218456 0
          7.4727284499537872 9.8337621136801747 0
          7.4805887640516229 9.8342320308547198 0
          7.4884197599168694 9.835055349030343 0
          7.4962078110545178 9.8362158972465998 0
          7.5039383708795446 9.8377120836016925 0
          7.511601502206025 9.8395223964129865 0
          7.519191727833725 9.8416178966192671 0
          7.5267061393122905 9.843971444606531 0
          7.5341515458323851 9.8465357253349115 0
          7.5415501772194018 9.8492329866606614 0
          7.5490269185967849 9.8517074312439288 0
        </DataArray>
      </Points>
      <Cells>
        <DataArray type="Int32" Name="connectivity" format="ascii">
          0 1 1 2 2 3 3 4 4 5 5 6 6 7 7 8 8 9 9 10 10 11 11 12 12 13 13 14 14 15 15 16 16 17 17 18 18 19 19 20 20 21 21 22 22 23 23 24 24 25 25 26 26 27 27 28 28 29 29 30 30 31 31 32 32 33 33 34 34 35 35 36 36 37 37 38 38 39 39 40 40 41 41 42 42 43 43 44 44 45 45 46 46 47 47 48 48 49 49 50 50 51 51 52 52 53 53 54 54 55 55 56 56 57 57 58 58 59 59 60 60 61 61 62 62 63 63 64 64 65 65 66 66 67 67 68 68 69 69 70 70 71 71 72 72 73 73 74 74 75 75 76 76 77 77 78 78 79 79 80 80 81 81 82 82 83 83 84 84 85 85 86 86 87 87 88 88 89 89 90 90 91 91 92 92 93 93 94 94 95 95 96 96 97 97 98 98 99 99 100 100 101 101 102 102 103 103 104 104 105 105 106 106 107 107 108 108 109 109 110 110 111 111 112 112 113 113 114 114 115 115 116 116 117 117 118 118 119 119 120 120 121 121 122 122 123 123 124 124 125 125 126 126 127 
        </DataArray>
        <DataArray type="Int32" Name="offsets" format="ascii">
          2 4 6 8 10 12 14 16 18 20 22 24 26 28 30 32 34 36 38 40 42 44 46 48 50 52 54 56 58 60 62 64 66 68 70 72 74 76 78 80 82 84 86 88 90 92 94 96 98 100 102 104 106 108 110 112 114 116 118 120 122 124 126 128 130 132 134 136 138 140 142 144 146 148 150 152 154 156 158 160 162 164 166 168 170 172 174 176 178 180 182 184 186 188 190 192 194 196 198 200 202 204 206 208 210 212 214 216 218 220 222 224 226 228 230 232 234 236 238 240 242 244 246 248 250 252 254 
        </DataArray>
        <DataArray type="Int32" Name="types" format="ascii">
          3 3 3 3 3 3 3 3 3 3 3 3 3 3 3 3 3 3 3 3 3 3 3 3 3 3 3 3 3 3 3 3 3 3 3 3 3 3 3 3 3 3 3 3 3 3 3 3 3 3 3 3 3 3 3 3 3 3 3 3 3 3 3 3 3 3 3 3 3 3 3 3 3 3 3 3 3 3 3 3 3 3 3 3 3 3 3 3 3 3 3 3 3 3 3 3 3 3 3 3 3 3 3 3 3 3 3 3 3 3 3 3 3 3 3 3 3 3 3 3 3 3 3 3 3 3 3         </DataArray>
      </Cells>
    </Piece>
  </UnstructuredGrid>
</VTKFile>
