<?xml version="1.0"?>
<VTKFile type="UnstructuredGrid" version="0.1" byte_order="LittleEndian">
  <UnstructuredGrid>
    <Piece NumberOfPoints="128" NumberOfCells="127">
      <PointData Scalars="W">
        <DataArray type="Float32" Name="W" NumberOfComponents="2">
          0 0 0.029769072502308837 -0.73998704505399104 0.036853760587832331 -1.1205390970211957 0.032341861771271525 -1.4118820427378345 0.017913948666896062 -1.6541039252094141 -0.005630210290781818 -1.8636489795970281 -0.037771987975994993 -2.0493680547775361 -0.078131890248474126 -2.2167023130223447 -0.12641741376768009 -2.36924844910989 -0.18238828829774692 -2.5093869856994107 -0.2458455298835851 -2.6388476539144086 -0.31662003617320639 -2.7588725408031309 -0.39456312805445309 -2.8703464668530452 -0.47952940528428406 -2.9738340335789291 -0.57136568627512019 -3.069661886786375 -0.66991359588625976 -3.1580293914499924 -0.77502317908314799 -3.2391013831582263 -0.88652163561824782 -3.3128865960873091 -1.0042184404450445 -3.3793173821855902 -1.1279237834945806 -3.438328690327249 -1.2574223079734372 -3.4897755595118407 -1.3924694209393242 -3.5334533746604957 -1.5328084263611124 -3.569158676178227 -1.6781703167599318 -3.5966853363828228 -1.8282354491470469 -3.6157503723528102 -1.9827077273884433 -3.6261567327843642 -2.1412422258574364 -3.6276402323350192 -2.3034262229182345 -3.6198679893185597 -2.4688521735349203 -3.6025729154071051 -2.6373163400222381 -3.5757934793466708 -2.8081902063049156 -3.5389858451642091 -2.9810109482208027 -3.4919205791437449 -3.1552828516459788 -3.4343668808452201 -3.3305040805978479 -3.366125409968741 -3.5061373147782846 -3.2869960976348924 -3.6816392787828249 -3.196810421069344 -3.8563724841681331 -3.095358571953382 -4.0297946182320823 -2.9825526425294768 -4.201341845954909 -2.8583088186632497 -4.3703116079730444 -2.7224815939242446 -4.5360123425099443 -2.5749864309726624 -4.6977655611304163 -2.4157906300476655 3.9575458595549073 2.0186159411882474 3.8132451230532771 2.1146308128402094 3.6661873992007221 2.1992635078414065 3.5259803006949988 2.2784475872414744 3.384710332573075 2.3477383021669964 3.2350590248416062 2.4012048224397513 3.0946272297252637 2.4513542730607631 2.9554157618488874 2.4928072590172232 2.8180872381826045 2.5260916086337644 2.6831615210109505 2.551713274347585 2.5510859801631276 2.5701957704673966 2.4222394909007829 2.5820726921757742 2.3036554195116143 2.5956624809241537 2.1815865329924864 2.5961126577283613 2.0697578820442084 2.5995506221788141 1.9612816874092296 2.598673572967682 1.8454162683647641 2.5783095808112875 1.7398387300207487 2.5620952237962777 1.6332685706189303 2.5342922213981969 1.5315381608929401 2.5033272430656526 1.4397920045576362 2.478814476059144 1.3473239976349001 2.4433300962918723 1.2593909925305271 2.4057522038699131 1.1809289087247032 2.376836846292874 1.1015864962967357 2.3368641687922227 1.0312016462680371 2.3067703019448746 0.96446739588484087 2.276730848295573 0.9012798087394025 2.2471543262540377 0.84136529509693669 2.2180279333117072 0.78462056462559038 2.1897436886084241 0.73091563980144769 2.162658287166888 0.67998205125463096 2.136716549894051 0.63168872848240853 2.1122432981780932 0.58585995873481234 2.0894392080875486 0.54231115168847488 2.0684701998846822 0.5008922716675196 2.0496410199342985 0.46134629783486408 2.032818675345907 0.42352352905584062 2.0182783953390229 0.38723958245452023 2.0061696050027726 0.35232941729960215 1.9967673237806058 0.32024992168106525 2.0011108047656729 0.28706832060241527 1.9970498202977509 0.25465012403046511 1.995865263817109 0.22279129376405921 1.9976480749385324 0.19128600306427698 2.0025118978719409 0.15993079670639371 2.0107025621742753 0.12908466624696391 2.032948945251956 0.096964299840568258 2.0475721966664318 0.064288140428957308 2.0655957886958354 0.030804751282352206 2.0870831084634114 -0.0037495780506936211 2.112121871367302 -0.039941039995181463 2.1513994687276985 -0.077863011440932356 2.1838621061115777 -0.11775228260879241 2.219874232819004 -0.15994704564383136 2.2596437229974682 -0.20480647161890161 2.3031983616583349 -0.25271903570156257 2.3505898326267172 -0.30410056041231071 2.4018278284981665 -0.35939899039798334 2.4569100010263409 -0.4208964175891875 2.5259817592195066 -0.48595236545344367 2.5886702486777824 -0.55657305064847873 2.6553170213137451 -0.63087741580477918 2.7155055206902832 -0.71399954934406629 2.7894009163731806 -0.80469170905103293 2.8668213370688345 -0.90376952500283714 2.9475871013307864 -1.0121441214812483 3.0315212089972157 -1.1308715821115773 3.1185229153582767 -1.2569220128147711 3.1981160053786062 -1.3990675824618926 3.2899936155094771 -1.5504571085599916 3.3737535522352093 -1.7216076233885362 3.4691811448991503 -1.9099472410096696 3.5650997723320401 -2.1117229066505718 3.6511939622978855 -2.334028439111917 3.7367901729956237 -2.5863232346953589 3.8306238714039482 -1.5248269064598032 2.1252302172445958 -1.5861823692318102 2.116757139784947 -1.7032075257349044 2.1748434055655848 -1.7718575381908572 2.1632385652335664 -1.8217133168295649 2.126718331752071 -1.7533809298469702 1.9604893029032147 -1.5812390891244226 1.70009766518239 -0.88772640768095978 0.92768309756379941 -0.40617981679902943 0.41826121335656702 0 0
        </DataArray>
        <DataArray type="Float32" Name="u" NumberOfComponents="1">
          0 0.007874015748031496 0.015748031496062992 0.023622047244094488 0.031496062992125984 0.03937007874015748 0.047244094488188976 0.055118110236220472 0.062992125984251968 0.070866141732283464 0.07874015748031496 0.086614173228346455 0.094488188976377951 0.10236220472440945 0.11023622047244094 0.11811023622047244 0.12598425196850394 0.13385826771653545 0.14173228346456693 0.14960629921259844 0.15748031496062992 0.16535433070866143 0.17322834645669291 0.18110236220472442 0.1889763779527559 0.19685039370078741 0.20472440944881889 0.2125984251968504 0.22047244094488189 0.2283464566929134 0.23622047244094488 0.24409448818897639 0.25196850393700787 0.25984251968503935 0.26771653543307089 0.27559055118110237 0.28346456692913385 0.29133858267716534 0.29921259842519687 0.30708661417322836 0.31496062992125984 0.32283464566929132 0.33070866141732286 0.33858267716535434 0.34645669291338582 0.3543307086614173 0.36220472440944884 0.37007874015748032 0.37795275590551181 0.38582677165354329 0.39370078740157483 0.40157480314960631 0.40944881889763779 0.41732283464566927 0.42519685039370081 0.43307086614173229 0.44094488188976377 0.44881889763779526 0.45669291338582679 0.46456692913385828 0.47244094488188976 0.48031496062992124 0.48818897637795278 0.49606299212598426 0.50393700787401574 0.51181102362204722 0.51968503937007871 0.52755905511811019 0.53543307086614178 0.54330708661417326 0.55118110236220474 0.55905511811023623 0.56692913385826771 0.57480314960629919 0.58267716535433067 0.59055118110236215 0.59842519685039375 0.60629921259842523 0.61417322834645671 0.62204724409448819 0.62992125984251968 0.63779527559055116 0.64566929133858264 0.65354330708661412 0.66141732283464572 0.6692913385826772 0.67716535433070868 0.68503937007874016 0.69291338582677164 0.70078740157480313 0.70866141732283461 0.71653543307086609 0.72440944881889768 0.73228346456692917 0.74015748031496065 0.74803149606299213 0.75590551181102361 0.76377952755905509 0.77165354330708658 0.77952755905511806 0.78740157480314965 0.79527559055118113 0.80314960629921262 0.8110236220472441 0.81889763779527558 0.82677165354330706 0.83464566929133854 0.84251968503937003 0.85039370078740162 0.8582677165354331 0.86614173228346458 0.87401574803149606 0.88188976377952755 0.88976377952755903 0.89763779527559051 0.90551181102362199 0.91338582677165359 0.92125984251968507 0.92913385826771655 0.93700787401574803 0.94488188976377951 0.952755905511811 0.96062992125984248 0.96850393700787396 0.97637795275590555 0.98425196850393704 0.99212598425196852 1
        </DataArray>
      </PointData>
      <CellData Scalars="P">
        <DataArray type="Float32" Name="P" NumberOfComponents="1">
          -0.010826213691637368 -0.030567367273147017 -0.046598259789313382 -0.057923376102044948 -0.063872623913759016 -0.063966442258401812 -0.05784830601887448 -0.045244767951363639 -0.025939916280090472 0.0002398808400138945 0.033438731419120286 0.073779807494230173 0.1213714360494499 0.17631014546259924 0.23868258483980651 0.30856813738168054 0.38604289208075976 0.47117918231218375 0.5640462576927141 0.6647128683626109 0.77324667160012972 0.88971356191134421 1.0141787364314676 1.1467074360185752 1.2873622230470005 1.4362067933458926 1.5933031151359967 1.7587075196459168 1.9324727890183684 2.1146642210821001 2.3053276608426043 2.5045039844875481 2.7122272875857814 2.9285248617564266 3.153414907865471 3.3869061779185254 3.6289915894244529 3.8796543984672063 4.1388659389452176 4.4065758929350611 4.682712480659097 4.9671823615077146 4.6927196079606919 4.4081269582199401 4.1157692266738515 3.8171583323157585 3.5143194266323921 3.2099172036168389 2.9049451441167875 2.6010082012338303 2.2995619524372306 2.0019196266077759 1.7092546634785939 1.4226046384608011 1.1420570828386545 0.86923592145114281 0.60401296257618542 0.34699145470644149 0.1001288784677562 -0.13696522112358936 -0.36328194616054754 -0.57865283462271977 -0.78371908446718419 -0.9777297066026529 -1.1607155851899287 -1.3334857085925822 -1.4954635205063185 -1.6475119530851874 -1.78981390248943 -1.9225843242667819 -2.046042225856791 -2.1604301021929655 -2.2660063044549745 -2.3630227502646686 -2.4517397905644671 -2.5324171193178011 -2.6053097471471771 -2.6706693308639173 -2.7287297176774898 -2.7797171706177974 -2.8238446930165084 -2.861312000984173 -2.8924072188436818 -2.91714249197085 -2.9356631460359979 -2.9480959410724412 -2.9545489197241497 -2.9551104229273304 -2.9497542505505896 -2.938594028140372 -2.9216659706585077 -2.8989904835620881 -2.8705730156969604 -2.8361682569320763 -2.7959602737156617 -2.7499250516158704 -2.6980282013195778 -2.6402315312718727 -2.5764950486931184 -2.5067812276423536 -2.4310587715752088 -2.3489138226496875 -2.2607120931664353 -2.1664582518379953 -2.06662315497928 -1.9608599459367435 -1.8492701603246091 -1.7319996388684282 -1.6092439810667929 -1.4812506971095023 -1.3488130746845233 -1.2118687253119478 -1.0713719659985381 -0.92742622097504102 -0.78073489605043855 -0.6325650991336319 -0.48385027222602861 -0.33524600755619116 -0.26421901295525763 -0.19830297506018052 -0.13584102763605205 -0.080471622499133352 -0.033940413605428446 -0.00047316011404875951 0.01832295231397953 0.016717397354917181 0.0060944537740620468
        </DataArray>
      </CellData>
      <Points>
        <DataArray type="Float32" NumberOfComponents="3" format="ascii">
          4.6245211388876344 10.226546439840586 0
          4.6323882352416907 10.226885905789898 0
          4.6402571760250098 10.227179487725596 0
          4.6481283998663114 10.227403588993289 0
          4.6560016264989352 10.227540144527094 0
          4.6638759608893423 10.227574135128839 0
          4.6717499427969926 10.227492567817322 0
          4.6796215789173212 10.227283927017069 0
          4.6874883664047475 10.226937837169986 0
          4.6953473110056017 10.226444839716075 0
          4.703194941954604 10.225796245484728 0
          4.711027324312834 10.22498402743931 0
          4.7188400694538233 10.22400074365876 0
          4.7266283442840002 10.222839482471928 0
          4.7343868802602787 10.221493827447382 0
          4.7421099828905131 10.219957837137741 0
          4.7497915415562151 10.218226032716036 0
          4.7574250388133859 10.216293387752922 0
          4.7650035611100003 10.21415532767287 0
          4.7725198106026072 10.211807733946227 0
          4.7799661169286445 10.209246948120013 0
          4.7873344505627777 10.206469780803296 0
          4.7946164379860017 10.203473524351111 0
          4.8018033776051041 10.200255965476439 0
          4.8088862564353878 10.196815398027312 0
          4.8158557699228668 10.193150640528994 0
          4.8227023403062521 10.189261048397661 0
          4.8294161380063549 10.185146530316404 0
          4.8359871072188536 10.180807568870387 0
          4.8424049911857461 10.176245237102197 0
          4.8486593448295663 10.171461196121149 0
          4.8547395737252259 10.166457728817637 0
          4.8606349627977936 10.161237754082965 0
          4.8663347070591039 10.155804841113715 0
          4.8718279427234359 10.15016322176529 0
          4.8771037805227992 10.144317802950521 0
          4.882151339390898 10.138274177082213 0
          4.8869597859880143 10.132038635075491 0
          4.8915183683240722 10.12561817179191 0
          4.8958164507155555 10.119020491229879 0
          4.899843557343134 10.11225401554028 0
          4.9035894151267465 10.105327890262032 0
          4.9070439957894632 10.098251986343804 0
          4.9107439491109739 10.091301251212254 0
          4.9146803272132553 10.084481637317563 0
          4.9188440113730358 10.077798391349967 0
          4.923226307781202 10.071256422044669 0
          4.927818456828108 10.064860024718383 0
          4.9326111792793403 10.058612513638474 0
          4.9375957676879159 10.052516997312299 0
          4.9427635903629383 10.046576045060034 0
          4.9481061324500466 10.04079171974613 0
          4.953615028159958 10.035165609154538 0
          4.9592820885020661 10.029698858452186 0
          4.9650993247710575 10.02439220327688 0
          4.9710593846687052 10.019246485447333 0
          4.9771546998498604 10.01426173219974 0
          4.9833783369837379 10.00943815601083 0
          4.9897235706463583 10.004775701869821 0
          4.9961832172569292 10.000273106660254 0
          5.0027507311870467 9.9959293645471252 0
          5.0094195052902766 9.9917427512495394 0
          5.0161832325491256 9.9877113464703804 0
          5.023036225053799 9.9838336299684585 0
          5.0299727501692164 9.980107401308203 0
          5.0369873564883267 9.9765303302870478 0
          5.0440751798634746 9.9731006238104136 0
          5.0512313016049388 9.9698158032691335 0
          5.058451358438294 9.966674002578042 0
          5.0657312134589496 9.9636733590672755 0
          5.0730669496854617 9.9608120388103369 0
          5.0804548530951656 9.9580882358299494 0
          5.0878914062180689 9.9555001964031895 0
          5.0953732800759246 9.9530462411767253 0
          5.1028973175362999 9.9507247617453931 0
          5.1104605251843802 9.9485342407914565 0
          5.1180600624272881 9.9464732645269347 0
          5.1256932300482028 9.9445405329811933 0
          5.1333574609019026 9.942734878896367 0
          5.1410503039800686 9.9410552594821606 0
          5.1487694151279193 9.9395007734816687 0
          5.1565125456111884 9.9380706704373818 0
          5.1642775318809653 9.9367643677447735 0
          5.1720623857878287 9.9355821351219209 0
          5.179865050960033 9.934523721229132 0
          5.1876835183650458 9.9335890531215405 0
          5.1955158136576802 9.9327782418907589 0
          5.2033599844168172 9.9320915897147426 0
          5.2112140875269661 9.9315296051040924 0
          5.2190762112803073 9.9310936681361053 0
          5.2269443651048126 9.9307846862892735 0
          5.2348165239634605 9.9306037779461676 0
          5.2426906127616784 9.9305522763296761 0
          5.2505644899927653 9.9306317349482445 0
          5.2584359124367461 9.9308445902626925 0
          5.2663025297306127 9.9311928562720695 0
          5.2741618695105741 9.9316787671618698 0
          5.2820113164337892 9.9323047902019219 0
          5.289848089901267 9.9330736274785476 0
          5.2976692199619189 9.9339882191091373 0
          5.305471521520186 9.9350517438536325 0
          5.3132515665504192 9.9362676189799775 0
          5.3210055423372964 9.9376401293251462 0
          5.3287294156596934 9.9391731641104251 0
          5.3364188081426747 9.9408708581737795 0
          5.3440691131508773 9.9427369461269759 0
          5.3516751768985982 9.9447760126772575 0
          5.3592313760435317 9.9469928613231851 0
          5.3667315670839315 9.9493925032251482 0
          5.3741690298288907 9.9519801462411124 0
          5.3815364018711227 9.954761188688579 0
          5.3888258667503184 9.9577405698248462 0
          5.396028609329913 9.9609239908494001 0
          5.4031352412200677 9.9643166499606277 0
          5.4101351478854163 9.9679244690384614 0
          5.4170166483948483 9.9717534006691899 0
          5.4237672284296705 9.9758087886113245 0
          5.4303730999494482 9.9800959460074061 0
          5.4368186141048529 9.9846206968646882 0
          5.4431696679249777 9.9892773300204496 0
          5.4494224635359449 9.9940653362468215 0
          5.4555697477904159 9.9989883345809005 0
          5.4616072708808714 10.004045626307883 0
          5.4675319504910407 10.009234971381426 0
          5.4733480434784525 10.014546093389081 0
          5.4790662556547201 10.019962884721917 0
          5.4847296775412042 10.025437506332803 0
          5.4903682583676154 10.030938432825362 0
        </DataArray>
      </Points>
      <Cells>
        <DataArray type="Int32" Name="connectivity" format="ascii">
          0 1 1 2 2 3 3 4 4 5 5 6 6 7 7 8 8 9 9 10 10 11 11 12 12 13 13 14 14 15 15 16 16 17 17 18 18 19 19 20 20 21 21 22 22 23 23 24 24 25 25 26 26 27 27 28 28 29 29 30 30 31 31 32 32 33 33 34 34 35 35 36 36 37 37 38 38 39 39 40 40 41 41 42 42 43 43 44 44 45 45 46 46 47 47 48 48 49 49 50 50 51 51 52 52 53 53 54 54 55 55 56 56 57 57 58 58 59 59 60 60 61 61 62 62 63 63 64 64 65 65 66 66 67 67 68 68 69 69 70 70 71 71 72 72 73 73 74 74 75 75 76 76 77 77 78 78 79 79 80 80 81 81 82 82 83 83 84 84 85 85 86 86 87 87 88 88 89 89 90 90 91 91 92 92 93 93 94 94 95 95 96 96 97 97 98 98 99 99 100 100 101 101 102 102 103 103 104 104 105 105 106 106 107 107 108 108 109 109 110 110 111 111 112 112 113 113 114 114 115 115 116 116 117 117 118 118 119 119 120 120 121 121 122 122 123 123 124 124 125 125 126 126 127 
        </DataArray>
        <DataArray type="Int32" Name="offsets" format="ascii">
          2 4 6 8 10 12 14 16 18 20 22 24 26 28 30 32 34 36 38 40 42 44 46 48 50 52 54 56 58 60 62 64 66 68 70 72 74 76 78 80 82 84 86 88 90 92 94 96 98 100 102 104 106 108 110 112 114 116 118 120 122 124 126 128 130 132 134 136 138 140 142 144 146 148 150 152 154 156 158 160 162 164 166 168 170 172 174 176 178 180 182 184 186 188 190 192 194 196 198 200 202 204 206 208 210 212 214 216 218 220 222 224 226 228 230 232 234 236 238 240 242 244 246 248 250 252 254 
        </DataArray>
        <DataArray type="Int32" Name="types" format="ascii">
          3 3 3 3 3 3 3 3 3 3 3 3 3 3 3 3 3 3 3 3 3 3 3 3 3 3 3 3 3 3 3 3 3 3 3 3 3 3 3 3 3 3 3 3 3 3 3 3 3 3 3 3 3 3 3 3 3 3 3 3 3 3 3 3 3 3 3 3 3 3 3 3 3 3 3 3 3 3 3 3 3 3 3 3 3 3 3 3 3 3 3 3 3 3 3 3 3 3 3 3 3 3 3 3 3 3 3 3 3 3 3 3 3 3 3 3 3 3 3 3 3 3 3 3 3 3 3         </DataArray>
      </Cells>
    </Piece>
  </UnstructuredGrid>
</VTKFile>
