<?xml version="1.0"?>
<VTKFile type="UnstructuredGrid" version="0.1" byte_order="LittleEndian">
  <UnstructuredGrid>
    <Piece NumberOfPoints="128" NumberOfCells="127">
      <PointData Scalars="W">
        <DataArray type="Float32" Name="W" NumberOfComponents="2">
          0 0 -0.68505470077794206 -0.027846752150024679 -1.1108070342123764 -0.05303099816850488 -1.4339286087489296 -0.082885305239702958 -1.701610269902063 -0.11949645329982597 -1.9330372349199012 -0.1636636288289397 -2.1379604534711545 -0.21572998032507118 -2.3220617135224457 -0.27582858842030883 -2.4889123034817717 -0.34397296343085026 -2.6409389174561499 -0.42011045902276412 -2.7797635027521381 -0.50412991559499376 -2.9065449313100604 -0.59588554100848468 -3.0221035979886532 -0.69520174237911903 -3.1270627666527901 -0.80189024398517716 -3.2218878625473097 -0.91575370052044536 -3.306879398333856 -1.0365757699293199 -3.3821590983493577 -1.1641021271623999 -3.447845905725639 -1.2980876970715667 -3.5039613059428394 -1.4382650141239677 -3.5504338782710985 -1.5843345848938259 -3.5871666063041938 -1.7359847047383965 -3.6140432602552419 -1.8928937448182199 -3.6309060331288991 -2.0547165476680536 -3.6375535782878412 -2.2210759000545979 -3.6338042154768941 -2.391595760552546 -3.6193878831216582 -2.5658290082142208 -3.5940805499288242 -2.7433360697367184 -3.5576948679647677 -2.9236903554583868 -3.5099732916652675 -3.1063932954263791 -3.4504275731736507 -3.2906865100064953 -3.3790769145073334 -3.476226461341648 -3.2956738041248927 -3.6624180424409669 -3.1999934723250312 -3.8486444580530361 -3.091810239068959 -4.0342354673867842 -2.970931937550656 -4.2185011055669177 -2.837182346648889 -4.4007054851852763 -2.6904550742776121 -4.5801486442637387 -2.530600475255615 -4.7559806016151018 -2.3575074111388368 -4.9272885234637522 -2.171179987668602 -5.0932587674243148 -1.9716440486938156 -5.2530160568751532 -1.7589583061405629 -5.4056134399008986 0.97591966139200037 3.099882001083627 1.0191423248306466 2.9736954035099599 1.0530346356906366 2.845034431188262 1.0775991155435876 2.7142009228383395 1.0934791494250131 2.5828785891735651 1.1008224317026374 2.4512052899521737 1.0997348389909547 2.3191960366861819 1.0910761755605918 2.1883259243844764 1.0750370481232145 2.0584710359091818 1.0520375449696868 1.929931822236977 0.99966659686331683 1.7634111744277685 0.93769446890855324 1.5967544701035681 1.6799829229415777 2.7344855988679249 1.7036558681992959 2.6239049338199116 1.4348258859276863 2.1053163548214093 1.4195569090103106 1.9972974812983992 1.4001500944120069 1.8931066616198524 1.388076979805831 1.8068913186713531 1.3614554692563776 1.7092047924888982 1.3313452570939439 1.6148288596675298 1.2984241104758945 1.5241532931615489 1.2762948629923643 1.4519901341825836 1.2245668919291617 1.3522639913172056 1.1993119783947419 1.2873925045658643 1.1734028557927987 1.2257073990960456 1.1470957399975923 1.1671719480789311 1.1206334242975713 1.1117419213377342 1.0781645031054161 1.0439815496111022 1.0517129102314438 0.99497462064550646 1.0257851212844642 0.94889879447641734 1.0002064629513188 0.90536545384346501 0.97587358509268607 0.86496741036885871 0.95260223650693598 0.82731043611495458 0.9305536617766148 0.79233213180895878 0.90987640707580675 0.75996715363544931 0.89072465207626972 0.73016224410176289 0.87323317018039059 0.70285471057552051 0.85753527396168916 0.67798717445220058 0.84375949740152734 0.65550407555851553 0.83165599464575934 0.63506816118353993 0.82209015160004939 0.6172001224479976 0.81481172564869275 0.60155992382554679 0.8099386761091959 0.58809839155770416 0.8075886570089903 0.57676738584196319 0.80788004699832527 0.56751945727515762 0.81055825035168838 0.56005062275428297 0.81649093638951353 0.55483224935574449 0.82543417510295169 0.551553370883889 0.83751940576674888 0.55016368287519146 0.85288425925376343 0.55061037702015569 0.87130222193723417 0.55260363234584775 0.89366676238661991 0.55655613563966333 0.91977433941202624 0.56216200454422705 0.94980145631620716 0.56934807342062599 0.98357144866586033 0.57781934092696741 1.022020327918453 0.58791755102086218 1.0650091183796764 0.59931912611628124 1.1127824724676454 0.61190606217075483 1.1652503428033147 0.62535384679304618 1.2234183078901206 0.63989488847247844 1.2666835777392496 0.64482845410603418 1.3363034003632006 0.66108766998900681 1.4123315482557699 0.67766202642057571 1.4952175507012802 0.69428686386988614 1.5854474274436061 0.71064689544254334 1.6616482463822289 0.7171041104505077 1.7679970031694265 0.73244393052804124 1.8835562415529945 0.746301076140227 1.9864021258037678 0.74974238600241616 2.1225821576496648 0.75961039146928899 2.2465518264254212 0.75811443443272564 2.4080260928404922 0.76121989830947157 2.5584758541440431 0.7516095417117421 2.7508487928709795 0.74361960953681472 2.9349841864069934 0.72101736657756643 -0.4918243582942402 -0.11566686633544083 -0.50682051238334724 -0.12135734052471971 -0.66117806409502344 -0.16163010865869318 -0.91901092435579879 -0.23091384295092712 -0.8972296924344948 -0.23249534155183821 -1.1229023095972008 -0.30085432218437391 -1.6917724391531661 -0.47418333995498357 -2.565045351418247 -0.76751442166650774 -4.7677370806812007 -1.5857022329163895 -5.8697659334187371 -2.2472574418619327 0 0
        </DataArray>
        <DataArray type="Float32" Name="u" NumberOfComponents="1">
          0 0.007874015748031496 0.015748031496062992 0.023622047244094488 0.031496062992125984 0.03937007874015748 0.047244094488188976 0.055118110236220472 0.062992125984251968 0.070866141732283464 0.07874015748031496 0.086614173228346455 0.094488188976377951 0.10236220472440945 0.11023622047244094 0.11811023622047244 0.12598425196850394 0.13385826771653545 0.14173228346456693 0.14960629921259844 0.15748031496062992 0.16535433070866143 0.17322834645669291 0.18110236220472442 0.1889763779527559 0.19685039370078741 0.20472440944881889 0.2125984251968504 0.22047244094488189 0.2283464566929134 0.23622047244094488 0.24409448818897639 0.25196850393700787 0.25984251968503935 0.26771653543307089 0.27559055118110237 0.28346456692913385 0.29133858267716534 0.29921259842519687 0.30708661417322836 0.31496062992125984 0.32283464566929132 0.33070866141732286 0.33858267716535434 0.34645669291338582 0.3543307086614173 0.36220472440944884 0.37007874015748032 0.37795275590551181 0.38582677165354329 0.39370078740157483 0.40157480314960631 0.40944881889763779 0.41732283464566927 0.42519685039370081 0.43307086614173229 0.44094488188976377 0.44881889763779526 0.45669291338582679 0.46456692913385828 0.47244094488188976 0.48031496062992124 0.48818897637795278 0.49606299212598426 0.50393700787401574 0.51181102362204722 0.51968503937007871 0.52755905511811019 0.53543307086614178 0.54330708661417326 0.55118110236220474 0.55905511811023623 0.56692913385826771 0.57480314960629919 0.58267716535433067 0.59055118110236215 0.59842519685039375 0.60629921259842523 0.61417322834645671 0.62204724409448819 0.62992125984251968 0.63779527559055116 0.64566929133858264 0.65354330708661412 0.66141732283464572 0.6692913385826772 0.67716535433070868 0.68503937007874016 0.69291338582677164 0.70078740157480313 0.70866141732283461 0.71653543307086609 0.72440944881889768 0.73228346456692917 0.74015748031496065 0.74803149606299213 0.75590551181102361 0.76377952755905509 0.77165354330708658 0.77952755905511806 0.78740157480314965 0.79527559055118113 0.80314960629921262 0.8110236220472441 0.81889763779527558 0.82677165354330706 0.83464566929133854 0.84251968503937003 0.85039370078740162 0.8582677165354331 0.86614173228346458 0.87401574803149606 0.88188976377952755 0.88976377952755903 0.89763779527559051 0.90551181102362199 0.91338582677165359 0.92125984251968507 0.92913385826771655 0.93700787401574803 0.94488188976377951 0.952755905511811 0.96062992125984248 0.96850393700787396 0.97637795275590555 0.98425196850393704 0.99212598425196852 1
        </DataArray>
      </PointData>
      <CellData Scalars="P">
        <DataArray type="Float32" Name="P" NumberOfComponents="1">
          -0.013418973287438315 -0.038216754137529119 -0.058667378695213671 -0.073537908841308938 -0.082017725968614119 -0.083535633312506047 -0.07767692919036831 -0.064135906816216781 -0.042685917290992935 -0.013157608701407737 0.024574885352187738 0.070605497903023284 0.12500464525259752 0.18782699396544589 0.2591174807685569 0.33891483531974648 0.42725250161867467 0.52416362489249857 0.62968209568213229 0.74384253020996061 0.86668181728222038 0.99824042768599386 1.1385622954986077 1.2876939401666267 1.4456860176002513 1.6125892154982584 1.7884561263871723 1.973342943931814 2.1673049041823131 2.3703795647626098 2.5826161326672885 2.8040576750666464 3.0347398510892525 3.2746873947939803 3.5239126624145984 3.7824122707632339 4.0501686231889868 4.3271395369654373 4.6132535082146946 4.9084145560123664 5.2124965755268908 5.5253369794149592 5.3124800583018317 5.0955773364615773 4.8767857948954525 4.6581309188841873 4.441388329138495 4.2281900882962828 4.0200349826496513 3.8181597847383855 3.623671819945379 3.4375145286679172 3.2641699713979579 3.1045720908336287 2.8349527383617086 2.5721015111218914 2.3571363806041572 2.1516506800907131 1.9559178049302084 1.7687250018820178 1.5916478600105579 1.4247464860411991 1.267963873518422 1.1197729027882595 0.98290530910731144 0.85424151305397289 0.73356685427403678 0.62063621062390473 0.51517978798212138 0.41814339872773421 0.32792363681375919 0.24420408086583076 0.16668667048527397 0.095025838531705653 0.028903261899790995 -0.031992947799643179 -0.087965012235307172 -0.13930336591228476 -0.18628361434319388 -0.22916460441334033 -0.26818656218102688 -0.30356086503495394 -0.33549613348741314 -0.36416816074446695 -0.38972921953361622 -0.41230743312451634 -0.43200636807092418 -0.44890489928414917 -0.46305844168353855 -0.4744965548223995 -0.48322469886029318 -0.48922484547312062 -0.49246243718362576 -0.49287008160845619 -0.49036483210829246 -0.48484458902917094 -0.47619967401295499 -0.46428548133884184 -0.44895251970338512 -0.43003952023657083 -0.40738851164473411 -0.38080992402441982 -0.35091792712141079 -0.31676852520040982 -0.27817985331189515 -0.23497583348956824 -0.18699072139541403 -0.1350221552268738 -0.078005718326645435 -0.015831003475359783 0.050588127189526343 0.12228619871177501 0.19822485604969403 0.27942409468147683 0.36471088579912592 0.45500712569259433 0.54901146555641644 0.50803767187865523 0.46716821916249796 0.42184714322698358 0.3696901532996143 0.32098938170025232 0.26959643335962857 0.21004155891287904 0.14275015036086974 0.060600180633880438 0.0065193851579049104
        </DataArray>
      </CellData>
      <Points>
        <DataArray type="Float32" NumberOfComponents="3" format="ascii">
          4.3044555658263191 7.9545096527941093 0
          4.3041569731919447 7.9623786923538367 0
          4.3038158997697478 7.9702460029626314 0
          4.3034059443765642 7.9781100218682059 0
          4.3029070701155474 7.9859688970267735 0
          4.302302678031328 7.9938203575630515 0
          4.3015784174164144 8.0016616641575524 0
          4.3007215811440691 8.0094895877407808 0
          4.2997207533331254 8.0173004012263078 0
          4.2985655878865181 8.0250898786649643 0
          4.2972466580069764 8.032853298505195 0
          4.2957553556155892 8.0405854504842331 0
          4.2940838194859445 8.0482806446683313 0
          4.2922248843673625 8.0559327223420087 0
          4.2901720423322693 8.0635350676844428 0
          4.2879194139111485 8.0710806200088001 0
          4.2854617294536537 8.0785618871799105 0
          4.282794321576251 8.0859709613874902 0
          4.2799131177821916 8.0932995343459488 0
          4.276814639124642 8.1005389138827049 0
          4.2734960046306867 8.1076800425125661 0
          4.2699549373122849 8.1147135167692799 0
          4.2661897713684009 8.1216296071524248 0
          4.2621994619650438 8.1284182795331752 0
          4.2579835977148939 8.1350692185476259 0
          4.253542411937155 8.1415718509172894 0
          4.2488767993975118 8.1479153731768594 0
          4.243988330193508 8.1540887789336729 0
          4.2388792613649784 8.160080885321749 0
          4.2335525528570184 8.1658803639188395 0
          4.2280118977879582 8.1714757877732431 0
          4.2222617212511961 8.1768556527067009 0
          4.2163071956551477 8.1820084142160585 0
          4.2101542546527728 8.1869225257192113 0
          4.2038096071273481 8.191586480114438 0
          4.1972807490999786 8.1959888525621096 0
          4.1905759746482403 8.2001183461132303 0
          4.1837043824948523 8.2039638351096045 0
          4.1766758852782973 8.2075144178854664 0
          4.1695012164357799 8.2107594733655098 0
          4.1621919299403789 8.213688711511562 0
          4.1547603986904935 8.2162922275901362 0
          4.1472198108615332 8.218560560883418 0
          4.1397397619325691 8.2210210958441348 0
          4.1323229308220881 8.2236660064106637 0
          4.1249714178307233 8.2264873133052792 0
          4.117686744820336 8.2294769027536159 0
          4.1104698951029368 8.2326266308945559 0
          4.1033213226198573 8.2359283323285677 0
          4.0962409585254935 8.2393738210476659 0
          4.0892282644925269 8.242954981904786 0
          4.0822822445465183 8.2466637629270778 0
          4.0754014711192568 8.2504921939440212 0
          4.0685826959387814 8.2544299498579186 0
          4.0618220753200713 8.2584666974245984 0
          4.0551656193925938 8.2626729844207105 0
          4.0486147956295273 8.2670419545159017 0
          4.0421529394139055 8.2715414520160149 0
          4.0357791034663792 8.2761647794727278 0
          4.0294920839561206 8.2809054768561872 0
          4.0232911316561344 8.2857581987762519 0
          4.0171745954463969 8.2907168886037717 0
          4.0111406079113037 8.2957756950338677 0
          4.0051871273597399 8.3009289962524377 0
          3.9993127811444515 8.3061723183429201 0
          3.993514361628868 8.3114994784124647 0
          3.9877903023950654 8.3169064547410336 0
          3.9821389964939233 8.3223894232002049 0
          3.9765588123291788 8.3279447549727212 0
          3.9710481087092138 8.3335690138071463 0
          3.9656042520641552 8.3392579989871116 0
          3.9602256018978306 8.3450086725645729 0
          3.9549105502130377 8.3508181783425588 0
          3.9496575106797804 8.3566838177794498 0
          3.9444649742266709 8.3626030867412435 0
          3.9393314976158593 8.368573651058119 0
          3.9342557134388967 8.3745933426546646 0
          3.9292363393253931 8.3806601554978357 0
          3.9242721875011246 8.386772242294537 0
          3.9193621731430754 8.3929279106045112 0
          3.9145053226440862 8.3991256192829802 0
          3.9097007815814222 8.4053639750362947 0
          3.9049477992237009 8.4116417115153688 0
          3.9002457821889118 8.4179577215950872 0
          3.8955942789275855 8.424311036295272 0
          3.8909929870366633 8.4307008217334101 0
          3.8864417605547223 8.4371263761417783 0
          3.8819406173024422 8.4435871269276568 0
          3.8774897230955609 8.4500826118324106 0
          3.8730894455486085 8.4566125081520926 0
          3.8687403389502864 8.4631766134637054 0
          3.8644431524152876 8.4697748425096115 0
          3.8601988384205028 8.4764072239270494 0
          3.8560085387604599 8.4830738822878118 0
          3.8518736399551079 8.4897750636803231 0
          3.8477957606312554 8.496511116753668 0
          3.843776762471621 8.5032824881862492 0
          3.8398187392633214 8.510089704406326 0
          3.835924074948271 8.5169333927754227 0
          3.832095435010948 8.5238142615371935 0
          3.8283357816572434 8.5307330925072069 0
          3.8246483682377752 8.5376907209655091 0
          3.8210368016186562 8.5446880500606497 0
          3.817503764469504 8.5517253877521924 0
          3.8140535739145949 8.5588037439543019 0
          3.8106909445549575 8.5659241482325488 0
          3.807421016363755 8.5730876334004424 0
          3.8042493848475103 8.5802952159764967 0
          3.8011807755292981 8.5875472991072446 0
          3.7982217838030703 8.5948448363583978 0
          3.7953795764417695 8.6021886895000872 0
          3.7926605318949633 8.6095790751951178 0
          3.7900730962351923 8.617016608184441 0
          3.787624958475956 8.6245011993768372 0
          3.7853261340391855 8.632033044475131 0
          3.7831859549362377 8.6396115515699101 0
          3.7812163538005117 8.6472362285668947 0
          3.7794287528495758 8.654905678148765 0
          3.7776106049904028 8.6625681464547295 0
          3.7757609710997762 8.6702233076916784 0
          3.7738702651104301 8.6778687004141837 0
          3.7719224772406572 8.6855000734180319 0
          3.7699189410813698 8.6931173674113911 0
          3.7678456314996822 8.7007163988689236 0
          3.7656672131156173 8.7082865000535676 0
          3.7633294308089762 8.7158095893706182 0
          3.760695429982861 8.7232351224401725 0
          3.7576972040497885 8.7305208145954136 0
        </DataArray>
      </Points>
      <Cells>
        <DataArray type="Int32" Name="connectivity" format="ascii">
          0 1 1 2 2 3 3 4 4 5 5 6 6 7 7 8 8 9 9 10 10 11 11 12 12 13 13 14 14 15 15 16 16 17 17 18 18 19 19 20 20 21 21 22 22 23 23 24 24 25 25 26 26 27 27 28 28 29 29 30 30 31 31 32 32 33 33 34 34 35 35 36 36 37 37 38 38 39 39 40 40 41 41 42 42 43 43 44 44 45 45 46 46 47 47 48 48 49 49 50 50 51 51 52 52 53 53 54 54 55 55 56 56 57 57 58 58 59 59 60 60 61 61 62 62 63 63 64 64 65 65 66 66 67 67 68 68 69 69 70 70 71 71 72 72 73 73 74 74 75 75 76 76 77 77 78 78 79 79 80 80 81 81 82 82 83 83 84 84 85 85 86 86 87 87 88 88 89 89 90 90 91 91 92 92 93 93 94 94 95 95 96 96 97 97 98 98 99 99 100 100 101 101 102 102 103 103 104 104 105 105 106 106 107 107 108 108 109 109 110 110 111 111 112 112 113 113 114 114 115 115 116 116 117 117 118 118 119 119 120 120 121 121 122 122 123 123 124 124 125 125 126 126 127 
        </DataArray>
        <DataArray type="Int32" Name="offsets" format="ascii">
          2 4 6 8 10 12 14 16 18 20 22 24 26 28 30 32 34 36 38 40 42 44 46 48 50 52 54 56 58 60 62 64 66 68 70 72 74 76 78 80 82 84 86 88 90 92 94 96 98 100 102 104 106 108 110 112 114 116 118 120 122 124 126 128 130 132 134 136 138 140 142 144 146 148 150 152 154 156 158 160 162 164 166 168 170 172 174 176 178 180 182 184 186 188 190 192 194 196 198 200 202 204 206 208 210 212 214 216 218 220 222 224 226 228 230 232 234 236 238 240 242 244 246 248 250 252 254 
        </DataArray>
        <DataArray type="Int32" Name="types" format="ascii">
          3 3 3 3 3 3 3 3 3 3 3 3 3 3 3 3 3 3 3 3 3 3 3 3 3 3 3 3 3 3 3 3 3 3 3 3 3 3 3 3 3 3 3 3 3 3 3 3 3 3 3 3 3 3 3 3 3 3 3 3 3 3 3 3 3 3 3 3 3 3 3 3 3 3 3 3 3 3 3 3 3 3 3 3 3 3 3 3 3 3 3 3 3 3 3 3 3 3 3 3 3 3 3 3 3 3 3 3 3 3 3 3 3 3 3 3 3 3 3 3 3 3 3 3 3 3 3         </DataArray>
      </Cells>
    </Piece>
  </UnstructuredGrid>
</VTKFile>
