<?xml version="1.0"?>
<VTKFile type="UnstructuredGrid" version="0.1" byte_order="LittleEndian">
  <UnstructuredGrid>
    <Piece NumberOfPoints="128" NumberOfCells="127">
      <PointData Scalars="W">
        <DataArray type="Float32" Name="W" NumberOfComponents="2">
          0 0 0.60115564852885317 0.081422789478152721 0.91656611333708482 0.11852220838234367 1.1612802351721168 0.14044299385867506 1.3684432827559552 0.15159268433571979 1.5515759239528844 0.15374702841080823 1.7178483595603415 0.14782610682503261 1.8715352024731993 0.1343554404713399 2.0153983637098296 0.11365004045666507 2.1512277208115247 0.085895642758009705 2.2802957248019422 0.051203789182115829 2.403438963011026 0.0096340799229066802 2.5212249684017136 -0.038783919196362378 2.634019285636914 -0.094038392231310067 2.7419971807564507 -0.15612344691945104 2.8452131718034268 -0.22503011597078776 2.9437169660599376 -0.30075029629727534 3.0373975997552414 -0.38326056303414607 3.1261205494739914 -0.47252621412677548 3.2097299819117584 -0.56850186231819078 3.2880148668677838 -0.67112419365963538 3.3606980956737331 -0.78030327618617756 3.4274940618055023 -0.89592936791578415 3.488080485154494 -1.0178643040795876 3.5421108889497148 -1.14594009490728 3.5892735068654025 -1.2799767342193205 3.6291924466433927 -1.4197491829360727 3.6614384951371406 -1.5649786075592249 3.6856599501522389 -1.7153821889478238 3.7017690389929219 -1.870786922054638 3.7090545370317054 -2.0306912033445248 3.707158546596574 -2.1947019328114599 3.6957429705996105 -2.3623993000796388 3.6744778442763759 -2.533329448838451 3.6430393055924717 -2.7069998138791966 3.6011088068016068 -2.8828733426872897 3.5483386164888526 -3.0603302045743455 3.4845171491109976 -3.2388026030192312 3.4094742601437455 -3.4177183396405519 3.3229673637459851 -3.5963805946491467 3.2248292703007611 -3.7740947681540615 3.1149459651585372 -3.9501555482246187 -2.152648067098498 2.7638609427423955 -2.5907295282040308 3.1294064752808066 -3.0843263983531592 3.4757877457944786 -3.1548340390831298 3.3054758653826357 -3.2141011074794386 3.1356300712479279 -3.2626204452388272 2.9671019406977366 -3.3009310798182203 2.8006462222362529 -3.3354431712389849 2.6413897832557245 -3.3618835701610439 2.4852395319507115 -3.380404272148763 2.3323056443153916 -3.3914820544573092 2.182926375087372 -3.3959834769886688 2.0376154711683188 -3.3943623182275089 1.8965410454764788 -3.3872704380541792 1.7599417370886008 -3.3612363968681573 1.6214345846553828 -3.3293047460683782 1.48841702887889 -3.2922471102620414 1.3610985882225137 -3.2502760736184335 1.239411056771949 -3.2041457119850301 1.1234849610415514 -3.153672774354396 1.013096940979199 -3.1108578517151675 0.9114943420990419 -3.0546698004480604 0.81201662646036277 -2.995543345079168 0.71798654440027898 -2.9602003622211361 0.63465790772696018 -2.9109991557149817 0.55264529489441672 -2.8749853475333826 0.47717373288140474 -2.8255105059819625 0.40326066526283494 -2.7907238852860918 0.33497690563689636 -2.7420039851377571 0.26832712324882257 -2.7085533730493676 0.20626281245056993 -2.6763067885243799 0.14669681735191947 -2.630969948004489 0.089069798641419673 -2.6015703567596056 0.034430371197787385 -2.573818506831139 -0.018386052830617963 -2.5324581104150039 -0.069029420256090102 -2.5083615145546023 -0.1182611227527335 -2.486673691939679 -0.16638368521194619 -2.4507616652151962 -0.21204598214984158 -2.432861587489072 -0.2579295873292467 -2.4171481946324151 -0.30335298802964433 -2.4036673369815102 -0.34854343219176304 -2.3766858040142194 -0.39098118975696894 -2.3678747979623451 -0.43579645629288821 -2.3613905957254184 -0.48107660034908284 -2.34067331699173 -0.52319008728576466 -2.3390041703817754 -0.5694866817025459 -2.3396719394697292 -0.61697353116004927 -2.3257876245676683 -0.66093396541064697 -2.3316946122910291 -0.71105612400568885 -2.3394083442092564 -0.76301872733469323 -2.3322016910138168 -0.81107622471955521 -2.3445025626915017 -0.867126384100947 -2.3588835316757391 -0.92599023429950533 -2.3752500364741875 -0.98797577182448504 -2.37634831694819 -1.0456503512377455 -2.3970970652266121 -1.1143548248941328 -2.4016462999504724 -1.1782385078739817 -2.4254033637153287 -1.2546244852329542 -2.450450858241294 -1.3358862545747054 -2.4592315037891215 -1.4122216505691401 -2.4870586813633961 -1.503969098399941 -2.4975951562468111 -1.5902665013388333 -2.5263401184462801 -1.6937769433213994 -2.5549962345769437 -1.8044568145630642 -2.5660619912348679 -1.909809650372819 -2.5770073444465305 -2.022030492197378 -2.6041497597426155 -2.1559362515764313 -2.6121723991974175 -2.2840698092845377 -2.6358891095351047 -2.4373529346320524 -2.6390361103245494 -2.5845242407726357 -2.6388847314847497 -2.7416146696885719 -2.6518110674049913 -2.9290146112227808 -2.6419151876724345 -3.1103439017962438 -2.6262430650080386 -3.3050118605927472 -2.6028631016453652 -3.5133616300109889 -2.5711351639745197 -3.7378228059629084 1.6629704603878137 2.4499816950592517 2.0807872927207227 2.9020216025608172 2.4515194906006639 3.2113177221114642 2.7136642920869032 3.3228322053630968 3.2412432764876837 3.6877007330136959 4.4467378748245228 4.625830351650416 5.2140336213648277 4.8744392805406225 4.7811526555892732 4.0192259101763943 2.1816517257860846 1.7055603310171636 0 0
        </DataArray>
        <DataArray type="Float32" Name="u" NumberOfComponents="1">
          0 0.007874015748031496 0.015748031496062992 0.023622047244094488 0.031496062992125984 0.03937007874015748 0.047244094488188976 0.055118110236220472 0.062992125984251968 0.070866141732283464 0.07874015748031496 0.086614173228346455 0.094488188976377951 0.10236220472440945 0.11023622047244094 0.11811023622047244 0.12598425196850394 0.13385826771653545 0.14173228346456693 0.14960629921259844 0.15748031496062992 0.16535433070866143 0.17322834645669291 0.18110236220472442 0.1889763779527559 0.19685039370078741 0.20472440944881889 0.2125984251968504 0.22047244094488189 0.2283464566929134 0.23622047244094488 0.24409448818897639 0.25196850393700787 0.25984251968503935 0.26771653543307089 0.27559055118110237 0.28346456692913385 0.29133858267716534 0.29921259842519687 0.30708661417322836 0.31496062992125984 0.32283464566929132 0.33070866141732286 0.33858267716535434 0.34645669291338582 0.3543307086614173 0.36220472440944884 0.37007874015748032 0.37795275590551181 0.38582677165354329 0.39370078740157483 0.40157480314960631 0.40944881889763779 0.41732283464566927 0.42519685039370081 0.43307086614173229 0.44094488188976377 0.44881889763779526 0.45669291338582679 0.46456692913385828 0.47244094488188976 0.48031496062992124 0.48818897637795278 0.49606299212598426 0.50393700787401574 0.51181102362204722 0.51968503937007871 0.52755905511811019 0.53543307086614178 0.54330708661417326 0.55118110236220474 0.55905511811023623 0.56692913385826771 0.57480314960629919 0.58267716535433067 0.59055118110236215 0.59842519685039375 0.60629921259842523 0.61417322834645671 0.62204724409448819 0.62992125984251968 0.63779527559055116 0.64566929133858264 0.65354330708661412 0.66141732283464572 0.6692913385826772 0.67716535433070868 0.68503937007874016 0.69291338582677164 0.70078740157480313 0.70866141732283461 0.71653543307086609 0.72440944881889768 0.73228346456692917 0.74015748031496065 0.74803149606299213 0.75590551181102361 0.76377952755905509 0.77165354330708658 0.77952755905511806 0.78740157480314965 0.79527559055118113 0.80314960629921262 0.8110236220472441 0.81889763779527558 0.82677165354330706 0.83464566929133854 0.84251968503937003 0.85039370078740162 0.8582677165354331 0.86614173228346458 0.87401574803149606 0.88188976377952755 0.88976377952755903 0.89763779527559051 0.90551181102362199 0.91338582677165359 0.92125984251968507 0.92913385826771655 0.93700787401574803 0.94488188976377951 0.952755905511811 0.96062992125984248 0.96850393700787396 0.97637795275590555 0.98425196850393704 0.99212598425196852 1
        </DataArray>
      </PointData>
      <CellData Scalars="P">
        <DataArray type="Float32" Name="P" NumberOfComponents="1">
          -0.0051082639121788178 -0.013962308563577695 -0.020081909981766278 -0.022622728187612524 -0.020945112569746516 -0.014527754873622624 -0.0029267481179306794 0.014246717061169376 0.037340138759278801 0.066667159391521791 0.10251394518228703 0.14514190045953793 0.19478992961677272 0.25167572531111909 0.31599544471345981 0.38792364920302636 0.46761567972574825 0.55520504409779048 0.65080408365932862 0.75450457729010179 0.86637700109431659 0.98646900609389576 1.1148057323813991 1.2513889727604603 1.3961966544058213 1.5491848229269198 1.7102854073100537 1.8794040075634915 2.0564237434223469 2.2412194396414207 2.4336268398478809 2.6334599307469322 2.8405123821926215 3.0545583575149222 3.275353098439389 3.5026332655912702 3.7361146582885367 3.9755005852847272 4.2204847711990103 4.4707456896773197 4.7259506941241209 4.9857586968057683 4.7611645395395259 4.4917875521378354 4.2142540238746342 3.9306656021704987 3.642997549491152 3.353092270367819 3.0626553873324962 2.7727372540294111 2.4847045417959324 2.1998340449592466 1.9192859535692433 1.6440748158385565 1.3751095603796406 1.1131815692924081 0.86005402369198269 0.61635658855692188 0.38259504663265531 0.15919755232927379 -0.053520236320840374 -0.25528654814828716 -0.44663889380790095 -0.62680925522003128 -0.79576202995017864 -0.95496970541151371 -1.1037603628935151 -1.2429321483668632 -1.3719467161363788 -1.4916280345803183 -1.6015190201282221 -1.7024065389341205 -1.794461698698359 -1.8774021239520557 -1.9519183928188926 -2.0181946122833665 -2.0760609544698156 -2.1261020004391371 -2.1684997092230969 -2.2031908679155534 -2.2306103808261342 -2.250907841128226 -2.2642223927077185 -2.2706467818165232 -2.2703850889942041 -2.2635416055536632 -2.2503140558727712 -2.2307310905226481 -2.2048619663613795 -2.1730120379075819 -2.1350270344934779 -2.0909533316769169 -2.0412084373484594 -1.9854822548934545 -1.9237970700503992 -1.8561736058053686 -1.7831834290551514 -1.7043251869833025 -1.6202754292119728 -1.5304723254382313 -1.4349628743268958 -1.3345474721210964 -1.2285801981361117 -1.1179871733115203 -1.0021197954522658 -0.88114341817129249 -0.75613095166214583 -0.6273568024319236 -0.49424450706218526 -0.35808284925921297 -0.21833913831002016 -0.076476951270865332 0.066920274388386172 0.21217392726882606 0.35754216817654838 0.50217893116438117 0.64507935787808934 0.78514863493124976 0.69093802499072476 0.58538553721229003 0.47562756388169469 0.37040409254398909 0.2650716285917657 0.15004402681782089 0.059304432188720391 0.0060142633616715874 -0.002091226633845528
        </DataArray>
      </CellData>
      <Points>
        <DataArray type="Float32" NumberOfComponents="3" format="ascii">
          4.1483532549553113 6.2548767320421002 0
          4.1472777759685782 6.2626770235717144 0
          4.1462395693273768 6.2704823636256259 0
          4.1452581908360937 6.2782950526492671 0
          4.1443488130570207 6.2861164499506108 0
          4.1435242803561083 6.2939472469845832 0
          4.1427959472000886 6.3017875774551486 0
          4.1421741227167574 6.3096370743619898 0
          4.1416683357249182 6.3174949025826592 0
          4.141287505974522 6.3253597784022428 0
          4.1410400551190492 6.333229981027511 0
          4.1409339856062966 6.341103359500897 0
          4.1409769325445582 6.3489773363941451 0
          4.1411761988865816 6.3568489096400684 0
          4.1415387780894992 6.364714653264218 0
          4.142071364976788 6.3725707177498503 0
          4.1427803591133223 6.3804128305942625 0
          4.1436718678818751 6.3882362968124395 0
          4.1447516995976388 6.3960360003916534 0
          4.1460253551620241 6.4038064064463933 0
          4.1474980183954084 6.4115415640369982 0
          4.1491745429479989 6.4192351101010523 0
          4.151059435114381 6.4268802750364387 0
          4.1531568361220934 6.4344698895139292 0
          4.155470502147554 6.4419963930532331 0
          4.1580037828332204 6.4494518444493378 0
          4.1607596019585484 6.4568279329447629 0
          4.1637404341370265 6.4641159921945732 0
          4.1669482782094365 6.4713070175670202 0
          4.1703846354452407 6.4783916836912212 0
          4.1740505041102978 6.4853603551957466 0
          4.1779463353823614 6.4922031178196411 0
          4.1820720111756513 6.4989098027945467 0
          4.1864268231952684 6.5054700128807612 0
          4.1910094524977097 6.5118731505114953 0
          4.1958179494311807 6.5181084483338818 0
          4.2008497139062584 6.5241650025045157 0
          4.2061014738572764 6.5300318111131519 0
          4.2115692721441258 6.5356978093758604 0
          4.2172484560217072 6.5411519050965614 0
          4.2231336621152797 6.5463830218506498 0
          4.2292188060665916 6.5513801420267566 0
          4.235497075471967 6.5561323505289488 0
          4.2416419648158712 6.5610559884275714 0
          4.2476264428003248 6.566173848589802 0
          4.2534196500840107 6.5715072085813668 0
          4.2590172179589194 6.5770455064730049 0
          4.2644154747154088 6.5827782096447711 0
          4.2696114150222106 6.5886948675543415 0
          4.274602666455225 6.5947851584984534 0
          4.2793870920759085 6.6010392075589941 0
          4.2839630552720163 6.6074473326806062 0
          4.2883294103090348 6.6140000514572526 0
          4.2924854727564439 6.6206881020691917 0
          4.2964309657555315 6.6275024751093365 0
          4.3001659918814017 6.6344344239760478 0
          4.3036909927289084 6.6414754796448072 0
          4.3070075841015365 6.648617054730714 0
          4.3101177473200476 6.6558509022970576 0
          4.3130237813870007 6.6631691288342321 0
          4.3157282898111085 6.6705641900159272 0
          4.3182341338611874 6.6780288987850938 0
          4.3205444439328602 6.685556411492402 0
          4.3226618755308133 6.6931404293138552 0
          4.3245899131753864 6.7007747851172512 0
          4.3263322234744326 6.7084536495597851 0
          4.3278909983845892 6.7161718569649249 0
          4.3292692889693125 6.7239243231777941 0
          4.3304693285924172 6.7317063696568713 0
          4.3314941851159849 6.7395134144271154 0
          4.3323460156600557 6.7473412245798423 0
          4.3330278411359187 6.755185668463068 0
          4.3335417356940455 6.7630428987527837 0
          4.3338896987725741 6.770909222999772 0
          4.3340745413495121 6.778781068944677 0
          4.3340980862383445 6.786655049557182 0
          4.333962054042102 6.7945278908084727 0
          4.3336690090481325 6.8023964533954127 0
          4.3332204451416123 6.8102576855063415 0
          4.3326177068224272 6.818108604066186 0
          4.3318630204514541 6.825946378556548 0
          4.3309574956105337 6.8337681646734163 0
          4.3299021062729519 6.8415711466112885 0
          4.3286976879632215 6.8493525229720031 0
          4.32734591321094 6.8571096630713919 0
          4.3258473279474563 6.8648397887111141 0
          4.3242023338167375 6.8725400928279985 0
          4.3224122148750119 6.8802079647643595 0
          4.3204770741799514 6.8878405343624927 0
          4.318396869880706 6.8954348576195272 0
          4.3161724623131184 6.9029882092662964 0
          4.3138034847521087 6.9104974818175631 0
          4.3112894584400925 6.9179594536282281 0
          4.3086308296341223 6.9253711452899012 0
          4.3058268351398947 6.9327290816265608 0
          4.3028765827890192 6.9400296129517116 0
          4.2997790573041028 6.9472688959715487 0
          4.2965341899752509 6.9544433548235229 0
          4.2931406938058938 6.961548729518392 0
          4.2895982860945017 6.9685810591329345 0
          4.285905493309202 6.9755356073093235 0
          4.2820607619127511 6.9824073353235594 0
          4.2780635468186317 6.9891915100855551 0
          4.2739121221355951 6.9958824426279858 0
          4.269605833880175 7.0024747821121798 0
          4.2651428992361256 7.0089621101447825 0
          4.2605215408954971 7.0153375637607036 0
          4.2557410720024471 7.0215946105149847 0
          4.250800813121093 7.0277262920889543 0
          4.2456990807186736 7.0337243053120302 0
          4.2404353764795415 7.0395807051602297 0
          4.235008229198912 7.045285986904279 0
          4.2294174427340039 7.0508310250312718 0
          4.2236630253443961 7.0562060789563894 0
          4.2177441746407176 7.0613995284028057 0
          4.2116615028609807 7.0664001297420951 0
          4.2054159802452578 7.0711958121838139 0
          4.1990090547752397 7.0757736564776907 0
          4.1924426918818449 7.0801197442051134 0
          4.1859792876012687 7.0846178549978429 0
          4.1796447057143711 7.0892960714415727 0
          4.1734618916289428 7.0941736399389201 0
          4.1674470635258682 7.0992575542407801 0
          4.1616328947761989 7.1045705535100128 0
          4.1560940916895595 7.1101710116621177 0
          4.1508789803285708 7.1160736633626787 0
          4.1459606686024655 7.1222254214676788 0
          4.1411779361102239 7.128482657185728 0
        </DataArray>
      </Points>
      <Cells>
        <DataArray type="Int32" Name="connectivity" format="ascii">
          0 1 1 2 2 3 3 4 4 5 5 6 6 7 7 8 8 9 9 10 10 11 11 12 12 13 13 14 14 15 15 16 16 17 17 18 18 19 19 20 20 21 21 22 22 23 23 24 24 25 25 26 26 27 27 28 28 29 29 30 30 31 31 32 32 33 33 34 34 35 35 36 36 37 37 38 38 39 39 40 40 41 41 42 42 43 43 44 44 45 45 46 46 47 47 48 48 49 49 50 50 51 51 52 52 53 53 54 54 55 55 56 56 57 57 58 58 59 59 60 60 61 61 62 62 63 63 64 64 65 65 66 66 67 67 68 68 69 69 70 70 71 71 72 72 73 73 74 74 75 75 76 76 77 77 78 78 79 79 80 80 81 81 82 82 83 83 84 84 85 85 86 86 87 87 88 88 89 89 90 90 91 91 92 92 93 93 94 94 95 95 96 96 97 97 98 98 99 99 100 100 101 101 102 102 103 103 104 104 105 105 106 106 107 107 108 108 109 109 110 110 111 111 112 112 113 113 114 114 115 115 116 116 117 117 118 118 119 119 120 120 121 121 122 122 123 123 124 124 125 125 126 126 127 
        </DataArray>
        <DataArray type="Int32" Name="offsets" format="ascii">
          2 4 6 8 10 12 14 16 18 20 22 24 26 28 30 32 34 36 38 40 42 44 46 48 50 52 54 56 58 60 62 64 66 68 70 72 74 76 78 80 82 84 86 88 90 92 94 96 98 100 102 104 106 108 110 112 114 116 118 120 122 124 126 128 130 132 134 136 138 140 142 144 146 148 150 152 154 156 158 160 162 164 166 168 170 172 174 176 178 180 182 184 186 188 190 192 194 196 198 200 202 204 206 208 210 212 214 216 218 220 222 224 226 228 230 232 234 236 238 240 242 244 246 248 250 252 254 
        </DataArray>
        <DataArray type="Int32" Name="types" format="ascii">
          3 3 3 3 3 3 3 3 3 3 3 3 3 3 3 3 3 3 3 3 3 3 3 3 3 3 3 3 3 3 3 3 3 3 3 3 3 3 3 3 3 3 3 3 3 3 3 3 3 3 3 3 3 3 3 3 3 3 3 3 3 3 3 3 3 3 3 3 3 3 3 3 3 3 3 3 3 3 3 3 3 3 3 3 3 3 3 3 3 3 3 3 3 3 3 3 3 3 3 3 3 3 3 3 3 3 3 3 3 3 3 3 3 3 3 3 3 3 3 3 3 3 3 3 3 3 3         </DataArray>
      </Cells>
    </Piece>
  </UnstructuredGrid>
</VTKFile>
