<?xml version="1.0"?>
<VTKFile type="UnstructuredGrid" version="0.1" byte_order="LittleEndian">
  <UnstructuredGrid>
    <Piece NumberOfPoints="128" NumberOfCells="127">
      <PointData Scalars="W">
        <DataArray type="Float32" Name="W" NumberOfComponents="2">
          0 0 -0.14238060581458314 -0.024401313821616467 -0.24619759869494467 -0.042587161179820969 -0.30730174299809776 -0.053857401389765858 -0.34400437033403114 -0.061213712227410046 -0.3639048475498301 -0.065818640156858371 -0.37087954465574385 -0.068207174498697135 -0.36722573600906033 -0.068657997757552644 -0.35444538229074124 -0.06732982998288671 -0.3337075432286547 -0.064344820723973878 -0.30585029801767366 -0.059787566859157079 -0.27153958588116484 -0.053733974428011207 -0.23133263331828405 -0.046263038983644457 -0.18576403468836841 -0.037473705947366591 -0.13534604023541505 -0.027484742554689464 -0.0805232066216338 -0.016424591851903762 -0.021614587491705559 -0.0044180415053353969 0.04102378469017956 0.0083819661741167048 0.10706950437542896 0.021810043454185551 0.17627453223069603 0.035698171782834243 0.24837543664659043 0.049858847945344995 0.32310377938902091 0.064089019429128855 0.40022393501249121 0.078179546022474594 0.47955222924339991 0.091920352841455957 0.56084745660644841 0.10508088703228227 0.64397015636301924 0.11744234914618476 0.72872322237425913 0.12876877407543202 0.81483055749065481 0.13880722409846369 0.90208813717162861 0.14731744687607748 0.99066134155780161 0.15411628262989224 1.0800216124180062 0.15890846026476674 1.1699769104397761 0.16146149823244951 1.260309424413472 0.16154581924474393 1.3508268949930653 0.15894380107875083 1.4412885848819528 0.15344228345808641 1.5314695592765111 0.14484311737017849 1.621037328049389 0.13295425238633157 1.7097900344774428 0.11761455402812925 1.7975277530576033 0.098678693020993913 1.8838612220350432 0.076011392908883577 1.9684476554366535 0.049509712690566879 2.0509579916513969 0.019100733918170017 0.27457046034743127 4.2009728807577917e-05 0.63380304863935943 -0.0021706117528098499 0.70456436160401925 -0.0061270734368830161 1.0714982594149609 -0.016814864163659328 1.135226007318191 -0.027687149964706077 1.5045411397197443 -0.05235702634692263 1.5646399267439186 -0.073408286661247463 1.935124542504171 -0.1175792130279729 1.9856244654869106 -0.15152367977704562 2.3604629879251564 -0.220969513743587 2.4041605349242836 -0.27089368332132358 2.7721613996939682 -0.37016422372466257 3.8663738727961023 -0.6206874390096454 12.327549840286094 -2.813772017248986 12.033031739398247 -4.0441110694689515 11.613318859824897 -5.2481233479906928 11.074883107444492 -6.4157775654916511 10.413638015953889 -7.5310669666860734 9.6383771152007416 -8.5841132999795668 8.7546782086100414 -9.5639640683139042 0.69474747010355231 -0.84894369090414534 0.70620084028616092 -0.87852955686857903 0.71625284018337432 -0.90763021377353303 0.72985609191987066 -0.94266712704476963 0.74402981513682998 -0.98015248075531769 0.75847686984822971 -1.0198940550189268 0.77291674441269387 -1.061707353478051 0.7870825216905748 -1.105411274070812 0.80072252088287177 -1.1508298379595365 0.81359975630412906 -1.1977909678041749 0.82549157495091774 -1.246125386875492 0.69260109500528355 -1.0707057699639422 0.70703647856233665 -1.1179363948643659 0.72245905113898523 -1.1696421951533746 0.73413202455341597 -1.2183545605248256 0.74418219042428213 -1.2674665019079503 0.75253573375755323 -1.3169228537211113 0.63488689016277378 -1.1402679425528479 0.64466159310422599 -1.1868567269377284 0.65265887742061257 -1.2331853054568995 0.65878202531259611 -1.2790764679038091 0.66295008097697716 -1.3243539669838176 0.55898136804517629 -1.147621358079254 0.56403447280831509 -1.1886617081124964 0.56725122915866744 -1.2286120209972713 0.56856409789857332 -1.2672298929543397 0.56795030207563657 -1.3043324576232018 0.47265832969806393 -1.1170139319226873 0.47445515527188242 -1.1522176855187216 0.47296039508792581 -1.1817418403962843 0.46974633749913725 -1.209032166484493 0.38353165672538808 -1.0152407086897561 0.38117898176821657 -1.0359335663426184 0.37860313326211348 -1.0574515813890197 0.373224315336246 -1.0723831746764261 0.29497204726377912 -0.87014864603460895 0.29031252153231318 -0.87728678067593624 0.28437554176661256 -0.8807998700353038 0.2771805378100668 -0.8803775473455332 0.26880651560540697 -0.87587048171667159 0.19842422749244218 -0.6614276438042952 0.19033938378848378 -0.64709302751136644 0.18110308218811896 -0.62779759091405984 0.16969972491233229 -0.59956593942627723 0.15818495356869472 -0.56925143917178733 0.14548497238523164 -0.53283344254286868 0.13157473207495871 -0.48992211534224317 0.11636012556478693 -0.43991710464886302 0.15334404998791043 -0.58972612038691241 0.13380249452577686 -0.52431299028733014 0.11296431136185374 -0.45008408016292306 0.1433395990394265 -0.58140194253731814 0.11798270100793669 -0.48763282103978456 0.1436870214744155 -0.60558473222921438 -0.0032434848511640195 0.013817242836122717 -0.04693884669743037 0.19918785850475706 -0.09060633063230307 0.38049320355255861 -0.1447726158230771 0.59744913260497323 -0.20349814803833138 0.81920874021680112 -0.21114348823122384 0.82634544318631475 -0.3018893678914058 1.1432148727265568 -0.35414033400793155 1.2891348922440911 -0.42640001223257251 1.4859214986010514 -0.52434792101607353 1.7399877583728218 -0.35093185460576332 1.1167842188010206 0 0
        </DataArray>
        <DataArray type="Float32" Name="u" NumberOfComponents="1">
          0 0.007874015748031496 0.015748031496062992 0.023622047244094488 0.031496062992125984 0.03937007874015748 0.047244094488188976 0.055118110236220472 0.062992125984251968 0.070866141732283464 0.07874015748031496 0.086614173228346455 0.094488188976377951 0.10236220472440945 0.11023622047244094 0.11811023622047244 0.12598425196850394 0.13385826771653545 0.14173228346456693 0.14960629921259844 0.15748031496062992 0.16535433070866143 0.17322834645669291 0.18110236220472442 0.1889763779527559 0.19685039370078741 0.20472440944881889 0.2125984251968504 0.22047244094488189 0.2283464566929134 0.23622047244094488 0.24409448818897639 0.25196850393700787 0.25984251968503935 0.26771653543307089 0.27559055118110237 0.28346456692913385 0.29133858267716534 0.29921259842519687 0.30708661417322836 0.31496062992125984 0.32283464566929132 0.33070866141732286 0.33858267716535434 0.34645669291338582 0.3543307086614173 0.36220472440944884 0.37007874015748032 0.37795275590551181 0.38582677165354329 0.39370078740157483 0.40157480314960631 0.40944881889763779 0.41732283464566927 0.42519685039370081 0.43307086614173229 0.44094488188976377 0.44881889763779526 0.45669291338582679 0.46456692913385828 0.47244094488188976 0.48031496062992124 0.48818897637795278 0.49606299212598426 0.50393700787401574 0.51181102362204722 0.51968503937007871 0.52755905511811019 0.53543307086614178 0.54330708661417326 0.55118110236220474 0.55905511811023623 0.56692913385826771 0.57480314960629919 0.58267716535433067 0.59055118110236215 0.59842519685039375 0.60629921259842523 0.61417322834645671 0.62204724409448819 0.62992125984251968 0.63779527559055116 0.64566929133858264 0.65354330708661412 0.66141732283464572 0.6692913385826772 0.67716535433070868 0.68503937007874016 0.69291338582677164 0.70078740157480313 0.70866141732283461 0.71653543307086609 0.72440944881889768 0.73228346456692917 0.74015748031496065 0.74803149606299213 0.75590551181102361 0.76377952755905509 0.77165354330708658 0.77952755905511806 0.78740157480314965 0.79527559055118113 0.80314960629921262 0.8110236220472441 0.81889763779527558 0.82677165354330706 0.83464566929133854 0.84251968503937003 0.85039370078740162 0.8582677165354331 0.86614173228346458 0.87401574803149606 0.88188976377952755 0.88976377952755903 0.89763779527559051 0.90551181102362199 0.91338582677165359 0.92125984251968507 0.92913385826771655 0.93700787401574803 0.94488188976377951 0.952755905511811 0.96062992125984248 0.96850393700787396 0.97637795275590555 0.98425196850393704 0.99212598425196852 1
        </DataArray>
      </PointData>
      <CellData Scalars="P">
        <DataArray type="Float32" Name="P" NumberOfComponents="1">
          -0.023428512888299804 -0.070123260775211568 -0.1165588179663075 -0.16283064870232919 -0.20909669059830324 -0.25553169725067176 -0.30230225439768299 -0.34955017698156904 -0.39738063156469083 -0.44585383366231984 -0.49497913986449993 -0.54471116690659582 -0.59494770356211124 -0.64552979080610584 -0.69624352495825526 -0.74682260936194955 -0.79695050135676437 -0.84626564801634108 -0.89436656438247353 -0.94081629261838218 -0.98514924516912272 -1.0268785647670313 -1.0655027747669399 -1.1005116764900065 -1.1313963005408985 -1.1576530196307204 -1.1787937717744275 -1.1943582091627951 -1.2039191757557584 -1.2070714087862437 -1.2034748972758429 -1.1928466283091528 -1.1749699317543671 -1.1497006814716646 -1.116977610191541 -1.0768285533321424 -1.0293841925086278 -0.97487616760342544 -0.91364262599462032 -0.84614612469169892 -0.77297543629318366 -0.69484861128985476 -0.71656405470946205 -0.71486427405643982 -0.7099617336680184 -0.68371391377067992 -0.65666123717956071 -0.61182055948361513 -0.56880852318616626 -0.51241615283976183 -0.4609717301546381 -0.40081050709446786 -0.34844297466622332 -0.29253853777804267 -0.21222652872452766 0.082118346262309294 0.34319296476024796 0.58271313936669178 0.81271087177695489 1.0449828435354005 1.2911383350132311 1.5622471424746129 1.5475524635482421 1.537776272299727 1.5325999643142365 1.5319855906862365 1.5357429593805527 1.5436626541737455 1.5555131747581932 1.5710393310713404 1.5899620404904489 1.6119792226127201 1.6367676495690318 1.6514561080268675 1.6682375636372235 1.6869556129019887 1.7070320117408713 1.7280731144499866 1.7496820187717879 1.7603809100771748 1.7711866510904228 1.7816942569653507 1.7914995742662192 1.8002051939953445 1.7988985240249316 1.7962378266108607 1.7918589455954625 1.7854139566180109 1.7765789892070021 1.7593029382923049 1.7397488303855666 1.7175630061686542 1.6925207459400555 1.6611271594457726 1.6271284754131892 1.5904175575219923 1.5508468986653867 1.5073738603195186 1.4615168358800188 1.4132650687316202 1.3626509710966428 1.3097511657696168 1.2562258589930717 1.2011562182050846 1.1447074647394078 1.0871354799137318 1.0286433521167069 0.96951410694870244 0.91006471442979531 0.85064533270926956 0.78714742264414239 0.72423019718885928 0.66235679893468657 0.5968143276221799 0.5331605004915102 0.46645345650098974 0.41467420247361686 0.36712080556727422 0.323407104445747 0.2838484495412506 0.24783734096844529 0.21062112615644765 0.17688492849922688 0.14262096138691294 0.1072805283541214 0.069733349602167427 0.024363602640867656
        </DataArray>
      </CellData>
      <Points>
        <DataArray type="Float32" NumberOfComponents="3" format="ascii">
          4.5662994815495308 9.6345518961054903 0
          4.5649735827596345 9.6423149786471463 0
          4.5636388610146961 9.6500765014735457 0
          4.5622888816045526 9.6578353133356813 0
          4.5609198579296963 9.6655907000410952 0
          4.5595295162085678 9.6733421951694538 0
          4.5581166242707667 9.6810895066183669 0
          4.5566807511674465 9.6888324826554442 0
          4.5552221246860221 9.6965710941273073 0
          4.5537415381793913 9.7043054242472113 0
          4.552240278041598 9.7120356607340224 0
          4.5507200717151299 9.7197620903349407 0
          4.54918304638172 9.7274850939259334 0
          4.54763169440466 9.7352051414498977 0
          4.5460688401856215 9.7429227856410687 0
          4.5444976084185189 9.7506386545396477 0
          4.5429213965520496 9.7583534434229282 0
          4.5413438550444551 9.7660679069774101 0
          4.5397688653353949 9.773782849737783 0
          4.5382005199120306 9.7814991157655502 0
          4.5366431069943243 9.7892175781746307 0
          4.5351010942736147 9.7969391274578186 0
          4.5335791123476286 9.8046646588571598 0
          4.5320819401959342 9.8123950593637854 0
          4.5306144938816582 9.8201311946657626 0
          4.5291818116908056 9.8278738948313169 0
          4.5277890455837921 9.8356239407248207 0
          4.5264414490762945 9.8433820493615816 0
          4.5251443602249868 9.8511488582124525 0
          4.5239031890838719 9.8589249102962757 0
          4.5227234280685105 9.8667106428129294 0
          4.5216106192929528 9.8745063688243224 0
          4.5205703427731994 9.8823122628274938 0
          4.5196082030328686 9.8901283465058931 0
          4.5187298172934929 9.8979544752194535 0
          4.517940800658141 9.9057903247680805 0
          4.5172467522744011 9.913635379082514 0
          4.5166532348250774 9.9214889182892421 0
          4.516165762119889 9.9293500086885196 0
          4.5157897868065415 9.9372174937081663 0
          4.5155306763348362 9.9450899854760184 0
          4.51539369180054 9.952965858393668 0
          4.5153839676378196 9.9608432445682329 0
          4.5153912811361732 9.9687204621296495 0
          4.5154379209742448 9.9765973637063787 0
          4.5155282749728629 9.9844737113602289 0
          4.5156851056846987 9.9923488328782923 0
          4.5159123624210791 10.000222062053313 0
          4.5162329514490365 10.008091860651096 0
          4.516650594979394 10.015956931633042 0
          4.5171882678817914 10.023814528785032 0
          4.5178490952109387 10.031662556370712 0
          4.5186563181739485 10.039496702410206 0
          4.5196126385109565 10.047313881222539 0
          4.520740870038324 10.055107934021844 0
          4.52210885759016 10.062863298667093 0
          4.5242414335429313 10.07044436961694 0
          4.5271204037531882 10.077774842946578 0
          4.5307198141022758 10.084780033270803 0
          4.5350063493986159 10.091387494241342 0
          4.5399390773363475 10.09752801061099 0
          4.5454699908797265 10.103136210060295 0
          4.5515443510618425 10.108151242290903 0
          4.5576617266156152 10.113113524472039 0
          4.5638228264691403 10.11802122352816 0
          4.5700282728574528 10.122872536848185 0
          4.5762789082189474 10.127665293573425 0
          4.5825756104328272 10.132397171162351 0
          4.5889192743798004 10.137065707320357 0
          4.5953107945379355 10.141668311449298 0
          4.6017510484255082 10.146202275885498 0
          4.6082408809924189 10.150664786818842 0
          4.6147810899265052 10.155052934968721 0
          4.6213724118521569 10.159363726085084 0
          4.6280066129428237 10.163608051229639 0
          4.6346845877101996 10.167782983786017 0
          4.6414072917871518 10.171885319672414 0
          4.6481754484550386 10.175912040779931 0
          4.6549896804237152 10.179860104411969 0
          4.6618505052694656 10.183726446700121 0
          4.6687506344017011 10.187522031485141 0
          4.6756906735737536 10.191243972042265 0
          4.682671118412312 10.194889397957336 0
          4.6896923484442414 10.198455466112435 0
          4.6967546221030663 10.201939371609956 0
          4.7038514987214208 10.205352080201809 0
          4.7109832916655439 10.208691049178695 0
          4.7181502006032758 10.211953803571571 0
          4.7253523073484356 10.215137951176057 0
          4.7325895744810147 10.21824119388163 0
          4.7398560991587697 10.221275151559455 0
          4.7471519934673081 10.22423764331807 0
          4.754477165756831 10.227126840592616 0
          4.7618314180850314 10.229941053428769 0
          4.7692094101797977 10.232692301340018 0
          4.7766109976977766 10.235379303033458 0
          4.7840360227726464 10.238000726120669 0
          4.7914841542104085 10.240555646688135 0
          4.798950545310035 10.243056606365371 0
          4.8064349097759695 10.245503164121093 0
          4.8139368825752538 10.247895103743339 0
          4.8214560211833772 10.250232453071591 0
          4.8289918105231671 10.252515493244189 0
          4.8365398921271865 10.254757521667804 0
          4.8440997693342815 10.256959428595675 0
          4.8516708747063868 10.259122411915579 0
          4.8592525070911643 10.261248223624603 0
          4.866843959115954 10.263338744928289 0
          4.8744444506528746 10.265396235534732 0
          4.8820531273010745 10.267423357844153 0
          4.8896690545832202 10.26942321419984 0
          4.8972945380206259 10.271386518866425 0
          4.9049283775916113 10.273317329832636 0
          4.9125692938111136 10.275220251899237 0
          4.9202191881579855 10.277087146140099 0
          4.9278765041631631 10.278923829337945 0
          4.93554285858756 10.280722991370896 0
          4.9432091446781907 10.282523041398834 0
          4.9508726681637762 10.284335478657813 0
          4.9585307374899203 10.286171551788582 0
          4.9661800096861519 10.288044721888841 0
          4.9738168597168428 10.289968750215916 0
          4.9814408413954556 10.291944091021033 0
          4.9890463431910339 10.293990409354329 0
          4.9966301511227531 10.29611677245015 0
          5.0041878111099161 10.298335406784664 0
          5.0117132771401423 10.300662097742229 0
          5.0192174046248859 10.303058222085937 0
        </DataArray>
      </Points>
      <Cells>
        <DataArray type="Int32" Name="connectivity" format="ascii">
          0 1 1 2 2 3 3 4 4 5 5 6 6 7 7 8 8 9 9 10 10 11 11 12 12 13 13 14 14 15 15 16 16 17 17 18 18 19 19 20 20 21 21 22 22 23 23 24 24 25 25 26 26 27 27 28 28 29 29 30 30 31 31 32 32 33 33 34 34 35 35 36 36 37 37 38 38 39 39 40 40 41 41 42 42 43 43 44 44 45 45 46 46 47 47 48 48 49 49 50 50 51 51 52 52 53 53 54 54 55 55 56 56 57 57 58 58 59 59 60 60 61 61 62 62 63 63 64 64 65 65 66 66 67 67 68 68 69 69 70 70 71 71 72 72 73 73 74 74 75 75 76 76 77 77 78 78 79 79 80 80 81 81 82 82 83 83 84 84 85 85 86 86 87 87 88 88 89 89 90 90 91 91 92 92 93 93 94 94 95 95 96 96 97 97 98 98 99 99 100 100 101 101 102 102 103 103 104 104 105 105 106 106 107 107 108 108 109 109 110 110 111 111 112 112 113 113 114 114 115 115 116 116 117 117 118 118 119 119 120 120 121 121 122 122 123 123 124 124 125 125 126 126 127 
        </DataArray>
        <DataArray type="Int32" Name="offsets" format="ascii">
          2 4 6 8 10 12 14 16 18 20 22 24 26 28 30 32 34 36 38 40 42 44 46 48 50 52 54 56 58 60 62 64 66 68 70 72 74 76 78 80 82 84 86 88 90 92 94 96 98 100 102 104 106 108 110 112 114 116 118 120 122 124 126 128 130 132 134 136 138 140 142 144 146 148 150 152 154 156 158 160 162 164 166 168 170 172 174 176 178 180 182 184 186 188 190 192 194 196 198 200 202 204 206 208 210 212 214 216 218 220 222 224 226 228 230 232 234 236 238 240 242 244 246 248 250 252 254 
        </DataArray>
        <DataArray type="Int32" Name="types" format="ascii">
          3 3 3 3 3 3 3 3 3 3 3 3 3 3 3 3 3 3 3 3 3 3 3 3 3 3 3 3 3 3 3 3 3 3 3 3 3 3 3 3 3 3 3 3 3 3 3 3 3 3 3 3 3 3 3 3 3 3 3 3 3 3 3 3 3 3 3 3 3 3 3 3 3 3 3 3 3 3 3 3 3 3 3 3 3 3 3 3 3 3 3 3 3 3 3 3 3 3 3 3 3 3 3 3 3 3 3 3 3 3 3 3 3 3 3 3 3 3 3 3 3 3 3 3 3 3 3         </DataArray>
      </Cells>
    </Piece>
  </UnstructuredGrid>
</VTKFile>
