<?xml version="1.0"?>
<VTKFile type="UnstructuredGrid" version="0.1" byte_order="LittleEndian">
  <UnstructuredGrid>
    <Piece NumberOfPoints="128" NumberOfCells="127">
      <PointData Scalars="W">
        <DataArray type="Float32" Name="W" NumberOfComponents="2">
          0 0 0.074534574945394241 -0.02068323214976971 0.058602594920041141 -0.016296474438168465 0.032288581267898062 -0.0089918772242341526 -0.0023399248542317671 0.0006519419950129934 -0.044198224642320059 0.012305302241019144 -0.092351182143366212 0.025656128871313244 -0.14603471521088493 0.040416809737833154 -0.20460012001328118 0.056310143255768469 -0.26759771797417758 0.073093747392722133 -0.33460683632923582 0.090514289400634107 -0.40527749623428344 0.10832049055466293 -0.47933596563071856 0.12626567906877256 -0.55658823275974989 0.14410913611618312 -0.63690227074823569 0.1616112665110469 -0.72016096723333001 0.17852145325655022 -0.80615912732393669 0.19455412499355509 -0.89480075459963004 0.2094393322287787 -0.98597568205540986 0.22289203223371085 -1.0795221598520304 0.2346058717791949 -1.1753060932648922 0.24427341298488756 -1.2732122033033164 0.2515842893199558 -1.3730811038003183 0.25621374443681572 -1.4747159746515335 0.25782782520393083 -1.5779578237194047 0.25609919511019108 -1.6825300398609202 0.25068333533735238 -1.7881876833454082 0.24124853996736106 -1.8947470887984306 0.22747816439096791 -2.0019197248908798 0.20904986456204394 -2.1090131854419369 0.18562247163367943 -2.2160022842951461 0.15694604397512002 -2.3224766049991241 0.12274778258184409 -2.4280059093022106 0.082782486801364102 -2.532091333655353 0.036836137102767466 -2.6342308285722509 -0.015265245131338152 -2.7338638618221736 -0.073651149659843804 -2.8305047313646958 -0.13840493737850773 -2.9234710103645978 -0.20954923119582547 -3.0120472787062389 -0.28703366399019375 -3.0956695533545893 -0.37075030512510854 -3.1736931142581994 -0.46051565290250518 -3.2454433145538215 -0.55606393113264529 4.8793630480247945 0.8033714428283294 4.7739331479802569 0.59874300569326533 4.7324680884344961 0.41333355274750777 4.6122626387595638 0.23187321059626367 4.5424042510189384 0.064326832108588666 4.4091361649105334 -0.093007394992008954 4.3288202126451516 -0.24061039350611499 4.2449772593385164 -0.38042160509655487 4.1573517884716269 -0.51248192480712995 4.0647848798659263 -0.63657474979335027 3.9707506622604898 -0.75319472518216568 3.8733197823801189 -0.86206714475482082 3.6541620354170425 -0.93098896146765431 3.4278893743897259 -0.97959314879224324 3.2647497635075009 -1.0309425583743892 3.0303845301287113 -1.0446618104838203 2.8642981317435159 -1.0671154625390218 2.6217982071310764 -1.0465035079147029 2.4542413742714477 -1.0416607793372243 2.2041178509307406 -0.98799726179383929 2.0356693039237288 -0.95777298787770548 1.7763969185677253 -0.87219905983307777 1.5123511477179681 -0.76991689461175483 1.4368483633603526 -0.75529160654964489 1.2660065501400397 -0.68509758821078415 1.1939935699060678 -0.66328129567626937 1.1243314247534089 -0.64008050498516367 0.9552084025442904 -0.55581000966469296 0.88764718515109386 -0.52654561729669103 0.82244984317175995 -0.4966358596247934 0.65572290739671191 -0.40207793183455515 0.5935215966026417 -0.36867388713504201 0.53110793467830497 -0.333759879079774 0.36580331094528151 -0.2320148813299453 0.30727737048918591 -0.19625026504972606 0.24839453916809232 -0.15955330352864985 0.19046167146883403 -0.12289436329919687 0.027942293896748276 -0.01807014383765753 -0.027872696938621839 0.018025148789329495 -0.082720069587316605 0.053433904735107611 -0.13513778142347083 0.087098320385845474 -0.29891943760855616 0.19179975783917938 -0.35097467139787814 0.2236988872228011 -0.40186307678306499 0.25415388691659879 -0.56576561285697891 0.35425800517641104 -0.6148242904192599 0.3803070477361799 -0.66248348247972288 0.40440082152337664 -0.70703971698948787 0.42550411181081621 -0.75143230915761783 0.44540178111296863 -0.9159530327309241 0.53353917228806569 -0.95574640551160006 0.54588335503214325 -0.9947937346690765 0.55660565715900312 -1.031220567648063 0.56470488289080079 -1.1919584035313076 0.63739208722441376 -1.2236048282360792 0.63749011435841829 -1.25171157940329 0.63479315475901366 -1.4096735385399308 0.69426687764486694 -1.430881867991231 0.68274777209007131 -1.4453331343373044 0.667575722529413 -1.4562629257920976 0.65057924309293913 -1.6049600489658715 0.69181728175404833 -1.6031218712785889 0.66510493304504115 -1.5960980246261083 0.63688917630980291 -1.7302467733250013 0.66237118840701059 -1.7084920959367473 0.62587359819161503 -1.8330122496601968 0.64086270805194023 -1.7931154630138169 0.59671099618520096 -1.7397578181427855 0.55082406095230207 -1.8397009845705881 0.55274793664711253 -1.9362994741459703 0.54921957717661363 -1.8451515389941258 0.49270377856826947 -1.9168301630722329 0.4805443291103782 -1.7924109601223537 0.4208189523353687 -1.8346640110485894 0.40247803175190444 -1.8625704662156861 0.37963549662835966 -1.1008170487449047 0.21075933667123364 -0.80670458092287478 0.14806518072660396 -0.72781503983649698 0.12896974404635167 -0.54922253611847338 0.094432664805162228 -0.38482403561556811 0.064688297391333971 -0.10963833941157716 0.018207433782884211 0.035290957307566741 -0.0058499364279692521 0.066266767783290395 -0.01101220080763741 0.13780844745570961 -0.023016450025774734 -0.034346498222497933 0.0057510660474945985 0 0
        </DataArray>
        <DataArray type="Float32" Name="u" NumberOfComponents="1">
          0 0.007874015748031496 0.015748031496062992 0.023622047244094488 0.031496062992125984 0.03937007874015748 0.047244094488188976 0.055118110236220472 0.062992125984251968 0.070866141732283464 0.07874015748031496 0.086614173228346455 0.094488188976377951 0.10236220472440945 0.11023622047244094 0.11811023622047244 0.12598425196850394 0.13385826771653545 0.14173228346456693 0.14960629921259844 0.15748031496062992 0.16535433070866143 0.17322834645669291 0.18110236220472442 0.1889763779527559 0.19685039370078741 0.20472440944881889 0.2125984251968504 0.22047244094488189 0.2283464566929134 0.23622047244094488 0.24409448818897639 0.25196850393700787 0.25984251968503935 0.26771653543307089 0.27559055118110237 0.28346456692913385 0.29133858267716534 0.29921259842519687 0.30708661417322836 0.31496062992125984 0.32283464566929132 0.33070866141732286 0.33858267716535434 0.34645669291338582 0.3543307086614173 0.36220472440944884 0.37007874015748032 0.37795275590551181 0.38582677165354329 0.39370078740157483 0.40157480314960631 0.40944881889763779 0.41732283464566927 0.42519685039370081 0.43307086614173229 0.44094488188976377 0.44881889763779526 0.45669291338582679 0.46456692913385828 0.47244094488188976 0.48031496062992124 0.48818897637795278 0.49606299212598426 0.50393700787401574 0.51181102362204722 0.51968503937007871 0.52755905511811019 0.53543307086614178 0.54330708661417326 0.55118110236220474 0.55905511811023623 0.56692913385826771 0.57480314960629919 0.58267716535433067 0.59055118110236215 0.59842519685039375 0.60629921259842523 0.61417322834645671 0.62204724409448819 0.62992125984251968 0.63779527559055116 0.64566929133858264 0.65354330708661412 0.66141732283464572 0.6692913385826772 0.67716535433070868 0.68503937007874016 0.69291338582677164 0.70078740157480313 0.70866141732283461 0.71653543307086609 0.72440944881889768 0.73228346456692917 0.74015748031496065 0.74803149606299213 0.75590551181102361 0.76377952755905509 0.77165354330708658 0.77952755905511806 0.78740157480314965 0.79527559055118113 0.80314960629921262 0.8110236220472441 0.81889763779527558 0.82677165354330706 0.83464566929133854 0.84251968503937003 0.85039370078740162 0.8582677165354331 0.86614173228346458 0.87401574803149606 0.88188976377952755 0.88976377952755903 0.89763779527559051 0.90551181102362199 0.91338582677165359 0.92125984251968507 0.92913385826771655 0.93700787401574803 0.94488188976377951 0.952755905511811 0.96062992125984248 0.96850393700787396 0.97637795275590555 0.98425196850393704 0.99212598425196852 1
        </DataArray>
      </PointData>
      <CellData Scalars="P">
        <DataArray type="Float32" Name="P" NumberOfComponents="1">
          0.01389672198257926 0.041683151487925146 0.069445505642168018 0.097186818543723852 0.12494197107607581 0.15278634443949157 0.18084151841038484 0.20927885600770421 0.23832119579866012 0.26824395553347402 0.29937421015512877 0.33208898700251843 0.36681295643365758 0.40401581448442986 0.4442091928683215 0.48794231325127818 0.53579425610141684 0.58837001552987844 0.64629337991006441 0.71019765256774237 0.78071806656300624 0.85848373747019613 0.94410668930431063 1.0381702036189511 1.1412201104339816 1.2537483146651038 1.3761828684319819 1.5088801881437535 1.6521082258326141 1.8060103448875326 1.9706334852752836 2.1458947423481187 2.331569348372347 2.5272760495489806 2.7324675818033661 2.946418497652374 3.1682234954801656 3.3967783787458745 3.6307741893075955 3.868706426968374 4.1088702810512432 4.349362038815741 4.0579900538671634 3.774753275230573 3.4944682464350629 3.2216728934270269 2.9523061950960607 2.6901046541838043 2.4309887276982027 2.1747565044078243 1.921292465641252 1.6706324277936049 1.4226332687282313 1.1773525072531845 0.94375751898003346 0.72274121327376495 0.50990346843801104 0.31115174447708577 0.12168010953919121 -0.051892306816092859 -0.21497544415478534 -0.36020344750861688 -0.49367719927971154 -0.60717338814530875 -0.69958964102193288 -0.78652234632582929 -0.85946849594008012 -0.92664969418529575 -0.98806417579587857 -1.0349174372260606 -1.0758415993760126 -1.1109344762180633 -1.1314641923219966 -1.1463526597647369 -1.1555877370709555 -1.1507569148324852 -1.1408342280098624 -1.1259127503197146 -1.1062222578838794 -1.0740784867532092 -1.0379574275624202 -0.99819033943954671 -0.95522915806989284 -0.90209436339617743 -0.84675135699360982 -0.78963466143888184 -0.72476795316114928 -0.65939690344524604 -0.59400238754079959 -0.52913575942324298 -0.46519383311322121 -0.39794321062446975 -0.33304607459672891 -0.27088578527454177 -0.21187680337890183 -0.15346327987190689 -0.099418344743672116 -0.050040737996874488 -0.0040491463331450523 0.036329245404936455 0.070979214813004982 0.099893613539117104 0.122628107054326 0.13933972766902814 0.15029171593019364 0.15382423807857484 0.15197268989685933 0.14229632419002669 0.12813269141914729 0.11041739785342251 0.085679822496271665 0.054089449128664542 0.021619740803194329 -0.016099182792847173 -0.052076995172691078 -0.091071923740259228 -0.13188438754835352 -0.14675850071668911 -0.15132125144492983 -0.15255179895593876 -0.14707154049151533 -0.13553510959922344 -0.11554147376641842 -0.091526167307460174 -0.066480490039841397 -0.039935708167608018 -0.014043291881176744
        </DataArray>
      </CellData>
      <Points>
        <DataArray type="Float32" NumberOfComponents="3" format="ascii">
          3.8892200733054927 8.7887924573049983 0
          3.8913233780791967 8.7963809440729488 0
          3.8934313022605176 8.8039681396349998 0
          3.8955428564832295 8.8115543108879706 0
          3.8976564079739422 8.8191399069768561 0
          3.8997698086321471 8.8267255228969557 0
          3.9018804622490855 8.8343118788379424 0
          3.9039853824786688 8.841899800719732 0
          3.9060812402117349 8.8494902022888855 0
          3.9081644037997512 8.8570840678830027 0
          3.9102309669385233 8.8646824373671116 0
          3.9122767747529119 8.8722863903992408 0
          3.9142974454967709 8.8798970308288929 0
          3.9162883875233865 8.8875154713851057 0
          3.918244811310875 8.8951428187366268 0
          3.9201617376421733 8.9027801586240489 0
          3.9220340048581366 8.9104285403103738 0
          3.9238562815697882 8.9180889588657344 0
          3.9256230725976136 8.925762338421988 0
          3.9273287257872682 8.9334495144924251 0
          3.9289674420213299 8.941151214970926 0
          3.9305332835141868 8.9488680410643244 0
          3.9320201809382969 8.9566004480435115 0
          3.9334219432831987 8.9643487251023366 0
          3.9347322700336327 8.9721129746461195 0
          3.9359447610006209 8.9798930919899345 0
          3.9370529334434901 8.9876887439908337 0
          3.9380502372269515 8.9954993484735102 0
          3.9389300661781235 9.0033240545884752 0
          3.9396857759444956 9.0111617228153786 0
          3.9403107268917097 9.0190109037974011 0
          3.9407982856335044 9.0268698228297453 0
          3.9411418504462077 9.0347363629287933 0
          3.9413348779128072 9.0426080496099726 0
          3.9413709138228632 9.0504820375963568 0
          3.9412436242714679 9.058355100007244 0
          3.9409468303861734 9.0662236203024964 0
          3.9404745384167672 9.07408358708431 0
          3.9398209820252208 9.0819305926624025 0
          3.9389806666249085 9.0897598361424485 0
          3.9379484043342927 9.0975661300816864 0
          3.9367193539407834 9.105343911828534 0
          3.9352890627249058 9.113087259962338 0
          3.9341613151513903 9.1208804381668074 0
          3.9333295759866145 9.1287107580187605 0
          3.9327912759600427 9.1365667240620283 0
          3.9325389635206838 9.1444370841154132 0
          3.9325683088053967 9.1523114497804183 0
          3.9328710500740529 9.1601800645097811 0
          3.9334422088993541 9.1680337762755801 0
          3.9342765881614197 9.1758639161144746 0
          3.9353687561979607 9.1836622955759033 0
          3.9367129749278051 9.1914212201151528 0
          3.9383034152750316 9.1991334584923372 0
          3.9401340375177365 9.2067922597522038 0
          3.9421912529364631 9.2143933471491835 0
          3.944461031059626 9.2219337034860409 0
          3.9469332562685415 9.2294101428132027 0
          3.9495933953489519 9.236821810704221 0
          3.95243114920599 9.2441673127906867 0
          3.9554314792995418 9.2514479231616846 0
          3.9585839946780128 9.2586639399616715 0
          3.9618731832824019 9.2658186865443355 0
          3.9652885983322084 9.2729140349150718 0
          3.9688141598587596 9.2799552869822239 0
          3.9724334916911976 9.2869487806932476 0
          3.9761419113284653 9.293895423230758 0
          3.9799288232626311 9.3007995651731132 0
          3.9837897614979361 9.3076625596558955 0
          3.9877204058800295 9.3144858456633894 0
          3.9917102677338421 9.3212746466877903 0
          3.9957551573452355 9.3280307777412013 0
          3.9998510316639484 9.3347560938575587 0
          4.003987551015328 9.3414564565604206 0
          4.0081608583826096 9.3481339376460983 0
          4.0123670836553034 9.3547907025028305 0
          4.0165959759344014 9.3614330585081067 0
          4.0208439065217574 9.3680632239609611 0
          4.0251072246787709 9.3746834749595465 0
          4.0293823386735896 9.3812960852665661 0
          4.0336591712565326 9.3879075536480467 0
          4.0379342624209071 9.394520119165195 0
          4.0422042122675181 9.4011359783725208 0
          4.0464657716623265 9.4077572197601906 0
          4.0507087861566111 9.4143903352194354 0
          4.0549300295200359 9.421037304181878 0
          4.0591263479703228 9.4277000166716363 0
          4.0632875804608224 9.4343846804842109 0
          4.0674106870750615 9.4410929130610146 0
          4.0714927147398443 9.4478262108186133 0
          4.0755309028313933 9.454585884987365 0
          4.0795225009197074 9.4613731722835368 0
          4.0834573107535883 9.4681935407325692 0
          4.0873328673152365 9.4750477596656904 0
          4.0911467518290978 9.4819364981830851 0
          4.0948967079605296 9.4888602630976475 0
          4.0985727724667678 9.4958235671413593 0
          4.1021729854022624 9.5028264223007302 0
          4.1056956061590499 9.5098686676925723 0
          4.1091308435055875 9.5169539994677912 0
          4.1124773842551434 9.5240817112608749 0
          4.1157343339261532 9.5312508706563097 0
          4.1189010161400734 9.5384604326192477 0
          4.1219682130836395 9.5457129667109744 0
          4.1249360393310006 9.5530068271481046 0
          4.1278049306772333 9.5603402754415576 0
          4.1305665698479368 9.5677149077805979 0
          4.1332223050608183 9.5751284739380509 0
          4.1357644145794277 9.5825819224064546 0
          4.1381953704212329 9.5900725301336838 0
          4.1405184790303631 9.5975974667067963 0
          4.1427275402494859 9.6051568743598601 0
          4.1448165599147613 9.6127505595852725 0
          4.1467911860217619 9.6203750358100226 0
          4.1486469677376991 9.6280295772599622 0
          4.1503916159475205 9.6357104996296759 0
          4.1520225031012119 9.6434166967635289 0
          4.153537890057466 9.6511467856743014 0
          4.1549850293117272 9.6588902745016973 0
          4.1563821671259591 9.6666432868125582 0
          4.1577341983251914 9.6744046679457636 0
          4.1590522064272122 9.6821723015318781 0
          4.1603463970209313 9.6899443736026818 0
          4.1616338558451238 9.6977180275444113 0
          4.1629235883624034 9.7054918155601317 0
          4.1642175297149615 9.7132654835041166 0
          4.1655201378515319 9.7210383661046382 0
          4.1668207425998514 9.728812383787476 0
        </DataArray>
      </Points>
      <Cells>
        <DataArray type="Int32" Name="connectivity" format="ascii">
          0 1 1 2 2 3 3 4 4 5 5 6 6 7 7 8 8 9 9 10 10 11 11 12 12 13 13 14 14 15 15 16 16 17 17 18 18 19 19 20 20 21 21 22 22 23 23 24 24 25 25 26 26 27 27 28 28 29 29 30 30 31 31 32 32 33 33 34 34 35 35 36 36 37 37 38 38 39 39 40 40 41 41 42 42 43 43 44 44 45 45 46 46 47 47 48 48 49 49 50 50 51 51 52 52 53 53 54 54 55 55 56 56 57 57 58 58 59 59 60 60 61 61 62 62 63 63 64 64 65 65 66 66 67 67 68 68 69 69 70 70 71 71 72 72 73 73 74 74 75 75 76 76 77 77 78 78 79 79 80 80 81 81 82 82 83 83 84 84 85 85 86 86 87 87 88 88 89 89 90 90 91 91 92 92 93 93 94 94 95 95 96 96 97 97 98 98 99 99 100 100 101 101 102 102 103 103 104 104 105 105 106 106 107 107 108 108 109 109 110 110 111 111 112 112 113 113 114 114 115 115 116 116 117 117 118 118 119 119 120 120 121 121 122 122 123 123 124 124 125 125 126 126 127 
        </DataArray>
        <DataArray type="Int32" Name="offsets" format="ascii">
          2 4 6 8 10 12 14 16 18 20 22 24 26 28 30 32 34 36 38 40 42 44 46 48 50 52 54 56 58 60 62 64 66 68 70 72 74 76 78 80 82 84 86 88 90 92 94 96 98 100 102 104 106 108 110 112 114 116 118 120 122 124 126 128 130 132 134 136 138 140 142 144 146 148 150 152 154 156 158 160 162 164 166 168 170 172 174 176 178 180 182 184 186 188 190 192 194 196 198 200 202 204 206 208 210 212 214 216 218 220 222 224 226 228 230 232 234 236 238 240 242 244 246 248 250 252 254 
        </DataArray>
        <DataArray type="Int32" Name="types" format="ascii">
          3 3 3 3 3 3 3 3 3 3 3 3 3 3 3 3 3 3 3 3 3 3 3 3 3 3 3 3 3 3 3 3 3 3 3 3 3 3 3 3 3 3 3 3 3 3 3 3 3 3 3 3 3 3 3 3 3 3 3 3 3 3 3 3 3 3 3 3 3 3 3 3 3 3 3 3 3 3 3 3 3 3 3 3 3 3 3 3 3 3 3 3 3 3 3 3 3 3 3 3 3 3 3 3 3 3 3 3 3 3 3 3 3 3 3 3 3 3 3 3 3 3 3 3 3 3 3         </DataArray>
      </Cells>
    </Piece>
  </UnstructuredGrid>
</VTKFile>
