<?xml version="1.0"?>
<VTKFile type="UnstructuredGrid" version="0.1" byte_order="LittleEndian">
  <UnstructuredGrid>
    <Piece NumberOfPoints="128" NumberOfCells="127">
      <PointData Scalars="W">
        <DataArray type="Float32" Name="W" NumberOfComponents="2">
          0 0 0.20149882166093694 0.25302229253858238 0.3007033505962779 0.37514980970955342 0.37999593681775096 0.4699449573328367 0.44946574684757068 0.55001191131861948 0.51325286151964855 0.62047528315298695 0.57368154000113281 0.68416293398334016 0.63220772557159333 0.7427940145198324 0.68983455689334261 0.79749938397063269 0.74724233061718115 0.84899185639140251 0.80496546336548391 0.897783841670173 0.86341853255026291 0.94422327075878054 0.92292212059474776 0.98852941256242488 0.98369445686783785 1.0307919977153646 1.0458919222184435 1.0710232611977901 1.1096441004409561 1.1091993263583237 1.1751162971493494 1.1453227598853239 1.2423806287725623 1.1792950215429503 1.3115008894777651 1.2110068249176136 1.382553223755822 1.2403568797453923 1.4555880385894113 1.2672164149968714 1.5306187787697414 1.2914230890704703 1.6076607877733611 1.3128173677721706 1.6867314924438239 1.3312415426026742 1.7677919410182723 1.3464947448923041 1.8508665812994494 1.3584276071151216 1.9359150841717645 1.3668419400664529 2.0228244175604324 1.3714951866458689 2.1115255502968062 1.3721857664525323 2.2022375325527999 1.3688927224768035 2.2945845277665353 1.3612139282023201 2.3884664135857809 1.3489453425128741 2.4837519075991112 1.3318723910230499 2.5803249918361049 1.3097966119937867 2.6780337119071027 1.2825075588455468 2.7767193485413069 1.2497999384188208 2.8761097210001871 1.2114295362777154 2.9760570685510581 1.1672209236759854 3.0764170977581804 1.1170016806658216 3.1768824852396613 1.0605464832407103 3.2771560013478269 0.99765381106095385 3.3769514785731478 0.92814238310104191 1.7179628007394845 0.43400033608508043 2.6570893877591533 0.62135402473785806 13.386987686631876 2.2358249421929561 13.662637100588515 0.79430427946010018 13.784471525037683 -0.69327613201811167 13.741079117262222 -2.2103729211340837 13.535111119415815 -3.7413708798161704 13.153320818220067 -5.2668919131363721 12.592375006854452 -6.7661091868565846 -4.6829866934335236 2.7315118766923705 -4.6941448110754438 2.478332235665929 -4.680654690476727 2.2289382144300118 -2.0144057061222793 0.88831982779180452 -1.9064971663797936 0.8027033256050774 -1.6999013993960499 0.68515631725525739 -1.5171850575768722 0.58760301417491856 -1.3887262349152054 0.51838060202028557 -1.1576891572230588 0.41809730397584977 -1.0209759445536586 0.35824226855796287 -0.77986764221073068 0.26708135060740062 -0.53336706856308891 0.17941224892068877 -0.39197130851499001 0.13017511266620707 -0.029713157510913035 0.0098101433424384425 0.11171068736897513 -0.036924727359334476 0.25117761262532984 -0.083443768991867714 0.38644229978406347 -0.12951724857148694 0.52023543945590689 -0.17654227211371229 0.76686835790961039 -0.26482885913895421 0.89227294411114932 -0.31506575682814447 1.012854778461433 -0.36674791712986765 1.1281045793429585 -0.41997970954787789 1.2359860460969267 -0.47420411908693977 1.3394000763382443 -0.53068051566532914 1.436259266684941 -0.58873608291265944 1.5261900228941285 -0.64825587435145893 1.6088464514033873 -0.70906296580533279 1.6839152599620477 -0.7709199982976207 1.8658940678063096 -0.88931411890078982 1.9231382477698735 -0.95608191078320637 1.970262918292407 -1.0221364650146791 2.0104086489984847 -1.0886591203101996 2.0418133533860043 -1.1543098238189755 2.064440739883235 -1.2185259959631378 2.0783072988783697 -1.2807139699132828 2.0834504854127589 -1.3402343133042556 2.080069618189178 -1.3964998921692129 2.0683123963904189 -1.4488497201961588 1.9461079543262743 -1.4203958575252293 1.9213571853748648 -1.4590321011254175 1.8891714218829012 -1.4919477472546121 1.8499440285068549 -1.5186097604092008 1.8025531244216015 -1.5371724372780167 1.7503098782238342 -1.5495485794837287 1.6921845878675512 -1.5540856939647412 1.6285679813778378 -1.5502977949339758 1.5598844447650304 -1.5377644456385451 1.4865263745269239 -1.5160804671084891 1.4089505848454995 -1.4849655159787565 1.3275076666480177 -1.4441033867908231 1.2412268554108032 -1.3917542355660004 1.1530700036466091 -1.3306655736111552 1.0618926026425524 -1.2591917058749049 0.96790716713343539 -1.1772596791480467 0.8698952050864428 -1.0831375529023792 0.7704352947645946 -0.97995438407637903 0.66809182446098014 -0.86608597512558738 0.56134273084159059 -0.73980803363428538 0.5284431094781642 -0.70686072612786577 0.41438936784877761 -0.56155199942102529 0.2947789024523696 -0.40343184076684169 0.24866710727729005 -0.34293373684005218 0.11752509130628302 -0.16291884229435152 0.060507739370499608 -0.084090991217049951 -0.085521648950092913 0.11881198506310067 -0.15698313311751089 0.21734167069457189 -0.23326457262348055 0.32117720980250519 -0.40961512103894288 0.5589296333517636 -0.76891778432763569 1.0322276847962961 -1.0034467127416291 1.3149972142770234 -1.1935012090270418 1.5190877647313035 -1.4060964665759315 1.7305269926886355 -1.6784371349567691 1.9872260548432785 -2.0553526955201398 2.3254215002871059 -2.5066310405536378 2.6878357835028908 -2.3691144007658398 2.403002685102023 0 0
        </DataArray>
        <DataArray type="Float32" Name="u" NumberOfComponents="1">
          0 0.007874015748031496 0.015748031496062992 0.023622047244094488 0.031496062992125984 0.03937007874015748 0.047244094488188976 0.055118110236220472 0.062992125984251968 0.070866141732283464 0.07874015748031496 0.086614173228346455 0.094488188976377951 0.10236220472440945 0.11023622047244094 0.11811023622047244 0.12598425196850394 0.13385826771653545 0.14173228346456693 0.14960629921259844 0.15748031496062992 0.16535433070866143 0.17322834645669291 0.18110236220472442 0.1889763779527559 0.19685039370078741 0.20472440944881889 0.2125984251968504 0.22047244094488189 0.2283464566929134 0.23622047244094488 0.24409448818897639 0.25196850393700787 0.25984251968503935 0.26771653543307089 0.27559055118110237 0.28346456692913385 0.29133858267716534 0.29921259842519687 0.30708661417322836 0.31496062992125984 0.32283464566929132 0.33070866141732286 0.33858267716535434 0.34645669291338582 0.3543307086614173 0.36220472440944884 0.37007874015748032 0.37795275590551181 0.38582677165354329 0.39370078740157483 0.40157480314960631 0.40944881889763779 0.41732283464566927 0.42519685039370081 0.43307086614173229 0.44094488188976377 0.44881889763779526 0.45669291338582679 0.46456692913385828 0.47244094488188976 0.48031496062992124 0.48818897637795278 0.49606299212598426 0.50393700787401574 0.51181102362204722 0.51968503937007871 0.52755905511811019 0.53543307086614178 0.54330708661417326 0.55118110236220474 0.55905511811023623 0.56692913385826771 0.57480314960629919 0.58267716535433067 0.59055118110236215 0.59842519685039375 0.60629921259842523 0.61417322834645671 0.62204724409448819 0.62992125984251968 0.63779527559055116 0.64566929133858264 0.65354330708661412 0.66141732283464572 0.6692913385826772 0.67716535433070868 0.68503937007874016 0.69291338582677164 0.70078740157480313 0.70866141732283461 0.71653543307086609 0.72440944881889768 0.73228346456692917 0.74015748031496065 0.74803149606299213 0.75590551181102361 0.76377952755905509 0.77165354330708658 0.77952755905511806 0.78740157480314965 0.79527559055118113 0.80314960629921262 0.8110236220472441 0.81889763779527558 0.82677165354330706 0.83464566929133854 0.84251968503937003 0.85039370078740162 0.8582677165354331 0.86614173228346458 0.87401574803149606 0.88188976377952755 0.88976377952755903 0.89763779527559051 0.90551181102362199 0.91338582677165359 0.92125984251968507 0.92913385826771655 0.93700787401574803 0.94488188976377951 0.952755905511811 0.96062992125984248 0.96850393700787396 0.97637795275590555 0.98425196850393704 0.99212598425196852 1
        </DataArray>
      </PointData>
      <CellData Scalars="P">
        <DataArray type="Float32" Name="P" NumberOfComponents="1">
          -0.036206575584446905 -0.10830527069148535 -0.17978520728840608 -0.25042766218103318 -0.32003454057820163 -0.38841229415316136 -0.45536403616481735 -0.52068572414460579 -0.58416399468678204 -0.6455758087751915 -0.70468777627992885 -0.76125619816429568 -0.8150275799500718 -0.86574015345038746 -0.91312529916890295 -0.95690856955744763 -0.99680912046284653 -1.0325427347996698 -1.0638228961347009 -1.0903611771824053 -1.1118688414444922 -1.1280590357596092 -1.1386476891204154 -1.1433543101382018 -1.1419051956988659 -1.1340316638000725 -1.1194736019032341 -1.0979837767381673 -1.0693268457762122 -1.033265692372874 -0.98959125897374833 -0.93811007229203236 -0.87864653094109257 -0.81104269687213359 -0.73516075765791622 -0.65088388696785771 -0.55812321280889354 -0.45681115805330252 -0.34690136056119664 -0.22837854838285665 -0.10125829305320065 0.034413444573928968 0.085432224628357936 0.19916454756329341 0.97145631119353759 1.7728832722186798 2.6178760270719024 3.5197330057172285 4.491034765266007 5.5418775735799537 6.6798782481117618 6.1119800705459379 5.4890141399533512 4.8238518592379362 4.4972282687608311 4.1733574571511909 3.8706410343572801 3.5890675801201648 3.3227944699173984 3.0904711071218527 2.8784875050213103 2.7051579534390782 2.5720860425799699 2.4621665354760651 2.4112858187577926 2.3826832961452573 2.375316325378487 2.3875827480358627 2.4181311442532585 2.4823240740014825 2.5603401332461448 2.6499477260055913 2.748801539172629 2.8542818790199065 2.9641636749845075 3.0759937660977159 3.187348311221748 3.2958645578670307 3.3992713852764269 3.5054016010510871 3.6012830420249138 3.6849974623100556 3.7550796615538937 3.8101557881442476 3.8490917039058448 3.8710048024546988 3.8752712710273562 3.861534275009701 3.8297007642205161 3.7792986561145647 3.7122831525837205 3.629232720669874 3.5309498431474298 3.4184844986213156 3.2930132432517092 3.1559067290501659 3.0086835764337265 2.8529847306179317 2.6905487633579033 2.5231795624643536 2.3527229553838196 2.1811446705756015 2.0101839703116031 1.8416399756311799 1.6772376662697464 1.5187358056332287 1.367521354813348 1.2249641351005891 1.0924069690644331 0.96272338728108131 0.84487163971942414 0.73966272987581749 0.63953994819090565 0.55292403523251377 0.47207411919107917 0.40468265391543606 0.34296922840293803 0.28647791972460801 0.24139120095349681 0.2167952736467316 0.19961411080432681 0.18363903974904447 0.16650947274227054 0.14655913450463973 0.12184939711049672 0.087887850823985175 0.034615574578383809
        </DataArray>
      </CellData>
      <Points>
        <DataArray type="Float32" NumberOfComponents="3" format="ascii">
          4.2486495852377759 9.3876147615238565 0
          4.242483846304542 9.3925121395307798 0
          4.2363305958120661 9.3974252087796675 0
          4.2301959814884897 9.4023615437838117 0
          4.2240849166258609 9.4073270244739327 0
          4.2180017053965599 9.4123266178736724 0
          4.2119502995062978 9.4173646958947881 0
          4.205934442322671 9.4224452106887497 0
          4.1999577591904593 9.4275718012404841 0
          4.1940238196826405 9.432747863480186 0
          4.1881361798389536 9.4379765944724223 0
          4.182298415361096 9.4432610241783159 0
          4.1765141473775502 9.4486040370189421 0
          4.1707870623796159 9.454008385460817 0
          4.1651209258097532 9.459476695568922 0
          4.1595195918132752 9.4650114677538006 0
          4.1539870113265707 9.4706150752784843 0
          4.1485272423785533 9.4762897644040631 0
          4.1431444546117131 9.4820376482643187 0
          4.1378429332850537 9.4878607000722113 0
          4.1326270840409389 9.4937607468203247 0
          4.1275014360739473 9.4997394612750909 0
          4.1224706430054763 9.5057983518867832 0
          4.1175394838739434 9.5119387528710817 0
          4.1127128642521438 9.5181618144012674 0
          4.1079958138657631 9.5244684901208512 0
          4.1033934881418848 9.5308595278476176 0
          4.0989111657377055 9.5373354572467743 0
          4.0945542415570468 9.5438965747490538 0
          4.0903282224933211 9.5505429310073726 0
          4.0862387410410346 9.5572743295556091 0
          4.0822915320026247 9.5640903018197072 0
          4.0784924262949227 9.5709900944131849 0
          4.0748473428196945 9.5779726557765095 0
          4.0713622812783203 9.5850366238136004 0
          4.0680433127541047 9.5921803127823946 0
          4.0648965698719133 9.5994017005029466 0
          4.0619282299144714 9.6066984131482656 0
          4.0591445056555946 9.6140677143012567 0
          4.0565516364063159 9.6215064941969644 0
          4.0541558689413772 9.6290112556802434 0
          4.0519634390485244 9.6365781016389569 0
          4.0499805537611691 9.6442027236918495 0
          4.0481043866253783 9.6518539047991574 0
          4.046393208351617 9.6595432292706374 0
          4.0455127344944017 9.6673714582966088 0
          4.0454801229862891 9.6752491450414677 0
          4.0463029888370006 9.6830839744143393 0
          4.0479786943225742 9.6907817893692219 0
          4.0504945116735485 9.6982475589976129 0
          4.0538267991657477 9.7053865816078986 0
          4.0579407924472806 9.7121057774834689 0
          4.0617641762782917 9.7189946681831554 0
          4.065296238967421 9.7260375450850791 0
          4.0685377991211329 9.7332189323693736 0
          4.0716542795061494 9.7404554061862481 0
          4.0746523802665857 9.7477416458958288 0
          4.0775449251643963 9.7550703421660216 0
          4.0803432566005542 9.7624354295931628 0
          4.0830553504663758 9.7698326062841847 0
          4.0856955472035974 9.7772556355708353 0
          4.088272334509278 9.7847007979330787 0
          4.0908006769435401 9.79216242394169 0
          4.0932958729565687 9.7996350614980816 0
          4.0957666991690989 9.8071156519493048 0
          4.0982356339704245 9.8145967079157135 0
          4.1007114538044336 9.8220753276862176 0
          4.1032028129079992 9.8295486234889573 0
          4.1057181040213617 9.8370137358561607 0
          4.1082656277976124 9.8444677467199693 0
          4.1108606834468784 9.8519051713031569 0
          4.1135110492342841 9.8593228939336335 0
          4.1162242035199599 9.8667177098825789 0
          4.1190072932261135 9.8740863189028634 0
          4.1218670076102164 9.8814253598814261 0
          4.1248097582538881 9.8887313325310942 0
          4.1278415496761003 9.8960006392364726 0
          4.1309679562497115 9.9032295921872997 0
          4.1341941008422225 9.9104144243517815 0
          4.1375246354835085 9.9175513041930312 0
          4.1409708408534218 9.924632889138417 0
          4.1445362628887441 9.9316550449988714 0
          4.1482238200557884 9.9386136824674729 0
          4.1520359981812307 9.945504683676754 0
          4.1559747413021375 9.9523239853374754 0
          4.160041449518566 9.9590676135746499 0
          4.1642369801131638 9.9657317206834595 0
          4.1685616499638414 9.972312624716908 0
          4.1730152479828053 9.9788068458208237 0
          4.1775970443460766 9.985211147146881 0
          4.1822994631253136 9.9915273045553281 0
          4.1871209702563563 9.997752931016981 0
          4.1920595713730879 10.003885994206946 0
          4.1971128362209136 10.009924849484223 0
          4.2022778291268343 10.015868354283276 0
          4.2075513142658965 10.021715749407877 0
          4.2129296918243444 10.027466761460889 0
          4.2184090222046775 10.033121632928543 0
          4.2239850523068467 10.038681148208997 0
          4.2296532398165789 10.044146658705285 0
          4.235408781478708 10.049520100189731 0
          4.2412466347773137 10.05480401240481 0
          4.2471614576761594 10.060001646936469 0
          4.2531477921939187 10.065116796900041 0
          4.2591999933688998 10.07015389901032 0
          4.2653122423570826 10.075118038157795 0
          4.2714784707754916 10.080015054842409 0
          4.2776925205331739 10.084851351279831 0
          4.2839480547147621 10.089633992187624 0
          4.2902384630718684 10.094370811784978 0
          4.2965617168917589 10.099063859087035 0
          4.302910753168586 10.103722148938092 0
          4.3092781638534872 10.108355490991094 0
          4.3156611016640261 10.112967644039934 0
          4.3220514429897774 10.117569776783993 0
          4.32844566456117 10.12216678632868 0
          4.3348347185251619 10.126771262787063 0
          4.3412141856466802 10.131389327460681 0
          4.3475793481710152 10.136027432349197 0
          4.3539192754704219 10.140700333713596 0
          4.360211674996938 10.145437393233063 0
          4.3664420001743185 10.150256163320385 0
          4.3725984658600909 10.155169321607691 0
          4.3786678868853901 10.160190004903296 0
          4.3846333670390383 10.165334160194234 0
          4.3904715140243278 10.170622791907315 0
          4.3961543163984977 10.176078411935929 0
          4.4016903459422938 10.181683417256357 0
        </DataArray>
      </Points>
      <Cells>
        <DataArray type="Int32" Name="connectivity" format="ascii">
          0 1 1 2 2 3 3 4 4 5 5 6 6 7 7 8 8 9 9 10 10 11 11 12 12 13 13 14 14 15 15 16 16 17 17 18 18 19 19 20 20 21 21 22 22 23 23 24 24 25 25 26 26 27 27 28 28 29 29 30 30 31 31 32 32 33 33 34 34 35 35 36 36 37 37 38 38 39 39 40 40 41 41 42 42 43 43 44 44 45 45 46 46 47 47 48 48 49 49 50 50 51 51 52 52 53 53 54 54 55 55 56 56 57 57 58 58 59 59 60 60 61 61 62 62 63 63 64 64 65 65 66 66 67 67 68 68 69 69 70 70 71 71 72 72 73 73 74 74 75 75 76 76 77 77 78 78 79 79 80 80 81 81 82 82 83 83 84 84 85 85 86 86 87 87 88 88 89 89 90 90 91 91 92 92 93 93 94 94 95 95 96 96 97 97 98 98 99 99 100 100 101 101 102 102 103 103 104 104 105 105 106 106 107 107 108 108 109 109 110 110 111 111 112 112 113 113 114 114 115 115 116 116 117 117 118 118 119 119 120 120 121 121 122 122 123 123 124 124 125 125 126 126 127 
        </DataArray>
        <DataArray type="Int32" Name="offsets" format="ascii">
          2 4 6 8 10 12 14 16 18 20 22 24 26 28 30 32 34 36 38 40 42 44 46 48 50 52 54 56 58 60 62 64 66 68 70 72 74 76 78 80 82 84 86 88 90 92 94 96 98 100 102 104 106 108 110 112 114 116 118 120 122 124 126 128 130 132 134 136 138 140 142 144 146 148 150 152 154 156 158 160 162 164 166 168 170 172 174 176 178 180 182 184 186 188 190 192 194 196 198 200 202 204 206 208 210 212 214 216 218 220 222 224 226 228 230 232 234 236 238 240 242 244 246 248 250 252 254 
        </DataArray>
        <DataArray type="Int32" Name="types" format="ascii">
          3 3 3 3 3 3 3 3 3 3 3 3 3 3 3 3 3 3 3 3 3 3 3 3 3 3 3 3 3 3 3 3 3 3 3 3 3 3 3 3 3 3 3 3 3 3 3 3 3 3 3 3 3 3 3 3 3 3 3 3 3 3 3 3 3 3 3 3 3 3 3 3 3 3 3 3 3 3 3 3 3 3 3 3 3 3 3 3 3 3 3 3 3 3 3 3 3 3 3 3 3 3 3 3 3 3 3 3 3 3 3 3 3 3 3 3 3 3 3 3 3 3 3 3 3 3 3         </DataArray>
      </Cells>
    </Piece>
  </UnstructuredGrid>
</VTKFile>
