<?xml version="1.0"?>
<VTKFile type="UnstructuredGrid" version="0.1" byte_order="LittleEndian">
  <UnstructuredGrid>
    <Piece NumberOfPoints="128" NumberOfCells="127">
      <PointData Scalars="W">
        <DataArray type="Float32" Name="W" NumberOfComponents="2">
          0 0 0.27186699231376593 0.33611363968470648 0.46312757722701459 0.57801107221265469 0.60745234604414644 0.76875059250777278 0.72559911459290571 0.93451943908966861 0.82583923227270473 1.0859319103966139 0.91218170989295499 1.2282663041297313 0.98681022630314297 1.3644908367334694 1.0510290791611543 1.4964411596903191 1.1057031640524309 1.6253795928917221 1.1513751347340118 1.7521319750075983 1.1884092594941005 1.877272157505721 1.2170422515536801 2.0011829336822586 1.2374624399923313 2.1241732666546191 1.2498264969146167 2.246511616216385 1.2542228835086802 2.3683633535692401 1.2506632626689969 2.4897572166846369 1.2391620256847233 2.6107245296807413 1.2197061012456649 2.7312442385334585 1.1922467721193031 2.8512140966226105 1.156731512454245 2.970511050695273 1.1131053640116415 3.0889969833185549 1.0612905685492866 3.2064585277987523 1.001202036506095 3.3226274260338879 0.93278021731457361 3.4372834236121506 0.85593434541555846 3.5500557980836058 0.7706015575517503 3.6606012528626088 0.67674181510910514 3.7686202504694513 0.57430643800004666 3.8737029586484195 0.46322630921846381 3.9750325237618909 0.34356347938544196 4.0724835717330645 0.21533727141110842 4.1655452096659369 0.078597855405940512 4.253663789421438 -0.066566927117857042 4.3362573522533312 -0.22002903744426286 4.4127529947682707 -0.38161479828549899 4.4825123272275098 -0.55111214912549789 4.5449860170529606 -0.72824277110665869 4.5994504958252875 -0.91266220372865148 4.6451984028681004 -1.1039915140711325 4.6816638267344377 -1.3017897837023731 4.7082296887245842 -1.5055511497051364 4.7242688414736929 1.4101112124964279 -4.404792405740527 1.2290704745470225 -4.3777242855009089 1.0541200695137314 -4.3409993209274838 0.88577150481931055 -4.2954371119096324 0.72636495672087897 -4.2544460642411188 0.57156447990824299 -4.194190286183936 0.42515211816528958 -4.1373875648440039 0.28548771245758942 -4.0753044455333702 0.15241995948943388 -3.9986932243243527 0.027018093001436084 -3.9279659116694652 -0.09160745329794534 -3.8539449937865582 -0.20423418050997844 -3.7871655857475832 -0.31021262773684749 -3.7082919276473922 -0.40724386109425426 -3.6077290119735768 -0.49622687376804858 -3.5051192509048064 -0.57942285521495718 -3.4122525973955149 -0.65604700370951374 -3.3189871734244201 -0.72345336786413716 -3.2134943196377996 -0.78704432397610047 -3.1203411737447806 -0.84491939770581059 -3.02789361422042 -0.893016071161577 -2.9227414044748046 -0.93950710263314896 -2.8320932832361252 -0.97580669413128185 -2.7284292261773051 -1.0120445237795872 -2.6404824229587445 -1.0506599277948903 -2.5700678320541663 -1.0866726539171792 -2.5019575286299789 -1.1129197119078598 -2.4204425213442624 -1.1437760203184022 -2.3570915143973448 -1.1727068944612522 -2.2958702416817922 -1.191606202861212 -2.2216183216571244 -1.2171965256796631 -2.1657571504187536 -1.2416494226857093 -2.1121230932963182 -1.2556596723486095 -2.0455221703606363 -1.2783715429761529 -1.9973687078298941 -1.300674542099266 -1.9514348358590636 -1.3229303175745648 -1.9079149829565791 -1.3343831358636591 -1.8518241719987156 -1.3566791797212487 -1.8134158312292223 -1.3795971792501005 -1.7772950932469118 -1.4035305628894763 -1.7436273811288048 -1.4157468210208561 -1.6970783843974431 -1.4412906376412238 -1.6678944003387306 -1.4682965074027994 -1.6407320264929131 -1.4971592003788263 -1.6157081593013072 -1.5276962665642553 -1.592305346158305 -1.5459903906573518 -1.5564773195321491 -1.5805635093414641 -1.5371089765916197 -1.6174064927154628 -1.5190358518449654 -1.6569214814528324 -1.5023262372553918 -1.6993139928415366 -1.48683210913676 -1.7290042710196927 -1.4593074450662595 -1.7773079962479637 -1.4463178085868058 -1.8291316711207186 -1.4340373840284393 -1.8849502370834295 -1.4224454591081137 -1.944494924887737 -1.4109317416386309 -1.9904671086646497 -1.3873038831676023 -2.0584627170109795 -1.3764386115766043 -2.1308955590051948 -1.3648686435348418 -2.2082887655111083 -1.3524530354354938 -2.2718727877674314 -1.327966067996893 -2.3595349413949127 -1.3135441049982481 -2.4529939082896992 -1.2971144101054641 -2.5321611870576031 -1.2682625060880892 -2.6376614817512349 -1.2472380960663778 -2.7502251831347313 -1.2227720556725912 -2.8474451643740952 -1.1850193495184767 -2.9737251256849406 -1.1522607773123408 -3.0848789033403405 -1.1058624448585781 -3.2267115733210345 -1.0618908450475626 -3.3775087681432199 -1.0103740107350108 -3.5123131232410008 -0.94366326729527172 -3.6812901910245577 -0.87460611981783776 -3.8344740977775187 -0.78904901561247232 -3.9969384576874321 -0.69251695970957516 -4.1694034089506635 -0.58335163843864457 -4.3817666931941917 -0.46216006223376049 -4.6934249915820319 -0.325359726905526 2.2349683264731608 0.13314359687633637 3.0515976386217534 0.24579441154658682 3.2443287652398158 0.34280879937703129 3.9422833769113184 0.53058286932042198 5.1588265682134589 0.88587739304446056 6.9271571500753817 1.5390558229591582 6.6236717367854068 1.8593806519367357 3.3951442620095178 1.1056837241620487 0 0
        </DataArray>
        <DataArray type="Float32" Name="u" NumberOfComponents="1">
          0 0.007874015748031496 0.015748031496062992 0.023622047244094488 0.031496062992125984 0.03937007874015748 0.047244094488188976 0.055118110236220472 0.062992125984251968 0.070866141732283464 0.07874015748031496 0.086614173228346455 0.094488188976377951 0.10236220472440945 0.11023622047244094 0.11811023622047244 0.12598425196850394 0.13385826771653545 0.14173228346456693 0.14960629921259844 0.15748031496062992 0.16535433070866143 0.17322834645669291 0.18110236220472442 0.1889763779527559 0.19685039370078741 0.20472440944881889 0.2125984251968504 0.22047244094488189 0.2283464566929134 0.23622047244094488 0.24409448818897639 0.25196850393700787 0.25984251968503935 0.26771653543307089 0.27559055118110237 0.28346456692913385 0.29133858267716534 0.29921259842519687 0.30708661417322836 0.31496062992125984 0.32283464566929132 0.33070866141732286 0.33858267716535434 0.34645669291338582 0.3543307086614173 0.36220472440944884 0.37007874015748032 0.37795275590551181 0.38582677165354329 0.39370078740157483 0.40157480314960631 0.40944881889763779 0.41732283464566927 0.42519685039370081 0.43307086614173229 0.44094488188976377 0.44881889763779526 0.45669291338582679 0.46456692913385828 0.47244094488188976 0.48031496062992124 0.48818897637795278 0.49606299212598426 0.50393700787401574 0.51181102362204722 0.51968503937007871 0.52755905511811019 0.53543307086614178 0.54330708661417326 0.55118110236220474 0.55905511811023623 0.56692913385826771 0.57480314960629919 0.58267716535433067 0.59055118110236215 0.59842519685039375 0.60629921259842523 0.61417322834645671 0.62204724409448819 0.62992125984251968 0.63779527559055116 0.64566929133858264 0.65354330708661412 0.66141732283464572 0.6692913385826772 0.67716535433070868 0.68503937007874016 0.69291338582677164 0.70078740157480313 0.70866141732283461 0.71653543307086609 0.72440944881889768 0.73228346456692917 0.74015748031496065 0.74803149606299213 0.75590551181102361 0.76377952755905509 0.77165354330708658 0.77952755905511806 0.78740157480314965 0.79527559055118113 0.80314960629921262 0.8110236220472441 0.81889763779527558 0.82677165354330706 0.83464566929133854 0.84251968503937003 0.85039370078740162 0.8582677165354331 0.86614173228346458 0.87401574803149606 0.88188976377952755 0.88976377952755903 0.89763779527559051 0.90551181102362199 0.91338582677165359 0.92125984251968507 0.92913385826771655 0.93700787401574803 0.94488188976377951 0.952755905511811 0.96062992125984248 0.96850393700787396 0.97637795275590555 0.98425196850393704 0.99212598425196852 1
        </DataArray>
      </PointData>
      <CellData Scalars="P">
        <DataArray type="Float32" Name="P" NumberOfComponents="1">
          -0.0063681643174717919 -0.018151560499045132 -0.027662714200633189 -0.034073658810329963 -0.036736677998522024 -0.035102349489001282 -0.028686809737151594 -0.017055500086889021 0.00018663007746478203 0.023402736859471977 0.052927621231051228 0.089070753023624369 0.13211794410256505 0.18233426133277417 0.23996696593645936 0.30524577276335479 0.37838092136523505 0.45956500044084853 0.54897264467714935 0.64675867998032865 0.75305806658817886 0.86798590922945795 0.99163483741715897 1.1240728375494342 1.2653453339049379 1.4154685951226489 1.5744306363475957 1.7421930535694177 1.9186857011486895 2.1037865015671593 2.2973542304223922 2.499209637483085 2.7091327547824937 2.9268608668044269 3.1520884139215446 3.3844629946164946 3.6235895839412882 3.8690206213511433 4.1202562241460035 4.3767515123834038 4.6379133942022781 4.903099598982001 4.6359919827441534 4.3619506567579238 4.082784905325413 3.8002113445875438 3.5149907383088892 3.2294322909325293 2.9442504784127004 2.6606940872392344 2.3806147533508866 2.1043681996409505 1.8328956238392906 1.566332240636241 1.3061345334349401 1.0543805039086833 0.8116937486382263 0.57781666363001971 0.35314818618399385 0.13883062940448476 -0.065708966612506775 -0.26030005776323095 -0.44396863158398625 -0.61752415736961463 -0.78010773602050643 -0.932642710082905 -1.0761120262935797 -1.2106114092100519 -1.3354454110466478 -1.4515946520675349 -1.5591952021321158 -1.6577292853466945 -1.7481071527780241 -1.8304955054326517 -1.9045284033886321 -1.9709980521965886 -2.0300759956707393 -2.0819375227256542 -2.1264140354404892 -2.1640675936655152 -2.1950516602291184 -2.2195123521511397 -2.2374521965575851 -2.2491818364282019 -2.2548093879445594 -2.2544297186679376 -2.2481251588280116 -2.2361161917457939 -2.2183680181311183 -2.1949276695108431 -2.1658290664472633 -2.1310959848214792 -2.091151876816141 -2.0456489569988419 -1.9945870350636168 -1.9379536184608543 -1.8757500976457735 -1.8086182675275633 -1.7359415229111799 -1.6577306714158906 -1.5739961885780804 -1.4855511151524889 -1.3916775332717122 -1.2924336049710456 -1.1887870274074992 -1.0799898870691094 -0.96617541881558655 -0.84851074202541554 -0.72628061442441805 -0.60075826364970086 -0.47131503878231557 -0.33835943434428201 -0.20340846932345308 -0.066028754365090356 0.072105356427708059 0.21021860503459538 0.34742853284655206 0.48368137485795221 0.62038439056206163 0.54867409336744188 0.46043559637308445 0.37544692702561261 0.2851677074310523 0.1860118699096675 0.080754252769078716 0.015816205489801255 -0.00037798298689375488
        </DataArray>
      </CellData>
      <Points>
        <DataArray type="Float32" NumberOfComponents="3" format="ascii">
          5.9240493024519862 10.501903699735674 0
          5.9301629526075601 10.49694141024426 0
          5.9362934593404209 10.491999959710844 0
          5.9424526813528562 10.487094345767725 0
          5.9486495672002224 10.482236394290185 0
          5.9548914423376909 10.477436383000381 0
          5.9611845219682804 10.472703699552293 0
          5.9675341596130931 10.468047168785517 0
          5.973944982505297 10.463475236754379 0
          5.9804209724595472 10.458996084538159 0
          5.9869655194968461 10.45461770650487 0
          5.9935814554892755 10.450347961513067 0
          6.0002710767441201 10.446194608490336 0
          6.0070361586790622 10.44216533016596 0
          6.0138779674972289 10.438267752226029 0
          6.020797269899302 10.434509459957175 0
          6.0277943385663537 10.430898008498566 0
          6.0348689528810073 10.427440924622255 0
          6.042020399817754 10.424145708673677 0
          6.0492474731305865 10.421019833264433 0
          6.0565484703306058 10.418070736930757 0
          6.0639211894276146 10.41530581650172 0
          6.0713629255210551 10.41273241853321 0
          6.0788704659775172 10.41035782607611 0
          6.0864400851539324 10.408189242040898 0
          6.0940675407045157 10.406233775538404 0
          6.1017480679526361 10.404498418891098 0
          6.1094763759930251 10.402990026344723 0
          6.1172466452095327 10.401715295492988 0
          6.1250525242574891 10.400680741863736 0
          6.1328871257793667 10.399892648268974 0
          6.1407430302535033 10.399357057028087 0
          6.1486122871940836 10.399079738288249 0
          6.1564864182641177 10.399066155694092 0
          6.164356422724544 10.399321430302312 0
          6.1722127853760558 10.399850305058019 0
          6.18004548733097 10.400657105211177 0
          6.1878440191652588 10.401745704255216 0
          6.1955973981790224 10.403119479063108 0
          6.2032941897581004 10.404781266028932 0
          6.2109225308731952 10.406733325980168 0
          6.2184701574222832 10.408977305918128 0
          6.2259244355997243 10.411514200134759 0
          6.2334661396591482 10.413777986879612 0
          6.2410840443598143 10.415770344805274 0
          6.2487673021090044 10.41749355133631 0
          6.2565054746798587 10.418950431847575 0
          6.2642886784456726 10.42014352833273 0
          6.2721073152724598 10.421076577216567 0
          6.2799523072513423 10.421753100846985 0
          6.2878149949009359 10.422176948959345 0
          6.2956871276889848 10.422352872042744 0
          6.3035609305226448 10.422285255770916 0
          6.3114290484917035 10.421978690008673 0
          6.3192844987475265 10.421437315611433 0
          6.3271207105876464 10.420666023271416 0
          6.33493166792094 10.419671048436339 0
          6.3427118537029177 10.418458753445828 0
          6.3504561098231012 10.417034896521796 0
          6.3581596856723319 10.415405260579865 0
          6.3658184021117119 10.413576386631707 0
          6.3734283166876677 10.41155405056346 0
          6.3809858413725058 10.409343984473354 0
          6.388487994368778 10.40695270813443 0
          6.3959318935450824 10.404385841989034 0
          6.4033152886142322 10.401649813446179 0
          6.4106359332227765 10.398750075361381 0
          6.417891433686683 10.395690993510405 0
          6.4250795576920741 10.39247679075298 0
          6.4321986783640055 10.389112521011919 0
          6.439246883100501 10.385602111969098 0
          6.4462223786698702 10.381949359217357 0
          6.4531239937809985 10.378158866212843 0
          6.4599501423127084 10.374234096127307 0
          6.4666993086492566 10.370178374011122 0
          6.4733706246200793 10.365995828813475 0
          6.4799626825325509 10.361689445702279 0
          6.4864741000215824 10.357262072196415 0
          6.492903497625 10.352716406113645 0
          6.4992501656900528 10.348055924608015 0
          6.5055127222171398 10.343283008512397 0
          6.5116897466130599 10.338399896802748 0
          6.5177797552950114 10.33340867634517 0
          6.523781991197021 10.328312232559833 0
          6.5296948708295703 10.323112374264729 0
          6.5355167200136357 10.317810784921386 0
          6.54124574940092 10.312409015390999 0
          6.5468800657865645 10.306908516016623 0
          6.552418535115331 10.301311507386936 0
          6.5578590138567838 10.295619189672532 0
          6.563199217695229 10.289832682733962 0
          6.5684366965924612 10.283953021891575 0
          6.5735688220429482 10.277981167105645 0
          6.5785937531937808 10.271918824075355 0
          6.583508494923147 10.265766797467498 0
          6.5883098338011576 10.259525847985838 0
          6.5929943086372882 10.25319669366149 0
          6.5975582271468269 10.246780047689288 0
          6.6019987386798391 10.240277374140815 0
          6.6063116268305278 10.233689346025709 0
          6.6104923999981828 10.227016680069164 0
          6.6145362589462007 10.2202601454589 0
          6.6184392607548492 10.213421259574988 0
          6.6221959693142667 10.20650091605382 0
          6.6258005890055429 10.199500133063991 0
          6.629248210446689 10.192420698692851 0
          6.6325322912261822 10.185263916082157 0
          6.6356458508774816 10.178031301842831 0
          6.6385828604055446 10.17072519607016 0
          6.6413354886794442 10.163347629678091 0
          6.6438968425435698 10.155901478955627 0
          6.6462581263198794 10.148389470262099 0
          6.6484099883927312 10.140814797937166 0
          6.6503440688600968 10.133181598042286 0
          6.6520498886695734 10.125494152795223 0
          6.6535179481000535 10.117757767126811 0
          6.6547381718914771 10.109978426629448 0
          6.6556998645979242 10.102162900408816 0
          6.6563898566684161 10.094318704141191 0
          6.6567888214748985 10.086454323634344 0
          6.6573263861748702 10.07859800817851 0
          6.6580532091405509 10.070756680386809 0
          6.6589812688218419 10.062936303060386 0
          6.6601538924575081 10.055148441377026 0
          6.6616466068278646 10.047415013136924 0
          6.6635692377755511 10.039776360816234 0
          6.6659027300161471 10.032253391866179 0
          6.6684467130230551 10.024799425408913 0
        </DataArray>
      </Points>
      <Cells>
        <DataArray type="Int32" Name="connectivity" format="ascii">
          0 1 1 2 2 3 3 4 4 5 5 6 6 7 7 8 8 9 9 10 10 11 11 12 12 13 13 14 14 15 15 16 16 17 17 18 18 19 19 20 20 21 21 22 22 23 23 24 24 25 25 26 26 27 27 28 28 29 29 30 30 31 31 32 32 33 33 34 34 35 35 36 36 37 37 38 38 39 39 40 40 41 41 42 42 43 43 44 44 45 45 46 46 47 47 48 48 49 49 50 50 51 51 52 52 53 53 54 54 55 55 56 56 57 57 58 58 59 59 60 60 61 61 62 62 63 63 64 64 65 65 66 66 67 67 68 68 69 69 70 70 71 71 72 72 73 73 74 74 75 75 76 76 77 77 78 78 79 79 80 80 81 81 82 82 83 83 84 84 85 85 86 86 87 87 88 88 89 89 90 90 91 91 92 92 93 93 94 94 95 95 96 96 97 97 98 98 99 99 100 100 101 101 102 102 103 103 104 104 105 105 106 106 107 107 108 108 109 109 110 110 111 111 112 112 113 113 114 114 115 115 116 116 117 117 118 118 119 119 120 120 121 121 122 122 123 123 124 124 125 125 126 126 127 
        </DataArray>
        <DataArray type="Int32" Name="offsets" format="ascii">
          2 4 6 8 10 12 14 16 18 20 22 24 26 28 30 32 34 36 38 40 42 44 46 48 50 52 54 56 58 60 62 64 66 68 70 72 74 76 78 80 82 84 86 88 90 92 94 96 98 100 102 104 106 108 110 112 114 116 118 120 122 124 126 128 130 132 134 136 138 140 142 144 146 148 150 152 154 156 158 160 162 164 166 168 170 172 174 176 178 180 182 184 186 188 190 192 194 196 198 200 202 204 206 208 210 212 214 216 218 220 222 224 226 228 230 232 234 236 238 240 242 244 246 248 250 252 254 
        </DataArray>
        <DataArray type="Int32" Name="types" format="ascii">
          3 3 3 3 3 3 3 3 3 3 3 3 3 3 3 3 3 3 3 3 3 3 3 3 3 3 3 3 3 3 3 3 3 3 3 3 3 3 3 3 3 3 3 3 3 3 3 3 3 3 3 3 3 3 3 3 3 3 3 3 3 3 3 3 3 3 3 3 3 3 3 3 3 3 3 3 3 3 3 3 3 3 3 3 3 3 3 3 3 3 3 3 3 3 3 3 3 3 3 3 3 3 3 3 3 3 3 3 3 3 3 3 3 3 3 3 3 3 3 3 3 3 3 3 3 3 3         </DataArray>
      </Cells>
    </Piece>
  </UnstructuredGrid>
</VTKFile>
