<?xml version="1.0"?>
<VTKFile type="UnstructuredGrid" version="0.1" byte_order="LittleEndian">
  <UnstructuredGrid>
    <Piece NumberOfPoints="128" NumberOfCells="127">
      <PointData Scalars="W">
        <DataArray type="Float32" Name="W" NumberOfComponents="2">
          0 0 -0.081791212086629483 -0.28460290687966283 -0.11499448995440852 -0.3959739362372926 -0.13898547653779678 -0.47229725768942493 -0.15734328460763644 -0.52669202023608674 -0.17148698467579673 -0.56478203139421734 -0.18219186597342185 -0.5899334608516158 -0.18994271391891948 -0.60445475493275547 -0.1950566422726133 -0.61001293313536842 -0.19772657445913239 -0.60779065282436684 -0.19810151611957791 -0.59875129186906595 -0.19629217117681499 -0.58366212092768777 -0.19238972120867245 -0.56315803264291364 -0.18645063183803035 -0.537704130606382 -0.17850231406848296 -0.50762234982500098 -0.16858096965403471 -0.47320529298606567 -0.1567512074271519 -0.43476979113201997 -0.14306116903021834 -0.39253121555800541 -0.12756836119384235 -0.34667865524076791 -0.11035559453927798 -0.29741808044627394 -0.091508133134945574 -0.24491023602791778 -0.071115273387530403 -0.18927675824996568 -0.049294546984073408 -0.13066543306786579 -0.026184987697957438 -0.069232340642350398 -0.0019113360749118415 -0.0050487453311969981 0.023345002051428348 0.061709669847800248 0.049409997091937344 0.13092995241288877 0.076121656216470809 0.20257218877903427 0.1032741584371229 0.27651954469399259 0.13051524260117828 0.35229447552267651 0.15773643658700021 0.43010044068534881 0.18468878644424511 0.50979341236256481 0.21110712718965469 0.59120497938089878 0.23671621682163263 0.67415136707542955 0.2612428253505521 0.75846000472757868 0.28439527995261893 0.8439020509819547 0.30591303346111914 0.9303289329644221 0.32548417790617268 1.0174157151859753 0.34280915139461926 1.1048290094437467 0.35764153447725483 1.19235146816261 0.36972811153716201 1.2796861517204434 0.37882384829332499 1.3664835023548783 -1.4849932304346114 -5.0573109935028473 -1.6293197490483613 -4.8137083054148997 -1.7484818157464908 -4.5669793658488702 -1.8430941227620361 -4.3185475539107561 -1.9836101930959891 -4.2112602015886278 -2.0433626378114935 -3.9627251026520698 -2.1423942821654713 -3.8220644103846975 -2.2320727973778265 -3.6809807103438623 -2.2436157851218885 -3.4378774492074506 -2.3079752037895598 -3.3005549236084799 -2.3638545611298367 -3.1640261695887775 -2.4899273857398199 -3.12401541994095 -2.5356073468336189 -2.9855759129576547 -2.402792417167849 -2.6653847881816977 -2.237364415350958 -2.3514460517193818 -2.1424070384194849 -2.1430246913122293 -2.0318406654336569 -1.9410390059779663 -1.7905574362255532 -1.6412511007163348 -1.643591350088963 -1.4523918349982676 -1.4838422047518773 -1.2687023336010657 -1.1742934824765412 -0.97650643522998393 -0.98216974254800193 -0.79863649188787633 -0.62974985846460818 -0.5035923274284807 -0.40962510922642736 -0.32406654723543893 -0.34763069712568229 -0.27288155539119519 -0.28716408754492501 -0.22394742269172122 -0.057187506249302834 -0.044440302325575387 0.0045080379242988739 0.0035012888317751565 0.068543453902876347 0.053276157199608098 0.30434515091993203 0.23746580982677698 0.36489900979730422 0.28668294062666533 0.42723429965601029 0.33841023760459016 0.66451310805117147 0.53232941905027187 0.72080116570746489 0.58576180498541297 0.77815405392697534 0.64228880465018579 0.83389883751608318 0.69995932748655121 1.0618518815435032 0.90916598732335974 1.110612650839228 0.97291142493977334 1.1569443848617147 1.038157711146559 1.1980144318580284 1.1024177125924191 1.4128095618712921 1.3372638707740123 1.4454018801965456 1.4115437776754551 1.4742817940880979 1.4871581368251379 1.4968267896149092 1.5613899891553038 1.5177520512603471 1.6390946405951403 1.6986920500364584 1.9052960358576481 1.7010922341863877 1.9879973192456486 1.700738642581322 2.0736266261629246 1.6950931981455373 2.15922791604617 1.6840262980282688 2.2444371398751701 1.8128797044028511 2.5373611569059227 1.7805415764315362 2.6273425162446444 1.7420415145375403 2.7154282212062903 1.6954136230823151 2.7977205390234188 1.6448398471451813 2.8802609763187661 1.7111226675137576 3.1961327244200408 1.6336466317109755 3.2737113191556562 1.5520534510173207 3.3494493227893054 1.4647173765915542 3.4191151069810632 1.4676321601416238 3.7363135343004759 1.3542770408760059 3.7969945365519902 1.2362731761325849 3.848626829454616 1.1871025312521732 4.1618994661875544 1.0439460906342621 4.1971954002628955 0.89755019722712093 4.2157462736242408 0.79738626914512456 4.5168630702831942 0.6303654906322943 4.5150349816176822 0.48987869908759263 4.7967380071876935 0.30520652482284394 4.7633946472433912 0.12542857573978541 4.7068970001940222 -0.05647912113975171 4.9511981036962167 -0.24315566338266445 4.8539242217268708 -0.4524877751748399 5.0590573501322842 -0.6863220497447885 5.2472507707200027 -0.94375783717883244 5.4148139808657163 -1.1382259518322482 5.2069819631032184 -1.0163018646508868 3.9430846588919448 -1.1712416324744002 4.0018240483495529 -1.1793130211840941 3.6056958493041691 -1.2556405809021258 3.486803565342834 -1.4626524621593429 3.7054137020919589 -1.4981484017457618 3.4793631663562268 -1.8163663211928267 3.8744138949231299 -2.1824424500295256 4.2531601326624457 -3.1568174800225486 5.5381349200547021 0 0
        </DataArray>
        <DataArray type="Float32" Name="u" NumberOfComponents="1">
          0 0.007874015748031496 0.015748031496062992 0.023622047244094488 0.031496062992125984 0.03937007874015748 0.047244094488188976 0.055118110236220472 0.062992125984251968 0.070866141732283464 0.07874015748031496 0.086614173228346455 0.094488188976377951 0.10236220472440945 0.11023622047244094 0.11811023622047244 0.12598425196850394 0.13385826771653545 0.14173228346456693 0.14960629921259844 0.15748031496062992 0.16535433070866143 0.17322834645669291 0.18110236220472442 0.1889763779527559 0.19685039370078741 0.20472440944881889 0.2125984251968504 0.22047244094488189 0.2283464566929134 0.23622047244094488 0.24409448818897639 0.25196850393700787 0.25984251968503935 0.26771653543307089 0.27559055118110237 0.28346456692913385 0.29133858267716534 0.29921259842519687 0.30708661417322836 0.31496062992125984 0.32283464566929132 0.33070866141732286 0.33858267716535434 0.34645669291338582 0.3543307086614173 0.36220472440944884 0.37007874015748032 0.37795275590551181 0.38582677165354329 0.39370078740157483 0.40157480314960631 0.40944881889763779 0.41732283464566927 0.42519685039370081 0.43307086614173229 0.44094488188976377 0.44881889763779526 0.45669291338582679 0.46456692913385828 0.47244094488188976 0.48031496062992124 0.48818897637795278 0.49606299212598426 0.50393700787401574 0.51181102362204722 0.51968503937007871 0.52755905511811019 0.53543307086614178 0.54330708661417326 0.55118110236220474 0.55905511811023623 0.56692913385826771 0.57480314960629919 0.58267716535433067 0.59055118110236215 0.59842519685039375 0.60629921259842523 0.61417322834645671 0.62204724409448819 0.62992125984251968 0.63779527559055116 0.64566929133858264 0.65354330708661412 0.66141732283464572 0.6692913385826772 0.67716535433070868 0.68503937007874016 0.69291338582677164 0.70078740157480313 0.70866141732283461 0.71653543307086609 0.72440944881889768 0.73228346456692917 0.74015748031496065 0.74803149606299213 0.75590551181102361 0.76377952755905509 0.77165354330708658 0.77952755905511806 0.78740157480314965 0.79527559055118113 0.80314960629921262 0.8110236220472441 0.81889763779527558 0.82677165354330706 0.83464566929133854 0.84251968503937003 0.85039370078740162 0.8582677165354331 0.86614173228346458 0.87401574803149606 0.88188976377952755 0.88976377952755903 0.89763779527559051 0.90551181102362199 0.91338582677165359 0.92125984251968507 0.92913385826771655 0.93700787401574803 0.94488188976377951 0.952755905511811 0.96062992125984248 0.96850393700787396 0.97637795275590555 0.98425196850393704 0.99212598425196852 1
        </DataArray>
      </PointData>
      <CellData Scalars="P">
        <DataArray type="Float32" Name="P" NumberOfComponents="1">
          0.016173596896633089 0.048747104192986876 0.081643469067793267 0.11482159315626519 0.14817259908133068 0.18154863600492341 0.21478261925439773 0.24770289523747124 0.28014451271144991 0.31195823546410739 0.34301798565080538 0.37322683669920315 0.40252180182468095 0.43087800584124297 0.45831251672111467 0.48488702905036807 0.51070898603227832 0.53593318034522364 0.56076211185800007 0.58544475563049747 0.6102755328325512 0.63559274258415466 0.66177469869423955 0.68923512169354262 0.71842074608200623 0.74980213817340369 0.78386896429562025 0.82112586736316096 0.86208166124542096 0.90722267936002932 0.95703510423718563 1.0119796352039605 1.0724796304376156 1.1389092600814643 1.211583032565283 1.2907412437071657 1.376543974721939 1.4690491108464911 1.5682010894756324 1.6738290337136603 1.7856329365964063 1.9031725957032777 1.5899878691971254 1.2862909260595294 0.99235786605990683 0.70853380543428224 0.42411210256763032 0.15013464407326163 -0.12175822228048476 -0.39153019262570088 -0.65010501251891617 -0.90621477107330639 -1.1597235283042733 -1.4197887736373154 -1.6770530045100076 -1.9121401693464093 -2.1234777878475573 -2.3205026903761299 -2.5024531395502865 -2.6561411672210147 -2.7926815038335273 -2.9112284874028385 -2.9964258909297889 -3.0611765762012397 -3.088822157650347 -3.0934865368409121 -3.0918678827980539 -3.0841101934676067 -3.0524098973318718 -3.0145392648903582 -2.9703051479507354 -2.9018800159330946 -2.8276646215583541 -2.7475972235933175 -2.6438432733361252 -2.5351809956767428 -2.4216951011144747 -2.3037577202045338 -2.1644434243978159 -2.0218476450019884 -1.8764799905300822 -1.7291286802604695 -1.5635927654810091 -1.397471009332498 -1.2314361143175201 -1.0663910231027969 -0.90280188402927153 -0.72716702309445158 -0.55527419544315448 -0.38769269718574517 -0.22517771336874909 -0.068462081796503496 0.092530986339348323 0.24545714760329587 0.38960565503215311 0.52419716234712976 0.6487882202172075 0.76974935575661974 0.87862311575136898 0.97510907695322024 1.0589153280968264 1.1330819352032424 1.1932470245519016 1.2394551619081329 1.2723467064104057 1.2907443839305894 1.2951821393217335 1.283997813990595 1.2593960744371806 1.2183526238212052 1.1653248697835599 1.1019319773206002 1.0233111489738664 0.93731932769555648 0.83832255863734506 0.72750862970540886 0.60648801961429444 0.48693053660641805 0.40030746657026184 0.31295064389070337 0.23916768137670377 0.17353464800505719 0.11041149659861599 0.062573764596315348 0.021496924557255961 -0.0057719818099608309 -0.013133834999811479
        </DataArray>
      </CellData>
      <Points>
        <DataArray type="Float32" NumberOfComponents="3" format="ascii">
          6.0106725578135327 10.506925340152435 0
          6.0182430925526704 10.50475921806413 0
          6.025808551859388 10.502575450298036 0
          6.0333668744282534 10.500367132072961 0
          6.0409165706687959 10.498129531650244 0
          6.0484565005800839 10.495859276934679 0
          6.0559857856867447 10.493554006785338 0
          6.0635037609347107 10.491212162297568 0
          6.0710099446177681 10.4888328436628 0
          6.0785040187096504 10.486415706796562 0
          6.0859858169016343 10.483960889997212 0
          6.093455315366203 10.481468954199878 0
          6.1009126258973581 10.478940835389349 0
          6.1083579902626193 10.476377805220832 0
          6.1157917767082317 10.473781442168423 0
          6.1232144782662861 10.471153611550944 0
          6.1306267105170038 10.468496447377243 0
          6.1380292075899892 10.465812332690422 0
          6.145422819186602 10.463103886204204 0
          6.1528085070218088 10.460373950570524 0
          6.1601873396972389 10.457625579602533 0
          6.16756048742229 10.4548620283039 0
          6.174929216485352 10.452086745325484 0
          6.1822948819745127 10.449303363803615 0
          6.1896589191652458 10.446515691687276 0
          6.1970228357942965 10.443727707327337 0
          6.2043882008202997 10.440943548595452 0
          6.211756633641567 10.43816750589613 0
          6.21912979405983 10.435404019711294 0
          6.226509369526112 10.432657673379948 0
          6.2338970533064231 10.42993316351785 0
          6.2412945377613545 10.427235312663989 0
          6.248703498914205 10.424569060387059 0
          6.256125580012073 10.421939452884333 0
          6.2635623744596556 10.419351631631914 0
          6.2710154088748151 10.416810822733297 0
          6.2784861249969426 10.414322322782292 0
          6.2859758635209317 10.41189148970564 0
          6.293485844741606 10.409523722672553 0
          6.3010171499579997 10.407224441481054 0
          6.3085707061663898 10.404999073139846 0
          6.3161472703250592 10.402853033514386 0
          6.3237474141190217 10.400791705708215 0
          6.3312554776004077 10.398416765654291 0
          6.3386625083803292 10.395743319621683 0
          6.3459611144990289 10.392786668216354 0
          6.3531454263625369 10.389562218093541 0
          6.3602067318741851 10.386076621700276 0
          6.3671413231836427 10.382345292444759 0
          6.3739430597804452 10.378376952872964 0
          6.3806063811212539 10.374180351691784 0
          6.387130569052613 10.369770565910242 0
          6.3935116332086581 10.365156111151299 0
          6.3997461090572951 10.360345453741843 0
          6.4058261819210864 10.355341072498829 0
          6.4117490195003093 10.350151551849626 0
          6.4175228530376938 10.344796751657338 0
          6.4231579363997353 10.339296144748845 0
          6.4286601564872523 10.333662658415285 0
          6.4340363682811592 10.327908820938411 0
          6.4393015299187493 10.322053228439039 0
          6.4444647539023032 10.316107595234087 0
          6.4495359454745902 10.310083314878463 0
          6.454534296033632 10.303998512370123 0
          6.4594717184258483 10.297864219705016 0
          6.4643700623333924 10.29169873737939 0
          6.4692429768152904 10.285513198695247 0
          6.4740943084423082 10.279310775082743 0
          6.478927808880937 10.273094498321035 0
          6.4837577377148028 10.26687549916152 0
          6.4885879226193079 10.260656747281894 0
          6.4934223361554917 10.254441326087454 0
          6.4982755989338283 10.248240655330735 0
          6.5031514676062105 10.242057783311676 0
          6.5080538091406224 10.235895914077611 0
          6.5129973358769311 10.229767069398429 0
          6.5179855399670696 10.223674558627271 0
          6.5230219795162707 10.217621883155129 0
          6.5281101128905066 10.211612615426169 0
          6.5332640749395718 10.205659723852472 0
          6.5384868913805105 10.199767157330253 0
          6.5437814373576426 10.193938958039055 0
          6.5491502618222102 10.18817910725342 0
          6.5546066852752869 10.182502162351943 0
          6.5601527317068085 10.176912725908617 0
          6.5657901950277822 10.171415483567507 0
          6.5715204764525668 10.166015035617605 0
          6.5773448768735872 10.160716198002428 0
          6.5832746205083268 10.155535472367855 0
          6.5893098606251623 10.15047798497891 0
          6.5954505799007865 10.145549044084245 0
          6.6016964330219281 10.140753956666719 0
          6.6080467386393194 10.136098005876889 0
          6.6145094952259713 10.131599351974172 0
          6.6210827037785993 10.127263575096148 0
          6.6277639833340123 10.123096138457209 0
          6.6345504489690281 10.119102146708174 0
          6.6414389712404818 10.115286720459022 0
          6.6484336736122644 10.111669446594373 0
          6.6555297597976422 10.108255139985321 0
          6.662722178343591 10.105048502107387 0
          6.6700055217085339 10.102053858682927 0
          6.6773799882660496 10.099290884132319 0
          6.6848385584086296 10.096763349812225 0
          6.692373924189428 10.09447446691661 0
          6.6999830578907007 10.092443672473719 0
          6.7076570930363166 10.090673168346688 0
          6.7153869618561259 10.089164119089153 0
          6.7231664781331677 10.087935216169759 0
          6.7309852961824186 10.086986365139984 0
          6.7388347316364969 10.086335061499822 0
          6.7467033446486422 10.085979262120659 0
          6.7545799981188459 10.085915489162806 0
          6.7624534413300896 10.086158931770619 0
          6.7703121092822514 10.08670358986946 0
          6.7781430513725889 10.087562235280128 0
          6.7859317981519469 10.088746599043724 0
          6.7936624165195685 10.090267143905091 0
          6.8013228562042007 10.092111034889346 0
          6.808920626735242 10.094199845776698 0
          6.8164461526173117 10.096537283654188 0
          6.8238989448252401 10.09909880462539 0
          6.8312743045031281 10.101877091548843 0
          6.8385594537322785 10.104885816516671 0
          6.8457522379111682 10.108111030338746 0
          6.8528330099449164 10.11157742888094 0
          6.8597791642672394 10.11530875267934 0
          6.866528483148608 10.119384028310353 0
        </DataArray>
      </Points>
      <Cells>
        <DataArray type="Int32" Name="connectivity" format="ascii">
          0 1 1 2 2 3 3 4 4 5 5 6 6 7 7 8 8 9 9 10 10 11 11 12 12 13 13 14 14 15 15 16 16 17 17 18 18 19 19 20 20 21 21 22 22 23 23 24 24 25 25 26 26 27 27 28 28 29 29 30 30 31 31 32 32 33 33 34 34 35 35 36 36 37 37 38 38 39 39 40 40 41 41 42 42 43 43 44 44 45 45 46 46 47 47 48 48 49 49 50 50 51 51 52 52 53 53 54 54 55 55 56 56 57 57 58 58 59 59 60 60 61 61 62 62 63 63 64 64 65 65 66 66 67 67 68 68 69 69 70 70 71 71 72 72 73 73 74 74 75 75 76 76 77 77 78 78 79 79 80 80 81 81 82 82 83 83 84 84 85 85 86 86 87 87 88 88 89 89 90 90 91 91 92 92 93 93 94 94 95 95 96 96 97 97 98 98 99 99 100 100 101 101 102 102 103 103 104 104 105 105 106 106 107 107 108 108 109 109 110 110 111 111 112 112 113 113 114 114 115 115 116 116 117 117 118 118 119 119 120 120 121 121 122 122 123 123 124 124 125 125 126 126 127 
        </DataArray>
        <DataArray type="Int32" Name="offsets" format="ascii">
          2 4 6 8 10 12 14 16 18 20 22 24 26 28 30 32 34 36 38 40 42 44 46 48 50 52 54 56 58 60 62 64 66 68 70 72 74 76 78 80 82 84 86 88 90 92 94 96 98 100 102 104 106 108 110 112 114 116 118 120 122 124 126 128 130 132 134 136 138 140 142 144 146 148 150 152 154 156 158 160 162 164 166 168 170 172 174 176 178 180 182 184 186 188 190 192 194 196 198 200 202 204 206 208 210 212 214 216 218 220 222 224 226 228 230 232 234 236 238 240 242 244 246 248 250 252 254 
        </DataArray>
        <DataArray type="Int32" Name="types" format="ascii">
          3 3 3 3 3 3 3 3 3 3 3 3 3 3 3 3 3 3 3 3 3 3 3 3 3 3 3 3 3 3 3 3 3 3 3 3 3 3 3 3 3 3 3 3 3 3 3 3 3 3 3 3 3 3 3 3 3 3 3 3 3 3 3 3 3 3 3 3 3 3 3 3 3 3 3 3 3 3 3 3 3 3 3 3 3 3 3 3 3 3 3 3 3 3 3 3 3 3 3 3 3 3 3 3 3 3 3 3 3 3 3 3 3 3 3 3 3 3 3 3 3 3 3 3 3 3 3         </DataArray>
      </Cells>
    </Piece>
  </UnstructuredGrid>
</VTKFile>
