<?xml version="1.0"?>
<VTKFile type="UnstructuredGrid" version="0.1" byte_order="LittleEndian">
  <UnstructuredGrid>
    <Piece NumberOfPoints="128" NumberOfCells="127">
      <PointData Scalars="W">
        <DataArray type="Float32" Name="W" NumberOfComponents="2">
          0 0 -0.20014169045916599 0.12643671851508792 -0.34337282248836382 0.21570819198421659 -0.46228594841435688 0.28800373314735433 -0.57017158847870597 0.35144333198365951 -0.67244677498464778 0.40917997101936154 -0.77174854349793631 0.46260927547904929 -0.86958695360985316 0.51241172582431738 -0.96690233958372807 0.55890495674391838 -1.064381843249623 0.60223976734865048 -1.1624887887121127 0.64242252008304424 -1.2615782511411839 0.67938616445922739 -1.3619365365484859 0.71301419131179855 -1.4638429709228016 0.74317338278803324 -1.5675479590216632 0.76970003191362535 -1.6732509656150147 0.79238896810793691 -1.781041611862946 0.81096940395269412 -1.8910496981553231 0.82517858483697715 -2.0033584939921716 0.83471956615116571 -2.1179918935197395 0.83925920913252638 -2.2349525368759515 0.83844704410009008 -2.354237613392371 0.83192106174800606 -2.4757880520591682 0.8192895596120765 -2.5994788728770666 0.80013310681547078 -2.7252062469373026 0.77403468630094707 -2.8527287750675074 0.74053429115610925 -2.9818126944291996 0.69917824783685079 -3.1122516755032041 0.64951868286772096 -3.2437057066261605 0.5910778598801919 -3.375436458991091 0.52332770329354128 -3.5073156143210729 0.44586670625792307 -3.6388074724799431 0.35822716697593371 -3.7693362558083447 0.25995908225915465 -3.8982192465265557 0.15063072540134828 -4.0247228663178856 0.029842707431660367 -4.1480193592147447 -0.10276565571966638 -4.2673194040375355 -0.24751287491949939 -4.381600435292488 -0.40465868642696096 -4.4897376352486402 -0.57437944484653669 -4.5906994619092938 -0.75678441488748716 -4.6833448254579002 -0.95189415619162776 -4.7664446476864768 -1.1596234795698681 3.9102660538698197 0.96565216437331436 3.7198718318104063 0.79780318249848869 3.5096054957684371 0.64676217354046295 3.320389372072523 0.5186692280497136 3.1197874105483083 0.40576452177969385 2.9536022743544437 0.31203195830191599 2.7362871652577931 0.22694384318084054 2.5599562892426864 0.15850907899098091 2.3806841495853863 0.10090374811748413 2.1991668844484487 0.053484669864219396 2.0160167249489329 0.01555653066878258 1.8868009306212583 -0.014435672541890727 1.7543543440261185 -0.038582558308405387 1.6277025257482991 -0.057499203965178651 1.4476978624601635 -0.068715546822133988 1.3249702241537271 -0.077415592625609472 1.2081910308817201 -0.082715420610363327 1.0354555446179916 -0.080109506791537555 0.92664100405912564 -0.078920413853766136 0.75589816477944427 -0.06944486835794049 0.58863339761856437 -0.057235988332446655 0.48481850749666194 -0.049220934537724574 0.25805989651176625 -0.026966187414607112 0.15827829072743779 -0.016803197003512467 0.064741885219083264 -0.0069309697917592254 -0.025323563600018559 0.0027150226547741976 -0.18439712554639481 0.019614959992293363 -0.27056136219524263 0.028287811490397025 -0.3499586198047886 0.03572029675593482 -0.4288158746452464 0.042434505292668151 -0.57236992187681424 0.054352260795043267 -0.6437110552434 0.058005203650052725 -0.70756251948048643 0.05995140498122032 -0.77069548419309619 0.060770109659868198 -0.82961145610876652 0.060143763414951243 -0.9550703986607566 0.062480502365670411 -1.0053538104504103 0.057966259560662245 -1.0509262318845645 0.052049160084479261 -1.0881336378937008 0.044699822147745691 -1.1241128900372264 0.036367226699054886 -1.1551044570690316 0.026992491410670876 -1.2542941203967062 0.017405923179160662 -1.2750275746786255 0.0049951486533005391 -1.2902448727063331 -0.0079764191468556494 -1.2960481431243773 -0.021211853249684592 -1.3001014618661759 -0.034576168491280659 -1.298390807932144 -0.047834001644575255 -1.2867892198337643 -0.060538312313507273 -1.273344213498556 -0.0727928320858892 -1.2536931288625979 -0.084215152091378725 -1.2236947695349221 -0.094228868842917285 -1.1915452313151425 -0.10319770587962161 -1.1529838974149738 -0.11063414246888872 -1.1037482585067535 -0.1158654617101611 -1.0520310385805378 -0.1195261604765438 -0.99354734752811458 -0.12105024448303946 -0.92375052169928296 -0.1196854637486662 -0.85144456910067434 -0.11642705633737971 -0.7717816529878565 -0.11061206742392678 -0.68014895965351441 -0.10149274210079931 -0.58542690039051193 -0.090376662568427607 -0.40213469121153506 -0.063701756706483231 -0.29139093825619167 -0.046985289168398205 -0.17205539222525082 -0.028069464503488652 -0.039002279858525682 -0.0063966305103270883 0.098799868202078742 0.016179623260409698 0.2516350996561475 0.04084702703869543 0.40994755975346864 0.065435679243086811 0.58494816137062811 0.090991904128326251 0.77230201905593687 0.11586319061639901 0.96724717780496661 0.13826990647400889 1.1821012624432197 0.15868964219038775 1.3359055302137846 0.16575816770202045 1.5832221686760954 0.17786334261873335 1.7697412048285137 0.17505795056159404 2.0633783917423529 0.17256738217332376 2.38018482549943 0.1570608990868311 2.6494429813465503 0.1220994399733721 2.9564057614275061 0.070851294046879412 -1.8584088423770431 -0.036493220957723983 -1.9621569405854218 -0.068085881947227866 -1.5100331429094831 -0.073096900450685065 -1.0263644953889837 -0.059977691634266965 1.1334725658527707 0.065756639479107551 5.6620286125663899 0.17656115454938942 0 0
        </DataArray>
        <DataArray type="Float32" Name="u" NumberOfComponents="1">
          0 0.007874015748031496 0.015748031496062992 0.023622047244094488 0.031496062992125984 0.03937007874015748 0.047244094488188976 0.055118110236220472 0.062992125984251968 0.070866141732283464 0.07874015748031496 0.086614173228346455 0.094488188976377951 0.10236220472440945 0.11023622047244094 0.11811023622047244 0.12598425196850394 0.13385826771653545 0.14173228346456693 0.14960629921259844 0.15748031496062992 0.16535433070866143 0.17322834645669291 0.18110236220472442 0.1889763779527559 0.19685039370078741 0.20472440944881889 0.2125984251968504 0.22047244094488189 0.2283464566929134 0.23622047244094488 0.24409448818897639 0.25196850393700787 0.25984251968503935 0.26771653543307089 0.27559055118110237 0.28346456692913385 0.29133858267716534 0.29921259842519687 0.30708661417322836 0.31496062992125984 0.32283464566929132 0.33070866141732286 0.33858267716535434 0.34645669291338582 0.3543307086614173 0.36220472440944884 0.37007874015748032 0.37795275590551181 0.38582677165354329 0.39370078740157483 0.40157480314960631 0.40944881889763779 0.41732283464566927 0.42519685039370081 0.43307086614173229 0.44094488188976377 0.44881889763779526 0.45669291338582679 0.46456692913385828 0.47244094488188976 0.48031496062992124 0.48818897637795278 0.49606299212598426 0.50393700787401574 0.51181102362204722 0.51968503937007871 0.52755905511811019 0.53543307086614178 0.54330708661417326 0.55118110236220474 0.55905511811023623 0.56692913385826771 0.57480314960629919 0.58267716535433067 0.59055118110236215 0.59842519685039375 0.60629921259842523 0.61417322834645671 0.62204724409448819 0.62992125984251968 0.63779527559055116 0.64566929133858264 0.65354330708661412 0.66141732283464572 0.6692913385826772 0.67716535433070868 0.68503937007874016 0.69291338582677164 0.70078740157480313 0.70866141732283461 0.71653543307086609 0.72440944881889768 0.73228346456692917 0.74015748031496065 0.74803149606299213 0.75590551181102361 0.76377952755905509 0.77165354330708658 0.77952755905511806 0.78740157480314965 0.79527559055118113 0.80314960629921262 0.8110236220472441 0.81889763779527558 0.82677165354330706 0.83464566929133854 0.84251968503937003 0.85039370078740162 0.8582677165354331 0.86614173228346458 0.87401574803149606 0.88188976377952755 0.88976377952755903 0.89763779527559051 0.90551181102362199 0.91338582677165359 0.92125984251968507 0.92913385826771655 0.93700787401574803 0.94488188976377951 0.952755905511811 0.96062992125984248 0.96850393700787396 0.97637795275590555 0.98425196850393704 0.99212598425196852 1
        </DataArray>
      </PointData>
      <CellData Scalars="P">
        <DataArray type="Float32" Name="P" NumberOfComponents="1">
          -0.0108721740447112 -0.032356303440610204 -0.053165410599708723 -0.072938176359557877 -0.091305062640220327 -0.10787268176561005 -0.1222188742260721 -0.13389055979329734 -0.14240313156465106 -0.14723964449334154 -0.14785159628426481 -0.14365944295697411 -0.13405321448771612 -0.11839218240358018 -0.096005085856817357 -0.066191275728629623 -0.028224413643817215 0.018647931072025264 0.075201879939654562 0.14223373776128262 0.22055744656109863 0.31100257503915102 0.41440973512574963 0.53162478439071825 0.66349712080502055 0.81086897624178289 0.97457194706727346 1.1554250708011609 1.3542225155636241 1.5717009048975472 1.8085755175135823 2.0655074000913722 2.3430942466683615 2.6418555398935735 2.9622213013165961 3.3045167004065736 3.668957673017736 4.0556222214236666 4.4644315532498666 4.8951493882415855 5.3473624241806688 5.820461993605889 5.3893522604353974 4.9657048213332269 4.5547683546763054 4.1567315372364986 3.7752539619363281 3.4081164815435101 3.0633735473821604 2.7374108957154184 2.4318256240511142 2.14792313010821 1.8867292778959779 1.6419976398610774 1.4146193080300045 1.2042118026504076 1.0176612399532483 0.84786648887211047 0.69409310365456922 0.56293579210233591 0.44644681500455263 0.35146505593093297 0.27690080001608963 0.21502328705339915 0.17833011189048972 0.15237256944512775 0.13587929661461823 0.12785705786958548 0.13391137032365674 0.14639253746419831 0.16399517794526391 0.18595920576353717 0.21633007654398814 0.24873437275132138 0.28197450014905129 0.3153549021107222 0.3479908897083045 0.38260867295293755 0.41452592732267957 0.44302926147648025 0.46735448577224781 0.48709008929796016 0.50175921847957816 0.512472646016499 0.51705971295437658 0.51531558065973193 0.50711032951029744 0.49247568883824444 0.47149795127967464 0.44439185248656132 0.4114197922925012 0.37295227424242422 0.32953487944972631 0.28164226825126598 0.22989794782846856 0.17513424581455117 0.11799620214145673 0.059307419927176488 0.00012912535313515971 -0.058802307273247804 -0.11653506044408601 -0.17187425230011605 -0.22406354011864674 -0.26776602906774594 -0.30627294721968917 -0.33868734850131127 -0.36388441527755605 -0.38134390556995534 -0.39005842778566457 -0.38971539988060655 -0.37950113909223204 -0.35904570196685293 -0.32846634135872793 -0.28741908874653593 -0.24022862834260397 -0.18304724777891518 -0.12050148612502497 -0.049120040311339985 0.029709268930200022 0.11121656612185393 0.19396448605641725 0.13016706085752849 0.06964307971230041 0.026846119227710498 -0.0019380505332882 -0.0024492574942350537 0.0096580019651000045
        </DataArray>
      </CellData>
      <Points>
        <DataArray type="Float32" NumberOfComponents="3" format="ascii">
          3.8005990658368978 8.0178058975894686 0
          3.804810728523901 8.0244589642756665 0
          3.8090099798794701 8.031119866612471 0
          3.8131879383194422 8.0377941377846138 0
          3.8173372305055633 8.0444862591332136 0
          3.8214511671532478 8.0512001633581782 0
          3.8255234070911159 8.0579394298986227 0
          3.8295477937113409 8.0647073714015587 0
          3.8335182613056853 8.0715070758719669 0
          3.8374287767311563 8.0783414263375324 0
          3.8412732967772949 8.0852131101763423 0
          3.8450457394125324 8.0921246194939123 0
          3.8487399617435227 8.0990782469516045 0
          3.852349742239316 8.1060760785306645 0
          3.8558687633891759 8.1131199852617044 0
          3.8592905961542834 8.120211613064761 0
          3.8626086875784007 8.1273523700190822 0
          3.8658163552094877 8.1345434095648628 0
          3.8689067790308274 8.1417856142029184 0
          3.871872996277709 8.1490795770742217 0
          3.8747078999360882 8.1564255812948705 0
          3.8774042385597394 8.1638235782157906 0
          3.879954616426168 8.1712731649660917 0
          3.8823514971815904 8.1787735601543776 0
          3.8845872115733231 8.1863235778497074 0
          3.8866539638719146 8.1939216017109242 0
          3.8885438468240534 8.2015655564492089 0
          3.8902488561334625 8.209252879681836 0
          3.8917609032424236 8.2169804941440958 0
          3.8930718364035397 8.2247447780481462 0
          3.8941734864502244 8.2325415323191944 0
          3.8950576747471777 8.2403659556777846 0
          3.8957162464017916 8.2482126156165005 0
          3.8961411059630171 8.2560754204726834 0
          3.8963242597536465 8.2639475926332473 0
          3.8962578613590968 8.271821643743527 0
          3.8959342629587517 8.2796893523152129 0
          3.8953460642773559 8.287541743948676 0
          3.8944861760021778 8.2953690751993392 0
          3.8933478895440992 8.303160822614208 0
          3.8919249410186487 8.3109056759287725 0
          3.890211582023285 8.3185915367648917 0
          3.8882026558741929 8.3262055238869994 0
          3.8864361975202169 8.3338794003460759 0
          3.8849004023653451 8.3416027553439545 0
          3.8835822332038101 8.3493662199077896 0
          3.8824699576399802 8.3571618486763999 0
          3.881551136987035 8.3649826379129131 0
          3.8808154663688721 8.3728227736988146 0
          3.8802494703292489 8.380676976954188 0
          3.879842214544841 8.3885410023775382 0
          3.8795825822174108 8.3964112761889744 0
          3.8794593172627581 8.404284856254737 0
          3.8794610622973864 8.4121593889787043 0
          3.8795798043126277 8.4200330142043054 0
          3.8798073300013676 8.4279042341516757 0
          3.880135785422433 8.4357718754815778 0
          3.8805540083305838 8.4436352410817861 0
          3.881054388191798 8.4514937911926502 0
          3.8816296833844821 8.4593471969886416 0
          3.8822691825722626 8.4671956185909867 0
          3.8829661381251537 8.4750391296591605 0
          3.8837099624125706 8.4828783163225037 0
          3.884490283566401 8.4907139343068128 0
          3.8853006642074521 8.4985464806000817 0
          3.8861270436257125 8.5063773327393033 0
          3.8869632347552772 8.5142071210486776 0
          3.8878034378590356 8.5220364579127246 0
          3.8886420684995615 8.5298659417258893 0
          3.8894692634272117 8.5376966195186839 0
          3.8902796803025543 8.5455290294932258 0
          3.8910683964421997 8.5533636330553193 0
          3.8918305227070471 8.5612008470957939 0
          3.8925571585770116 8.5690414103310513 0
          3.8932438811050378 8.576885550128118 0
          3.8938867317665182 8.5847333881716157 0
          3.894481796613829 8.5925849763035522 0
          3.8950254231833639 8.6004402768860153 0
          3.8955098332546099 8.6082994355436249 0
          3.8959319096510812 8.6161621739833087 0
          3.8962888272633145 8.624028127077322 0
          3.8965782795861883 8.631896841063746 0
          3.8967980362131156 8.6397678013451298 0
          3.8969461759171753 8.6476404288668149 0
          3.8970165491068247 8.6555141315054236 0
          3.8970078704095723 8.6633881424707297 0
          3.8969191963461762 8.6712616603683106 0
          3.8967501669883928 8.6791338675966632 0
          3.8965005307760574 8.6870039387228655 0
          3.8961703933796517 8.6948710550703918 0
          3.8957604735714995 8.7027344324031226 0
          3.8952716042725362 8.7105933145301222 0
          3.8947050030410053 8.7184469969897229 0
          3.8940625288426673 8.7262948627336367 0
          3.8933461738857695 8.7341363596444168 0
          3.8925583277995215 8.7419710307186609 0
          3.8917020419487591 8.7497985557031335 0
          3.8907805214745261 8.7576187118583597 0
          3.8897973910004437 8.7654314089894712 0
          3.8887569765961207 8.7732367359912153 0
          3.8876637599057045 8.7810348992927505 0
          3.8865226787894573 8.7888262638741708 0
          3.8853394134245911 8.7966113995143651 0
          3.8841198356811049 8.8043909999110053 0
          3.882875310242289 8.8121667213305948 0
          3.8816127031230492 8.8199396045012968 0
          3.8803394134462432 8.8277108265055357 0
          3.8790636914159911 8.8354817351985844 0
          3.8777940821874424 8.8432537345373934 0
          3.8765400637687319 8.8510283579056459 0
          3.8753114544439606 8.8588071338691563 0
          3.8741191082030446 8.8665916506706388 0
          3.8729746459846219 8.8743834538880222 0
          3.871890160395159 8.882183936256137 0
          3.8708789798464696 8.8899943667957757 0
          3.8699506466810134 8.8978151894820758 0
          3.8691205049218143 8.9056471571592493 0
          3.8684001282056428 8.9134901011086551 0
          3.8678077363694356 8.9213438678051151 0
          3.8673629879570988 8.92920749577147 0
          3.8670825932079662 8.9370788198500843 0
          3.8669856030391032 8.9449546638358104 0
          3.8667733412060019 8.9528276340366713 0
          3.8664393944962789 8.9606958789256783 0
          3.866011819689581 8.968559169999109 0
          3.865520618218131 8.9764184039774353 0
          3.8650997160212501 8.984281430860495 0
          3.8650298849483464 8.9921554588079466 0
        </DataArray>
      </Points>
      <Cells>
        <DataArray type="Int32" Name="connectivity" format="ascii">
          0 1 1 2 2 3 3 4 4 5 5 6 6 7 7 8 8 9 9 10 10 11 11 12 12 13 13 14 14 15 15 16 16 17 17 18 18 19 19 20 20 21 21 22 22 23 23 24 24 25 25 26 26 27 27 28 28 29 29 30 30 31 31 32 32 33 33 34 34 35 35 36 36 37 37 38 38 39 39 40 40 41 41 42 42 43 43 44 44 45 45 46 46 47 47 48 48 49 49 50 50 51 51 52 52 53 53 54 54 55 55 56 56 57 57 58 58 59 59 60 60 61 61 62 62 63 63 64 64 65 65 66 66 67 67 68 68 69 69 70 70 71 71 72 72 73 73 74 74 75 75 76 76 77 77 78 78 79 79 80 80 81 81 82 82 83 83 84 84 85 85 86 86 87 87 88 88 89 89 90 90 91 91 92 92 93 93 94 94 95 95 96 96 97 97 98 98 99 99 100 100 101 101 102 102 103 103 104 104 105 105 106 106 107 107 108 108 109 109 110 110 111 111 112 112 113 113 114 114 115 115 116 116 117 117 118 118 119 119 120 120 121 121 122 122 123 123 124 124 125 125 126 126 127 
        </DataArray>
        <DataArray type="Int32" Name="offsets" format="ascii">
          2 4 6 8 10 12 14 16 18 20 22 24 26 28 30 32 34 36 38 40 42 44 46 48 50 52 54 56 58 60 62 64 66 68 70 72 74 76 78 80 82 84 86 88 90 92 94 96 98 100 102 104 106 108 110 112 114 116 118 120 122 124 126 128 130 132 134 136 138 140 142 144 146 148 150 152 154 156 158 160 162 164 166 168 170 172 174 176 178 180 182 184 186 188 190 192 194 196 198 200 202 204 206 208 210 212 214 216 218 220 222 224 226 228 230 232 234 236 238 240 242 244 246 248 250 252 254 
        </DataArray>
        <DataArray type="Int32" Name="types" format="ascii">
          3 3 3 3 3 3 3 3 3 3 3 3 3 3 3 3 3 3 3 3 3 3 3 3 3 3 3 3 3 3 3 3 3 3 3 3 3 3 3 3 3 3 3 3 3 3 3 3 3 3 3 3 3 3 3 3 3 3 3 3 3 3 3 3 3 3 3 3 3 3 3 3 3 3 3 3 3 3 3 3 3 3 3 3 3 3 3 3 3 3 3 3 3 3 3 3 3 3 3 3 3 3 3 3 3 3 3 3 3 3 3 3 3 3 3 3 3 3 3 3 3 3 3 3 3 3 3         </DataArray>
      </Cells>
    </Piece>
  </UnstructuredGrid>
</VTKFile>
