<?xml version="1.0"?>
<VTKFile type="UnstructuredGrid" version="0.1" byte_order="LittleEndian">
  <UnstructuredGrid>
    <Piece NumberOfPoints="128" NumberOfCells="127">
      <PointData Scalars="W">
        <DataArray type="Float32" Name="W" NumberOfComponents="2">
          0 0 0.29625618158715611 -0.018416732859846865 0.45015801229505992 -0.02931498744659515 0.57913880720468192 -0.040077302751806716 0.69534876465498607 -0.051635376886179675 0.80369142734639287 -0.064466631727363513 0.90687267724561071 -0.078914947741106453 1.0065271451960331 -0.095263441398379486 1.1037177535336287 -0.11376714038573647 1.1990943592871222 -0.13465973761601785 1.2931065202671232 -0.15816875118465346 1.386025878753421 -0.18451400604992738 1.4779914672482444 -0.2139082167650081 1.5689938179328384 -0.24654882943737816 1.6589440942141909 -0.28262138706839546 1.7477038475602991 -0.32230002193877383 1.8351716690310136 -0.36576173751029695 1.9211274198264445 -0.4131557288375069 2.0053371854540654 -0.46461761901688842 2.0875680900868283 -0.52027161573657765 2.1675576184249477 -0.58022192052227151 2.2449828038860633 -0.6445400037419019 2.3195230348675042 -0.71327667231988445 2.3908669719837943 -0.78646358269376204 2.4586285231406695 -0.86408292607500625 2.5225023979216403 -0.94611585693682665 2.5821174962068216 -1.0324919773612604 2.6370258514686453 -1.1230729000748627 2.6868556071107328 -1.2177083057699332 2.7315427868669455 -1.3163599602150289 2.7704080546259435 -1.4186681398469256 2.8031048129592113 -1.5243657440446372 2.8292738155825439 -1.6331289481550717 2.8486070622426993 -1.7446091793245768 2.8607990120505176 -1.8584049396128315 2.8655860161534408 -1.9740829978819123 2.8626451282684537 -2.0911038492600915 2.8518209848645566 -2.2089765177554592 2.8330150702360917 -2.3271981954381462 2.806044264830164 -2.4451334274759451 2.7708044543149244 -2.5621301389219635 2.7272759352508835 -2.6775325451433134 -4.4565962655431131 4.2944691418628347 -4.6258472342834684 4.0433990759209477 -4.78048946272986 3.7881847010726708 -4.920373329872497 3.5294136267965643 -5.0457102175348121 3.267941897652749 -5.1563922509089082 3.004377389131033 -5.2527143944229131 2.739566533539616 -5.33462235327847 2.4741285751054667 -5.4023921950216609 2.2088438227344289 -5.4563614038772945 1.9444630597090737 -5.4965682752944742 1.6815989609642317 -5.5232937170946244 1.4209489473312975 -4.3307051709541096 0.93168959082324321 -4.3169632433874483 0.77305561865159989 -4.2554047677102531 0.61270284880752757 -4.2294794337569792 0.46420909723630333 -4.1098544851203185 0.31433744819279907 -3.9787313053578597 0.1768686043868426 -3.7833219164343173 0.052383124936739633 -3.6840630119655349 -0.057330238524166494 -3.5211665597006152 -0.15483907880603315 -3.4132418081057119 -0.24376584087843348 -3.1654537405487582 -0.30895180558324342 -3.1133125195644653 -0.38224472041901264 -2.9888002931758262 -0.44074912782233711 -2.8617019716159851 -0.49046110109644431 -2.8102362931188845 -0.54758856286511803 -2.7558206574544424 -0.60129031203679062 -2.6265474961995521 -0.63320891339273067 -2.5725881663044072 -0.67797440625529937 -2.4424053359738886 -0.69744775476446197 -2.3922897178433784 -0.73480719159002117 -2.26215779711826 -0.74272569184023385 -2.2116939538326066 -0.77200925009967825 -2.1621238321195766 -0.79938308089458876 -2.0343153376133332 -0.79326990436510136 -1.9902398904469887 -0.81547764981850357 -1.9448403154591509 -0.83530726444239489 -1.8206658716800652 -0.81713822044326734 -1.7791453760933214 -0.83206557788103774 -1.7392161015492238 -0.84616165058688542 -1.6197936422200632 -0.81784221895891152 -1.5867540092323134 -0.82963019925332215 -1.5530123536598379 -0.83988243609217861 -1.4391979083670761 -0.80351717610166562 -1.4106007833293226 -0.81158885580642859 -1.3839702571759935 -0.81991118125680074 -1.2765697085948253 -0.77750975916455867 -1.2579422621938898 -0.7865331912204131 -1.2392179504576817 -0.79503344574325441 -1.1389247020965449 -0.74876621576273339 -1.1262158621405329 -0.75781025646775202 -1.1160714568915442 -0.76842536704731312 -1.0261747403864347 -0.72218437866950835 -1.0226440973549364 -0.7349423601254248 -1.0219793494958858 -0.74999508100548562 -0.93834382196668509 -0.70258472040934195 -0.94748007180201133 -0.72328589475547955 -0.95729652449385616 -0.74523182246925834 -0.88346952955189073 -0.70093091131932617 -0.90136964214724735 -0.72845072946817269 -0.83667859848045756 -0.68846918292359505 -0.86331162679931395 -0.72307109212661025 -0.89383211569844589 -0.76251706310708556 -0.84130111103067884 -0.7309067753302505 -0.88156165157214694 -0.77995136373691565 -0.83509656063553828 -0.75243927911681552 -0.88848698069672594 -0.81543628496590936 -0.85147049792821083 -0.79623832867804079 -0.81892106736624493 -0.77979880872658403 -0.89103938469814958 -0.8644834054524001 -0.86978641723204575 -0.86040705144108864 -0.85668586522205858 -0.86388886249442087 -0.84695155594426397 -0.87058451444229201 -0.84644094921775426 -0.88695539756174913 -0.73233018041934406 -0.78141199987749765 -0.62880651423612077 -0.68162059510094319 -0.39434354852384829 -0.43260708936369624 0.0038950258428507561 0.0042925999416403857 -0.051706848222457753 -0.057016787378924225 0.38055332982618062 0.41801530400320552 1.1079794748384182 1.196107180869556 2.9357975330566886 3.0264389175167743 6.3303020882577465 5.8962219146842889 3.8219084235251133 3.194434079325025 0 0
        </DataArray>
        <DataArray type="Float32" Name="u" NumberOfComponents="1">
          0 0.007874015748031496 0.015748031496062992 0.023622047244094488 0.031496062992125984 0.03937007874015748 0.047244094488188976 0.055118110236220472 0.062992125984251968 0.070866141732283464 0.07874015748031496 0.086614173228346455 0.094488188976377951 0.10236220472440945 0.11023622047244094 0.11811023622047244 0.12598425196850394 0.13385826771653545 0.14173228346456693 0.14960629921259844 0.15748031496062992 0.16535433070866143 0.17322834645669291 0.18110236220472442 0.1889763779527559 0.19685039370078741 0.20472440944881889 0.2125984251968504 0.22047244094488189 0.2283464566929134 0.23622047244094488 0.24409448818897639 0.25196850393700787 0.25984251968503935 0.26771653543307089 0.27559055118110237 0.28346456692913385 0.29133858267716534 0.29921259842519687 0.30708661417322836 0.31496062992125984 0.32283464566929132 0.33070866141732286 0.33858267716535434 0.34645669291338582 0.3543307086614173 0.36220472440944884 0.37007874015748032 0.37795275590551181 0.38582677165354329 0.39370078740157483 0.40157480314960631 0.40944881889763779 0.41732283464566927 0.42519685039370081 0.43307086614173229 0.44094488188976377 0.44881889763779526 0.45669291338582679 0.46456692913385828 0.47244094488188976 0.48031496062992124 0.48818897637795278 0.49606299212598426 0.50393700787401574 0.51181102362204722 0.51968503937007871 0.52755905511811019 0.53543307086614178 0.54330708661417326 0.55118110236220474 0.55905511811023623 0.56692913385826771 0.57480314960629919 0.58267716535433067 0.59055118110236215 0.59842519685039375 0.60629921259842523 0.61417322834645671 0.62204724409448819 0.62992125984251968 0.63779527559055116 0.64566929133858264 0.65354330708661412 0.66141732283464572 0.6692913385826772 0.67716535433070868 0.68503937007874016 0.69291338582677164 0.70078740157480313 0.70866141732283461 0.71653543307086609 0.72440944881889768 0.73228346456692917 0.74015748031496065 0.74803149606299213 0.75590551181102361 0.76377952755905509 0.77165354330708658 0.77952755905511806 0.78740157480314965 0.79527559055118113 0.80314960629921262 0.8110236220472441 0.81889763779527558 0.82677165354330706 0.83464566929133854 0.84251968503937003 0.85039370078740162 0.8582677165354331 0.86614173228346458 0.87401574803149606 0.88188976377952755 0.88976377952755903 0.89763779527559051 0.90551181102362199 0.91338582677165359 0.92125984251968507 0.92913385826771655 0.93700787401574803 0.94488188976377951 0.952755905511811 0.96062992125984248 0.96850393700787396 0.97637795275590555 0.98425196850393704 0.99212598425196852 1
        </DataArray>
      </PointData>
      <CellData Scalars="P">
        <DataArray type="Float32" Name="P" NumberOfComponents="1">
          0.0085519727750264472 0.025955826565634946 0.044028741799336253 0.063112566111477114 0.0835570256380129 0.1057252782136619 0.12999582271647278 0.15676215842396049 0.18643147189539308 0.21942171017259965 0.2561588755825801 0.29707324844655536 0.34259500526409409 0.39314829935790724 0.44914550794348118 0.51098145296171571 0.57902955660317679 0.6536337545020674 0.73510258554518948 0.82370373596363466 0.91965758981863266 1.0231294221755356 1.1342237007175362 1.2529789326518936 1.3793591145278119 1.5132519872401642 1.6544613068940912 1.8026983469192708 1.9575810860541949 2.1186467442220502 2.2853169298765494 2.4569116790072161 2.6326468777028542 2.8116359660858641 2.9928897993788142 3.175319606706839 3.3577350739437803 3.5388565485550614 3.7173218932803036 3.8916862462815778 4.0604324009664614 4.2219825983873092 4.0142555056656137 3.8082018049765116 3.6032269323657413 3.3987927250760426 3.1944051564609293 2.9896341347741733 2.784099729709316 2.5774920053665111 2.3695602258155519 2.1601136852932279 1.9490374524354315 1.7362843004594202 1.5743106351210445 1.4121869430501761 1.2519416761699775 1.0919999718584421 0.93649610336601341 0.78602400168284503 0.64356675575543754 0.50502014226188741 0.37338667599248004 0.24640178379666258 0.13050136059085887 0.017162610024345586 -0.090203543546573284 -0.19130430518161856 -0.28929190574169938 -0.38384756004108789 -0.4715733430408886 -0.55555592838815482 -0.63244887910304637 -0.70547323816571084 -0.77127142978976682 -0.83295702693033136 -0.89043882138125074 -0.94072408501018434 -0.98687763192355771 -1.0287595403992433 -1.0637281576138387 -1.094528265491485 -1.1211541716285858 -1.1413916673705373 -1.1577141879698496 -1.1700746441136107 -1.1767703302166141 -1.1797748721274501 -1.1791227674891318 -1.1736922350810948 -1.1649385164127597 -1.1528623523257211 -1.1369837903445352 -1.1180843616508926 -1.0961791212136063 -1.0714722205225489 -1.0440075740715158 -1.0137624011859432 -0.98166354570179382 -0.9469151121835131 -0.90946927786875742 -0.87097271359756179 -0.82982161085023065 -0.78808671605257941 -0.74363066296995228 -0.69627683603971902 -0.64874296762554162 -0.59811683824444284 -0.54763012047988768 -0.49369044281375812 -0.44001829060965347 -0.38676130888005317 -0.32964764609888975 -0.27294980382086431 -0.21662823526345834 -0.16085772516944621 -0.10556742718419408 -0.056072155712591963 -0.012000726562805984 0.021553109129223029 0.039678154599754857 0.060013167572717969 0.068335389250477968 0.062293536564501047 0.031557154388114787 -0.018077414685790341 -0.012768492790621793
        </DataArray>
      </CellData>
      <Points>
        <DataArray type="Float32" NumberOfComponents="3" format="ascii">
          3.814161789630826 8.117776079401823 0
          3.8146411636034254 8.1256357244918664 0
          3.815138906249524 8.1334942223795466 0
          3.8156645598117498 8.1413508944353374 0
          3.8162261213205126 8.1492050714078594 0
          3.8168307959304877 8.1570560352870896 0
          3.8174853009523133 8.1649029895443253 0
          3.818196033626696 8.1727450377215902 0
          3.8189691724797754 8.1805811658193672 0
          3.8198107432321171 8.1884102264421585 0
          3.8207266590973279 8.1962309242764313 0
          3.8217227486621814 8.2040418019575867 0
          3.82280477273595 8.2118412264181355 0
          3.82397843297794 8.2196273756798135 0
          3.8252493713179456 8.227398226594703 0
          3.8266231644558606 8.2351515433261397 0
          3.8281053152853524 8.2428848665385832 0
          3.8297012466140008 8.2505955024106505 0
          3.831416287521932 8.2582805133733022 0
          3.8332556588661957 8.2659367096903456 0
          3.8352244588493121 8.2735606417474372 0
          3.8373276467498592 8.2811485935821008 0
          3.8395700229047365 8.2886965784436519 0
          3.8419562088370953 8.2962003356347509 0
          3.8444906279587805 8.3036553285407333 0
          3.8471774816376962 8.3110567457261819 0
          3.8500207302745215 8.3183995020961561 0
          3.8530240702988348 8.3256782432539804 0
          3.8561909063991711 8.3328873540747015 0
          3.8595243284715877 8.3400209680185924 0
          3.8630271076565963 8.3470729694956418 0
          3.8667016542234802 8.3540370161626001 0
          3.8705499960843031 8.3609065554776159 0
          3.8745737565235934 8.3676748447719156 0
          3.8787741351052971 8.3743349728559977 0
          3.8831518887322884 8.3808798849072623 0
          3.8877073153033863 8.3873024093251232 0
          3.8924402336941557 8.3935952911751173 0
          3.8973499741282973 8.3997512226240456 0
          3.90243537207418 8.4057628741084791 0
          3.9076947568964364 8.4116229337271875 0
          3.9131259454066343 8.4173241476636491 0
          3.9187262406483065 8.4228593608380553 0
          3.9240502296691164 8.4286608520150992 0
          3.9290874176729305 8.4347130571794313 0
          3.9338282153587691 8.4410001554529224 0
          3.9382639481752091 8.4475061055082996 0
          3.9423868431954845 8.4542146986267568 0
          3.9461900357850666 8.4611095963590515 0
          3.9496675512974857 8.468174382979214 0
          3.9528143084248319 8.4753926038414402 0
          3.9556261020709922 8.4827478137244405 0
          3.9580995824208114 8.4902236233427093 0
          3.9602322525633471 8.4978037372847837 0
          3.9620224510798905 8.5054719972073567 0
          3.963544117754433 8.5131980411943697 0
          3.9647981034682345 8.5209720337978236 0
          3.9657882238875288 8.5287840319169774 0
          3.966516085282608 8.5366248286264952 0
          3.966989103886279 8.5444851293218917 0
          3.9672154091675313 8.552356408108583 0
          3.9672071171824119 8.56023094251454 0
          3.9669703822049422 8.5681019283263211 0
          3.9665153048420887 8.5759633165053231 0
          3.9658485771755707 8.5838095914837176 0
          3.9649855645931238 8.5916367063486181 0
          3.9639295004833284 8.5994401163005101 0
          3.9626881061569668 8.6072161917551586 0
          3.9612692634577575 8.6149618482696919 0
          3.9596761641389944 8.6226735434136295 0
          3.9579121829022359 8.6303479470786399 0
          3.9559853367049724 8.6379830780796549 0
          3.9538989720907014 8.6455761604207169 0
          3.9516611626135347 8.6531259846171746 0
          3.9492750165750334 8.660630233995553 0
          3.9467486045201814 8.6680884156061371 0
          3.9440850564441114 8.6754987135534467 0
          3.9412874469288055 8.6828594303685378 0
          3.9383637025490574 8.6901709433156604 0
          3.93531655718995 8.6974318754354396 0
          3.9321488268498044 8.7046409972008689 0
          3.9288682127507668 8.7117994336587845 0
          3.9254772903252388 8.7189062594313942 0
          3.9219785363041799 8.7259606007342061 0
          3.9183793570999446 8.732964212333286 0
          3.9146818021057359 8.7399163638310942 0
          3.9108879642027539 8.7468164200725091 0
          3.9070049017600454 8.7536666351317223 0
          3.9030343884593108 8.7604665093400094 0
          3.898978075951018 8.7672155275692454 0
          3.8948426244249004 8.773916318687057 0
          3.8906291889837004 8.780568324456171 0
          3.8863389306286531 8.7871710191412511 0
          3.8819780682107425 8.7937272719235509 0
          3.8775473893471477 8.8002365237272944 0
          3.8730475224942378 8.8066981181759925 0
          3.8684840410461243 8.8131149235691151 0
          3.8638571628928733 8.8194861510790528 0
          3.8591669280417698 8.8258108697132709 0
          3.8544185206929367 8.8320920210683305 0
          3.8496113725808478 8.8383283243865787 0
          3.8447448730461367 8.8445184218236275 0
          3.8398235969908177 8.8506650630665344 0
          3.8348464318696744 8.8567665451166562 0
          3.8298173852175892 8.8628253505529493 0
          3.824734802283821 8.8688393376825534 0
          3.8195967869990399 8.8748060644986779 0
          3.8144065915377849 8.880727495421997 0
          3.8091617150748687 8.8866005935953005 0
          3.8038650325252075 8.892427070006427 0
          3.7985132280671263 8.8982030228296409 0
          3.7931085895385976 8.9039296480983605 0
          3.7876531269810543 8.9096079712993514 0
          3.7821423616461716 8.9152327459146328 0
          3.7765776017186146 8.9208042311458229 0
          3.7709596489959329 8.9263222178333823 0
          3.7652890954807021 8.931786297916112 0
          3.7595659602315203 8.937195463553584 0
          3.7537973017484991 8.9425562716427862 0
          3.7479895203002669 8.9478749241089073 0
          3.7421571291932412 8.9531668852581401 0
          3.7363247892794305 8.9584592854070184 0
          3.7304890305601148 8.9637483407582987 0
          3.7246766173217112 8.9690635647890922 0
          3.7189326066602377 8.9744533055639728 0
          3.7133702703863878 8.980031304052341 0
          3.7082000606237773 8.9859760370056367 0
          3.703267358812941 8.9921186902150296 0
        </DataArray>
      </Points>
      <Cells>
        <DataArray type="Int32" Name="connectivity" format="ascii">
          0 1 1 2 2 3 3 4 4 5 5 6 6 7 7 8 8 9 9 10 10 11 11 12 12 13 13 14 14 15 15 16 16 17 17 18 18 19 19 20 20 21 21 22 22 23 23 24 24 25 25 26 26 27 27 28 28 29 29 30 30 31 31 32 32 33 33 34 34 35 35 36 36 37 37 38 38 39 39 40 40 41 41 42 42 43 43 44 44 45 45 46 46 47 47 48 48 49 49 50 50 51 51 52 52 53 53 54 54 55 55 56 56 57 57 58 58 59 59 60 60 61 61 62 62 63 63 64 64 65 65 66 66 67 67 68 68 69 69 70 70 71 71 72 72 73 73 74 74 75 75 76 76 77 77 78 78 79 79 80 80 81 81 82 82 83 83 84 84 85 85 86 86 87 87 88 88 89 89 90 90 91 91 92 92 93 93 94 94 95 95 96 96 97 97 98 98 99 99 100 100 101 101 102 102 103 103 104 104 105 105 106 106 107 107 108 108 109 109 110 110 111 111 112 112 113 113 114 114 115 115 116 116 117 117 118 118 119 119 120 120 121 121 122 122 123 123 124 124 125 125 126 126 127 
        </DataArray>
        <DataArray type="Int32" Name="offsets" format="ascii">
          2 4 6 8 10 12 14 16 18 20 22 24 26 28 30 32 34 36 38 40 42 44 46 48 50 52 54 56 58 60 62 64 66 68 70 72 74 76 78 80 82 84 86 88 90 92 94 96 98 100 102 104 106 108 110 112 114 116 118 120 122 124 126 128 130 132 134 136 138 140 142 144 146 148 150 152 154 156 158 160 162 164 166 168 170 172 174 176 178 180 182 184 186 188 190 192 194 196 198 200 202 204 206 208 210 212 214 216 218 220 222 224 226 228 230 232 234 236 238 240 242 244 246 248 250 252 254 
        </DataArray>
        <DataArray type="Int32" Name="types" format="ascii">
          3 3 3 3 3 3 3 3 3 3 3 3 3 3 3 3 3 3 3 3 3 3 3 3 3 3 3 3 3 3 3 3 3 3 3 3 3 3 3 3 3 3 3 3 3 3 3 3 3 3 3 3 3 3 3 3 3 3 3 3 3 3 3 3 3 3 3 3 3 3 3 3 3 3 3 3 3 3 3 3 3 3 3 3 3 3 3 3 3 3 3 3 3 3 3 3 3 3 3 3 3 3 3 3 3 3 3 3 3 3 3 3 3 3 3 3 3 3 3 3 3 3 3 3 3 3 3         </DataArray>
      </Cells>
    </Piece>
  </UnstructuredGrid>
</VTKFile>
