<?xml version="1.0"?>
<VTKFile type="UnstructuredGrid" version="0.1" byte_order="LittleEndian">
  <UnstructuredGrid>
    <Piece NumberOfPoints="128" NumberOfCells="127">
      <PointData Scalars="W">
        <DataArray type="Float32" Name="W" NumberOfComponents="2">
          0 0 0.046494625167401937 0.071339340298859286 0.11116525938875606 0.17099231600077608 0.16317266481845402 0.25208281632530333 0.20898697261349597 0.3247815482073777 0.25107350786839733 0.39308064266405829 0.29046894206924329 0.45876686584516274 0.32761728463031559 0.52270498604244808 0.3627158962943639 0.5853686492656498 0.39589922860768884 0.64712811389061409 0.42720571064351776 0.70819493792107091 0.45664035301765965 0.76871976375416595 0.48419544802804876 0.82882570648508047 0.5098806200744963 0.8886610705532727 0.53372965164166219 0.94841715902321633 0.55575240395562886 1.0082485397660479 0.57591276511104661 1.0682299760405383 0.59420122857954083 1.1284869378105962 0.61060424026868865 1.1891447276065799 0.62507336292742444 1.250268274197587 0.6375703202180304 1.3119478068128774 0.64806055018204312 1.3742912900960045 0.65648810847785144 1.4373740770490044 0.66277741319046202 1.5012382422502843 0.66687670877087968 1.5659909122432465 0.66868602341828398 1.6316422485685325 0.66811950191419855 1.6982448909389365 0.66510948541723902 1.765918181430751 0.65954704656898477 1.8347007385084424 0.65119469592340384 1.9042663662112513 0.64005356037516492 1.9749666082975841 0.62598540346085296 2.0468056050411856 0.60884168578522069 2.1197734013186857 0.58846152409137786 2.1938353747175974 0.5646816278758765 2.2689657227302344 0.53732481976633517 2.345104242890903 0.50622549679940532 2.4222690236190632 0.47117407335545941 2.5003053608903825 0.4319650446790016 2.579063404213839 0.38841193228026166 2.6585196165424754 0.34030727576631881 2.7385805414979649 0.2874328082110913 2.8191145112526543 0.5105452732773571 12.946146588996029 -0.81713459044699488 12.982486001035152 -2.1514696427335238 12.878501399820806 -3.4760877800407508 12.630475136923339 0.19330048615569026 -0.58776415154768047 0.31468164732414144 -0.97816341415104646 0.4306878687714169 -1.3849625374352224 0.53672979444845725 -1.8094846412911676 0.62769082001536758 -2.2529795798497481 0.56834070444350338 -2.1929549108960913 0.49617567095126491 -2.0603219323640545 0.44066508813005056 -1.9703166632560134 0.39322885019206605 -1.8964254427362142 0.35185965495768778 -1.8347721425217973 0.49158459613210259 -2.851436049206201 0.57153644808598691 -3.9528024150504981 0.55503250855388964 -5.1439042380531497 0.33924083050871046 -5.0398965079102807 0.13748263345921583 -4.9252484922945445 -0.050015095276655666 -4.8020914376642789 -0.22321933698069693 -4.671322970347167 -0.37926600260422727 -4.5057351981204663 -0.52207896164958356 -4.3631430040594452 -0.65114079900339616 -4.2169459169378829 -0.77296547491268064 -4.0980424977002654 -0.88496169394566226 -3.9779916936634701 -0.98758927316796929 -3.8575844509177593 -1.0722542972653797 -3.7077931126728783 -1.1559340911515288 -3.5893447289681459 -1.2319363514503774 -3.4725164115482685 -1.3008389162839629 -3.3578012658969816 -1.3632303659848957 -3.2456281989086486 -1.4063338455364454 -3.1078534942478133 -1.4559982679070411 -3.0025584946966082 -1.5010129341508025 -2.9007882772319062 -1.5419450511303121 -2.8027239909830683 -1.5793728124606599 -2.7085434295576398 -1.6138570303973838 -2.6183699472532336 -1.6274861096465392 -2.5046065854644413 -1.6564455878959548 -2.4235537474613507 -1.6841274696810979 -2.346685534801765 -1.7110377552261409 -2.2739950960532478 -1.7376699788838921 -2.2054495487320165 -1.764505863531721 -2.1409916794380344 -1.7920254911641003 -2.0805518228148214 -1.8206716498394713 -2.0240061763700101 -1.8270853229044237 -1.9464015328237934 -1.8583146552783576 -1.8982855237569101 -1.8920465940378606 -1.8536612836136233 -1.9287129687868292 -1.8123442661320626 -1.9687533801201844 -1.7741358916688299 -2.0125753623041351 -1.738784657508448 -2.0600903139674851 -1.7056135211833805 -2.1127645592794835 -1.6752099716093667 -2.1705217218641089 -1.6468025432964115 -2.2047729213832388 -1.5994531868848145 -2.2731116976373547 -1.5751943798256691 -2.3478683465248107 -1.551783438015256 -2.4294939552796331 -1.52872973138827 -2.5184439551454449 -1.5054832797478968 -2.6151765385963017 -1.4814269637505939 -2.7207522812653639 -1.4561807356377869 -2.801363767672485 -1.412152923196107 -2.923368366177419 -1.3828209493805503 -3.0549666642608551 -1.3494604751407513 -3.1611623335303598 -1.2970121688727161 -3.3130358187233786 -1.2544168290353117 -3.4750087517996588 -1.2039697474666118 -3.6479740468603206 -1.1444165046999146 -3.794753124017618 -1.0642102441449373 -3.9894379257246162 -0.98357416569080014 -4.1560055582368527 -0.88069191070383246 -4.3719759329574366 -0.77125660730265033 -4.5987688549394319 -0.64267420446291301 -4.7898341259658919 -0.48837569742024167 -4.9878578236800521 -0.31452220556606059 -5.2338326169527027 -0.11873704804458836 4.6915834236917791 0.096407632593067977 5.0347275401936091 0.29680142909883833 6.316882148680893 0.65775026609076082 6.0078737992379025 0.92458467450062332 5.6686315334953941 1.1455820521105424 5.3231388199514189 1.3239880295284525 4.1872832343543269 1.2156071057756539 1.0988918477306615 0.34504484269029562 0 0
        </DataArray>
        <DataArray type="Float32" Name="u" NumberOfComponents="1">
          0 0.007874015748031496 0.015748031496062992 0.023622047244094488 0.031496062992125984 0.03937007874015748 0.047244094488188976 0.055118110236220472 0.062992125984251968 0.070866141732283464 0.07874015748031496 0.086614173228346455 0.094488188976377951 0.10236220472440945 0.11023622047244094 0.11811023622047244 0.12598425196850394 0.13385826771653545 0.14173228346456693 0.14960629921259844 0.15748031496062992 0.16535433070866143 0.17322834645669291 0.18110236220472442 0.1889763779527559 0.19685039370078741 0.20472440944881889 0.2125984251968504 0.22047244094488189 0.2283464566929134 0.23622047244094488 0.24409448818897639 0.25196850393700787 0.25984251968503935 0.26771653543307089 0.27559055118110237 0.28346456692913385 0.29133858267716534 0.29921259842519687 0.30708661417322836 0.31496062992125984 0.32283464566929132 0.33070866141732286 0.33858267716535434 0.34645669291338582 0.3543307086614173 0.36220472440944884 0.37007874015748032 0.37795275590551181 0.38582677165354329 0.39370078740157483 0.40157480314960631 0.40944881889763779 0.41732283464566927 0.42519685039370081 0.43307086614173229 0.44094488188976377 0.44881889763779526 0.45669291338582679 0.46456692913385828 0.47244094488188976 0.48031496062992124 0.48818897637795278 0.49606299212598426 0.50393700787401574 0.51181102362204722 0.51968503937007871 0.52755905511811019 0.53543307086614178 0.54330708661417326 0.55118110236220474 0.55905511811023623 0.56692913385826771 0.57480314960629919 0.58267716535433067 0.59055118110236215 0.59842519685039375 0.60629921259842523 0.61417322834645671 0.62204724409448819 0.62992125984251968 0.63779527559055116 0.64566929133858264 0.65354330708661412 0.66141732283464572 0.6692913385826772 0.67716535433070868 0.68503937007874016 0.69291338582677164 0.70078740157480313 0.70866141732283461 0.71653543307086609 0.72440944881889768 0.73228346456692917 0.74015748031496065 0.74803149606299213 0.75590551181102361 0.76377952755905509 0.77165354330708658 0.77952755905511806 0.78740157480314965 0.79527559055118113 0.80314960629921262 0.8110236220472441 0.81889763779527558 0.82677165354330706 0.83464566929133854 0.84251968503937003 0.85039370078740162 0.8582677165354331 0.86614173228346458 0.87401574803149606 0.88188976377952755 0.88976377952755903 0.89763779527559051 0.90551181102362199 0.91338582677165359 0.92125984251968507 0.92913385826771655 0.93700787401574803 0.94488188976377951 0.952755905511811 0.96062992125984248 0.96850393700787396 0.97637795275590555 0.98425196850393704 0.99212598425196852 1
        </DataArray>
      </PointData>
      <CellData Scalars="P">
        <DataArray type="Float32" Name="P" NumberOfComponents="1">
          0.005578991921937209 0.01680963596742583 0.028330715940273272 0.040316500117501791 0.052934192118617891 0.066352165009482239 0.080741335346212223 0.096274541249047371 0.11312568060472696 0.13146978819997754 0.15148200514272506 0.17333703299212072 0.19720886817589572 0.22327139191776507 0.2516996159691568 0.28266984900739212 0.31635887414800096 0.35294558498275946 0.39261191884070351 0.43554243589142105 0.48192584929476695 0.53195664478378779 0.58583549565392923 0.64376956372884342 0.70597579141047473 0.77267943498741687 0.84411683964281259 0.92053947524953794 1.0022130945663994 1.0894055941139107 1.1824139396530797 1.2815536237474821 1.3871600597853961 1.4995895212878023 1.6192215399852488 1.7464594262615372 1.8817361428264598 2.0255081592906112 2.178257309229362 2.3404993242041114 2.5127824936344458 2.6956876112830712 3.4850829768609528 4.273821312881525 5.0497535174166188 5.8003508005116071 5.7610751976442067 5.6948041830483485 5.5978930357912509 5.4661817406211677 5.2950655304271486 5.1191667759331594 4.9447158105785478 4.7694127248227955 4.5929172364797424 4.4151978493706032 4.139978575497139 3.7551222758086449 3.3106808517961275 2.868078454294583 2.4304551365909584 2.0005717384540338 1.5809247088821712 1.1765332384490932 0.78652629236157123 0.41247285678673712 0.052750552107316433 -0.29160471702925839 -0.61976556217798384 -0.9283107066973918 -1.2196564471737257 -1.493507694939072 -1.7497093169279703 -1.9882295131631718 -2.2068232754464745 -2.408113075261761 -2.5923474036959617 -2.7598357352738163 -2.9109387068165713 -3.046055007438885 -3.1639867733177414 -3.266968573948946 -3.3554489213446708 -3.4298756453410006 -3.4906885274483384 -3.5383128373035926 -3.5731540571590505 -3.5955922074258564 -3.6055581856844952 -3.6039668969802592 -3.5910981507393807 -3.5671966799709023 -3.5324715906690987 -3.487096927590982 -3.4312220107608096 -3.3649494203456927 -3.2883594137326866 -3.2023834523914876 -3.1063223498982757 -3.0001901149348944 -2.8839967368247659 -2.7577576886237654 -2.6215050851692707 -2.4752723092537421 -2.3208051869088644 -2.1567356408700595 -1.9832944512919211 -1.8026457335341661 -1.613424308666662 -1.4162590234243044 -1.2119339108730032 -1.0033476350656738 -0.78985210006382489 -0.57487538561366713 -0.35837883397608072 -0.14261688927934521 0.067839208371027512 0.27001193103074905 0.46188053442299903 0.33912859211694457 0.22682403350102023 0.12128469993295102 0.043916936243523476 -0.0073740716595477639 -0.035276805356858142 -0.036858401990521504 -0.013229481370908677
        </DataArray>
      </CellData>
      <Points>
        <DataArray type="Float32" NumberOfComponents="3" format="ascii">
          6.3536068018787084 10.317231582180828 0
          6.3602020558832768 10.312930047481888 0
          6.3668001920622377 10.308632936201008 0
          6.3734052198277755 10.30434642700861 0
          6.3800203635925632 10.300075547602884 0
          6.3866484638702543 10.295824805333968 0
          6.393292130103668 10.291598434735006 0
          6.3999538049256621 10.28740050831296 0
          6.4066357916797667 10.283234990171803 0
          6.4133402666517902 10.279105765383839 0
          6.4200692874034706 10.275016662949445 0
          6.426824795154702 10.270971468916136 0
          6.433608615095519 10.266973935719944 0
          6.4404224559110723 10.26302778981939 0
          6.4472679103825969 10.25913674089071 0
          6.4541464574874361 10.25530449368874 0
          6.4610594630170803 10.251534757630123 0
          6.4680081773458635 10.247831251428696 0
          6.4749937348500799 10.244197710875074 0
          6.4820171530769075 10.240637896606378 0
          6.4890793297511475 10.237155598133524 0
          6.496181040412389 10.2337546394381 0
          6.5033229362827054 10.230438885670019 0
          6.510505540808686 10.227212247824571 0
          6.5177292449857571 10.224078685357705 0
          6.524994304159355 10.221042212836283 0
          6.5323008318359648 10.218106900578221 0
          6.5396487943684782 10.215276877928257 0
          6.5470380067685294 10.21255634067141 0
          6.5544681259585866 10.209949553443566 0
          6.5619386360510639 10.207460829524907 0
          6.5694488484198734 10.205094552656526 0
          6.5769978931286799 10.20285517731948 0
          6.5845847097174319 10.200747228141784 0
          6.5922080372202716 10.198775297777679 0
          6.5998664040305552 10.196944045335234 0
          6.6075581169008935 10.195258192672224 0
          6.6152812506565803 10.193722525547212 0
          6.6230336351773138 10.192341884057196 0
          6.6308128426271002 10.191121153375889 0
          6.6386161758588189 10.190065262323476 0
          6.6464406555126265 10.189179177599806 0
          6.6542830064389733 10.188467895646289 0
          6.6621570659057801 10.188559386551953 0
          6.6699805084584574 10.189455919626885 0
          6.677670592918405 10.191151063893672 0
          6.6851451772506625 10.193629456980894 0
          6.6926314616681255 10.196071308943534 0
          6.7001370381575658 10.198452438885505 0
          6.7076691742656518 10.200747653222752 0
          6.715234530159286 10.202930661269855 0
          6.7228388431035064 10.204973994670791 0
          6.7304785368092226 10.206881397538844 0
          6.7381492399451028 10.208661108741605 0
          6.745847614130267 10.210318718177 0
          6.7535708220115698 10.211858811168158 0
          6.7613164029263979 10.213285209152343 0
          6.7690931881554368 10.214534842553944 0
          6.7769063363342434 10.215539346102799 0
          6.7847537326486691 10.21622463524483 0
          6.7926219880924839 10.216597187261936 0
          6.8004985865066079 10.21666413832814 0
          6.8083718984755341 10.216433151107303 0
          6.8162311831114231 10.215912358927984 0
          6.824066764031274 10.21511205376421 0
          6.8318697886965847 10.21404109914452 0
          6.8396322587519531 10.212708580473745 0
          6.8473466271014019 10.211121888084328 0
          6.8550059569576307 10.209288481776072 0
          6.8626038931365487 10.207215841806214 0
          6.8701351937197153 10.204913269714588 0
          6.8775946794028036 10.20238812114715 0
          6.8849776471294257 10.199647649840605 0
          6.892279834133836 10.196698977135567 0
          6.8994973813342959 10.193549065476436 0
          6.9066276247065206 10.190206464235819 0
          6.9136674940731844 10.186677707080007 0
          6.9206142072772172 10.182969108139174 0
          6.927465234959084 10.179086750874268 0
          6.9342182646658124 10.175036477147938 0
          6.9408711660480655 10.170823879667189 0
          6.9474231009015908 10.166456013647581 0
          6.953872280652277 10.161937905072261 0
          6.9602169954884214 10.157274320001234 0
          6.9664555829876784 10.152469765065748 0
          6.9725863975219484 10.147528489570547 0
          6.9786077803986757 10.142454489098652 0
          6.9845180301072833 10.137251509882159 0
          6.9903153748799989 10.131923056524297 0
          6.9959994207762231 10.126473939390356 0
          7.0015682351625745 10.1209071401234 0
          7.0070197298769887 10.115225423795774 0
          7.0123516344735197 10.109431350377397 0
          7.017561468985229 10.103527287069999 0
          7.022646518674617 10.097515423919074 0
          7.0276038395432865 10.091397815806738 0
          7.0324301674379077 10.085176346036819 0
          7.0371219227987289 10.078852774177721 0
          7.0416769832226658 10.072430034182577 0
          7.0460911126385097 10.065909628411731 0
          7.050359676832068 10.059293006699415 0
          7.054477615487591 10.05258159677569 0
          7.0584394139581637 10.045776838367136 0
          7.0622390748631485 10.0388802214595 0
          7.0658700523331976 10.031893309865865 0
          7.0693273482475929 10.02481883163658 0
          7.0726033977503304 10.017658603929755 0
          7.0756900409583228 10.010414693720868 0
          7.0785806929439463 10.003090351109293 0
          7.0812659363106354 9.9956882156743507 0
          7.0837357272533339 9.9882114138552449 0
          7.0859793401820106 9.9806636367370061 0
          7.0879876730256797 9.9730498554462645 0
          7.0897486530026024 9.9653750682806734 0
          7.0912519505319755 9.9576456522859846 0
          7.0924841724270697 9.9498683914400257 0
          7.0934312541152149 9.9420512569944055 0
          7.0940813459986876 9.9342038139566284 0
          7.09442216653812 9.9263368398271581 0
          7.0944384604159421 9.9184624729045119 0
          7.0947456762512076 9.9105938056118497 0
          7.0953651341410087 9.9027431684047471 0
          7.0963763106681235 9.8949335198288892 0
          7.0977600185788479 9.887181381891244 0
          7.0994952020766968 9.8795004334593806 0
          7.1015604238452452 9.8719017114894054 0
          7.1038852420377765 9.8643784832651615 0
          7.106278155650446 9.8568767725348767 0
        </DataArray>
      </Points>
      <Cells>
        <DataArray type="Int32" Name="connectivity" format="ascii">
          0 1 1 2 2 3 3 4 4 5 5 6 6 7 7 8 8 9 9 10 10 11 11 12 12 13 13 14 14 15 15 16 16 17 17 18 18 19 19 20 20 21 21 22 22 23 23 24 24 25 25 26 26 27 27 28 28 29 29 30 30 31 31 32 32 33 33 34 34 35 35 36 36 37 37 38 38 39 39 40 40 41 41 42 42 43 43 44 44 45 45 46 46 47 47 48 48 49 49 50 50 51 51 52 52 53 53 54 54 55 55 56 56 57 57 58 58 59 59 60 60 61 61 62 62 63 63 64 64 65 65 66 66 67 67 68 68 69 69 70 70 71 71 72 72 73 73 74 74 75 75 76 76 77 77 78 78 79 79 80 80 81 81 82 82 83 83 84 84 85 85 86 86 87 87 88 88 89 89 90 90 91 91 92 92 93 93 94 94 95 95 96 96 97 97 98 98 99 99 100 100 101 101 102 102 103 103 104 104 105 105 106 106 107 107 108 108 109 109 110 110 111 111 112 112 113 113 114 114 115 115 116 116 117 117 118 118 119 119 120 120 121 121 122 122 123 123 124 124 125 125 126 126 127 
        </DataArray>
        <DataArray type="Int32" Name="offsets" format="ascii">
          2 4 6 8 10 12 14 16 18 20 22 24 26 28 30 32 34 36 38 40 42 44 46 48 50 52 54 56 58 60 62 64 66 68 70 72 74 76 78 80 82 84 86 88 90 92 94 96 98 100 102 104 106 108 110 112 114 116 118 120 122 124 126 128 130 132 134 136 138 140 142 144 146 148 150 152 154 156 158 160 162 164 166 168 170 172 174 176 178 180 182 184 186 188 190 192 194 196 198 200 202 204 206 208 210 212 214 216 218 220 222 224 226 228 230 232 234 236 238 240 242 244 246 248 250 252 254 
        </DataArray>
        <DataArray type="Int32" Name="types" format="ascii">
          3 3 3 3 3 3 3 3 3 3 3 3 3 3 3 3 3 3 3 3 3 3 3 3 3 3 3 3 3 3 3 3 3 3 3 3 3 3 3 3 3 3 3 3 3 3 3 3 3 3 3 3 3 3 3 3 3 3 3 3 3 3 3 3 3 3 3 3 3 3 3 3 3 3 3 3 3 3 3 3 3 3 3 3 3 3 3 3 3 3 3 3 3 3 3 3 3 3 3 3 3 3 3 3 3 3 3 3 3 3 3 3 3 3 3 3 3 3 3 3 3 3 3 3 3 3 3         </DataArray>
      </Cells>
    </Piece>
  </UnstructuredGrid>
</VTKFile>
