<?xml version="1.0"?>
<VTKFile type="UnstructuredGrid" version="0.1" byte_order="LittleEndian">
  <UnstructuredGrid>
    <Piece NumberOfPoints="128" NumberOfCells="127">
      <PointData Scalars="W">
        <DataArray type="Float32" Name="W" NumberOfComponents="2">
          0 0 0.25952598292323359 -0.015624362222719373 0.36029241034927001 -0.022575069031615318 0.42877197133238526 -0.028206146126260562 0.47739081154645252 -0.033119343156008077 0.51141824427268756 -0.037486242520149919 0.53395069245876559 -0.041354216543791851 0.54702797660950719 -0.04471734076787344 0.55212334933239682 -0.047548476724665625 0.55025295553054299 -0.049803597500546096 0.54224616928375635 -0.051441380079337663 0.52875901540097758 -0.052423029976788736 0.51030223676135333 -0.052712906952133168 0.48725340694397962 -0.052277598041243607 0.45989012769678966 -0.051087453104208203 0.42844640815741591 -0.049121672012733396 0.39322468877010996 -0.046381434141057769 0.35439264176993007 -0.042866656635039704 0.31211376548675884 -0.038590126768478006 0.26658588730193411 -0.033582623264273803 0.21796246605613706 -0.027883275108518114 0.16635725975197385 -0.021539565736357697 0.11190974913039944 -0.014615546947872909 0.054779106006806327 -0.0071910937247693929 -0.0049370424827476569 0.00064910117983416678 -0.067044948945707783 0.0087952892728552778 -0.13140619212825708 0.017133204991564087 -0.19796744262044569 0.025548480532626837 -0.26659275808542071 0.033905209993554473 -0.33677189168189875 0.042011487475880384 -0.40868524245652987 0.04975564821041091 -0.48215349504497124 0.056972443310044751 -0.55699988221244157 0.063491500334914491 -0.63300519182482506 0.069133966760047821 -0.70996834724198543 0.073721607191485697 -0.7876465328923189 0.077072382981990872 -0.86588972273663345 0.079015757797146161 -0.94436368379582414 0.079368395569735919 -1.0227071614844283 0.077955708694368547 -1.1007084569792258 0.074627315129314822 -1.1780729505543059 0.069239075419397583 -1.2544632772344126 0.061661330211942159 5.43589920365749 -0.35721432043043433 5.2356291421746128 -0.56663243324450119 5.1678405616537306 -0.77639310161151143 4.9537669302957879 -0.95044401897755126 4.8432783820670124 -1.1289297806693248 4.6183237315192933 -1.2654416266760373 4.4993746545908655 -1.4158591753223431 4.3779444839567736 -1.5572086133854612 4.2532963929937244 -1.6892355364261171 4.123130230106117 -1.8107326925929412 3.9935668778651179 -1.924156745788473 3.8608943861660445 -2.0278216000792755 3.518449265487265 -1.9992628958179555 3.1729039483946715 -1.9335155163034323 2.9442869285320414 -1.9111356321176529 2.5997979819791914 -1.7861961251079321 2.3779041905142071 -1.7190800523332133 2.0320897399486291 -1.536934261725353 1.8167679573549262 -1.4295364355012927 1.4670201116986981 -1.1941690768595725 1.2555209949742914 -1.0513465851243189 0.89443110882949883 -0.76600213755196167 0.52480902584494193 -0.45620457161311367 0.46578670782989395 -0.40915199754719217 0.24623530993936468 -0.21793067211816122 0.18882928780638938 -0.16789597419578595 0.13356068976252666 -0.11916142625143392 -0.092009441239794224 0.082126065315997671 -0.14955943872181071 0.13315227725052711 -0.20529081695322529 0.18208316684326778 -0.4387627546247414 0.38651793409699486 -0.49658369946686209 0.43315405237484328 -0.55728030127656591 0.48073423685101369 -0.80296059153128108 0.68285834028341352 -0.865273855727279 0.72313619999785694 -0.93092828290582996 0.7636009627415018 -0.99764130978768228 0.80213025334581955 -1.2597133178557025 0.98952144895838112 -1.3319205636686267 1.0187170752108965 -1.4051673208575384 1.0449868081796418 -1.4766752904955227 1.0662408487963757 -1.7642169778873542 1.2323401352404393 -1.844723143282365 1.2418459349960105 -1.9257544385086769 1.2471993278324525 -2.2322568130382119 1.3850625045052563 -2.3192399241934853 1.3725826527751985 -2.4060310065910175 1.3550226229713225 -2.4891778579035413 1.3306390879130368 -2.5745805452658703 1.3027705048505098 -2.9090795045910558 1.3852067200465472 -2.9936143353705265 1.3326032143677664 -3.0789754839270738 1.2756753721145564 -3.1613913719764692 1.2128734857764303 -3.5071344800459086 1.2341475440987926 -3.5867928870521144 1.1445989770548695 -3.6613421990158708 1.0491843354801484 -4.0132193812185575 1.0152681115925375 -4.079040305111767 0.89094145859810625 -4.1328657437800462 0.76083258870164594 -4.1819056218288901 0.62714331342117746 -4.5252726188355528 0.51936128336090603 -4.5520600347047466 0.35739622570572604 -4.5711515974218297 0.19372775924156763 -4.8889077999264492 0.024863533609222336 -4.8814304700493123 -0.16310594025812503 -5.1792893849885013 -0.37921306178041897 -5.138005829054439 -0.58778973844298388 -5.074942020096767 -0.79037703360687983 -5.3238967021544159 -1.0576399966214047 -5.5601649122745984 -1.360840690632994 -5.4265098331028003 -1.5889343612814193 -5.6104586004119295 -1.9247456599560007 -5.4230806207668856 -2.1460782004731556 -5.550885838589223 -2.5041063965998904 -5.6446626433788785 -2.8868508646052553 -4.3858218872042309 -2.4972580527407797 -4.0115741729658119 -2.4933296398760167 -4.0312583604730534 -2.7218474398670094 -3.9113538399796699 -2.8647013062966407 -3.8469851783457032 -3.0515459538806735 -3.6541992588920977 -3.1340439432386074 -3.7058276980576208 -3.437246867031317 -3.9600897277188714 -3.996020679973237 -4.2019971589950336 -4.6580348791511783 -3.5336001324235005 -4.3052065820630077 0 0
        </DataArray>
        <DataArray type="Float32" Name="u" NumberOfComponents="1">
          0 0.007874015748031496 0.015748031496062992 0.023622047244094488 0.031496062992125984 0.03937007874015748 0.047244094488188976 0.055118110236220472 0.062992125984251968 0.070866141732283464 0.07874015748031496 0.086614173228346455 0.094488188976377951 0.10236220472440945 0.11023622047244094 0.11811023622047244 0.12598425196850394 0.13385826771653545 0.14173228346456693 0.14960629921259844 0.15748031496062992 0.16535433070866143 0.17322834645669291 0.18110236220472442 0.1889763779527559 0.19685039370078741 0.20472440944881889 0.2125984251968504 0.22047244094488189 0.2283464566929134 0.23622047244094488 0.24409448818897639 0.25196850393700787 0.25984251968503935 0.26771653543307089 0.27559055118110237 0.28346456692913385 0.29133858267716534 0.29921259842519687 0.30708661417322836 0.31496062992125984 0.32283464566929132 0.33070866141732286 0.33858267716535434 0.34645669291338582 0.3543307086614173 0.36220472440944884 0.37007874015748032 0.37795275590551181 0.38582677165354329 0.39370078740157483 0.40157480314960631 0.40944881889763779 0.41732283464566927 0.42519685039370081 0.43307086614173229 0.44094488188976377 0.44881889763779526 0.45669291338582679 0.46456692913385828 0.47244094488188976 0.48031496062992124 0.48818897637795278 0.49606299212598426 0.50393700787401574 0.51181102362204722 0.51968503937007871 0.52755905511811019 0.53543307086614178 0.54330708661417326 0.55118110236220474 0.55905511811023623 0.56692913385826771 0.57480314960629919 0.58267716535433067 0.59055118110236215 0.59842519685039375 0.60629921259842523 0.61417322834645671 0.62204724409448819 0.62992125984251968 0.63779527559055116 0.64566929133858264 0.65354330708661412 0.66141732283464572 0.6692913385826772 0.67716535433070868 0.68503937007874016 0.69291338582677164 0.70078740157480313 0.70866141732283461 0.71653543307086609 0.72440944881889768 0.73228346456692917 0.74015748031496065 0.74803149606299213 0.75590551181102361 0.76377952755905509 0.77165354330708658 0.77952755905511806 0.78740157480314965 0.79527559055118113 0.80314960629921262 0.8110236220472441 0.81889763779527558 0.82677165354330706 0.83464566929133854 0.84251968503937003 0.85039370078740162 0.8582677165354331 0.86614173228346458 0.87401574803149606 0.88188976377952755 0.88976377952755903 0.89763779527559051 0.90551181102362199 0.91338582677165359 0.92125984251968507 0.92913385826771655 0.93700787401574803 0.94488188976377951 0.952755905511811 0.96062992125984248 0.96850393700787396 0.97637795275590555 0.98425196850393704 0.99212598425196852 1
        </DataArray>
      </PointData>
      <CellData Scalars="P">
        <DataArray type="Float32" Name="P" NumberOfComponents="1">
          0.015277238462550649 0.046013751732103404 0.077009548915174128 0.10823196060859351 0.13959563678923936 0.17098536711038476 0.20227133987542179 0.23332027076463033 0.26400403455275012 0.29420652527916219 0.32382937678993767 0.35279658081447163 0.38105832985701443 0.40859437461552162 0.43541698869546086 0.46157328839885442 0.48714586180352343 0.51225449702721237 0.53705649014569834 0.56174558811871667 0.58655133225284528 0.61173807903766031 0.63760219140370733 0.66446838204553671 0.69268753377508363 0.72262957745675971 0.7546797617053238 0.78923614095672801 0.82670091120437805 0.8674579232866626 0.91189262350575107 0.96037070281274028 1.0132299039095878 1.0707693490521686 1.1332414968995217 1.200840989887771 1.2737007625689365 1.3518731909246016 1.4353195687814662 1.5239105038974974 1.6174138334048265 1.7154854499757521 1.4232390255310081 1.1388758533602386 0.85357270328079082 0.57606305341439401 0.2993538103556177 0.030707419085521815 -0.23709263822477408 -0.50413720433912301 -0.77040661164610813 -1.0356459604227803 -1.2999839403759104 -1.5632146595191481 -1.8082630392493901 -2.0334432345179829 -2.2472097066510592 -2.4382514049775641 -2.6159038887773387 -2.7673962422969294 -2.9033220151014985 -3.0093147909860472 -3.0973957302939708 -3.1513052961383585 -3.1687261672849552 -3.1808425981259814 -3.1706354449390752 -3.1548074281025968 -3.1335121919592135 -3.088787327057096 -3.0383950953747605 -2.9826308088886329 -2.903271369898123 -2.8188955972664811 -2.7294849535132397 -2.6170478412432305 -2.5005124442193516 -2.3799870368316531 -2.2558317676626678 -2.1109520306367235 -1.9635946083930524 -1.8142552200677111 -1.6636661626051883 -1.4954984759636119 -1.3274245606960087 -1.1600800058037575 -0.97874662278604696 -0.80004799617632261 -0.62471068729358015 -0.45363153246366139 -0.28731915546496556 -0.11387804074038342 0.052435518296772399 0.2110687459462694 0.36134784017360155 0.51213871799925748 0.65237349779937304 0.78146787754873481 0.90591354518718825 1.0171724729637666 1.1147857800594785 1.1985775492411042 1.2716847998836442 1.3296080250252684 1.3725039522809626 1.4009390006630786 1.4138977358289557 1.4103082590663389 1.3915212793295919 1.3586259927387316 1.3083635418118587 1.2401570604058572 1.1604034787651005 1.0639449224239355 0.95949717803805079 0.84108872309209493 0.71031325656567468 0.60700231064190202 0.51083324043726563 0.41291354573279609 0.31964761078114418 0.23205623959038119 0.156443864120131 0.089744585989842834 0.032299241561842718 -0.0085020537523707515 -0.01203106315788856
        </DataArray>
      </CellData>
      <Points>
        <DataArray type="Float32" NumberOfComponents="3" format="ascii">
          3.9048813838403973 8.8704059321304385 0
          3.9053465399063505 8.8782664618590861 0
          3.9058277875094123 8.8861260197708773 0
          3.9063313744409998 8.8939841728632114 0
          3.9068615465554553 8.9018405703029089 0
          3.9074213182370698 8.9096949059683634 0
          3.9080127991202032 8.9175469077597 0
          3.9086373860839947 8.9253963346422385 0
          3.9092958897349859 8.9332429770085895 0
          3.909988625761283 8.9410866583632824 0
          3.9107154779450304 8.9489272380585856 0
          3.9114759495948981 8.9567646138652073 0
          3.9122692042305922 8.9645987243878054 0
          3.9130940972595272 8.9724295512858561 0
          3.9139491993965749 8.9802571213571269 0
          3.9148328138850905 8.9880815083881842 0
          3.9157429910146933 8.9959028344563503 0
          3.9166775468812158 9.0037212698688691 0
          3.9176340737898743 9.0115370331802946 0
          3.9186099503985123 9.0193503904117094 0
          3.9196023539878677 9.0271616531541792 0
          3.9206082699792382 9.0349711761541069 0
          3.921624498988733 9.042779354380178 0
          3.9226476654741544 9.0505866190625532 0
          3.9236742276002485 9.0583934327503677 0
          3.9247004832854655 9.0662002840698399 0
          3.9257225822052493 9.0740076809280108 0
          3.9267365343619698 9.0818161434354359 0
          3.9277382133758443 9.0896261968213228 0
          3.9287233648944224 9.0974383630118929 0
          3.9296876382056416 9.1052531487350841 0
          3.9306265750270852 9.1130710385982585 0
          3.9315356205941105 9.1208924848414235 0
          3.9324101345865996 9.1287178967702403 0
          3.9332454046841563 9.1365476296602264 0
          3.934036658993977 9.1443819736958254 0
          3.9347790810641348 9.1522211426698892 0
          3.9354678191415156 9.1600652633920312 0
          3.9360980068497669 9.1679143642986105 0
          3.9366647855423298 9.1757683645999553 0
          3.9371633173824985 9.1836270649230585 0
          3.9375888035660171 9.1914901383352952 0
          3.9379365051964283 9.1993571222598689 0
          3.9386212893282133 9.2072019605701989 0
          3.9396307375032773 9.2150116650565135 0
          3.9409606468545122 9.2227732300016267 0
          3.9425977426616536 9.2304758601658605 0
          3.9445351740062824 9.2381084882447375 0
          3.9467589910037741 9.2456626466986211 0
          3.9492618179304113 9.2531290086930458 0
          3.9520361253178926 9.2604988097042753 0
          3.9550741842507868 9.2677638632612567 0
          3.9583679236925162 9.2749166357314525 0
          3.9619093101103502 9.2819500941380877 0
          3.9656901172441978 9.288857810599815 0
          3.9696891071253999 9.295641550698539 0
          3.9738848486376765 9.3023053861281735 0
          3.9782631629804333 9.3088507026803828 0
          3.9828026835110664 9.3152852428233661 0
          3.9874896477982884 9.3216131668375812 0
          3.9923026064135412 9.3278457647695561 0
          3.9972282043793976 9.3339896951387207 0
          4.0022447483790327 9.3400595483978783 0
          4.0073391209557405 9.3460641800148743 0
          4.0124889262186896 9.352021279494112 0
          4.0176712401045034 9.3579500527551129 0
          4.0228824047373779 9.3638534207092121 0
          4.0281088058695182 9.3697432401772254 0
          4.03334688646689 9.3756226167960328 0
          4.0385932220705794 9.3814945753959051 0
          4.0438338265987097 9.3873715968052096 0
          4.0490651346137074 9.3932568478070397 0
          4.0542836933988795 9.3991533651051444 0
          4.059475028170878 9.4050738247926464 0
          4.0646355570205728 9.4110211213023298 0
          4.0697615195795684 9.4169982074254222 0
          4.0748376851403272 9.4230176164178374 0
          4.0798601933248468 9.4290818485046923 0
          4.0848249763640494 9.4351934153737869 0
          4.0897279006260945 9.4413547086121454 0
          4.0945527198207001 9.4475773489961163 0
          4.0992949596243005 9.4538631497892691 0
          4.1039500809524769 9.4602137427808373 0
          4.1085136522043983 9.466630448708468 0
          4.1129678480051597 9.4731235697799434 0
          4.1173076785111187 9.4796936989031462 0
          4.1215281209200061 9.4863411714800829 0
          4.1256101738206441 9.4930745408056723 0
          4.1295484447089583 9.4998930373167632 0
          4.1333375524916871 9.5067955764121113 0
          4.1369723415161088 9.5137806503028006 0
          4.1404475158052376 9.5208465350713745 0
          4.1437423358706482 9.5279983504148973 0
          4.1468515583026795 9.5352328395251682 0
          4.1497698879055438 9.5425464773983215 0
          4.1524922115395269 9.5499353746788689 0
          4.1549970892515953 9.5574008615576389 0
          4.1572795770647346 9.5649373910437934 0
          4.1593350471225001 9.5725390522084872 0
          4.1611416752503043 9.5802037556645239 0
          4.1626953723205125 9.5879237984351455 0
          4.1639927922205313 9.5956911185428435 0
          4.1650308848195925 9.6034974317722028 0
          4.1657883466008379 9.6113360711974689 0
          4.1662635039013862 9.619196999438353 0
          4.1664551593557562 9.6270700731304206 0
          4.1663435898465089 9.634944839144822 0
          4.1659292412007325 9.6428096470113971 0
          4.1651936165839096 9.6506511149245675 0
          4.1641392528686145 9.6584563136764139 0
          4.1627700365154023 9.6662126842972036 0
          4.1610704910234215 9.6739036717862898 0
          4.1590259183637501 9.6815104922546418 0
          4.1566445701983161 9.6890190014206734 0
          4.1539149798910868 9.6964083894962823 0
          4.1508487225218831 9.7036649271741915 0
          4.1474377978708503 9.7107664212150606 0
          4.1436763034943533 9.7176891406486021 0
          4.1396423515143734 9.72445719621264 0
          4.1353591233513214 9.7310708238270553 0
          4.1308253192182391 9.7375158595270133 0
          4.1260483010437286 9.7437834474455052 0
          4.1210319644256401 9.7498620051885148 0
          4.1157881736771049 9.7557464210481513 0
          4.110313566230877 9.7614178967718335 0
          4.1045921202375322 9.7668417706696893 0
          4.098608503048685 9.7719769507168195 0
          4.0924058385755959 9.7768439726405401 0
        </DataArray>
      </Points>
      <Cells>
        <DataArray type="Int32" Name="connectivity" format="ascii">
          0 1 1 2 2 3 3 4 4 5 5 6 6 7 7 8 8 9 9 10 10 11 11 12 12 13 13 14 14 15 15 16 16 17 17 18 18 19 19 20 20 21 21 22 22 23 23 24 24 25 25 26 26 27 27 28 28 29 29 30 30 31 31 32 32 33 33 34 34 35 35 36 36 37 37 38 38 39 39 40 40 41 41 42 42 43 43 44 44 45 45 46 46 47 47 48 48 49 49 50 50 51 51 52 52 53 53 54 54 55 55 56 56 57 57 58 58 59 59 60 60 61 61 62 62 63 63 64 64 65 65 66 66 67 67 68 68 69 69 70 70 71 71 72 72 73 73 74 74 75 75 76 76 77 77 78 78 79 79 80 80 81 81 82 82 83 83 84 84 85 85 86 86 87 87 88 88 89 89 90 90 91 91 92 92 93 93 94 94 95 95 96 96 97 97 98 98 99 99 100 100 101 101 102 102 103 103 104 104 105 105 106 106 107 107 108 108 109 109 110 110 111 111 112 112 113 113 114 114 115 115 116 116 117 117 118 118 119 119 120 120 121 121 122 122 123 123 124 124 125 125 126 126 127 
        </DataArray>
        <DataArray type="Int32" Name="offsets" format="ascii">
          2 4 6 8 10 12 14 16 18 20 22 24 26 28 30 32 34 36 38 40 42 44 46 48 50 52 54 56 58 60 62 64 66 68 70 72 74 76 78 80 82 84 86 88 90 92 94 96 98 100 102 104 106 108 110 112 114 116 118 120 122 124 126 128 130 132 134 136 138 140 142 144 146 148 150 152 154 156 158 160 162 164 166 168 170 172 174 176 178 180 182 184 186 188 190 192 194 196 198 200 202 204 206 208 210 212 214 216 218 220 222 224 226 228 230 232 234 236 238 240 242 244 246 248 250 252 254 
        </DataArray>
        <DataArray type="Int32" Name="types" format="ascii">
          3 3 3 3 3 3 3 3 3 3 3 3 3 3 3 3 3 3 3 3 3 3 3 3 3 3 3 3 3 3 3 3 3 3 3 3 3 3 3 3 3 3 3 3 3 3 3 3 3 3 3 3 3 3 3 3 3 3 3 3 3 3 3 3 3 3 3 3 3 3 3 3 3 3 3 3 3 3 3 3 3 3 3 3 3 3 3 3 3 3 3 3 3 3 3 3 3 3 3 3 3 3 3 3 3 3 3 3 3 3 3 3 3 3 3 3 3 3 3 3 3 3 3 3 3 3 3         </DataArray>
      </Cells>
    </Piece>
  </UnstructuredGrid>
</VTKFile>
