<?xml version="1.0"?>
<VTKFile type="UnstructuredGrid" version="0.1" byte_order="LittleEndian">
  <UnstructuredGrid>
    <Piece NumberOfPoints="128" NumberOfCells="127">
      <PointData Scalars="W">
        <DataArray type="Float32" Name="W" NumberOfComponents="2">
          0 0 -0.09780009205949286 -0.31291858392417299 -0.13303029875313876 -0.42115440211703875 -0.15693599019931778 -0.4903979084702117 -0.17376639319252099 -0.53515775396243037 -0.18521400347754116 -0.56171083123860488 -0.19220561844477324 -0.57381022456540742 -0.1953315675435667 -0.57403607093212861 -0.19499131204181622 -0.56425565498434949 -0.19143934242379351 -0.5457822584816775 -0.18488565272655824 -0.51968392312458034 -0.17550339050535665 -0.48681347556539395 -0.163441454785374 -0.44785332073232259 -0.14882014694882806 -0.40331268066235576 -0.13173437948503205 -0.35354547166378764 -0.11229308049898243 -0.29886179347319758 -0.090642437369404472 -0.23958983650804941 -0.066917872064039916 -0.17594926413931292 -0.041266670413098984 -0.10811417082129934 -0.013874865452744519 -0.036284339654556526 0.015065528644233717 0.039399608998790893 0.045351923207482756 0.11884257458539357 0.076750027905186119 0.20193862290596709 0.10899337102669719 0.28856767142374001 0.14182096583139861 0.37869290538966321 0.17491411874718707 0.47219103729201684 0.20795144691765305 0.56899422225916918 0.24061568358241534 0.66910910863840445 0.27253897589079895 0.77246502292472641 0.30321022306048728 0.87862926123676943 0.33234176259227249 0.98784688058287962 0.35950328600199333 1.1000089530246837 0.38424585549709089 1.2149851990445408 0.40610143894555362 1.3326102769911434 0.42459608318285358 1.4527127257629711 0.43924080623562062 1.5750708697664266 0.44956566171951223 1.699519863388107 0.45505608430036504 1.8257006193815448 0.45521212232257907 1.9532325304728304 0.44957807965455188 2.08183072127142 0.43769770290292564 2.2111104547760752 0.41913140140749056 2.340616078538615 1.4779443903855294 12.397574699594383 0.24997648673249986 12.600351961353839 -1.0146309903204116 12.67418034578621 -2.2997912091697188 12.606729127172823 1.40377712895094 -6.8000705100228114 1.018538157247505 -6.7729473346740674 0.64542078697071714 -6.7238544340984401 0.28545232308032009 -6.6543237915888263 -0.060487258990952655 -6.5658970986675325 -0.39165456714596963 -6.4600616873150027 -0.49210588694207413 -4.6876060649038154 -0.64213887015090176 -4.5196814397765905 -0.78664589594781309 -4.4047961381821317 -0.93101966866707553 -4.330162128088201 -1.0426205247520004 -4.1511069632227446 -1.1388792209037977 -3.9725120915231993 -1.2197192510007278 -3.7925758069810285 -1.285060529337402 -3.6105560020125704 -1.3358303625639574 -3.4286518602514082 -1.3732239748840909 -3.2489495035050915 -1.397290003240806 -3.0704771830337783 -1.3732611715453444 -2.8233128345233873 -1.367792214516071 -2.6478993994269593 -1.35085384336936 -2.4748272856583333 -1.3652744748959511 -2.3760451053069085 -1.3751990113992432 -2.2796504761951866 -1.3809369102135132 -2.1857481525822706 -1.3351894142585705 -2.0238009488519517 -1.3308348903348879 -1.9369776363574496 -1.323357637478785 -1.8528480840976544 -1.3130348734204158 -1.7714493856773568 -1.3001366240173922 -1.692807291244993 -1.2307544870911755 -1.5498489642176505 -1.2114507397750078 -1.4784612595594995 -1.1905081477214523 -1.4098420015604545 -1.1681121666642289 -1.3439208603229231 -1.1445209351939336 -1.280718229547618 -1.1199600551050075 -1.2202176297454133 -1.0317994002750797 -1.0964472781503372 -1.0044230656816984 -1.0427892989692837 -0.97683624056667373 -0.99171380393697084 -0.94924353507243253 -0.94320341701584953 -0.92184667123904596 -0.8972419466615581 -0.89484510461328881 -0.8538151434933362 -0.86846492105837592 -0.81293758579062692 -0.84284711169304227 -0.77454812384382044 -0.74802485968165877 -0.67580555209348292 -0.72357733634458832 -0.64356323852627728 -0.70057955710648767 -0.61378513922806577 -0.67923185020749055 -0.58649176127054681 -0.65976730496741809 -0.56173449300599176 -0.64233705931817719 -0.53949737032579193 -0.62575179664053959 -0.51866582826431429 -0.61308846406610951 -0.50166816521928037 -0.60316074920825158 -0.48736076008063517 -0.51991296303484058 -0.41524301751690507 -0.51552397540637529 -0.40735965138620522 -0.51465790110389487 -0.40237998260691238 -0.51760677953614631 -0.40040892120828492 -0.5246848491938042 -0.40155932076935047 -0.53623247718424139 -0.4059514684835821 -0.55411133957546232 -0.41482190571746541 -0.4946022419823542 -0.36631364449746862 -0.52128291754822842 -0.38207858359687508 -0.55411719965934392 -0.40169908512575847 -0.508792230303306 -0.36485162025013079 -0.55654311542660118 -0.39476819017857095 -0.61071869145393953 -0.42805495581588288 -0.6736645399851986 -0.46601069588304767 -0.65878237859656763 -0.4495431533904653 -0.74140300363059908 -0.49871988697985631 -0.74458975380818471 -0.49329120608223753 -0.85168394469548481 -0.55507185378632939 -0.9756706387489833 -0.62404097334397701 -1.0127838282882848 -0.63463250330964516 -1.0684274748638771 -0.65524043241521501 -1.2477140620975407 -0.74700569017410601 -1.6750054660592471 -0.97268043910551982 -1.9383009995757547 -1.083540194710354 -2.1628714504220019 -1.1573608369116506 -2.4522967190933 -1.2482728364610005 -2.8084823155730843 -1.3488107435459291 -3.1779231916972406 -1.425839853474854 -3.6091674749012777 -1.4947414199262843 -3.8275006142976031 -1.4456991537025972 0 0
        </DataArray>
        <DataArray type="Float32" Name="u" NumberOfComponents="1">
          0 0.007874015748031496 0.015748031496062992 0.023622047244094488 0.031496062992125984 0.03937007874015748 0.047244094488188976 0.055118110236220472 0.062992125984251968 0.070866141732283464 0.07874015748031496 0.086614173228346455 0.094488188976377951 0.10236220472440945 0.11023622047244094 0.11811023622047244 0.12598425196850394 0.13385826771653545 0.14173228346456693 0.14960629921259844 0.15748031496062992 0.16535433070866143 0.17322834645669291 0.18110236220472442 0.1889763779527559 0.19685039370078741 0.20472440944881889 0.2125984251968504 0.22047244094488189 0.2283464566929134 0.23622047244094488 0.24409448818897639 0.25196850393700787 0.25984251968503935 0.26771653543307089 0.27559055118110237 0.28346456692913385 0.29133858267716534 0.29921259842519687 0.30708661417322836 0.31496062992125984 0.32283464566929132 0.33070866141732286 0.33858267716535434 0.34645669291338582 0.3543307086614173 0.36220472440944884 0.37007874015748032 0.37795275590551181 0.38582677165354329 0.39370078740157483 0.40157480314960631 0.40944881889763779 0.41732283464566927 0.42519685039370081 0.43307086614173229 0.44094488188976377 0.44881889763779526 0.45669291338582679 0.46456692913385828 0.47244094488188976 0.48031496062992124 0.48818897637795278 0.49606299212598426 0.50393700787401574 0.51181102362204722 0.51968503937007871 0.52755905511811019 0.53543307086614178 0.54330708661417326 0.55118110236220474 0.55905511811023623 0.56692913385826771 0.57480314960629919 0.58267716535433067 0.59055118110236215 0.59842519685039375 0.60629921259842523 0.61417322834645671 0.62204724409448819 0.62992125984251968 0.63779527559055116 0.64566929133858264 0.65354330708661412 0.66141732283464572 0.6692913385826772 0.67716535433070868 0.68503937007874016 0.69291338582677164 0.70078740157480313 0.70866141732283461 0.71653543307086609 0.72440944881889768 0.73228346456692917 0.74015748031496065 0.74803149606299213 0.75590551181102361 0.76377952755905509 0.77165354330708658 0.77952755905511806 0.78740157480314965 0.79527559055118113 0.80314960629921262 0.8110236220472441 0.81889763779527558 0.82677165354330706 0.83464566929133854 0.84251968503937003 0.85039370078740162 0.8582677165354331 0.86614173228346458 0.87401574803149606 0.88188976377952755 0.88976377952755903 0.89763779527559051 0.90551181102362199 0.91338582677165359 0.92125984251968507 0.92913385826771655 0.93700787401574803 0.94488188976377951 0.952755905511811 0.96062992125984248 0.96850393700787396 0.97637795275590555 0.98425196850393704 0.99212598425196852 1
        </DataArray>
      </PointData>
      <CellData Scalars="P">
        <DataArray type="Float32" Name="P" NumberOfComponents="1">
          0.011407010515972925 0.034481887277461785 0.057874588201180785 0.081476191607608078 0.10510634967922383 0.12855405319957761 0.15160513574262144 0.17406226952130088 0.19575993163269173 0.21657617569059898 0.23644175835475947 0.25534712020838118 0.27334768402872689 0.29056822153968287 0.30720669417679802 0.32353624651580548 0.33990480087876218 0.35673566146056146 0.37452659039807684 0.39384604968972675 0.41533052086371258 0.43968108164026964 0.46765728198263118 0.50006953314334912 0.53777497154002529 0.58166489630621654 0.63265774861189195 0.69169350826889753 0.75971893332325513 0.83765122695110783 0.92640959715919868 1.0268806430003048 1.1399033909721947 1.2662527268097452 1.4066247615305343 1.5616184384531238 1.7317264243531465 1.9173039741438782 2.1185526300564712 2.3355159950379707 2.5680582725450769 2.8158460567292289 4.0439509773521491 5.2518384684178088 6.4142839940308729 7.5050487783938937 6.9665554966855128 6.4289378487462967 5.8928249718613834 5.3588477732890301 4.827640830802773 4.2998484881563623 3.9239480589306051 3.5606029819630596 3.2051865511849851 2.8540907375929705 2.5167905438361347 2.1934910710590669 1.8845896527434196 1.5905793240016521 1.3117726389636433 1.0483000348147571 0.80038437129529272 0.57478918100269993 0.36522736628200464 0.17178616248546447 -0.012179912805819672 -0.18669075691741013 -0.35179231645561887 -0.50107234596868033 -0.64124070120898169 -0.77241192773347678 -0.89472214912469983 -1.0083275570019596 -1.1075894027304203 -1.1986912854357512 -1.2818422042423832 -1.3572616191546647 -1.4251858768900951 -1.4858638113698592 -1.5346037600249283 -1.5768577247167688 -1.6129007565918512 -1.6430150747879488 -1.667488077261954 -1.6866102956762601 -1.7006747850822657 -1.7099703644108437 -1.7116559948740879 -1.709421664781936 -1.7035383623545819 -1.6942673648786639 -1.681858337595076 -1.6665440175344324 -1.6485112911263924 -1.6279899469209382 -1.6051517102025028 -1.5795001096333068 -1.5520912733440535 -1.5230046792419745 -1.4922863450696369 -1.4599467360271621 -1.4259590871159826 -1.3902388871353122 -1.3540068222069384 -1.3160674143028193 -1.2762239051447988 -1.2363318806718062 -1.1942121844890479 -1.149582271960516 -1.1020961871898725 -1.0542704210819445 -1.0029942363517779 -0.95110333900682364 -0.89508349859040381 -0.83451014810062507 -0.77287696780723369 -0.70993212891981827 -0.64188091261848623 -0.56144666759352468 -0.47615143853865577 -0.38936396238597298 -0.30191306134910895 -0.21577897550662467 -0.13534784008563927 -0.065330839937030954 -0.014017354494090317
        </DataArray>
      </CellData>
      <Points>
        <DataArray type="Float32" NumberOfComponents="3" format="ascii">
          6.3766255322655434 10.308868500285662 0
          6.3841447218662939 10.306529090255516 0
          6.3916578358735396 10.304170279254746 0
          6.3991626831711113 10.301785357660455 0
          6.4066577766194035 10.299370033395242 0
          6.4141420689075508 10.2969215324079 0
          6.4216148473302992 10.294438209490883 0
          6.4290756761691483 10.291919315561858 0
          6.4365243599904209 10.289364837664937 0
          6.4439609188052502 10.286775383169944 0
          6.4513855722335949 10.284152098323345 0
          6.458798726436175 10.281496602006895 0
          6.4662009633368953 10.278810932843372 0
          6.4735930313529124 10.276097506872462 0
          6.4809758379009805 10.273359085968224 0
          6.488350443480523 10.270598755889596 0
          6.4957180548897959 10.267819907051049 0
          6.5030800161338673 10.265026214174936 0
          6.5104378000020446 10.262221622676316 0
          6.5177929989116556 10.259410337876346 0
          6.5251473133513 10.256596812625986 0
          6.5325025399551571 10.25378573860079 0
          6.5398605589234995 10.250982040420645 0
          6.5472233194794081 10.248190869100158 0
          6.5545928233319257 10.245417594623991 0
          6.5619711084808383 10.242667803686713 0
          6.5693602294450173 10.239947292072873 0
          6.5767622373252763 10.237262060475821 0
          6.5841791601234858 10.234618314936105 0
          6.591612979926146 10.232022462486572 0
          6.5990656012071796 10.229481084351967 0
          6.606538832984258 10.227000951169844 0
          6.6140343621311839 10.224589016264165 0
          6.621553725535108 10.222252407594619 0
          6.6290982810695418 10.219998417531277 0
          6.6366691781996971 10.217834492248771 0
          6.6442673276552666 10.215768218005751 0
          6.6518933722825118 10.213807310946256 0
          6.6595476551288897 10.211959594855948 0
          6.6672301884326135 10.210232977581787 0
          6.6749406253549797 10.20863543338486 0
          6.6826782316770759 10.207174979099017 0
          6.6904418585285894 10.205859645889808 0
          6.6982971611689033 10.205313011177168 0
          6.7061680027964359 10.205547659229058 0
          6.7139759727792141 10.206568179873482 0
          6.721641384007957 10.208370403632681 0
          6.7293938803218172 10.209750984809562 0
          6.7372095768398141 10.210711598623984 0
          6.7450653397347926 10.211255282329454 0
          6.7529388499259744 10.211386340268348 0
          6.7608086576369972 10.211110248324497 0
          6.7686542284845341 10.210433561746953 0
          6.7764692875799808 10.209466191966142 0
          6.7842445295013452 10.208218551990333 0
          6.7919709931026597 10.206697765723922 0
          6.7996397267232611 10.204908460757695 0
          6.8072438081180602 10.20286174061477 0
          6.8147772664946178 10.200568680509129 0
          6.8222350871944748 10.19804043907298 0
          6.8296132166277239 10.195288304379067 0
          6.8369085048221301 10.192323557540833 0
          6.8441186313552986 10.189157343314385 0
          6.8512421023028276 10.185800730353261 0
          6.8582804042663241 10.18226904808475 0
          6.8652338749469566 10.178573175884118 0
          6.8721035633345373 10.174723848020944 0
          6.8788885758003824 10.170727190988307 0
          6.8855882975003153 10.166589183173141 0
          6.8922023731834576 10.162315648364984 0
          6.8987336383763349 10.15791663090048 0
          6.9051823637213321 10.153397515537224 0
          6.9115490134760105 10.148763519941864 0
          6.9178342283234757 10.144019692392485 0
          6.9240388086290894 10.13917091018379 0
          6.9301670556486741 10.134226039865501 0
          6.9362201670058052 10.129189508777161 0
          6.9421994419278343 10.124065572531411 0
          6.948106269747095 10.118858319375752 0
          6.9539421138977229 10.113571668926509 0
          6.9597084979295314 10.108209373189288 0
          6.9654108876638121 10.10277910833827 0
          6.9710509813151056 10.097284201871473 0
          6.9766304901485015 10.091727821071402 0
          6.9821511257971922 10.086112974079112 0
          6.9876145877594196 10.080442510894393 0
          6.9930225510363089 10.074719124255116 0
          6.998376652119207 10.068945348728384 0
          7.0036784802523382 10.063123564497905 0
          7.0089339147713661 10.057259894526595 0
          7.0141444725264632 10.051356337466249 0
          7.0193115805216335 10.045414739040007 0
          7.024436563501018 10.03943679076456 0
          7.0295206295042316 10.033424026757121 0
          7.0345648605021003 10.027377824718769 0
          7.0395702861349516 10.021299475039156 0
          7.0445376929627885 10.015190030211818 0
          7.0494676980139701 10.009050375743259 0
          7.0543654641169056 10.002884981376836 0
          7.0592312652165194 9.9966943337173824 0
          7.0640651569349062 9.9904787391152716 0
          7.0688669584670096 9.984238317151366 0
          7.0736362330978446 9.977972993628569 0
          7.0783722670971292 9.9716824931014134 0
          7.0830739542820025 9.9653662622050501 0
          7.0877449871329921 9.9590273041907622 0
          7.0923837141303769 9.9526646373984224 0
          7.0969881022913119 9.9462770407928094 0
          7.1015609654905738 9.9398667930569395 0
          7.1060993462023774 9.9334320338338351 0
          7.1105998885521808 9.926970693391846 0
          7.115058692817235 9.9204804120843537 0
          7.1194766861090057 9.9139622025963003 0
          7.1238487487879549 9.9074130083185228 0
          7.1281746879182473 9.9008331558770291 0
          7.1324478660344965 9.8942188057526543 0
          7.13666059762018 9.8875656721141265 0
          7.1408105856967312 9.8808730854482061 0
          7.1448943840253865 9.8741397539546529 0
          7.1489008760035508 9.8673599753264298 0
          7.1528035578718763 9.8605197499050767 0
          7.1565860981291927 9.8536121912390193 0
          7.1602345665740215 9.8466327062968269 0
          7.163731007643154 9.839575641849601 0
          7.1670533215534089 9.8324347471893656 0
          7.1701785838843026 9.8252052261267835 0
          7.1730800328150872 9.8178827834223057 0
          7.1757441172569756 9.8104704185579923 0
        </DataArray>
      </Points>
      <Cells>
        <DataArray type="Int32" Name="connectivity" format="ascii">
          0 1 1 2 2 3 3 4 4 5 5 6 6 7 7 8 8 9 9 10 10 11 11 12 12 13 13 14 14 15 15 16 16 17 17 18 18 19 19 20 20 21 21 22 22 23 23 24 24 25 25 26 26 27 27 28 28 29 29 30 30 31 31 32 32 33 33 34 34 35 35 36 36 37 37 38 38 39 39 40 40 41 41 42 42 43 43 44 44 45 45 46 46 47 47 48 48 49 49 50 50 51 51 52 52 53 53 54 54 55 55 56 56 57 57 58 58 59 59 60 60 61 61 62 62 63 63 64 64 65 65 66 66 67 67 68 68 69 69 70 70 71 71 72 72 73 73 74 74 75 75 76 76 77 77 78 78 79 79 80 80 81 81 82 82 83 83 84 84 85 85 86 86 87 87 88 88 89 89 90 90 91 91 92 92 93 93 94 94 95 95 96 96 97 97 98 98 99 99 100 100 101 101 102 102 103 103 104 104 105 105 106 106 107 107 108 108 109 109 110 110 111 111 112 112 113 113 114 114 115 115 116 116 117 117 118 118 119 119 120 120 121 121 122 122 123 123 124 124 125 125 126 126 127 
        </DataArray>
        <DataArray type="Int32" Name="offsets" format="ascii">
          2 4 6 8 10 12 14 16 18 20 22 24 26 28 30 32 34 36 38 40 42 44 46 48 50 52 54 56 58 60 62 64 66 68 70 72 74 76 78 80 82 84 86 88 90 92 94 96 98 100 102 104 106 108 110 112 114 116 118 120 122 124 126 128 130 132 134 136 138 140 142 144 146 148 150 152 154 156 158 160 162 164 166 168 170 172 174 176 178 180 182 184 186 188 190 192 194 196 198 200 202 204 206 208 210 212 214 216 218 220 222 224 226 228 230 232 234 236 238 240 242 244 246 248 250 252 254 
        </DataArray>
        <DataArray type="Int32" Name="types" format="ascii">
          3 3 3 3 3 3 3 3 3 3 3 3 3 3 3 3 3 3 3 3 3 3 3 3 3 3 3 3 3 3 3 3 3 3 3 3 3 3 3 3 3 3 3 3 3 3 3 3 3 3 3 3 3 3 3 3 3 3 3 3 3 3 3 3 3 3 3 3 3 3 3 3 3 3 3 3 3 3 3 3 3 3 3 3 3 3 3 3 3 3 3 3 3 3 3 3 3 3 3 3 3 3 3 3 3 3 3 3 3 3 3 3 3 3 3 3 3 3 3 3 3 3 3 3 3 3 3         </DataArray>
      </Cells>
    </Piece>
  </UnstructuredGrid>
</VTKFile>
