<?xml version="1.0"?>
<VTKFile type="UnstructuredGrid" version="0.1" byte_order="LittleEndian">
  <UnstructuredGrid>
    <Piece NumberOfPoints="128" NumberOfCells="127">
      <PointData Scalars="W">
        <DataArray type="Float32" Name="W" NumberOfComponents="2">
          0 0 -0.2950135649997645 0.2284075038382222 -0.50111515464519318 0.38481557485310419 -0.66559622888425152 0.50503800608386862 -0.81004461051441001 0.60541193780375147 -0.94325232210801047 0.6924232173525019 -1.0696311778667658 0.76918923332982403 -1.1917198799944391 0.83739264710925165 -1.3111066864936929 0.89799415884891953 -1.4289364792678336 0.95161386893295363 -1.54597068766875 0.99858682748675942 -1.6627614019772461 1.0390941530443305 -1.7797269386660388 1.0732189970307955 -1.8972213759573593 1.1009922951986437 -2.0155452888732381 1.1223981445313029 -2.1349272221729048 1.1373638099504557 -2.2554557425782504 1.145729751043383 -2.377236904653377 1.1473389925826518 -2.5003244775435141 1.1419985784512858 -2.6246794045768702 1.1294660155974552 -2.7502499767848456 1.1094909490541769 -2.8769641329131157 1.0818102438476036 -3.0046750494553991 1.0461288236263926 -3.1331603133856314 1.002127637940442 -3.2622133460325928 0.94949766086006882 -3.3914850736453932 0.88789361347187667 -3.5206290541612608 0.81698617366684412 -3.6493333892302502 0.73646305528037082 -3.7771604067798163 0.6459927000979615 -3.9032420145741882 0.54520457924845822 -4.0273356193597589 0.43386386537273192 -4.1488054057408092 0.3116862673997437 -4.2669726028345414 0.17841764976354435 -4.3810615526193404 0.033838208319239033 -4.4902678247769519 -0.12222533234302127 -4.593705299713104 -0.28989370781195883 -4.6905231851793143 -0.46923525214722617 -4.7796609916664412 -0.66023914710563825 -4.8600011505613603 -0.86279979811783225 -4.9305544185459649 -1.0767473662175298 -4.9902238756132826 -1.3018128123305339 -5.037850314308975 -1.5376144411905934 3.5529546239010714 1.108088145809867 3.4513370326295485 0.96838983965606884 3.3406040420767678 0.83833369358776 3.2218646870459371 0.71816209012542631 3.1275056002832105 0.61372182442350121 3.0289682592277094 0.51721181059842847 2.8945508211314355 0.42417496699876966 2.7889892710938873 0.34457082028395042 2.6813393340503628 0.27241143953736208 2.572265607034399 0.20745324208796068 2.4623774649680583 0.14940906519720076 2.3522297783660466 0.097957156964385825 2.2744978744212041 0.053217900133982234 2.1649403712927904 0.012798751669971579 2.0885984222050533 -0.022632771116611827 1.9511162272375657 -0.052193641614622074 1.8144123770212754 -0.07548452497010763 1.6787715916383588 -0.093012184320390351 1.544449492946153 -0.10528230375394942 1.4471098210244107 -0.1158320120134655 1.3171222567943297 -0.11991942076565552 1.1894285321427458 -0.12019407884469105 1.0246109623374593 -0.11261968635108725 0.93915620710168723 -0.11062967448638428 0.85749092097635438 -0.10720981204048161 0.73835983792108895 -0.097069082803489387 0.66311670780403287 -0.090935444823803599 0.59139801928950653 -0.084107236443867292 0.52379739924459434 -0.076865356783920077 0.45934385157110985 -0.06924430327972661 0.35698855081347708 -0.055002147281059427 0.30007267152729072 -0.047037498418869277 0.24698901639224538 -0.039268404991608559 0.19831992937271328 -0.031891687752019823 0.15308029711655041 -0.024836855255309407 0.11185551854355515 -0.018269587103718139 0.074710239228345618 -0.012259669530646763 -0.0012783397577140743 0.00021015533540513578 -0.029516415747013476 0.0048486891181114692 -0.054022072312212462 0.0088557663970603995 -0.074173236816174382 0.012120170314755334 -0.089901026112396393 0.014629742853087437 -0.10111021205826323 0.016374770538814788 -0.10772588050195762 0.017354116199752165 -0.10910314581018569 0.017479220862237799 -0.10627135252794785 0.016931960486850361 -0.098579222688040286 0.015623856349834922 -0.085930869480248084 0.013554436126307415 -0.068226923588553964 0.010718919425515163 -0.045371855659340037 0.0071071846156306575 -0.017240856696513061 0.0026962526440685204 0.016857372057712292 -0.0026362540899321201 0.055867851782225003 -0.0087535285921745871 0.10049324157361601 -0.01580972515973075 0.15088128432265324 -0.023891781249884517 0.20716153678104779 -0.033106851147797295 0.26947109922845774 -0.043590089589882287 0.33858761048118502 -0.055613633958229512 0.41345370585382735 -0.069185610541923293 0.49484896984799825 -0.084652247573147585 0.58294852057747248 -0.10230931638620626 0.67796611126535256 -0.12251262055595372 0.78072347451900825 -0.1457946556467114 0.89018165414238115 -0.17241273545821492 1.0072166070918802 -0.20305078627712497 1.1326967432777442 -0.23850604300016784 1.2216744497881531 -0.269365826831371 1.3631415812886203 -0.3155089509365403 1.4687381567289446 -0.35773405513334744 1.6281250128561517 -0.41830517921448135 1.7504843627165039 -0.47551496688528161 1.9299977518945926 -0.55560176588190258 2.0714844611278505 -0.63338457338535614 2.2722686360536164 -0.73960228278668039 2.4357043934328821 -0.84584175678967277 2.6096456884389769 -0.96845810442007352 2.8474161660597512 -1.1319530642047519 3.0456480725019368 -1.3002228368804516 3.4434807673922903 -1.5853358672177276 -4.8360562092275536 2.1915040635095235 -4.8909531203924876 1.9750773717089032 -4.5330256779714171 1.6242592888985832 -4.1375700074307087 1.316290893183609 -2.9538975861330954 0.84561031544913523 3.3166890179627693 -0.95482023520758508 0 0
        </DataArray>
        <DataArray type="Float32" Name="u" NumberOfComponents="1">
          0 0.007874015748031496 0.015748031496062992 0.023622047244094488 0.031496062992125984 0.03937007874015748 0.047244094488188976 0.055118110236220472 0.062992125984251968 0.070866141732283464 0.07874015748031496 0.086614173228346455 0.094488188976377951 0.10236220472440945 0.11023622047244094 0.11811023622047244 0.12598425196850394 0.13385826771653545 0.14173228346456693 0.14960629921259844 0.15748031496062992 0.16535433070866143 0.17322834645669291 0.18110236220472442 0.1889763779527559 0.19685039370078741 0.20472440944881889 0.2125984251968504 0.22047244094488189 0.2283464566929134 0.23622047244094488 0.24409448818897639 0.25196850393700787 0.25984251968503935 0.26771653543307089 0.27559055118110237 0.28346456692913385 0.29133858267716534 0.29921259842519687 0.30708661417322836 0.31496062992125984 0.32283464566929132 0.33070866141732286 0.33858267716535434 0.34645669291338582 0.3543307086614173 0.36220472440944884 0.37007874015748032 0.37795275590551181 0.38582677165354329 0.39370078740157483 0.40157480314960631 0.40944881889763779 0.41732283464566927 0.42519685039370081 0.43307086614173229 0.44094488188976377 0.44881889763779526 0.45669291338582679 0.46456692913385828 0.47244094488188976 0.48031496062992124 0.48818897637795278 0.49606299212598426 0.50393700787401574 0.51181102362204722 0.51968503937007871 0.52755905511811019 0.53543307086614178 0.54330708661417326 0.55118110236220474 0.55905511811023623 0.56692913385826771 0.57480314960629919 0.58267716535433067 0.59055118110236215 0.59842519685039375 0.60629921259842523 0.61417322834645671 0.62204724409448819 0.62992125984251968 0.63779527559055116 0.64566929133858264 0.65354330708661412 0.66141732283464572 0.6692913385826772 0.67716535433070868 0.68503937007874016 0.69291338582677164 0.70078740157480313 0.70866141732283461 0.71653543307086609 0.72440944881889768 0.73228346456692917 0.74015748031496065 0.74803149606299213 0.75590551181102361 0.76377952755905509 0.77165354330708658 0.77952755905511806 0.78740157480314965 0.79527559055118113 0.80314960629921262 0.8110236220472441 0.81889763779527558 0.82677165354330706 0.83464566929133854 0.84251968503937003 0.85039370078740162 0.8582677165354331 0.86614173228346458 0.87401574803149606 0.88188976377952755 0.88976377952755903 0.89763779527559051 0.90551181102362199 0.91338582677165359 0.92125984251968507 0.92913385826771655 0.93700787401574803 0.94488188976377951 0.952755905511811 0.96062992125984248 0.96850393700787396 0.97637795275590555 0.98425196850393704 0.99212598425196852 1
        </DataArray>
      </PointData>
      <CellData Scalars="P">
        <DataArray type="Float32" Name="P" NumberOfComponents="1">
          -0.011992624478965267 -0.035312787659339165 -0.057039459477228445 -0.076529885676791448 -0.093227919760694056 -0.10661221593204832 -0.11617598630677571 -0.12141701937180899 -0.12183238659595309 -0.11691368645891793 -0.10614598976755198 -0.089006801559117429 -0.064965330261962675 -0.03348120578013479 0.0059964508301006709 0.05402878179550915 0.11118377504010203 0.17803737252249185 0.25517203220130502 0.34317309126496726 0.4426278014247883 0.55412396923379892 0.67824583131417227 0.81556922446585289 0.9666609548237215 1.1320697160204389 1.3123240175735971 1.5079321813316144 1.7193729672143965 1.9470657128889357 2.1914057452215729 2.4527370549153669 2.7313457401965366 3.0274493009165742 3.341190171977654 3.67262508064305 4.0217228784454715 4.3883431464444458 4.7722253932765684 5.1729933983780994 5.5901403785606218 6.0230170913811083 5.6801480635927186 5.3355319135523995 4.9922149516695029 4.6529884357625315 4.3170443410442498 3.9863374752158873 3.666160243757008 3.3546254174022798 3.0530440101368086 2.7625213718766513 2.4839661707003158 2.2181006605781008 1.9619210523163595 1.7194246419106198 1.487377382686909 1.2726635739938339 1.0752770064286494 0.8950632142631183 0.73173107050485475 0.58136949516387304 0.44693766341677854 0.3277871961286894 0.22675002207216119 0.13608841615923142 0.055084411297504632 -0.013690922739023314 -0.074336565693999657 -0.12757943496511123 -0.17418109333272999 -0.21482147156487399 -0.24768913055578473 -0.27616011917398975 -0.30089136656886784 -0.32253186975503279 -0.34164100478376169 -0.35876349022861481 -0.3743983286209876 -0.38771110029965661 -0.40059316927875549 -0.41336998265502078 -0.42632604950505426 -0.43968685446880013 -0.4536181085231471 -0.4682248083182996 -0.4835510308279426 -0.49957872983838081 -0.51623264203275787 -0.53337954925288711 -0.55083019367545383 -0.56834185375444635 -0.5856207989481178 -0.60231048469747772 -0.61804037373346077 -0.63238761380212594 -0.64489476449380689 -0.65507597779193216 -0.66242299533609594 -0.6663841269369466 -0.66644988405697803 -0.66208380209302431 -0.65275570402655703 -0.63794884921336836 -0.61713778124202567 -0.58989503268721477 -0.55580384194262422 -0.51446781884520187 -0.46804613894287589 -0.41390642501558644 -0.35436892509417572 -0.28693853951131187 -0.21421196963074324 -0.13383926436834118 -0.048709540417787169 0.043171321485998129 0.13867000900662657 0.23689150504883247 0.33902020875085798 0.4412860155236315 0.54905696373521695 0.38373740900742254 0.23869127312194491 0.12609914877508641 0.044133252107231687 -0.0011305424015308706 0.0072118588674309368
        </DataArray>
      </CellData>
      <Points>
        <DataArray type="Float32" NumberOfComponents="3" format="ascii">
          3.8565618110807414 8.5963753840003179 0
          3.8613913476051658 8.6025943717928435 0
          3.8662025937643136 8.6088275216108947 0
          3.8709827715561489 8.615084531267815 0
          3.8757216834216495 8.6213728550463067 0
          3.8804103738209381 8.6276987166480428 0
          3.8850405841293338 8.6340675113325034 0
          3.889604479099654 8.6404839992012743 0
          3.8940944894544813 8.6469524095247632 0
          3.8985032134045334 8.653476500304885 0
          3.9028233456555772 8.6600595967190159 0
          3.9070476301891639 8.66670461188966 0
          3.9111688260223789 8.6734140581093548 0
          3.9151796812617894 8.680190051990758 0
          3.9190729111404718 8.6870343163785009 0
          3.9228411793726909 8.6939481793562408 0
          3.9264770839750365 8.7009325697293125 0
          3.9299731517670224 8.7079880071245306 0
          3.9333218317881702 8.7151145922482716 0
          3.9365154919577048 8.7223119949129124 0
          3.9395464214905784 8.7295794389911414 0
          3.9424068340990339 8.7369156868821047 0
          3.9450888724571858 8.7443190231844667 0
          3.9475846173022902 8.7517872363884557 0
          3.9498861012241253 8.7593175990808714 0
          3.9519853214740479 8.7669068487712263 0
          3.9538742616107241 8.7745511664697169 0
          3.9555449129843323 8.7822461562543683 0
          3.9569892940805773 8.7899868258943847 0
          3.9581994776648268 8.7977675662786705 0
          3.9591676446160338 8.8055821284282434 0
          3.959886098978826 8.813423608923177 0
          3.9603473073987772 8.8212844322632709 0
          3.9605439412228876 8.8291563350994 0
          3.9604689246092692 8.8370303525946508 0
          3.9601154844224866 8.8448968076718462 0
          3.9594772051955802 8.8527453035203809 0
          3.958548081902856 8.860564719354036 0
          3.9573225857363066 8.8683432110787148 0
          3.9557957334222524 8.8760682178390891 0
          3.9539631485815288 8.88372647255121 0
          3.951821129766568 8.8913040185886292 0
          3.9493667223606415 8.8987862334565921 0
          3.9471326272842417 8.9063371513264826 0
          3.9451125432238996 8.9139481083146617 0
          3.9432996035217349 8.9216110384511005 0
          3.9416864449610203 8.9293184887242525 0
          3.9402672158623782 8.9370639823301943 0
          3.9390358054453638 8.9448415342756391 0
          3.937983878205078 8.9526453743116097 0
          3.9371048877693737 8.9604705658846573 0
          3.936392158288474 8.9683126341441977 0
          3.9358389256532536 8.976167550836804 0
          3.9354383752884363 8.9840317164978707 0
          3.93518367656521 8.9919019404982716 0
          3.9350700088419619 8.999775449112791 0
          3.9350905782010717 9.0076497359150736 0
          3.9352406503113717 9.0155226043837082 0
          3.9355116999026234 9.0233922209351505 0
          3.93589525001223 9.0312571408495224 0
          3.936382889650603 9.0391162768523241 0
          3.9369662896613415 9.0469688677636828 0
          3.9376394140505275 9.0548142597225212 0
          3.9383942025837215 9.0626521991046118 0
          3.939222737342849 9.0704826688126339 0
          3.9401147986758205 9.0783061380289656 0
          3.9410650878477882 9.0861227308542141 0
          3.9420685411663263 9.093932660114767 0
          3.9431177720184181 9.1017365549765508 0
          3.944208115073681 9.1095347967167992 0
          3.9453351235971219 9.1173278097442711 0
          3.9464946062490727 9.125116044187358 0
          3.9476825668745605 9.1328999737461825 0
          3.9488926594026328 9.140680482446955 0
          3.9501213551496792 9.1484580655054835 0
          3.9513653630779189 9.1562332060828098 0
          3.9526216658944433 9.1640063630838622 0
          3.9538874589666428 9.1717779755232769 0
          3.9551601866114581 9.179548452255343 0
          3.9564375460976811 9.1873181676463318 0
          3.9577148264275634 9.1950878966806755 0
          3.9589902771598133 9.202857928919963 0
          3.9602623792696292 9.2106285148397156 0
          3.9615298837139608 9.2183998589312122 0
          3.9627918156999118 9.2261721189443726 0
          3.9640474805875945 9.2339454052814869 0
          3.9652964685347105 9.2417197809221729 0
          3.9665386944804797 9.2494952559226604 0
          3.9677743343292202 9.2572717986947648 0
          3.9690038653334647 9.2650493305101769 0
          3.9702280720445615 9.2728277254641238 0
          3.971448052480838 9.2806068101712658 0
          3.972665224059408 9.2883863631299057 0
          3.9738813313451105 9.2961661132880113 0
          3.975098488924361 9.30394573243602 0
          3.9763191160097855 9.3117248436971121 0
          3.9775459800219428 9.3195030119497826 0
          3.9787822057677142 9.3272797384251316 0
          3.9800312834930214 9.3350544540501819 0
          3.9812970774051029 9.3428265110540494 0
          3.9825838739123536 9.3505951660642026 0
          3.9838963160891976 9.3583595796141505 0
          3.9852394520396186 9.3661187946446702 0
          3.9866187457833551 9.3738717181450735 0
          3.988040090539021 9.3816170990692562 0
          3.9895098597068692 9.3893534952750315 0
          3.9910348424784661 9.3970792575789552 0
          3.9926222981829542 9.4047924873004369 0
          3.9942800101667344 9.4124909867725126 0
          3.9960134987202092 9.4201728445660464 0
          3.9978315393109045 9.4278351997707865 0
          3.9997406835743896 9.4354754357441255 0
          4.0017508191045472 9.4430897961987661 0
          4.003869537974877 9.4506747346870625 0
          4.0061079769145325 9.4582252837831682 0
          4.0084749152376622 9.4657366204049698 0
          4.0109828099301961 9.4732021554722863 0
          4.0136418026997909 9.480615300003528 0
          4.0164626874877714 9.4879684488060434 0
          4.0194602170585716 9.4952514583041729 0
          4.0226466932840941 9.5024538903623501 0
          4.0260467957105286 9.5095580499543164 0
          4.0291467706078592 9.5167977813717624 0
          4.0319432782099156 9.5241596969749338 0
          4.034458566794811 9.5316220657897013 0
          4.0367172021740725 9.5391658222900535 0
          4.0387926118584661 9.5467618019582439 0
          4.0410736010882324 9.5542983379755526 0
        </DataArray>
      </Points>
      <Cells>
        <DataArray type="Int32" Name="connectivity" format="ascii">
          0 1 1 2 2 3 3 4 4 5 5 6 6 7 7 8 8 9 9 10 10 11 11 12 12 13 13 14 14 15 15 16 16 17 17 18 18 19 19 20 20 21 21 22 22 23 23 24 24 25 25 26 26 27 27 28 28 29 29 30 30 31 31 32 32 33 33 34 34 35 35 36 36 37 37 38 38 39 39 40 40 41 41 42 42 43 43 44 44 45 45 46 46 47 47 48 48 49 49 50 50 51 51 52 52 53 53 54 54 55 55 56 56 57 57 58 58 59 59 60 60 61 61 62 62 63 63 64 64 65 65 66 66 67 67 68 68 69 69 70 70 71 71 72 72 73 73 74 74 75 75 76 76 77 77 78 78 79 79 80 80 81 81 82 82 83 83 84 84 85 85 86 86 87 87 88 88 89 89 90 90 91 91 92 92 93 93 94 94 95 95 96 96 97 97 98 98 99 99 100 100 101 101 102 102 103 103 104 104 105 105 106 106 107 107 108 108 109 109 110 110 111 111 112 112 113 113 114 114 115 115 116 116 117 117 118 118 119 119 120 120 121 121 122 122 123 123 124 124 125 125 126 126 127 
        </DataArray>
        <DataArray type="Int32" Name="offsets" format="ascii">
          2 4 6 8 10 12 14 16 18 20 22 24 26 28 30 32 34 36 38 40 42 44 46 48 50 52 54 56 58 60 62 64 66 68 70 72 74 76 78 80 82 84 86 88 90 92 94 96 98 100 102 104 106 108 110 112 114 116 118 120 122 124 126 128 130 132 134 136 138 140 142 144 146 148 150 152 154 156 158 160 162 164 166 168 170 172 174 176 178 180 182 184 186 188 190 192 194 196 198 200 202 204 206 208 210 212 214 216 218 220 222 224 226 228 230 232 234 236 238 240 242 244 246 248 250 252 254 
        </DataArray>
        <DataArray type="Int32" Name="types" format="ascii">
          3 3 3 3 3 3 3 3 3 3 3 3 3 3 3 3 3 3 3 3 3 3 3 3 3 3 3 3 3 3 3 3 3 3 3 3 3 3 3 3 3 3 3 3 3 3 3 3 3 3 3 3 3 3 3 3 3 3 3 3 3 3 3 3 3 3 3 3 3 3 3 3 3 3 3 3 3 3 3 3 3 3 3 3 3 3 3 3 3 3 3 3 3 3 3 3 3 3 3 3 3 3 3 3 3 3 3 3 3 3 3 3 3 3 3 3 3 3 3 3 3 3 3 3 3 3 3         </DataArray>
      </Cells>
    </Piece>
  </UnstructuredGrid>
</VTKFile>
