<?xml version="1.0"?>
<VTKFile type="UnstructuredGrid" version="0.1" byte_order="LittleEndian">
  <UnstructuredGrid>
    <Piece NumberOfPoints="128" NumberOfCells="127">
      <PointData Scalars="W">
        <DataArray type="Float32" Name="W" NumberOfComponents="2">
          0 0 0.11612163142414367 -0.024241896246585522 0.16381371183698304 -0.03439078979098667 0.2126973425324738 -0.044989886923178943 0.26331797230915349 -0.056224522060459019 0.31581795006649216 -0.06820501257956528 0.37039701879721498 -0.081064613372533012 0.42717817303802008 -0.094932180806352809 0.48623056857349023 -0.10993755501967233 0.54751055231806212 -0.12619797807658645 0.61096246083476435 -0.14383993353534347 0.67647759870702029 -0.16298926304723393 0.74390363213113486 -0.1837719748525567 0.81300491787104689 -0.20630226408880409 0.88351422622386144 -0.23069206158376365 0.95515316580247089 -0.25705389893716502 1.0277088586350744 -0.28552046396532921 1.1008748123135303 -0.31620031571022089 1.1743515029081761 -0.34920148478984409 1.2478567557220506 -0.38463323708786684 1.3210921933490407 -0.42259448837546915 1.3937123593832024 -0.46316039659490527 1.4653835055860824 -0.50639733059579262 1.5357880852849519 -0.5523630535529892 1.6045417627477956 -0.60107411411728384 1.6713450052566821 -0.65255754533721599 1.7358357468652086 -0.70679518044595779 1.7975779426882579 -0.76370977297119014 1.8562114232953302 -0.82322129098344243 1.9116851016905398 -0.88536202602159519 1.9633296721920099 -0.94985382719142086 2.010805114883532 -1.0165161813704513 2.05375329303802 -1.0851155459794337 2.0918634338187467 -1.1553952245323704 2.1248205905900259 -1.2270469332045861 2.1523442512216384 -1.2997288106967375 2.1740833798994865 -1.3729974852504947 2.1898501411690492 -1.4464471640644569 2.1995064294925806 -1.519651182203076 2.2028135413296894 -1.5920541743883412 2.1996001327493881 -1.663074926066727 2.1897702753132973 -1.7321172854245397 -5.754243032402278 4.3900752346729339 -5.9687043092327494 4.0384038803765625 -6.1626429899010073 3.6790455981349668 -6.3352587077896629 3.3126248785627417 -6.4863565722077103 2.9402473292174962 -6.6151369360494767 2.5628093304309316 -6.7215123966088219 2.1816215254491769 -6.8047801594294954 1.7978358012107287 -6.8648514907919402 1.4128965347185742 -6.901780022905494 1.0282830075659495 -6.9151541477177698 0.64544542179157682 -6.9050604156959601 0.26599264227134101 -4.842062474847034 -0.037675133611923234 -4.8020764433242933 -0.21999424069567397 -4.6842354106977826 -0.39073410233237982 -4.6279542386535262 -0.55846083457588847 -4.419782164525607 -0.69544107090089602 -4.1974698965743746 -0.80952941622388419 -3.8763867033245383 -0.87909435972686722 -3.7152380926091326 -0.96362160418201837 -3.455916947672462 -1.0052480097110725 -3.287645385223394 -1.0561643028546508 -2.9030644996585537 -1.0156624220548294 -2.8289063863367967 -1.0666382142661845 -2.6431461633139408 -1.0670534473016966 -2.4555114029175606 -1.0539687097694608 -2.3855931068533249 -1.0833739832483482 -2.3112175337947907 -1.1070357194857108 -2.12336529089057 -1.0683203286812262 -2.0507938554420138 -1.079768747097654 -1.8634098613845365 -1.0231441157119923 -1.7972684210602257 -1.025826707035574 -1.611113476020243 -0.95302387156379953 -1.5445464178097197 -0.94414159026235023 -1.4789181003610796 -0.93274040736560238 -1.2963916848713555 -0.84132069121709352 -1.2382993948479746 -0.82480476443041928 -1.1775945269764474 -0.80402615349077033 -0.99906448096179201 -0.697492620892319 -0.94261135286818976 -0.67128149388156555 -0.8876246816040223 -0.6440706933826007 -0.71300182719346061 -0.52590747124997339 -0.6658264636028004 -0.49809818933374633 -0.61644644575096053 -0.46726222334892176 -0.44518363083079232 -0.3411436718187984 -0.40008514037641946 -0.3092599512166832 -0.35654153385046228 -0.27775519963816431 -0.18801088075148345 -0.14728882300133342 -0.15229836205747865 -0.11973053991977251 -0.11486255225973116 -0.090549125529886795 0.051497975878744565 0.040623715653165846 0.084813646829835512 0.0668105167507069 0.11583157799461058 0.091055844467404806 0.27622090657217585 0.21626363618389755 0.30250805837639505 0.23543769633584569 0.32589569690411924 0.25200544195437663 0.48780807267032339 0.37406649334115322 0.50130555287747169 0.38053206436150339 0.51515708592316034 0.38699009480765129 0.67324453363966552 0.49962553078011857 0.67968812577116766 0.49746696340266872 0.83195924125335063 0.59956963659329576 0.82937285274692141 0.58763293305138131 0.82082999034097093 0.57184436832193031 0.96439031706076273 0.65969759511600157 0.94373344088925337 0.6330720185469545 1.0860590992682568 0.71353795097290518 1.0459484251249707 0.67228900914067635 1.1801900246659707 0.74136873276959636 1.3134784557078378 0.8040858601046128 1.2458700539954535 0.7426691709310882 1.3663413187700186 0.79253892724362374 1.4781746461833454 0.83210651328733942 1.5911750704496428 0.86698329523791939 1.6933228512291973 0.89066788384282258 2.0521568475814465 1.0363075828630319 2.4113402409999822 1.158954230168755 3.0908844404819473 1.395622587667652 4.1862845840473533 1.7350075093411679 4.2823732504968071 1.5973729498740659 5.5388001367448956 1.8111598374525801 7.533222505512108 2.0225628260707063 9.2561464198476138 1.8217305412385474 7.8701227688167679 0.99557803134691236 1.1231754797870244 0.10147191083165787 0 0
        </DataArray>
        <DataArray type="Float32" Name="u" NumberOfComponents="1">
          0 0.007874015748031496 0.015748031496062992 0.023622047244094488 0.031496062992125984 0.03937007874015748 0.047244094488188976 0.055118110236220472 0.062992125984251968 0.070866141732283464 0.07874015748031496 0.086614173228346455 0.094488188976377951 0.10236220472440945 0.11023622047244094 0.11811023622047244 0.12598425196850394 0.13385826771653545 0.14173228346456693 0.14960629921259844 0.15748031496062992 0.16535433070866143 0.17322834645669291 0.18110236220472442 0.1889763779527559 0.19685039370078741 0.20472440944881889 0.2125984251968504 0.22047244094488189 0.2283464566929134 0.23622047244094488 0.24409448818897639 0.25196850393700787 0.25984251968503935 0.26771653543307089 0.27559055118110237 0.28346456692913385 0.29133858267716534 0.29921259842519687 0.30708661417322836 0.31496062992125984 0.32283464566929132 0.33070866141732286 0.33858267716535434 0.34645669291338582 0.3543307086614173 0.36220472440944884 0.37007874015748032 0.37795275590551181 0.38582677165354329 0.39370078740157483 0.40157480314960631 0.40944881889763779 0.41732283464566927 0.42519685039370081 0.43307086614173229 0.44094488188976377 0.44881889763779526 0.45669291338582679 0.46456692913385828 0.47244094488188976 0.48031496062992124 0.48818897637795278 0.49606299212598426 0.50393700787401574 0.51181102362204722 0.51968503937007871 0.52755905511811019 0.53543307086614178 0.54330708661417326 0.55118110236220474 0.55905511811023623 0.56692913385826771 0.57480314960629919 0.58267716535433067 0.59055118110236215 0.59842519685039375 0.60629921259842523 0.61417322834645671 0.62204724409448819 0.62992125984251968 0.63779527559055116 0.64566929133858264 0.65354330708661412 0.66141732283464572 0.6692913385826772 0.67716535433070868 0.68503937007874016 0.69291338582677164 0.70078740157480313 0.70866141732283461 0.71653543307086609 0.72440944881889768 0.73228346456692917 0.74015748031496065 0.74803149606299213 0.75590551181102361 0.76377952755905509 0.77165354330708658 0.77952755905511806 0.78740157480314965 0.79527559055118113 0.80314960629921262 0.8110236220472441 0.81889763779527558 0.82677165354330706 0.83464566929133854 0.84251968503937003 0.85039370078740162 0.8582677165354331 0.86614173228346458 0.87401574803149606 0.88188976377952755 0.88976377952755903 0.89763779527559051 0.90551181102362199 0.91338582677165359 0.92125984251968507 0.92913385826771655 0.93700787401574803 0.94488188976377951 0.952755905511811 0.96062992125984248 0.96850393700787396 0.97637795275590555 0.98425196850393704 0.99212598425196852 1
        </DataArray>
      </PointData>
      <CellData Scalars="P">
        <DataArray type="Float32" Name="P" NumberOfComponents="1">
          0.019296284294446523 0.057925486729331024 0.096646543167005328 0.13554199351257126 0.17472334659785754 0.21433190426605436 0.25453984503508215 0.29555072942385824 0.33759948188490907 0.38095110851896985 0.42589914951288171 0.47276295904165783 0.52188405912099778 0.57362078312249454 0.62834242836662668 0.68642290563995623 0.74823553260158659 0.81414396553306867 0.88449450991067746 0.95960849842078533 1.0397735220099105 1.125233245662171 1.2161788250407597 1.3127406710050142 1.4149771204706598 1.5228692152116399 1.6363100567234687 1.7550935779880696 1.8789105429068138 2.007357157612093 2.1399002796045417 2.2758882177898263 2.414546729336112 2.5549796907179925 2.6961687850136924 2.836976831804185 2.9761479705604672 3.1123213604100295 3.2440410356332565 3.3697614362718222 3.4878635388668724 3.5966736317796131 3.4686256801776572 3.3531889855385488 3.2471106476832348 3.1472264338575999 3.0504633015585161 2.9538721796452236 2.8546329648076205 2.7500890647301182 2.6377565616179508 2.515342273793749 2.3807762378661677 2.2322219659668381 2.1305789619642161 2.0195509648018124 1.901550555270169 1.7744299764631288 1.6441392125487941 1.51212829542081 1.3839047519899583 1.2535975854821464 1.1270116403892692 1.000865871490364 0.88807222732219826 0.77311035465873923 0.66318209321533683 0.55953593484555997 0.45585816008535879 0.35300261607391348 0.25905878148423994 0.16718615618375485 0.085806190338679492 0.0072785170093921572 -0.059490848732449864 -0.1223516064247549 -0.1809952797210348 -0.22675910749116404 -0.26815500940981341 -0.30476076605354657 -0.32816124775175171 -0.34677351804221607 -0.36060713876691058 -0.36172541348370835 -0.35868541625999079 -0.35138976121189036 -0.33264412822912154 -0.31039250948377056 -0.28489276004248598 -0.24992337203876738 -0.21290983648134149 -0.17400670991125286 -0.1281783305531938 -0.081656988496305496 -0.034806552460655747 0.015909361618321859 0.065727231018518087 0.11433260669713151 0.16386876173750592 0.21102495075014596 0.25568944630396689 0.29842971042795702 0.33788891982291946 0.37359514322887999 0.40556309881593089 0.43401379360600173 0.4570199282838851 0.47669973751497235 0.4901278926656461 0.50102284005439079 0.50553475977701257 0.5035538627454984 0.50093489624684528 0.49276379335059578 0.47973647985286288 0.46246190295113404 0.44213494265300041 0.41205456720701467 0.37412792680931078 0.32210818333577096 0.25006547464833895 0.18768643773807689 0.1151088722369992 0.031099288016835352 -0.037243423801578739 -0.060167727697448652 -0.021342618756657661
        </DataArray>
      </CellData>
      <Points>
        <DataArray type="Float32" NumberOfComponents="3" format="ascii">
          3.8252447916271972 8.1682055717788575 0
          3.8268503971354741 8.1759146143897539 0
          3.8284632015152913 8.1836221465878118 0
          3.8300861610535684 8.191327534622868 0
          3.8317223061122392 8.199030117948352 0
          3.8333747748530325 8.2067291973025007 0
          3.835046822021841 8.2144240276984544 0
          3.8367418313104134 8.2221138100757898 0
          3.838463322967697 8.2297976832606388 0
          3.8402149580778189 8.2374747158828328 0
          3.8420005358467249 8.2451438990839403 0
          3.8438239901469227 8.2528041386580195 0
          3.8456893827764453 8.2604542472355291 0
          3.8476008940143833 8.2680929364588902 0
          3.8495628080132445 8.2757188098916394 0
          3.8515794962351793 8.2833303560684239 0
          3.8536554001984689 8.2909259415078651 0
          3.8557950182881999 8.2985038024754605 0
          3.8580028867646896 8.3060620382420822 0
          3.8602835612060029 8.3135986043746168 0
          3.8626415990280005 8.3211113059492252 0
          3.8650815410014507 8.3285977914053628 0
          3.8676078898517106 8.336055547871819 0
          3.8702250895856047 8.3434818970364759 0
          3.8729375058238458 8.3508739915484131 0
          3.875749401993275 8.3582288139740051 0
          3.8786649207774073 8.3655431751016422 0
          3.8816880616900895 8.3728137150474442 0
          3.8848226540623414 8.3800369080225465 0
          3.8880723347330464 8.3872090672717388 0
          3.8914405449021028 8.3943263430467017 0
          3.8949304886528369 8.4013847398255663 0
          3.898545111888791 8.408380127477864 0
          3.9022870801455958 8.4153082557165355 0
          3.9061587593374676 8.4221647699848408 0
          3.9101621962427742 8.4289452305414336 0
          3.914299101122221 8.4356451336273075 0
          3.918570825961802 8.4422599389269788 0
          3.9229783528318749 8.4487850947005416 0
          3.9275222853271194 8.4552160642110525 0
          3.9322028337663872 8.4615483601335431 0
          3.9370198045663853 8.4677775805692761 0
          3.9419725942889419 8.4738994459891597 0
          3.9465686159684399 8.4802935836641549 0
          3.9507945645378721 8.4869381979440632 0
          3.954638406053975 8.4938110162543001 0
          3.958089427304929 8.5008893276536597 0
          3.9611382478996915 8.5081500512315245 0
          3.9637768698708089 8.5155697915037063 0
          3.9659986831417022 8.5231249195118988 0
          3.9677985091748362 8.5307916440535596 0
          3.9691726065737187 8.5385461010688086 0
          3.9701186678818741 8.5463644452011351 0
          3.9706358452621178 8.5542229395426777 0
          3.9707247453149064 8.5620980552476524 0
          3.9705133129474817 8.5699708732724016 0
          3.9700040238419936 8.5778300853293743 0
          3.9692041831992904 8.5856650978197688 0
          3.9681172779730574 8.5934655066147325 0
          3.9667562180233578 8.6012228078063586 0
          3.9651347916905104 8.6089299166369688 0
          3.9632729163715723 8.6165825055218708 0
          3.9611805885504947 8.6241753260747132 0
          3.9588738963316166 8.6317057866117004 0
          3.9563632797954944 8.6391707234882595 0
          3.9536726005296532 8.6465726340172946 0
          3.9508064608884879 8.6539083555653189 0
          3.9477763877569121 8.6611778568173214 0
          3.944594024626888 8.6683819439753123 0
          3.9412637113246496 8.6755187930548612 0
          3.9377900642119492 8.6825869362178416 0
          3.9341847404154264 8.6895887699176022 0
          3.930452244382808 8.6965235842376725 0
          3.9266042040584277 8.7033948868394386 0
          3.9226447247732956 8.7102025120625228 0
          3.9185853578056635 8.7169509714094193 0
          3.9144302345211734 8.7236408167737167 0
          3.9101834278416505 8.7302727563748501 0
          3.9058562628607314 8.7368524569762016 0
          3.9014523443228857 8.7433809445788473 0
          3.8969754387828237 8.7498595095134331 0
          3.8924366218518132 8.7562947565319433 0
          3.8878393954199102 8.7626883133394831 0
          3.8831871700620559 8.7690418697587038 0
          3.878490776986466 8.7753627525260107 0
          3.8737531411054271 8.7816526892204934 0
          3.8689773236953018 8.7879135951635661 0
          3.8641739451445876 8.794153291396956 0
          3.8593457998605905 8.8003737589109079 0
          3.8544955853892784 8.8065769554254629 0
          3.8496337499780799 8.8127709729614345 0
          3.8447625041143993 8.818957525537499 0
          3.8398841647431374 8.8251384280881489 0
          3.8350090427565098 8.8313218183906823 0
          3.8301391981991841 8.8375093270019249 0
          3.8252765482545996 8.8437024645836591 0
          3.8204310308982894 8.8499090018390962 0
          3.8156042687176552 8.8561301367402265 0
          3.8107977042176273 8.8623669063053789 0
          3.8060213674975838 8.8686268898537115 0
          3.8012760868692044 8.8749105002935806 0
          3.7965627123896062 8.8812181508746875 0
          3.7918910353293009 8.8875568413436543 0
          3.7872614458022489 8.8939264535042994 0
          3.782683373747016 8.9003333382917535 0
          3.7781566491269678 8.9067767743978958 0
          3.7736807326152246 8.9132558026461908 0
          3.7692645139888428 8.9197758971882912 0
          3.7649067029210213 8.9263354303668834 0
          3.7606161131498825 8.9329394241734565 0
          3.7563902485205447 8.9395853476236198 0
          3.7522374226412532 8.9462775229106022 0
          3.7481658912245184 8.9530198823926384 0
          3.7441714541990705 8.9598086511099329 0
          3.7402615745366821 8.9666469717473003 0
          3.7364431815016164 8.9735373530374254 0
          3.732723279116994 8.9804820189196732 0
          3.7291082010695775 8.9874825046786455 0
          3.7256202104239105 8.9945479446558636 0
          3.7222816033625667 9.0016860613637277 0
          3.7191345757932393 9.0089117057808856 0
          3.7162471768738996 9.016246181884183 0
          3.7136254537540347 9.0236810931512181 0
          3.7113475703975922 9.0312300298139281 0
          3.7095376873136559 9.0389065829351587 0
          3.7083036116893018 9.0466962287502408 0
          3.707559092577883 9.0545474402068926 0
          3.7068845195751821 9.0624038658120156 0
        </DataArray>
      </Points>
      <Cells>
        <DataArray type="Int32" Name="connectivity" format="ascii">
          0 1 1 2 2 3 3 4 4 5 5 6 6 7 7 8 8 9 9 10 10 11 11 12 12 13 13 14 14 15 15 16 16 17 17 18 18 19 19 20 20 21 21 22 22 23 23 24 24 25 25 26 26 27 27 28 28 29 29 30 30 31 31 32 32 33 33 34 34 35 35 36 36 37 37 38 38 39 39 40 40 41 41 42 42 43 43 44 44 45 45 46 46 47 47 48 48 49 49 50 50 51 51 52 52 53 53 54 54 55 55 56 56 57 57 58 58 59 59 60 60 61 61 62 62 63 63 64 64 65 65 66 66 67 67 68 68 69 69 70 70 71 71 72 72 73 73 74 74 75 75 76 76 77 77 78 78 79 79 80 80 81 81 82 82 83 83 84 84 85 85 86 86 87 87 88 88 89 89 90 90 91 91 92 92 93 93 94 94 95 95 96 96 97 97 98 98 99 99 100 100 101 101 102 102 103 103 104 104 105 105 106 106 107 107 108 108 109 109 110 110 111 111 112 112 113 113 114 114 115 115 116 116 117 117 118 118 119 119 120 120 121 121 122 122 123 123 124 124 125 125 126 126 127 
        </DataArray>
        <DataArray type="Int32" Name="offsets" format="ascii">
          2 4 6 8 10 12 14 16 18 20 22 24 26 28 30 32 34 36 38 40 42 44 46 48 50 52 54 56 58 60 62 64 66 68 70 72 74 76 78 80 82 84 86 88 90 92 94 96 98 100 102 104 106 108 110 112 114 116 118 120 122 124 126 128 130 132 134 136 138 140 142 144 146 148 150 152 154 156 158 160 162 164 166 168 170 172 174 176 178 180 182 184 186 188 190 192 194 196 198 200 202 204 206 208 210 212 214 216 218 220 222 224 226 228 230 232 234 236 238 240 242 244 246 248 250 252 254 
        </DataArray>
        <DataArray type="Int32" Name="types" format="ascii">
          3 3 3 3 3 3 3 3 3 3 3 3 3 3 3 3 3 3 3 3 3 3 3 3 3 3 3 3 3 3 3 3 3 3 3 3 3 3 3 3 3 3 3 3 3 3 3 3 3 3 3 3 3 3 3 3 3 3 3 3 3 3 3 3 3 3 3 3 3 3 3 3 3 3 3 3 3 3 3 3 3 3 3 3 3 3 3 3 3 3 3 3 3 3 3 3 3 3 3 3 3 3 3 3 3 3 3 3 3 3 3 3 3 3 3 3 3 3 3 3 3 3 3 3 3 3 3         </DataArray>
      </Cells>
    </Piece>
  </UnstructuredGrid>
</VTKFile>
