<?xml version="1.0"?>
<VTKFile type="UnstructuredGrid" version="0.1" byte_order="LittleEndian">
  <UnstructuredGrid>
    <Piece NumberOfPoints="128" NumberOfCells="127">
      <PointData Scalars="W">
        <DataArray type="Float32" Name="W" NumberOfComponents="2">
          0 0 0.060078187613427501 -0.0036089588533992469 0.064212051452329375 -0.00388887884178822 0.079077993649851769 -0.0048340671555613893 0.10162157904366524 -0.0062848747920626535 0.1305291342526548 -0.0081926909135350921 0.16519575117144988 -0.010562051731199305 0.20522949215852412 -0.013422868638449154 0.25034723467586256 -0.016825772190708899 0.3002352693209509 -0.020834132258485735 0.35465384811947964 -0.025531699229323235 0.41332845287689579 -0.031015639800345076 0.4759960763864311 -0.037399583400234894 0.54239444166458417 -0.044812593407798758 0.61222847514040746 -0.053395609240846242 0.68520126370729562 -0.063302531728254285 0.76110123816032749 -0.074707706216155842 0.83963265893079952 -0.087789596645754267 0.92053425100758479 -0.10273996105019828 1.0035695971288214 -0.11976264637323843 1.0884806807506506 -0.1390673527622272 1.1749734637044478 -0.16086520167819054 1.2627654089650457 -0.18537236497923987 1.3515475333622131 -0.21280289438765096 1.4409965113482177 -0.24336739570599655 1.5308272671655929 -0.27727999647394697 1.620683073464332 -0.31473746554138099 1.7101453957238302 -0.35591386948658155 1.7988639107308093 -0.40098280841955913 1.8867595734075233 -0.45017129379716092 1.9730649476703714 -0.50353261999917409 2.0573631035482505 -0.56116684509412973 2.139232510602842 -0.62314637184703103 2.2182292640476842 -0.68950711086156447 2.2938883874817444 -0.76024341954339292 2.36571355262185 -0.8352984343884543 2.4331365402984333 -0.91454031742326836 2.4957144507829452 -0.99782844644864577 2.5530224060266797 -1.0849795171294625 2.6045104179787435 -1.1756992936154436 2.6496810802389512 -1.2696439974317157 2.6880738595808826 -1.3664130459257038 -4.6697198546966696 2.3230421671577637 -4.5817904565558436 2.0533343736104888 -4.5331867080802848 1.8227549679166291 -4.4708348547923418 1.6035069115328975 -4.3955958880192627 1.3959594792985635 -4.3083147359301934 1.200428384216417 -4.2098048442599048 1.0171713856301221 -4.1765064584142699 0.8606858179819914 -4.1415834798426943 0.7104929094685275 -4.0996553842249241 0.56543122136765578 -4.0497422461021833 0.42568154172496753 -3.9956651392159834 0.29188420842822804 -3.9361092806625693 0.16397281422277729 -3.8723235822873137 0.042113244555110486 -3.6426110139903733 -0.068190022007137974 -3.398745662539711 -0.15801817101404356 -3.1440650400585644 -0.22761219936212448 -2.8756662185522748 -0.27707484828431844 -2.5969293288518918 -0.30714734071333305 -2.301024383687448 -0.31762265490996916 -2.1124168431483161 -0.32949268091948752 -1.7985705911818759 -0.30935825570774894 -1.4695998516668574 -0.27259682843731564 -1.4014874062904545 -0.27668442707762919 -1.1914128569901912 -0.24813166367684419 -1.1198085571622793 -0.24411094226704955 -0.90627973162519981 -0.2053343270579337 -0.83962752007088526 -0.19646964523635799 -0.62249977068057927 -0.14955216956094225 -0.55236504109099194 -0.13548681314857577 -0.48257033949087197 -0.12051692210828131 -0.26629925016651751 -0.067366105051476471 -0.19730511505962373 -0.05030808107737364 -0.12864364513860774 -0.032982581808588124 0.095807380533238173 0.024577410755533421 0.16371203418212363 0.041812979337281016 0.22672555955497975 0.057524064277161557 0.4554847195651861 0.11422225521100357 0.52217027631801849 0.12874596425921531 0.58824781289172323 0.14223301200168509 0.65361712240721936 0.15456510281652372 0.88181265533382014 0.20275726716837578 0.9459554741701931 0.21017046163069497 1.0090555232481648 0.21586295897473909 1.2458484497919791 0.2547259868206232 1.3070594702948746 0.25331505785444147 1.3667045752000391 0.24971614398876305 1.6064661692296047 0.27383423753866937 1.6581685226562284 0.26047130320638401 1.7123853709630932 0.24549045763394162 1.9533485554137542 0.25105967325873219 2.0026739158982547 0.22552344977409347 2.0486453153110982 0.19748528767858697 2.0909208477767147 0.16708310152104575 2.3261140055297509 0.14511594905383071 2.3550821073556309 0.10333033750375725 2.5880800331516234 0.063091887096958635 2.6116303390976028 0.010178288816267471 2.6290542360282481 -0.044010473537018167 2.8506134899312814 -0.10929944048453513 2.8485345491412959 -0.17338362013899464 3.0610845587282878 -0.25812388988094498 3.0469714262810412 -0.3312514480726827 3.0238719298570977 -0.4026252510933363 3.2135165029012032 -0.50934975293869555 3.3920638849045552 -0.62985071131696935 3.3336023956865777 -0.71263402199885062 3.4972018495959118 -0.84915512388920922 3.4058376324978963 -0.92895228931590768 3.5448417309160303 -1.0762654970020196 3.6713239164789253 -1.2354782680247933 3.5294265582368656 -1.3071652020670665 3.6240649388858976 -1.4682348287884175 3.6960172580546078 -1.63392670186851 3.754481572764242 -1.8070501087439275 3.7856098376187113 -1.9796218616822172 4.0646904389741731 -2.3115558551081783 2.685506436434971 -1.6387529485087724 2.5310648412625691 -1.630061361160039 2.3354462948446013 -1.5811565972901451 2.4159199709715424 -1.7172349132048566 2.7889894052574498 -2.0911297630947754 2.9742656439389648 -2.3664894595913948 3.1691811062840483 -2.6881454511400973 4.6376728429622425 -4.2748845583340307 0 0
        </DataArray>
        <DataArray type="Float32" Name="u" NumberOfComponents="1">
          0 0.007874015748031496 0.015748031496062992 0.023622047244094488 0.031496062992125984 0.03937007874015748 0.047244094488188976 0.055118110236220472 0.062992125984251968 0.070866141732283464 0.07874015748031496 0.086614173228346455 0.094488188976377951 0.10236220472440945 0.11023622047244094 0.11811023622047244 0.12598425196850394 0.13385826771653545 0.14173228346456693 0.14960629921259844 0.15748031496062992 0.16535433070866143 0.17322834645669291 0.18110236220472442 0.1889763779527559 0.19685039370078741 0.20472440944881889 0.2125984251968504 0.22047244094488189 0.2283464566929134 0.23622047244094488 0.24409448818897639 0.25196850393700787 0.25984251968503935 0.26771653543307089 0.27559055118110237 0.28346456692913385 0.29133858267716534 0.29921259842519687 0.30708661417322836 0.31496062992125984 0.32283464566929132 0.33070866141732286 0.33858267716535434 0.34645669291338582 0.3543307086614173 0.36220472440944884 0.37007874015748032 0.37795275590551181 0.38582677165354329 0.39370078740157483 0.40157480314960631 0.40944881889763779 0.41732283464566927 0.42519685039370081 0.43307086614173229 0.44094488188976377 0.44881889763779526 0.45669291338582679 0.46456692913385828 0.47244094488188976 0.48031496062992124 0.48818897637795278 0.49606299212598426 0.50393700787401574 0.51181102362204722 0.51968503937007871 0.52755905511811019 0.53543307086614178 0.54330708661417326 0.55118110236220474 0.55905511811023623 0.56692913385826771 0.57480314960629919 0.58267716535433067 0.59055118110236215 0.59842519685039375 0.60629921259842523 0.61417322834645671 0.62204724409448819 0.62992125984251968 0.63779527559055116 0.64566929133858264 0.65354330708661412 0.66141732283464572 0.6692913385826772 0.67716535433070868 0.68503937007874016 0.69291338582677164 0.70078740157480313 0.70866141732283461 0.71653543307086609 0.72440944881889768 0.73228346456692917 0.74015748031496065 0.74803149606299213 0.75590551181102361 0.76377952755905509 0.77165354330708658 0.77952755905511806 0.78740157480314965 0.79527559055118113 0.80314960629921262 0.8110236220472441 0.81889763779527558 0.82677165354330706 0.83464566929133854 0.84251968503937003 0.85039370078740162 0.8582677165354331 0.86614173228346458 0.87401574803149606 0.88188976377952755 0.88976377952755903 0.89763779527559051 0.90551181102362199 0.91338582677165359 0.92125984251968507 0.92913385826771655 0.93700787401574803 0.94488188976377951 0.952755905511811 0.96062992125984248 0.96850393700787396 0.97637795275590555 0.98425196850393704 0.99212598425196852 1
        </DataArray>
      </PointData>
      <CellData Scalars="P">
        <DataArray type="Float32" Name="P" NumberOfComponents="1">
          0.01481888239951807 0.044463690447822384 0.074125855795319606 0.10382434417493727 0.13359579860015933 0.16350084612718827 0.19362959700447352 0.22410622640521424 0.25509278427433058 0.28679154136625168 0.31944697714746195 0.35334612916793645 0.38881821583309428 0.42623319810905874 0.46599878408950812 0.50855673211467856 0.554380184337113 0.60396696651549331 0.65783433997858254 0.71651318643711137 0.78054033509430032 0.85044950423342447 0.92676306285562293 1.009981929439915 1.1005752831009032 1.1989722455945029 1.3055484467555187 1.4206120676268936 1.5443961604232055 1.677063327250528 1.8186573596030848 1.9691106595434809 2.1282337545100187 2.2957041986274063 2.4710561008940717 2.6536696895862892 2.8427590819044823 3.0373745029654291 3.236399074068768 3.4385374338822348 3.6423183196942581 3.8460983658244174 3.5733407478099801 3.3119691071408042 3.0579661663253166 2.8110170382036488 2.5708951222353753 2.3374593271808926 2.1106515717562169 1.8856977977374285 1.662121683254945 1.4398489744251062 1.2189314971402516 0.99923964942080634 0.78078943240778709 0.56357599235705236 0.358490914976136 0.16667296323691269 -0.010821131638622762 -0.17261344131166179 -0.31745866340985063 -0.4435526614717486 -0.55801665041298287 -0.65128827713448767 -0.72165314313568274 -0.78787171038456927 -0.83916643124853196 -0.88558863468281035 -0.91635532059737146 -0.94229978147328708 -0.95208525724373805 -0.95664664094790386 -0.95598477596996156 -0.93935943631304719 -0.9177127439317484 -0.89115470364245764 -0.84878868559315523 -0.80201568031817394 -0.75136823666123886 -0.68601319367344848 -0.6172836595954897 -0.5455239535595694 -0.47110422580251193 -0.38472962817931816 -0.2968611824189315 -0.20796496950979315 -0.10938736354382057 -0.011210492528441489 0.086027075181810006 0.1898237365235477 0.29085710489416838 0.3887725221970813 0.48969508293866704 0.58578358047621815 0.67649654442446339 0.761336323176104 0.84425883977506688 0.91965020972958678 0.99045484685647645 1.0524290422705389 1.1053493671795853 1.1502467100143898 1.1851513416120758 1.209910563963603 1.2242172920457672 1.2284389702399467 1.2206577296895178 1.200086738863049 1.1699874054884287 1.1267516841791747 1.075706881448476 1.0122118274768133 0.93660097635223472 0.85705345104920116 0.76775490142122149 0.67021792196537644 0.56596592330039397 0.4572974548401712 0.33705189637108818 0.26568143968691055 0.20231130309460038 0.15001146336909724 0.1020154035005853 0.053742773279789977 0.01530884929652282 -0.0077408306217721014 -0.014997218682186887
        </DataArray>
      </CellData>
      <Points>
        <DataArray type="Float32" NumberOfComponents="3" format="ascii">
          4.1988217383332289 6.2593432545643592 0
          4.1992920531825737 6.2672036856087194 0
          4.1997660929882024 6.275063887151151 0
          4.2002441138519444 6.2829238382286574 0
          4.2007270373802363 6.2907834773965092 0
          4.2012162612613349 6.2986427123167088 0
          4.2017135777933348 6.3065014226526666 0
          4.2022211363641633 6.3143594597311292 0
          4.2027414191387944 6.3222166446576953 0
          4.2032772234947409 6.3300727651613204 0
          4.20383164256197 6.3379275716565289 0
          4.2044080503499544 6.3457807720463615 0
          4.205010084720036 6.3536320256962906 0
          4.2056416310730294 6.3614809363891016 0
          4.2063068060837923 6.3693270443238212 0
          4.2070099394042009 6.3771698173789604 0
          4.2077555552542139 6.3850086415723721 0
          4.208548359306806 6.3928428102534447 0
          4.2093932203564473 6.4006715130397884 0
          4.2102951541270102 6.4084938239292146 0
          4.2112593086234824 6.416308688661573 0
          4.2122909481470678 6.4241149117168108 0
          4.2133954350795291 6.431911143223922 0
          4.2145782123832545 6.4396958655554934 0
          4.2158447844641795 6.4474673800521662 0
          4.2172006971479217 6.4552237939590249 0
          4.218651520029689 6.4629630071415987 0
          4.2202028243837928 6.470682699875816 0
          4.2218601572428947 6.4783803220429332 0
          4.2236290197078086 6.486053082350562 0
          4.2255148620776106 6.493697934239087 0
          4.2275230363000214 6.5013115725552328 0
          4.2296587701532582 6.5088904273227604 0
          4.2319271411420969 6.5164306592241186 0
          4.234333049005528 6.5239281573408769 0
          4.2368811869160803 6.5313785394666928 0
          4.2395760107326685 6.5387771555923102 0
          4.2424217037926493 6.5461190960355387 0
          4.2454221494696061 6.5533992001126 0
          4.2485809048436645 6.5606120674530048 0
          4.2519011666089357 6.5677520761900521 0
          4.2553857402345958 6.5748134042215556 0
          4.259037011405038 6.581790053991762 0
          4.2623987426570258 6.5889107629449271 0
          4.265476383297309 6.5961588069992061 0
          4.2682729448796852 6.6035198889748292 0
          4.2707922915280694 6.6109804139898456 0
          4.2730390865803276 6.6185275123714877 0
          4.275018740225133 6.6261490592490304 0
          4.2767373590875168 6.6338336905551811 0
          4.2781970066919381 6.6415717037287996 0
          4.2793998472796115 6.6493537864286631 0
          4.2803484794152622 6.6571709443856673 0
          4.2810459967601 6.6650145125783977 0
          4.2814957511553882 6.6728761950197599 0
          4.2817014341523283 6.6807480605997158 0
          4.281666999578384 6.6886225533937713 0
          4.2814066904118677 6.6964928298787427 0
          4.2809356278029913 6.7043533157037647 0
          4.2802696041032107 6.7121996908797144 0
          4.2794252628444118 6.7200288833881778 0
          4.2784198890760576 6.7278390233643179 0
          4.2772718328275454 6.7356294558265501 0
          4.2759927905359687 6.7433994421565586 0
          4.2746022251178566 6.7511502253501403 0
          4.2731205374136723 6.7588840793731739 0
          4.271551951674474 6.7666007516686646 0
          4.2699094954213317 6.7743020104096194 0
          4.2681976092174061 6.7819881058529994 0
          4.2664295344341365 6.7896614403484072 0
          4.2646094042763725 6.79732256475243 0
          4.262750682853083 6.8049743864701009 0
          4.2608577190080288 6.8126177789237436 0
          4.2589348403984664 6.8202536716036475 0
          4.2569954573237494 6.8278853589380946 0
          4.2550438474644361 6.8355139001203149 0
          4.2530842677857894 6.8431403709228755 0
          4.2511306350816502 6.8507683396755041 0
          4.2491871590565253 6.8583988768880282 0
          4.2472577460784704 6.8660329586174269 0
          4.2453565793703989 6.8736741005412725 0
          4.2434877927028047 6.8813232054570763 0
          4.2416554821232868 6.8889811119401374 0
          4.2398636997557597 6.896648587018964 0
          4.2381265932114909 6.9043286203323451 0
          4.2364481384326238 6.9120216745066827 0
          4.234832246759777 6.919728105589189 0
          4.233293598607057 6.9274503262022726 0
          4.2318359882466385 6.9351882527310096 0
          4.2304631130063948 6.9429416660570027 0
          4.2291898375417665 6.9507120664165472 0
          4.2280193670800754 6.9584986302240202 0
          4.2269550630124542 6.966300433788259 0
          4.2260118653218948 6.974117829482525 0
          4.2251928328883457 6.9819492402720158 0
          4.224500817071057 6.989792934217725 0
          4.2239384405393983 6.9976470330260954 0
          4.2235202879311089 7.0055101849185606 0
          4.2232481582569799 7.0133798069166939 0
          4.2231365021965761 7.02125341651643 0
          4.2231867848108555 7.0291277420723173 0
          4.2234000921233745 7.0369994330266827 0
          4.2237901698766533 7.0448644564551186 0
          4.2243568974988213 7.0527188491743997 0
          4.2251134662826111 7.0605573742656054 0
          4.2260590128528905 7.0683755088176268 0
          4.2271921177594569 7.0761688385708768 0
          4.2285245592733434 7.0839307655682564 0
          4.230067431651408 7.091653838609731 0
          4.2318171300616267 7.0993329367222646 0
          4.2337838293959216 7.1069596163675772 0
          4.2359618892893316 7.114528941062523 0
          4.2383599678194805 7.122031798146927 0
          4.2409859530390959 7.1294583370292894 0
          4.2438310802803825 7.1368041224279413 0
          4.2469012726800033 7.1440591872144212 0
          4.2502010537195458 7.1512132762327338 0
          4.2537341190216198 7.1582556720466846 0
          4.257502476966164 7.1651756889193736 0
          4.2615235570707721 7.1719527652151012 0
          4.2657117320681452 7.1786285914079881 0
          4.2700574753810967 7.1852037246878933 0
          4.2745487035576506 7.1916812201331757 0
          4.2791905129557213 7.1980526714392141 0
          4.2840062305966029 7.2042949265180702 0
          4.2890075388364162 7.2103909386777865 0
          4.2942067682282827 7.2163207869553707 0
          4.2996939762524402 7.2219843048522421 0
        </DataArray>
      </Points>
      <Cells>
        <DataArray type="Int32" Name="connectivity" format="ascii">
          0 1 1 2 2 3 3 4 4 5 5 6 6 7 7 8 8 9 9 10 10 11 11 12 12 13 13 14 14 15 15 16 16 17 17 18 18 19 19 20 20 21 21 22 22 23 23 24 24 25 25 26 26 27 27 28 28 29 29 30 30 31 31 32 32 33 33 34 34 35 35 36 36 37 37 38 38 39 39 40 40 41 41 42 42 43 43 44 44 45 45 46 46 47 47 48 48 49 49 50 50 51 51 52 52 53 53 54 54 55 55 56 56 57 57 58 58 59 59 60 60 61 61 62 62 63 63 64 64 65 65 66 66 67 67 68 68 69 69 70 70 71 71 72 72 73 73 74 74 75 75 76 76 77 77 78 78 79 79 80 80 81 81 82 82 83 83 84 84 85 85 86 86 87 87 88 88 89 89 90 90 91 91 92 92 93 93 94 94 95 95 96 96 97 97 98 98 99 99 100 100 101 101 102 102 103 103 104 104 105 105 106 106 107 107 108 108 109 109 110 110 111 111 112 112 113 113 114 114 115 115 116 116 117 117 118 118 119 119 120 120 121 121 122 122 123 123 124 124 125 125 126 126 127 
        </DataArray>
        <DataArray type="Int32" Name="offsets" format="ascii">
          2 4 6 8 10 12 14 16 18 20 22 24 26 28 30 32 34 36 38 40 42 44 46 48 50 52 54 56 58 60 62 64 66 68 70 72 74 76 78 80 82 84 86 88 90 92 94 96 98 100 102 104 106 108 110 112 114 116 118 120 122 124 126 128 130 132 134 136 138 140 142 144 146 148 150 152 154 156 158 160 162 164 166 168 170 172 174 176 178 180 182 184 186 188 190 192 194 196 198 200 202 204 206 208 210 212 214 216 218 220 222 224 226 228 230 232 234 236 238 240 242 244 246 248 250 252 254 
        </DataArray>
        <DataArray type="Int32" Name="types" format="ascii">
          3 3 3 3 3 3 3 3 3 3 3 3 3 3 3 3 3 3 3 3 3 3 3 3 3 3 3 3 3 3 3 3 3 3 3 3 3 3 3 3 3 3 3 3 3 3 3 3 3 3 3 3 3 3 3 3 3 3 3 3 3 3 3 3 3 3 3 3 3 3 3 3 3 3 3 3 3 3 3 3 3 3 3 3 3 3 3 3 3 3 3 3 3 3 3 3 3 3 3 3 3 3 3 3 3 3 3 3 3 3 3 3 3 3 3 3 3 3 3 3 3 3 3 3 3 3 3         </DataArray>
      </Cells>
    </Piece>
  </UnstructuredGrid>
</VTKFile>
