<?xml version="1.0"?>
<VTKFile type="UnstructuredGrid" version="0.1" byte_order="LittleEndian">
  <UnstructuredGrid>
    <Piece NumberOfPoints="128" NumberOfCells="127">
      <PointData Scalars="W">
        <DataArray type="Float32" Name="W" NumberOfComponents="2">
          0 0 -0.54784604352344712 0.086449615995763271 -0.90586589672754181 0.13757313712491276 -1.1826154934528628 0.16955971868375855 -1.4164511227936902 0.18817584391749981 -1.6229649340794619 0.19572052070156373 -1.8100462786364429 0.19334040843710737 -1.9822990706057015 0.18170297553118667 -2.1426207285947205 0.161235949816353 -2.292987313897803 0.13223956716160834 -2.4347214579429886 0.094932271529296883 -2.5687719518923871 0.049486646560405523 -2.6958070928725224 -0.0039556758077456799 -2.8163374137552699 -0.065274327840904464 -2.93074310276099 -0.13436768403074581 -3.0392561559200155 -0.21114715863772665 -3.1419365088781004 -0.29552457388407899 -3.2388497310674857 -0.38741866079180082 -3.3299554021660391 -0.48674536989293521 -3.4151262620761833 -0.59341096695453166 -3.4942050170215135 -0.70731504635736653 -3.5670095672401323 -0.82835104006945914 -3.6333067157198835 -0.95639858062008787 -3.6928069950619635 -1.0913160439292511 -3.7452250655612338 -1.2329534573175693 -3.7901746626677353 -1.3811158977257316 -3.8273072118490212 -1.5356020026550878 -3.856304263569128 -1.6962101501532625 -3.8767516178522095 -1.8626847070903896 -3.8879249323227247 -2.0345769554829616 -3.8897016362782941 -2.2116984407783384 -3.8816247798554735 -2.3936855876757499 -3.863243943634965 -2.5801424716466572 -3.834077211914273 -2.7706113971888864 -3.7936696666510206 -2.964605152078291 -3.7415600426965701 -3.1615809773009378 -3.6773569477758752 -3.3610024209881999 -3.60057157378878 -3.5621885973585887 -3.5107344191724175 -3.7643857411957553 -3.4075048603517981 -3.9668858343008897 -3.2905475670462545 -4.1689128722480531 -3.1595329050242404 -4.3696032118195927 2.3862581330339903 3.3357513446717668 2.433626930731168 3.1822072989259 2.4695683923891822 3.0287805181360503 2.5032131544222516 2.8861099872033078 2.5185247039035468 2.7353518529781411 2.5335813229058433 2.596804607224739 2.5403790239001816 2.4609158062209513 2.5295625915816675 2.3193521236380112 2.5213375108265881 2.1909890897307625 2.5067741014671392 2.0666852595563832 2.4864676959362515 1.9467178572205737 2.4718894184927871 1.8391953459417825 2.4422117335979245 1.7279651913431031 2.408364672511242 1.6214773028810345 2.3823901627103181 1.5269953103259348 2.3314098050732199 1.4232864929230991 2.2771256472669856 1.3249403551228589 2.220034626950409 1.2318955169531336 2.1733793502918948 1.1506669834341607 2.11273055608086 1.0676643535793666 2.0505904175679284 0.98961957943474543 1.9875181083248663 0.91645763144004333 1.9086041456074412 0.84141715537980988 1.8590084985948447 0.78393350758205194 1.810298333260322 0.73028487407860088 1.7623430495802037 0.68013681721305219 1.7155836613400415 0.63339971527222505 1.670242949314968 0.58989721923173244 1.6105771391030699 0.5441844608988623 1.5685490463585672 0.50704564532741148 1.528533394204401 0.47260679081423024 1.4906920905395924 0.44070052877154403 1.4551842524503076 0.41116562312215854 1.4223672072687832 0.38389924120036378 1.3748775171682504 0.35433168928055525 1.3470884617746959 0.33133833920188865 1.322161285923412 0.31009187675416788 1.3002041439889731 0.29044865726246716 1.2815472160668968 0.27231529091689544 1.2658451583666617 0.25545712632056689 1.2534193161267249 0.23978977588867326 1.2443654252083056 0.22517898022753879 1.2387740478803644 0.21149027855263403 1.2367440223429975 0.19859026550840292 1.2386014570786643 0.18637674401329235 1.2439607615445789 0.17463663819741498 1.2531576377806428 0.16326723015495426 1.266282300370098 0.15211979785507726 1.2834299000576408 0.14103933573685171 1.3046940310970676 0.12986208612962841 1.3301813338569781 0.11841520075301294 1.3602383357189054 0.10653066085524344 1.394476169329421 0.093967078661185366 1.4332474141864395 0.08053119697797223 1.4766721986977167 0.065988063469367655 1.5248635292929738 0.050080178864570127 1.577938354574318 0.032525329496432394 1.6362853416847414 0.013013563274879656 1.7171137625062289 -0.0090158512370285999 1.7856157384156437 -0.034007780324491498 1.8595148225747862 -0.06213165968952912 1.9389560738154059 -0.093858951446089453 2.006782457756533 -0.12846864351364418 2.0977559662689651 -0.16846182866408169 2.1947020211228989 -0.21378288697318004 2.2980301666503022 -0.26519527314780261 2.389328801931121 -0.32086818988521848 2.5051232640783043 -0.38621610672836088 2.6277457791931282 -0.46041123888851376 2.7383330275539075 -0.54069287655439624 2.8743135989085467 -0.63529258688892254 2.9986823815758092 -0.73788947615463563 3.1489166583059651 -0.85892244870299739 3.2874920720609224 -0.990566682074835 3.4333564748921654 -1.1394016156918523 3.6066190763978896 -1.3156518516816254 3.7683710675175188 -1.5090245147078585 3.9377053698239677 -1.7293146088794453 4.1887991734583059 -2.0185430481146338 -0.51372195431471601 0.2577958761026769 -1.2221619218877489 0.60167949274945032 -1.8569888896225797 0.88335279681299916 -2.8414657166506005 1.2813372071855953 -5.884170833598275 2.3935666226182422 -5.4396488362891695 1.9156228053213629 0 0
        </DataArray>
        <DataArray type="Float32" Name="u" NumberOfComponents="1">
          0 0.007874015748031496 0.015748031496062992 0.023622047244094488 0.031496062992125984 0.03937007874015748 0.047244094488188976 0.055118110236220472 0.062992125984251968 0.070866141732283464 0.07874015748031496 0.086614173228346455 0.094488188976377951 0.10236220472440945 0.11023622047244094 0.11811023622047244 0.12598425196850394 0.13385826771653545 0.14173228346456693 0.14960629921259844 0.15748031496062992 0.16535433070866143 0.17322834645669291 0.18110236220472442 0.1889763779527559 0.19685039370078741 0.20472440944881889 0.2125984251968504 0.22047244094488189 0.2283464566929134 0.23622047244094488 0.24409448818897639 0.25196850393700787 0.25984251968503935 0.26771653543307089 0.27559055118110237 0.28346456692913385 0.29133858267716534 0.29921259842519687 0.30708661417322836 0.31496062992125984 0.32283464566929132 0.33070866141732286 0.33858267716535434 0.34645669291338582 0.3543307086614173 0.36220472440944884 0.37007874015748032 0.37795275590551181 0.38582677165354329 0.39370078740157483 0.40157480314960631 0.40944881889763779 0.41732283464566927 0.42519685039370081 0.43307086614173229 0.44094488188976377 0.44881889763779526 0.45669291338582679 0.46456692913385828 0.47244094488188976 0.48031496062992124 0.48818897637795278 0.49606299212598426 0.50393700787401574 0.51181102362204722 0.51968503937007871 0.52755905511811019 0.53543307086614178 0.54330708661417326 0.55118110236220474 0.55905511811023623 0.56692913385826771 0.57480314960629919 0.58267716535433067 0.59055118110236215 0.59842519685039375 0.60629921259842523 0.61417322834645671 0.62204724409448819 0.62992125984251968 0.63779527559055116 0.64566929133858264 0.65354330708661412 0.66141732283464572 0.6692913385826772 0.67716535433070868 0.68503937007874016 0.69291338582677164 0.70078740157480313 0.70866141732283461 0.71653543307086609 0.72440944881889768 0.73228346456692917 0.74015748031496065 0.74803149606299213 0.75590551181102361 0.76377952755905509 0.77165354330708658 0.77952755905511806 0.78740157480314965 0.79527559055118113 0.80314960629921262 0.8110236220472441 0.81889763779527558 0.82677165354330706 0.83464566929133854 0.84251968503937003 0.85039370078740162 0.8582677165354331 0.86614173228346458 0.87401574803149606 0.88188976377952755 0.88976377952755903 0.89763779527559051 0.90551181102362199 0.91338582677165359 0.92125984251968507 0.92913385826771655 0.93700787401574803 0.94488188976377951 0.952755905511811 0.96062992125984248 0.96850393700787396 0.97637795275590555 0.98425196850393704 0.99212598425196852 1
        </DataArray>
      </PointData>
      <CellData Scalars="P">
        <DataArray type="Float32" Name="P" NumberOfComponents="1">
          -0.011409900842912433 -0.032852380684673978 -0.051227395164550528 -0.065541164500145743 -0.075067045955061418 -0.079227449758955779 -0.077541999411658569 -0.069598116534110216 -0.055032884663603815 -0.033519851845941966 -0.0047611085146696385 0.031519489623101277 0.075580980707648862 0.12766994708536294 0.18802402136593316 0.25687334771218207 0.33443972835709829 0.42093997275024159 0.51658526049269382 0.62158017494057383 0.73612307982040359 0.86040638617330545 0.99461544520445155 1.138926699170826 1.2935080611077703 1.4585141945837348 1.6340877174194244 1.8203603716653927 2.0174475144434414 2.2254287924015763 2.4443801038893507 2.6743538807233631 2.9153773346537641 3.1674478380683659 3.4305317135745863 3.7045604377635346 3.9894324293460679 4.2850012140284077 4.5910710461077224 4.9074023520546231 5.2337067298287963 5.5696406848340843 5.2795548055997967 4.9815953019846448 4.6782614522098056 4.3708550243771409 4.0625210494012611 3.7541165861342258 3.4473838873655649 3.1450624975002746 2.8473993300633929 2.5556263821810035 2.2708198832655806 1.992709892571906 1.7232779858296772 1.4631914959089771 1.2118082403974102 0.97181447915491903 0.74351665831945901 0.5271080297395343 0.32151254246989602 0.12788371630504861 -0.053861598691988838 -0.22389658862173639 -0.38126527851724445 -0.52858969998449568 -0.66616332011705803 -0.79428162953092274 -0.91327922601616196 -1.0235085071861361 -1.1244281401892118 -1.2173754853607899 -1.3027260816791169 -1.3808524443799772 -1.4521203543659698 -1.5168929844601082 -1.5749163132870354 -1.6271669993877758 -1.6739503152352204 -1.7155494115502794 -1.7522278928377004 -1.7842142715355591 -1.8117155561315845 -1.8349110864502145 -1.8539518854979162 -1.8689603893092475 -1.880029986876796 -1.8872255090553962 -1.8905843701615295 -1.8901169007180385 -1.8858074286226527 -1.8776157013558907 -1.865478356881578 -1.8493054735028507 -1.8289985747734292 -1.8044380679053951 -1.7754905260374543 -1.7420120366850258 -1.7038516110424733 -1.6608453707658717 -1.6121906529045582 -1.5583629959879641 -1.4992246012750747 -1.4346519410791989 -1.3652797023075844 -1.2903125074079325 -1.2097039756841745 -1.1234356120397875 -1.0323759410506301 -0.93581251561916556 -0.83389230691982918 -0.72769718430083385 -0.61670688960965514 -0.50215918162560091 -0.38374283793937319 -0.26290897414343634 -0.14041423156556926 -0.016373891643826282 0.10735049247142776 0.22947174428774808 0.35096205029562255 0.31693664943245864 0.26611353091932016 0.20654737754735319 0.13892072243136433 0.049391499427939287 0.0049926295260381802
        </DataArray>
      </CellData>
      <Points>
        <DataArray type="Float32" NumberOfComponents="3" format="ascii">
          4.1035985177035608 6.8563474644085494 0
          4.1048428635786109 6.8641227849399487 0
          4.1060532409584534 6.8719034666993943 0
          4.1072074512407859 6.8796926801489162 0
          4.1082883348460868 6.8874924090072147 0
          4.1092813929865271 6.8953038078692286 0
          4.1101738208967173 6.9031273447832247 0
          4.110954018667039 6.9109628723627941 0
          4.111611305786643 6.9188096691805869 0
          4.1121357414958126 6.9266664662938151 0
          4.1125180022661496 6.9345314658628636 0
          4.1127492997961141 6.9424023546973785 0
          4.1128213221862628 6.9502763149581543 0
          4.1127261925063792 6.9581500329395585 0
          4.1124564371447354 6.9660197065333316 0
          4.1120049622393582 6.9738810515302951 0
          4.111365039297926 6.9817293071136479 0
          4.1105303014862491 6.9895592413272079 0
          4.1094947395674435 6.9973651561155528 0
          4.108252704412954 7.0051408925369296 0
          4.1067989148980102 7.0128798365770777 0
          4.105128467659215 7.0205749253771641 0
          4.1032368483900807 7.0282186538442923 0
          4.1011199463046299 7.0358030821181625 0
          4.098774072089773 7.0433198443562546 0
          4.0961959756014048 7.0507601580371997 0
          4.0933828698179289 7.0581148360517973 0
          4.0903324524563303 7.065374299193814 0
          4.0870429257197989 7.0725285886673435 0
          4.0835130219817106 7.0795673819435425 0
          4.079742048699222 7.0864800205899554 0
          4.075729896013323 7.0932555219625284 0
          4.0714770650811785 7.099882601756204 0
          4.0669846960026304 7.1063496985614707 0
          4.0622545976986748 7.1126450022510284 0
          4.0572892761149442 7.118756484196572 0
          4.0520919628177072 7.1246719309295239 0
          4.0466666392563901 7.1303789774103805 0
          4.0410180670652993 7.1358651492531333 0
          4.0351518171671925 7.1411179094679351 0
          4.029074290884882 7.1461247023664569 0
          4.0227927407237081 7.1508730016817905 0
          4.016315290800013 7.1553503641212792 0
          4.0099858078830586 7.1600345499299731 0
          4.0038072285567594 7.1649160377322589 0
          3.9977817808050662 7.1699853134905593 0
          3.9919115500034708 7.1752335303024184 0
          3.9861974849164148 7.1806513397582146 0
          3.9806405183193068 7.1862301507889734 0
          3.9752410708929999 7.1919615372492709 0
          3.9699984713003511 7.1978367210938057 0
          3.9649122087336384 7.2038477429878913 0
          3.9599813793937439 7.2099868953737118 0
          3.9552047234087686 7.2162467396571079 0
          3.9505813359839963 7.222620609071134 0
          3.9461093762504711 7.229101606926422 0
          3.9417867448503658 7.2356831306494529 0
          3.9376118304896406 7.2423593222484595 0
          3.9335814716418001 7.2491237515154152 0
          3.929692301955197 7.2559703208277968 0
          3.9259407810678888 7.2628932613420929 0
          3.9223240156170025 7.2698875370241591 0
          3.9188382447105528 7.2769480018286536 0
          3.915479615018393 7.28406981718999 0
          3.9122442154430388 7.2912484473701591 0
          3.9091271527577454 7.2984792401760785 0
          3.9061253514494827 7.3057586321868397 0
          3.9032357909502928 7.3130832978117173 0
          3.9004554975401127 7.3204501285491661 0
          3.8977815716885988 7.3278562274272439 0
          3.895211201866688 7.3352988980661484 0
          3.8927406884324514 7.3427753070829533 0
          3.8903674253155627 7.3502831527519961 0
          3.888088931258078 7.3578203007819019 0
          3.8859028598517189 7.3653847739355838 0
          3.8838070094022328 7.3729747420306202 0
          3.8817993450831625 7.3805885155601025 0
          3.8798769223797449 7.3882242624359193 0
          3.8780380182697538 7.3958805581534977 0
          3.8762810872053248 7.4035560865356258 0
          3.8746047678187137 7.4112496308241118 0
          3.8730079033944862 7.418960067885779 0
          3.8714895204581956 7.4266863536645964 0
          3.8700488487015079 7.4344275179463093 0
          3.8686853269195711 7.4421826560322346 0
          3.8673986086280672 7.4499509204006333 0
          3.866188568193885 7.4577315124334378 0
          3.8650553210579139 7.465523676075204 0
          3.8639991998304772 7.4733266846254027 0
          3.8630207751099839 7.4811398343652593 0
          3.8621208610811064 7.4889624353347006 0
          3.8613005214196185 7.4967938017195541 0
          3.8605610751013471 7.5046332416959967 0
          3.8599041030206882 7.5124800467109996 0
          3.8593314694840926 7.5203334810578335 0
          3.8588452981057948 7.5281927669146151 0
          3.8584479936779146 7.5360570723547102 0
          3.8581422496281066 7.5439254967751666 0
          3.8579310550363677 7.5517970549268245 0
          3.857817701897067 7.5596706594114584 0
          3.857805809230169 7.5675451014523274 0
          3.8579003901872957 7.5754190157252097 0
          3.8581056937306704 7.5832908535454866 0
          3.8584263036322515 7.591158871977095 0
          3.8588671474828784 7.5990211045899327 0
          3.8594324328450518 7.6068754066131685 0
          3.8601278027796169 7.6147192989551744 0
          3.8609592709052527 7.6225499720657561 0
          3.8619332468120104 7.6303642385721542 0
          3.8630553944260924 7.6381586473367156 0
          3.864332896890657 7.6459291466407189 0
          3.8657733610403504 7.6536711359857472 0
          3.86738364776871 7.6613796378702457 0
          3.869172192912989 7.6690487861387258 0
          3.8711467126958032 7.6766722191072088 0
          3.8733165276155752 7.6842424309393653 0
          3.8756902357159717 7.691751258109659 0
          3.878276887541849 7.6991894707040958 0
          3.881087233034104 7.7065461375138735 0
          3.8841313090134983 7.713809265685005 0
          3.8874196231175957 7.7209651924910476 0
          3.8909677528843276 7.7279959761881747 0
          3.8944841471105667 7.7350430027948489 0
          3.897924893263649 7.7421276772338814 0
          3.9012506374893516 7.7492675630273125 0
          3.9044003310958346 7.7564874859701938 0
          3.9071852223347605 7.7638567764736841 0
          3.9096324129999362 7.7713446074842718 0
        </DataArray>
      </Points>
      <Cells>
        <DataArray type="Int32" Name="connectivity" format="ascii">
          0 1 1 2 2 3 3 4 4 5 5 6 6 7 7 8 8 9 9 10 10 11 11 12 12 13 13 14 14 15 15 16 16 17 17 18 18 19 19 20 20 21 21 22 22 23 23 24 24 25 25 26 26 27 27 28 28 29 29 30 30 31 31 32 32 33 33 34 34 35 35 36 36 37 37 38 38 39 39 40 40 41 41 42 42 43 43 44 44 45 45 46 46 47 47 48 48 49 49 50 50 51 51 52 52 53 53 54 54 55 55 56 56 57 57 58 58 59 59 60 60 61 61 62 62 63 63 64 64 65 65 66 66 67 67 68 68 69 69 70 70 71 71 72 72 73 73 74 74 75 75 76 76 77 77 78 78 79 79 80 80 81 81 82 82 83 83 84 84 85 85 86 86 87 87 88 88 89 89 90 90 91 91 92 92 93 93 94 94 95 95 96 96 97 97 98 98 99 99 100 100 101 101 102 102 103 103 104 104 105 105 106 106 107 107 108 108 109 109 110 110 111 111 112 112 113 113 114 114 115 115 116 116 117 117 118 118 119 119 120 120 121 121 122 122 123 123 124 124 125 125 126 126 127 
        </DataArray>
        <DataArray type="Int32" Name="offsets" format="ascii">
          2 4 6 8 10 12 14 16 18 20 22 24 26 28 30 32 34 36 38 40 42 44 46 48 50 52 54 56 58 60 62 64 66 68 70 72 74 76 78 80 82 84 86 88 90 92 94 96 98 100 102 104 106 108 110 112 114 116 118 120 122 124 126 128 130 132 134 136 138 140 142 144 146 148 150 152 154 156 158 160 162 164 166 168 170 172 174 176 178 180 182 184 186 188 190 192 194 196 198 200 202 204 206 208 210 212 214 216 218 220 222 224 226 228 230 232 234 236 238 240 242 244 246 248 250 252 254 
        </DataArray>
        <DataArray type="Int32" Name="types" format="ascii">
          3 3 3 3 3 3 3 3 3 3 3 3 3 3 3 3 3 3 3 3 3 3 3 3 3 3 3 3 3 3 3 3 3 3 3 3 3 3 3 3 3 3 3 3 3 3 3 3 3 3 3 3 3 3 3 3 3 3 3 3 3 3 3 3 3 3 3 3 3 3 3 3 3 3 3 3 3 3 3 3 3 3 3 3 3 3 3 3 3 3 3 3 3 3 3 3 3 3 3 3 3 3 3 3 3 3 3 3 3 3 3 3 3 3 3 3 3 3 3 3 3 3 3 3 3 3 3         </DataArray>
      </Cells>
    </Piece>
  </UnstructuredGrid>
</VTKFile>
