<?xml version="1.0"?>
<VTKFile type="UnstructuredGrid" version="0.1" byte_order="LittleEndian">
  <UnstructuredGrid>
    <Piece NumberOfPoints="128" NumberOfCells="127">
      <PointData Scalars="W">
        <DataArray type="Float32" Name="W" NumberOfComponents="2">
          0 0 0.27730502759258191 0.33659034133456767 0.42774392099504699 0.51461210590806672 0.54592509433984915 0.64886998548137642 0.64862650877478456 0.75965562035808565 0.74268744798623532 0.85517870732111023 0.83179490039517689 0.93978962010356659 0.91818578445667676 1.0160459433811637 1.0033623042535356 1.0855802845967004 1.0883525403890688 1.1494262107788555 1.173949193118589 1.2083020377009022 1.2607253187018881 1.262643921930052 1.3491378398748335 1.3127282044598136 1.4395429953034291 1.3586964428070538 1.532206920049791 1.4005759214801186 1.6273426713224419 1.4383230153051996 1.7251691947925452 1.4718783972690808 1.8258128681642993 1.5010831446912827 1.9293968246383784 1.5257622792939347 2.0360367080397785 1.5457195281068132 2.1458025065162394 1.5607088723570162 2.2587154539211802 1.570438455081868 2.374795907178469 1.5746082018411871 2.4940179044340254 1.5728791631994186 2.6163321206874111 1.5648927759265419 2.7417052798443216 1.5502937411981874 2.8700281118702047 1.5286756912285 3.0011090492703607 1.4995891493650597 3.1347957817076098 1.4626083162785606 3.2711661580236342 1.4173981976770964 3.4096380039491705 1.3633220132700421 3.5499163511846743 1.2998993951107172 3.6916602205832962 1.2266376940614956 3.8344711927843074 1.1430316923027362 3.9779038556819852 1.0485710196512443 4.1214097781536267 0.94273054967696446 4.2643131480333576 0.82497975504410781 4.4060003051206191 0.69482810076067514 4.5457988071993869 0.5517902900970626 4.6828362793969189 0.39537980569575054 4.8161821903084761 0.22514728855696858 4.9448497755250314 0.040683702992317446 0.33348302677285613 -0.0041934838283427664 0.63016940278426481 -0.0103179516616007 0.93380441268981762 -0.021047555288471655 1.2472947453452135 -0.038844840053803509 1.3592576694798451 -0.0563196490906279 1.6772382928265355 -0.089630232936921989 1.9963057423873078 -0.13573678578323853 2.3230649852528273 -0.1978398654852285 2.4248896327729819 -0.25248530507496231 2.9781477797469722 -0.37475905526332709 3.3077466943295302 -0.5005333325695811 15.753735682113826 -3.6404333887583027 -3.4393235137109079 0.97689731281888559 0.81300543462926977 -0.22149393243293411 0.90704175916090124 -0.2539761574064745 0.99583355251813033 -0.28722617329390826 1.2296435704771145 -0.36686683858957475 1.3121076621321934 -0.4064722906361159 1.3909755157801151 -0.4479885748186912 1.4659382112109087 -0.49137384669700795 1.6836316590227374 -0.58901744561396785 1.7482628032226399 -0.63994924376732809 1.955098588616534 -0.75040860447120505 2.0073503478048838 -0.80934958777201105 2.0537592044830224 -0.86968570791009447 2.0970429797436951 -0.93243535751914719 2.1312129746985229 -0.99473695702104314 2.1590978872852231 -1.0574489368376714 2.1806242363953516 -1.1201936765875733 2.1957541229988928 -1.1825741665077663 2.2044875141080174 -1.2441785771835696 2.206863884441892 -1.3045851320626911 2.2029594313550893 -1.363364823683511 2.192888714301267 -1.4200868809055438 2.1768028722235173 -1.4743225920323944 2.1548900933487678 -1.5256508410448995 2.1273714721787393 -1.5736607684984478 2.0969171332780792 -1.6198643232108425 2.0588981784608449 -1.660171674997253 1.8936053175291063 -1.590916722494907 1.8505886277366346 -1.617095326665916 1.8036011908705714 -1.6383953349792626 1.7529266654973836 -1.6545131245696909 1.7010574445164581 -1.6673610829553052 1.6440051630235428 -1.6725630895868069 1.5842902373078473 -1.67195135935026 1.5222495103384415 -1.6653667143579043 1.355925717808675 -1.5348479566215707 1.2958990353893025 -1.5148115379386049 1.2325236759127696 -1.4866321137349856 1.1679331009507739 -1.4523523312234949 1.102346216432236 -1.4119260788352785 1.0376265020639319 -1.3675564933150135 0.97053235575449048 -1.3147961042639524 0.9029817805463195 -1.2559034108789133 0.74910458363746779 -1.0669466518742243 0.68341018058273895 -0.99412507852471677 0.61866348852812536 -0.91773347681813289 0.55178147411472001 -0.83334677538096846 0.48419383716706499 -0.74320316791148822 0.41574786000806629 -0.64733416459493498 0.34623831714231296 -0.54577149724627871 0.27540242235395079 -0.43854438824048092 0.2823812663026441 -0.45382136864245992 0.20720263350383503 -0.33573146846539192 0.12999637805273112 -0.21183190067965635 0.050285470209239007 -0.082191404066758136 -0.032472208497376955 0.053091716246828347 -0.037432042916558932 0.061128561730172525 -0.12914627571635987 0.210310290770298 -0.13930043443533929 0.22582357033670422 -0.24032285983627769 0.38712980284336168 -0.34587829291796446 0.55178483003716017 -0.37032090531535639 0.58389593828518893 -0.71662875582385588 1.1103715873036812 -0.87776443399744497 1.3264067826076691 -1.0517797760882004 1.5432803397286883 -1.131425040497936 1.6074545467184116 -1.3291108088239876 1.8231418063252267 -1.442657330830456 1.9046891960920551 -1.7075282520476356 2.1619474870326942 -1.9119771395382845 2.3111292298523289 -2.1845176961270378 2.5104649376108723 -2.4527842239840236 2.6676071563041854 -2.2908561921385435 2.3592178628196856 0 0
        </DataArray>
        <DataArray type="Float32" Name="u" NumberOfComponents="1">
          0 0.007874015748031496 0.015748031496062992 0.023622047244094488 0.031496062992125984 0.03937007874015748 0.047244094488188976 0.055118110236220472 0.062992125984251968 0.070866141732283464 0.07874015748031496 0.086614173228346455 0.094488188976377951 0.10236220472440945 0.11023622047244094 0.11811023622047244 0.12598425196850394 0.13385826771653545 0.14173228346456693 0.14960629921259844 0.15748031496062992 0.16535433070866143 0.17322834645669291 0.18110236220472442 0.1889763779527559 0.19685039370078741 0.20472440944881889 0.2125984251968504 0.22047244094488189 0.2283464566929134 0.23622047244094488 0.24409448818897639 0.25196850393700787 0.25984251968503935 0.26771653543307089 0.27559055118110237 0.28346456692913385 0.29133858267716534 0.29921259842519687 0.30708661417322836 0.31496062992125984 0.32283464566929132 0.33070866141732286 0.33858267716535434 0.34645669291338582 0.3543307086614173 0.36220472440944884 0.37007874015748032 0.37795275590551181 0.38582677165354329 0.39370078740157483 0.40157480314960631 0.40944881889763779 0.41732283464566927 0.42519685039370081 0.43307086614173229 0.44094488188976377 0.44881889763779526 0.45669291338582679 0.46456692913385828 0.47244094488188976 0.48031496062992124 0.48818897637795278 0.49606299212598426 0.50393700787401574 0.51181102362204722 0.51968503937007871 0.52755905511811019 0.53543307086614178 0.54330708661417326 0.55118110236220474 0.55905511811023623 0.56692913385826771 0.57480314960629919 0.58267716535433067 0.59055118110236215 0.59842519685039375 0.60629921259842523 0.61417322834645671 0.62204724409448819 0.62992125984251968 0.63779527559055116 0.64566929133858264 0.65354330708661412 0.66141732283464572 0.6692913385826772 0.67716535433070868 0.68503937007874016 0.69291338582677164 0.70078740157480313 0.70866141732283461 0.71653543307086609 0.72440944881889768 0.73228346456692917 0.74015748031496065 0.74803149606299213 0.75590551181102361 0.76377952755905509 0.77165354330708658 0.77952755905511806 0.78740157480314965 0.79527559055118113 0.80314960629921262 0.8110236220472441 0.81889763779527558 0.82677165354330706 0.83464566929133854 0.84251968503937003 0.85039370078740162 0.8582677165354331 0.86614173228346458 0.87401574803149606 0.88188976377952755 0.88976377952755903 0.89763779527559051 0.90551181102362199 0.91338582677165359 0.92125984251968507 0.92913385826771655 0.93700787401574803 0.94488188976377951 0.952755905511811 0.96062992125984248 0.96850393700787396 0.97637795275590555 0.98425196850393704 0.99212598425196852 1
        </DataArray>
      </PointData>
      <CellData Scalars="P">
        <DataArray type="Float32" Name="P" NumberOfComponents="1">
          -0.041641538500667361 -0.12425901503497085 -0.20553812729235596 -0.28505792360438209 -0.36246861366815109 -0.43744484203807038 -0.5096642714233236 -0.57879688159537424 -0.64449855221824737 -0.70640803386053053 -0.76414398383679061 -0.81730431101836587 -0.8654651254464637 -0.90818046293683219 -0.94498269420396375 -0.97538256623484565 -0.99886759021841476 -1.0149039655435066 -1.0229357539954387 -1.0223841065879793 -1.0126480738938892 -0.9931058399822944 -0.96311392887505298 -0.92200850729086825 -0.8691057199947585 -0.80369985022892598 -0.72506630732598809 -0.63246550522178324 -0.52513984875610764 -0.40229785497646298 -0.26315407830315735 -0.10691123301404362 0.067237520830930028 0.26010529585629588 0.47250868865937329 0.7052604842478345 0.95915959645468474 1.2349953048374227 1.5335423023083083 1.8555431611920055 2.2017012834707947 2.5726734579299215 2.5365174518263993 2.5312705193737477 2.5585261743003569 2.6196556464363923 2.6933051986350804 2.8005976575062155 2.9408339386547748 3.113750483389826 3.2947634999848887 3.5294069906549699 3.7931255044806726 5.2227861345929858 4.805342113283821 4.8137929566496958 4.8308975934220717 4.8554979215764016 4.9009155917710574 4.9513487008583805 5.0055332561126793 5.062136719119299 5.1324314168782141 5.2016820651840519 5.2800106843378645 5.3536737336850591 5.4213115447657172 5.4818200759430944 5.5337843049101076 5.5760917724157872 5.6077386963394202 5.627840503892048 5.6356408361735442 5.6305188916400013 5.6119949012640147 5.5797338980942985 5.5335476484200941 5.4733948060455972 5.3993792430925565 5.3117349295769696 5.2108395847522759 5.0993731821208428 4.9766102413400688 4.843176259004581 4.69979685043341 4.5471944772195227 4.3863410974151202 4.2182007091050844 4.0437939107141645 3.8710939907469553 3.6946237844407812 3.515508474572584 3.3347621650973291 3.1534012140748295 2.9722776324426645 2.7925349884105786 2.6151342028124489 2.4501002451857889 2.2893372780152497 2.1334201431102904 1.9832050185445826 1.8393271777498736 1.7023595018279414 1.5728074135547374 1.4511043690879648 1.3283368413141678 1.2141884396283986 1.1088889930778558 1.0125621059041301 0.92521920037117089 0.83816620623445026 0.76023128100788051 0.68270906332472125 0.61388244143196613 0.55298984678510932 0.49217550443975538 0.45468472547029953 0.42303978343773568 0.39555258619386363 0.3648554737095131 0.33513185414941982 0.3006232835394731 0.26455352621945416 0.22233544503084915 0.17308743756709249 0.11428014840012325 0.041771662525268101
        </DataArray>
      </CellData>
      <Points>
        <DataArray type="Float32" NumberOfComponents="3" format="ascii">
          4.1994885422056694 5.6293436413884708 0
          4.1934025657777285 5.6343401470067409 0
          4.1873337683214755 5.6393575351586511 0
          4.1812914693064434 5.6444068513981165 0
          4.1752829897666794 5.6494964268945536 0
          4.1693146917177524 5.6546331373860852 0
          4.1633924019454831 5.6598229125034418 0
          4.1575216405357462 5.6650710056416269 0
          4.1517077595765297 5.6703821526044882 0
          4.1459560363445105 5.6757606728637251 0
          4.1402717371143583 5.6812105336558947 0
          4.1346601663844913 5.6867353945208494 0
          4.1291267024892377 5.6923386343363402 0
          4.1236768260127068 5.6980233684366377 0
          4.1183161419602934 5.7037924573679293 0
          4.1130503963423948 5.7096485085523199 0
          4.1078854894655299 5.7155938735494249 0
          4.1028274895875088 5.7216306443394895 0
          4.0978826408297531 5.7277606434244488 0
          4.0930573708864362 5.7339854129278214 0
          4.0883582982670941 5.7403062023685658 0
          4.083792236705162 5.7467239533437047 0
          4.0793661965397243 5.7532392813615854 0
          4.0750873860403081 5.7598524571592264 0
          4.0709632098555044 5.7665633856016605 0
          4.0670012660092576 5.7733715833578501 0
          4.0632093438902421 5.7802761567726417 0
          4.0595954175233642 5.7872757765632263 0
          4.0561676337311168 5.794368649833511 0
          4.0529343027275129 5.8015524935504095 0
          4.0499039029940693 5.8088245136489363 0
          4.0470850451909426 5.8161813654003254 0
          4.0444864538870764 5.8236191234785428 0
          4.0421169464309958 5.8311332512564178 0
          4.0399854082525195 5.8387185693131105 0
          4.0381007652436436 5.8463692236126565 0
          4.0364719497398402 5.8540786527570203 0
          4.0351078585878533 5.8618395548934608 0
          4.034017315067203 5.8696438570940108 0
          4.0332090271577909 5.8774826850487338 0
          4.0326915333872995 5.8853463326704185 0
          4.0324731450601217 5.8932242339927798 0
          4.0325618849867375 5.9011049375576841 0
          4.0326713355505452 5.9089851757507637 0
          4.032819921344692 5.9168645540275637 0
          4.0330264956748723 5.9247423925249798 0
          4.0333105206928161 5.9326175728929309 0
          4.0336789418607939 5.9404890148206952 0
          4.0341514948188495 5.9483546381570171 0
          4.0347479789397722 5.956211569503183 0
          4.0354886671273329 5.9640559431872493 0
          4.0363798663289545 5.9718843751101742 0
          4.0374559009068287 5.9796892502862127 0
          4.0387372069454095 5.9874627562441427 0
          4.0409964117089228 5.9950105143789987 0
          4.0430421823085307 6.0026191230446413 0
          4.0451383943175072 6.0102138863735473 0
          4.0472908829304695 6.0177927884558269 0
          4.0495051574720202 6.0253537659905385 0
          4.0517957249624823 6.0328918657687964 0
          4.0541677005965573 6.0404046305210759 0
          4.0566259759710297 6.0478894844542346 0
          4.0591751999260763 6.0553437358575293 0
          4.0618288756345224 6.0627613158132876 0
          4.0645910092895088 6.0701390650438105 0
          4.0674744279840747 6.0774701206593296 0
          4.0704823682184896 6.0847508273961948 0
          4.0736177036272565 6.0919774436779601 0
          4.07688311358904 6.0991460782669407 0
          4.0802807118092934 6.1062528682251376 0
          4.0838122218335151 6.1132939254735668 0
          4.0874789725421357 6.1202653602411328 0
          4.0912818958564232 6.127163305713391 0
          4.0952215267968031 6.1339839435969576 0
          4.0992980059950677 6.1407235302966878 0
          4.1035110844873319 6.1473784235367459 0
          4.1078601308889073 6.1539451090858428 0
          4.1123441408399861 6.1604202273491699 0
          4.1169617487505858 6.1668005994832527 0
          4.1217112415871595 6.1730832528686177 0
          4.1265907244811686 6.1792653272018798 0
          4.1315978338443493 6.1853443283873304 0
          4.1367223169091769 6.1913245631616984 0
          4.1419615013985087 6.1972044134308515 0
          4.1473124692688614 6.2029825639450271 0
          4.152772074365032 6.2086580210961442 0
          4.1583370969741962 6.214229994205839 0
          4.1640039966805942 6.2196981670389571 0
          4.1697690686542348 6.225062584042961 0
          4.1756284645862838 6.2303236601739886 0
          4.1815718735001237 6.2354894983721358 0
          4.18759557340241 6.2405613470137951 0
          4.1936956354762405 6.2455409594977151 0
          4.1998680563458768 6.2504304674885542 0
          4.2061087716721257 6.2552323837441337 0
          4.2124137716751662 6.2599494654564376 0
          4.2187789002330245 6.2645849900566315 0
          4.225199973766534 6.2691426151210283 0
          4.2316674583670606 6.2736340631682088 0
          4.2381772867345777 6.2780638546999734 0
          4.244725451068998 6.2824367315335161 0
          4.2513078119360204 6.2867579312019961 0
          4.2579201868639185 6.291033048197936 0
          4.2645583408423278 6.295268032059929 0
          4.2712179735570901 6.299469185457176 0
          4.2778947030469636 6.3036431624418539 0
          4.2845889737249152 6.3077890226792119 0
          4.2912961361410984 6.3119140945969434 0
          4.298011415544603 6.3160260672383393 0
          4.3047298822030102 6.3201329861228643 0
          4.3114464176700906 6.3242432472886767 0
          4.3181607307602858 6.3283573592753966 0
          4.3248671485793677 6.332484581747873 0
          4.3315650598194084 6.3366258890012217 0
          4.3382482148185213 6.3407912949594065 0
          4.3449100822341942 6.3449910227286797 0
          4.3515491659488692 6.3492270800888777 0
          4.358143986575576 6.3535321255651054 0
          4.3646845582100884 6.3579195737086538 0
          4.371160093700464 6.3624028934470989 0
          4.3775656653763049 6.3669860890856027 0
          4.3838890134214976 6.3716825613915864 0
          4.3901231026039067 6.3764973972540675 0
          4.3962514956304464 6.3814465808479817 0
          4.4022615061761901 6.3865393983595613 0
          4.4081362147083194 6.3917882487569946 0
          4.4138589644865363 6.3972029182936163 0
          4.4194398320104167 6.4027643357248198 0
        </DataArray>
      </Points>
      <Cells>
        <DataArray type="Int32" Name="connectivity" format="ascii">
          0 1 1 2 2 3 3 4 4 5 5 6 6 7 7 8 8 9 9 10 10 11 11 12 12 13 13 14 14 15 15 16 16 17 17 18 18 19 19 20 20 21 21 22 22 23 23 24 24 25 25 26 26 27 27 28 28 29 29 30 30 31 31 32 32 33 33 34 34 35 35 36 36 37 37 38 38 39 39 40 40 41 41 42 42 43 43 44 44 45 45 46 46 47 47 48 48 49 49 50 50 51 51 52 52 53 53 54 54 55 55 56 56 57 57 58 58 59 59 60 60 61 61 62 62 63 63 64 64 65 65 66 66 67 67 68 68 69 69 70 70 71 71 72 72 73 73 74 74 75 75 76 76 77 77 78 78 79 79 80 80 81 81 82 82 83 83 84 84 85 85 86 86 87 87 88 88 89 89 90 90 91 91 92 92 93 93 94 94 95 95 96 96 97 97 98 98 99 99 100 100 101 101 102 102 103 103 104 104 105 105 106 106 107 107 108 108 109 109 110 110 111 111 112 112 113 113 114 114 115 115 116 116 117 117 118 118 119 119 120 120 121 121 122 122 123 123 124 124 125 125 126 126 127 
        </DataArray>
        <DataArray type="Int32" Name="offsets" format="ascii">
          2 4 6 8 10 12 14 16 18 20 22 24 26 28 30 32 34 36 38 40 42 44 46 48 50 52 54 56 58 60 62 64 66 68 70 72 74 76 78 80 82 84 86 88 90 92 94 96 98 100 102 104 106 108 110 112 114 116 118 120 122 124 126 128 130 132 134 136 138 140 142 144 146 148 150 152 154 156 158 160 162 164 166 168 170 172 174 176 178 180 182 184 186 188 190 192 194 196 198 200 202 204 206 208 210 212 214 216 218 220 222 224 226 228 230 232 234 236 238 240 242 244 246 248 250 252 254 
        </DataArray>
        <DataArray type="Int32" Name="types" format="ascii">
          3 3 3 3 3 3 3 3 3 3 3 3 3 3 3 3 3 3 3 3 3 3 3 3 3 3 3 3 3 3 3 3 3 3 3 3 3 3 3 3 3 3 3 3 3 3 3 3 3 3 3 3 3 3 3 3 3 3 3 3 3 3 3 3 3 3 3 3 3 3 3 3 3 3 3 3 3 3 3 3 3 3 3 3 3 3 3 3 3 3 3 3 3 3 3 3 3 3 3 3 3 3 3 3 3 3 3 3 3 3 3 3 3 3 3 3 3 3 3 3 3 3 3 3 3 3 3         </DataArray>
      </Cells>
    </Piece>
  </UnstructuredGrid>
</VTKFile>
