<?xml version="1.0"?>
<VTKFile type="UnstructuredGrid" version="0.1" byte_order="LittleEndian">
  <UnstructuredGrid>
    <Piece NumberOfPoints="128" NumberOfCells="127">
      <PointData Scalars="W">
        <DataArray type="Float32" Name="W" NumberOfComponents="2">
          0 0 -0.49040680483638971 0.61008759526052214 -0.77375632588290699 0.9471653589393072 -0.99146593683133588 1.1870001339316396 -1.1772758583542908 1.3721927845689383 -1.3447603668829127 1.5202931588462443 -1.5007082981615243 1.6403891482173645 -1.6489846657727549 1.7379006720210524 -1.7919451920710445 1.816343525574484 -1.9311434533910348 1.8781971959934316 -2.0675779746885357 1.9252305822107165 -2.2019103950659984 1.958771320763405 -2.3345848706808763 1.9798521313311284 -2.4659323521212815 1.9893233244139672 -2.5961882566229608 1.9878784792519191 -2.725494089658512 1.9760688640331379 -2.8538594750703052 1.9542942856226038 -2.9813148462011281 1.9229255428516918 -3.1078356140202361 1.8822516436237189 -3.233328366095054 1.8324829252743822 -3.3576805063136024 1.7737904636956288 -3.4807782260802926 1.7063172924756982 -3.6024637215632391 1.6301586838726088 -3.7225362036150056 1.5453710629091568 -3.8408213794006398 1.452005012476719 -3.957030323117348 1.3500521058873329 -4.0709021196145523 1.2395091109722924 -4.1822278847890972 1.1203755830836921 -4.2907029335156706 0.99260854079894512 -4.3956446465020109 0.85609094565309507 -4.49701485806672 0.71085480932375233 -4.5944045141811269 0.55683151637717354 -4.6873884633694116 0.393953284122045 -4.775470312243419 0.22215120150360035 -4.8581385846219129 0.04136644680315206 -4.9348313148653187 -0.14844902694909484 -5.0050495052870394 -0.34733567853719371 -5.0680939752928831 -0.55531278667985373 -5.1232011421308528 -0.7723587852619932 -5.1697178162851269 -0.99843714903375724 -5.2069093827750033 -1.2334804635919399 -5.2339603207818248 -1.4773757573026662 0.85430325818233499 0.25774690661871663 0.66069482596453744 0.19485320301562639 0.45917160135136714 0.13312863193960534 0.25380989524547221 0.072784068792291892 0.043839326655829833 0.012513791489333225 -0.31194741353765493 -0.089415076990701725 -0.53360395478238787 -0.1549532746691005 -0.91237782269193635 -0.27082864840071452 -1.4800011580299948 -0.45522399077777359 -15.14812080123134 -5.8490428538505022 -14.377306665192863 -7.7971140298283146 -13.339090263651588 -9.6494993269178693 2.6254221442437315 2.113813926566785 2.6204332096306215 1.998732774373712 2.6067228785199945 1.8845377102048886 1.5287259561108897 1.0593198471836189 1.4371079205438062 0.96603943234242917 1.3398650638788643 0.8753686634161052 1.2377504297488076 0.78748801358599574 1.1314372875803338 0.7024533936242654 1.0216128780944251 0.62027134709611531 0.9089306117487157 0.54087996297736052 0.74598759809134385 0.43630671781919539 0.67846356313329015 0.39093025269678944 0.61196713087545718 0.34785853355121737 0.49547009713078721 0.27836389408838241 0.43198240599814969 0.24032304439818747 0.37072945916228445 0.20449577884917819 0.31201321850087738 0.17086142420985431 0.25612499698564306 0.13940913261493665 0.20198132560501586 0.10940187824336023 0.098896836565634999 0.05339467542158808 0.052981779765173709 0.028558533559884317 0.010866206221710879 0.0058531590180842669 -0.027279248396763333 -0.014696743973158309 -0.061320715183043405 -0.033068005465614517 -0.091091942342339721 -0.049202740579328379 -0.11649380304843433 -0.063063283658458466 -0.13871621519153546 -0.075298396313204244 -0.21040286412089376 -0.11463817623878164 -0.22203769408087018 -0.12153660948663363 -0.22899730093841456 -0.12594955495826438 -0.23121037729315333 -0.12779055225566788 -0.22866618784183154 -0.12700297677910821 -0.22258315647627827 -0.12421728832751852 -0.21046408442891265 -0.11799375895188641 -0.19353893642571618 -0.10896946179696471 -0.17179570811269829 -0.097101221969374707 -0.14522421972438132 -0.082357716099451056 -0.11500229123338003 -0.065397830145718275 -0.078718429883151753 -0.044855919926135225 -0.094128080835941055 -0.053734495938541425 -0.049157058571195351 -0.028104440282533599 0.0018974902199931775 0.0010853869762920926 0.057927286418446043 0.033114240499649623 0.11899901044124059 0.067899411700477044 0.18408254810973446 0.10470045819967633 0.25551804986701587 0.14465855601031044 0.33232803378343456 0.18697912611197381 0.35578756353441071 0.19872586713191784 0.44360169051080728 0.2456828598058495 0.53623605045012102 0.29390831878498591 0.63609313904907028 0.34430436985690777 0.6808332493221142 0.3633554629964304 0.79351906679674689 0.41682176261494935 0.91337653964823096 0.47098650762529015 0.97642946905118932 0.49321778672088257 1.1126674947238722 0.54925422424763148 1.2566394479340641 0.6041889149707167 1.3425483205387037 0.62687491904240067 1.5071507653983833 0.68119461472413301 1.6114690429667899 0.70242653027423185 1.7989044770467972 0.75306572662056703 1.9283568853307205 0.77155228722147107 2.1471560528839899 0.81648051025546986 2.5254877822387845 0.90407491917600313 2.8150343625502883 0.93762182748799017 -4.0016617964473662 -1.3549138270182015 -3.6906673177516853 -1.3834019783666651 -3.6782230658173272 -1.5111159665040492 -3.3038189956575312 -1.4742350396973289 -2.8811587507901169 -1.3794425294918762 -2.1151880219943373 -1.0702905530135629 -0.8299344021834264 -0.43361175508020838 5.3563170356281349 2.6643911608574875 0 0
        </DataArray>
        <DataArray type="Float32" Name="u" NumberOfComponents="1">
          0 0.007874015748031496 0.015748031496062992 0.023622047244094488 0.031496062992125984 0.03937007874015748 0.047244094488188976 0.055118110236220472 0.062992125984251968 0.070866141732283464 0.07874015748031496 0.086614173228346455 0.094488188976377951 0.10236220472440945 0.11023622047244094 0.11811023622047244 0.12598425196850394 0.13385826771653545 0.14173228346456693 0.14960629921259844 0.15748031496062992 0.16535433070866143 0.17322834645669291 0.18110236220472442 0.1889763779527559 0.19685039370078741 0.20472440944881889 0.2125984251968504 0.22047244094488189 0.2283464566929134 0.23622047244094488 0.24409448818897639 0.25196850393700787 0.25984251968503935 0.26771653543307089 0.27559055118110237 0.28346456692913385 0.29133858267716534 0.29921259842519687 0.30708661417322836 0.31496062992125984 0.32283464566929132 0.33070866141732286 0.33858267716535434 0.34645669291338582 0.3543307086614173 0.36220472440944884 0.37007874015748032 0.37795275590551181 0.38582677165354329 0.39370078740157483 0.40157480314960631 0.40944881889763779 0.41732283464566927 0.42519685039370081 0.43307086614173229 0.44094488188976377 0.44881889763779526 0.45669291338582679 0.46456692913385828 0.47244094488188976 0.48031496062992124 0.48818897637795278 0.49606299212598426 0.50393700787401574 0.51181102362204722 0.51968503937007871 0.52755905511811019 0.53543307086614178 0.54330708661417326 0.55118110236220474 0.55905511811023623 0.56692913385826771 0.57480314960629919 0.58267716535433067 0.59055118110236215 0.59842519685039375 0.60629921259842523 0.61417322834645671 0.62204724409448819 0.62992125984251968 0.63779527559055116 0.64566929133858264 0.65354330708661412 0.66141732283464572 0.6692913385826772 0.67716535433070868 0.68503937007874016 0.69291338582677164 0.70078740157480313 0.70866141732283461 0.71653543307086609 0.72440944881889768 0.73228346456692917 0.74015748031496065 0.74803149606299213 0.75590551181102361 0.76377952755905509 0.77165354330708658 0.77952755905511806 0.78740157480314965 0.79527559055118113 0.80314960629921262 0.8110236220472441 0.81889763779527558 0.82677165354330706 0.83464566929133854 0.84251968503937003 0.85039370078740162 0.8582677165354331 0.86614173228346458 0.87401574803149606 0.88188976377952755 0.88976377952755903 0.89763779527559051 0.90551181102362199 0.91338582677165359 0.92125984251968507 0.92913385826771655 0.93700787401574803 0.94488188976377951 0.952755905511811 0.96062992125984248 0.96850393700787396 0.97637795275590555 0.98425196850393704 0.99212598425196852 1
        </DataArray>
      </PointData>
      <CellData Scalars="P">
        <DataArray type="Float32" Name="P" NumberOfComponents="1">
          -0.034858573555731139 -0.10212499804088152 -0.16468470111019154 -0.22164290406643467 -0.27259535156550535 -0.31738287998930004 -0.35598187433042222 -0.38844395847097224 -0.41485980390167004 -0.43533450359330123 -0.44997258258401202 -0.45886723226857484 -0.46209254492094126 -0.45969693420618291 -0.4516987631550976 -0.43808387342225258 -0.41880570667851896 -0.3937818561750886 -0.36289352374473671 -0.32598592888322525 -0.28286750826971491 -0.23330870221697242 -0.17704224872995958 -0.11376356036087963 -0.043128709359247508 0.035242623516216681 0.12176919631399753 0.21691142100805294 0.32116918777782649 0.43506785471319953 0.55918508852991111 0.69413773763976483 0.84058262368026193 0.99921484175586417 1.1707683959710433 1.3560150839964504 1.555769048172055 1.770877811166919 2.0022190012939505 2.2507067233495661 2.5172874096978131 2.8029347251072134 2.6894384973575431 2.5883754785275257 2.5017317459491037 2.4307553964218833 2.3763495744835366 2.3503366632122416 2.3418140276262771 2.3627300953214774 2.4268929424309116 3.4975715678010331 4.534628747861583 5.5528682022017684 5.2655284355812002 4.9664020574645429 4.6597897785290909 4.4562959688497319 4.2599121253129342 4.0725118189280165 3.8955971479940215 3.7303147641380225 3.5774669002214905 3.437531273387775 3.3153925136538893 3.20141935171563 3.0953649068665992 3.0014221401320138 2.9143509098471196 2.8335590854894606 2.758394733282362 2.6881643156822932 2.622241379441526 2.5631097837388461 2.5064627776918602 2.4516061851154256 2.397888200331352 2.3447115265892982 2.291541073030448 2.2379142835451895 2.1834758928117015 2.1288169634570706 2.0724715403432037 2.0143209703098641 1.9543356256045552 1.8925733254711961 1.8291625633664987 1.764330760243336 1.6983721415719799 1.6316472750627837 1.5645752418088057 1.4975847395953472 1.4312217448558646 1.3636761519495573 1.2976154128831934 1.2336806053755665 1.1724647503084666 1.1145507160506143 1.0604395500775978 1.0107252720159332 0.96590528579967316 0.92289862406604206 0.88557845787967948 0.85423414121332786 0.82922072761943921 0.80697483043741591 0.79143697943396074 0.78269162523702263 0.77691871625983189 0.77800442906081047 0.78575421179852289 0.79624404501211943 0.81311684655565941 0.8323795614175008 0.8574604134292142 0.88458910242371602 0.91699250268938814 0.96023547743805271 1.0089055985480904 0.81510788630024944 0.63982663528952599 0.47467206836413728 0.3331185762028146 0.21552441229138886 0.12563224053951133 0.061514618966833502 0.029825544783305551
        </DataArray>
      </CellData>
      <Points>
        <DataArray type="Float32" NumberOfComponents="3" format="ascii">
          4.2194683722703772 8.9690351059197049 0
          4.2256230099970225 8.9739512322230119 0
          4.2317472242639989 8.978905217419328 0
          4.2378234372124259 8.9839179795432997 0
          4.2438381430940479 8.989004402722955 0
          4.2497798149250183 8.9941759806301516 0
          4.2556380622904664 8.9994419054702934 0
          4.2614032101378641 9.0048096318887652 0
          4.2670660589737022 9.0102852132690341 0
          4.2726177387022961 9.0158735198727626 0
          4.2780496122331799 9.0215783926718451 0
          4.2833532135273682 9.0274027530845071 0
          4.2885202065467958 9.0333486853278853 0
          4.2935423576989464 9.0394175004684865 0
          4.2984115153067668 9.0456097891522145 0
          4.3031195950077805 9.0519254646077805 0
          4.3076585709821522 9.0583637968185169 0
          4.3120204753663716 9.0649234372949525 0
          4.3161973963777864 9.0716024420470767 0
          4.3201814798558598 9.078398289481191 0
          4.3239649350768268 9.0853078934150648 0
          4.3275400417616181 9.0923276136572344 0
          4.3308991571618831 9.0994532648468951 0
          4.3340347258792615 9.106680122331003 0
          4.3369392923554022 9.1140029256319472 0
          4.3396055117208494 9.1214158815543556 0
          4.3420261677613636 9.1289126636318443 0
          4.344194189149313 9.1364864118984332 0
          4.3461026624492414 9.1441297328357543 0
          4.3477448510722549 9.1518346966834869 0
          4.3491142376896921 9.1595928301571714 0
          4.3502045266533536 9.1673951184205205 0
          4.3510096694370439 9.175232000816985 0
          4.351523891080153 9.1830933666579906 0
          4.3517417210556051 9.1909685509466552 0
          4.3516580250763992 9.1988463307338009 0
          4.3512680400378896 9.2067149221493647 0
          4.3505674050534147 9.2145619779120942 0
          4.3495522049156223 9.2223745861617346 0
          4.3482190175554933 9.2301392718349877 0
          4.3465649546490974 9.2378419989790821 0
          4.3445877072767471 9.2454681749923218 0
          4.3422855966012719 9.2530026577026554 0
          4.340036579988066 9.2605529034774197 0
          4.3378286380005324 9.2681150036993252 0
          4.3356492616500786 9.2756851235759399 0
          4.3334857054302356 9.2832595155327429 0
          4.3313249396212798 9.2908344381700712 0
          4.3291448914296495 9.2984035589733711 0
          4.3269318105662942 9.3059628138825339 0
          4.3246622039355049 9.3135050101539534 0
          4.3223008697632732 9.3210186996305016 0
          4.3189998851499878 9.3281695477422346 0
          4.3148070748811067 9.3348367114408006 0
          4.3097868527334366 9.3409052866957438 0
          4.3049295084430987 9.3471049530708541 0
          4.3002347315929956 9.3534285685022578 0
          4.2957016706861406 9.3598690458144791 0
          4.2912634901759246 9.3663751476502082 0
          4.2869145047427306 9.3729410842289145 0
          4.2826486803015023 9.3795612282349747 0
          4.2784596807335697 9.3862301260722987 0
          4.2743409096701894 9.3929425013831249 0
          4.2702855531378816 9.3996932554990416 0
          4.2662866201004572 9.4064774636384065 0
          4.262334003667946 9.4132886386019283 0
          4.2584235127231951 9.42012396852145 0
          4.2545510200256098 9.4269807850314482 0
          4.2507092986790855 9.4338547803893888 0
          4.2468944082716735 9.4407435995353914 0
          4.2431025470775507 9.4476450251732977 0
          4.239330070762855 9.4545569764480195 0
          4.2355735104304317 9.4614775082286773 0
          4.2318295054346144 9.4684047653378567 0
          4.2280916611100237 9.4753352800225041 0
          4.2243571270445273 9.482267518627685 0
          4.2206232884229253 9.4892000798310292 0
          4.2168877765961419 9.4961316961167412 0
          4.2131484773746006 9.5030612351537513 0
          4.2094035413333311 9.5099877033267575 0
          4.2056513899600416 9.5169102480137884 0
          4.2018906418877124 9.523828117305186 0
          4.1981168489579295 9.5307388787395073 0
          4.1943292861759662 9.5376421112238603 0
          4.190527518467313 9.544537547535942 0
          4.1867114051257568 9.5514250796385518 0
          4.1828811005101141 9.5583047621486408 0
          4.1790369785269865 9.5651767732242057 0
          4.1751797875104106 9.5720415037741553 0
          4.171310573997979 9.5788995179406662 0
          4.1674306835164963 9.5857515557537152 0
          4.1635417612549395 9.5925985350558705 0
          4.159645679060703 9.5994415106592186 0
          4.1557446850289228 9.6062817589696223 0
          4.1518378214998704 9.6131187329324934 0
          4.1479278758478753 9.6199540236120491 0
          4.1440180131497577 9.6267894422735818 0
          4.1401117074769305 9.6336269757266741 0
          4.1362127460518066 9.6404687812086323 0
          4.1323251653624169 9.6473171405168028 0
          4.128453396325571 9.6541745307260509 0
          4.1246022036538763 9.6610435749651469 0
          4.1207730428244327 9.6679250018792171 0
          4.1169713618037029 9.6748217213620382 0
          4.1132029079299626 9.6817367216120847 0
          4.1094738769190284 9.6886731250288562 0
          4.1057870452605547 9.6956321119949216 0
          4.1021494049195608 9.7026169947245027 0
          4.0985683929321963 9.7096311284504804 0
          4.0950479221136975 9.7166758901475632 0
          4.0915964458034324 9.7237547506704534 0
          4.0882228970768439 9.7308711123954872 0
          4.0849326064290512 9.7380263801893214 0
          4.0817357864736987 9.7452239180862961 0
          4.0786389092901798 9.752465040886749 0
          4.075653603345029 9.7597528845125368 0
          4.0727878992106774 9.7670885938838445 0
          4.0700553700968198 9.7744749512150211 0
          4.0674794857359924 9.7819173796005359 0
          4.0650782063106332 9.789417955272917 0
          4.0624288983834456 9.7968340309160222 0
          4.0595508579745569 9.8041639427661735 0
          4.056444849998682 9.8113998774917963 0
          4.0531340760969572 9.8185442119099502 0
          4.0496447187511082 9.8256029067638639 0
          4.0460242378096485 9.8325952055148207 0
          4.0423522803310137 9.8395606588275566 0
          4.0390124237154605 9.8466912955095509 0
        </DataArray>
      </Points>
      <Cells>
        <DataArray type="Int32" Name="connectivity" format="ascii">
          0 1 1 2 2 3 3 4 4 5 5 6 6 7 7 8 8 9 9 10 10 11 11 12 12 13 13 14 14 15 15 16 16 17 17 18 18 19 19 20 20 21 21 22 22 23 23 24 24 25 25 26 26 27 27 28 28 29 29 30 30 31 31 32 32 33 33 34 34 35 35 36 36 37 37 38 38 39 39 40 40 41 41 42 42 43 43 44 44 45 45 46 46 47 47 48 48 49 49 50 50 51 51 52 52 53 53 54 54 55 55 56 56 57 57 58 58 59 59 60 60 61 61 62 62 63 63 64 64 65 65 66 66 67 67 68 68 69 69 70 70 71 71 72 72 73 73 74 74 75 75 76 76 77 77 78 78 79 79 80 80 81 81 82 82 83 83 84 84 85 85 86 86 87 87 88 88 89 89 90 90 91 91 92 92 93 93 94 94 95 95 96 96 97 97 98 98 99 99 100 100 101 101 102 102 103 103 104 104 105 105 106 106 107 107 108 108 109 109 110 110 111 111 112 112 113 113 114 114 115 115 116 116 117 117 118 118 119 119 120 120 121 121 122 122 123 123 124 124 125 125 126 126 127 
        </DataArray>
        <DataArray type="Int32" Name="offsets" format="ascii">
          2 4 6 8 10 12 14 16 18 20 22 24 26 28 30 32 34 36 38 40 42 44 46 48 50 52 54 56 58 60 62 64 66 68 70 72 74 76 78 80 82 84 86 88 90 92 94 96 98 100 102 104 106 108 110 112 114 116 118 120 122 124 126 128 130 132 134 136 138 140 142 144 146 148 150 152 154 156 158 160 162 164 166 168 170 172 174 176 178 180 182 184 186 188 190 192 194 196 198 200 202 204 206 208 210 212 214 216 218 220 222 224 226 228 230 232 234 236 238 240 242 244 246 248 250 252 254 
        </DataArray>
        <DataArray type="Int32" Name="types" format="ascii">
          3 3 3 3 3 3 3 3 3 3 3 3 3 3 3 3 3 3 3 3 3 3 3 3 3 3 3 3 3 3 3 3 3 3 3 3 3 3 3 3 3 3 3 3 3 3 3 3 3 3 3 3 3 3 3 3 3 3 3 3 3 3 3 3 3 3 3 3 3 3 3 3 3 3 3 3 3 3 3 3 3 3 3 3 3 3 3 3 3 3 3 3 3 3 3 3 3 3 3 3 3 3 3 3 3 3 3 3 3 3 3 3 3 3 3 3 3 3 3 3 3 3 3 3 3 3 3         </DataArray>
      </Cells>
    </Piece>
  </UnstructuredGrid>
</VTKFile>
