<?xml version="1.0"?>
<VTKFile type="UnstructuredGrid" version="0.1" byte_order="LittleEndian">
  <UnstructuredGrid>
    <Piece NumberOfPoints="128" NumberOfCells="127">
      <PointData Scalars="W">
        <DataArray type="Float32" Name="W" NumberOfComponents="2">
          0 0 0.6286854620565463 -0.1940979851596932 0.96950809898338985 -0.30633872667536249 1.2256764878034863 -0.39955549051905048 1.4351465199042157 -0.48543309899739984 1.6133942156144094 -0.56865957709892889 1.7686430841608241 -0.65167037358245072 1.9058120259161999 -0.73588034255969381 2.0281131597195907 -0.82218487024960907 2.1376910024468732 -0.91115166937752945 2.2360979263822678 -1.0031758808008424 2.3244026225659367 -1.0985008490124295 2.403385631487815 -1.1972825149502664 2.4735977163691554 -1.2996016336226264 2.5354037183439972 -1.4054701938700367 2.5890509767355931 -1.5148545579921846 2.6347513282713173 -1.6277168574348586 2.6725792953262131 -1.7439495504573901 2.7025851059313033 -1.8634343881342306 2.7247971165009344 -1.9860447612328915 2.739186059574592 -2.1116179104376442 2.7456727261531539 -2.2399515103295542 2.7441813577733876 -2.3708406029079496 2.7346006955385365 -2.5040443526332443 2.7168119435993847 -2.6393046260655892 2.6907231937502982 -2.7763807383253964 2.656194042130724 -2.9149755543727669 2.6130480560953884 -3.0547316756107366 2.5611673963914683 -3.195334066315191 2.5006014646575436 -3.3366850793939307 2.4309789342070744 -3.4781336997791432 2.3521797796862041 -3.6192900581923522 2.2640908252343968 -3.7597472636081752 2.1666032409794052 -3.8990744285120642 2.059621077737722 -4.0368278362829448 1.943041555179815 -4.1725065408815318 1.816757480768858 -4.3055293593814925 1.6807390510045155 -4.435416023402448 1.5349712372400555 -4.5616818881244132 1.3794162372718703 -4.6837064465080473 1.2140764094991976 -4.8008698995871715 1.0389924547824874 -4.9125602321566237 -0.90759792207353618 4.3408034697877085 -1.0363118246008531 4.222060690014934 -1.1543156796546987 4.0978658988943701 -1.2614670810949593 3.969017790114882 -1.3648064095243131 3.8554089950270587 -1.4521047970260006 3.7210888662931336 -1.5292406965562066 3.5856057660579599 -1.596257608960731 3.4491330360591501 -1.6636890638665509 3.3321527170380238 -1.7026778215688283 3.1774033002762669 -1.7422272284639273 3.0433542196222048 7.2018529998437462 -14.134325362948427 -1.6643843228792918 3.6809306235842585 -1.5612731418086565 3.1948239149768085 -1.6158529154255805 3.0866034860925486 -1.6644130398462158 2.9795687901816024 -1.699503862979064 2.8612982703114831 -1.7361849807512866 2.7575985766835269 -1.7678435418457881 2.6558564397765458 -1.7948557882565612 2.5563234159831976 -1.8086230543366548 2.4473674695774545 -1.8269392414548842 2.3533074866148409 -1.8321300857163716 2.2504310942571784 -1.8433585954608041 2.162460370476873 -1.8518758671359576 2.0774602295567832 -1.8578237405449081 1.9952706111452747 -1.8619519794304076 1.9163764161712968 -1.864391234542484 1.8405646207065187 -1.8654600762715936 1.7678318391256971 -1.8654655966651927 1.6981578442262606 -1.8647032030290931 1.6315071986065535 -1.8634565730025299 1.5678307554664739 -1.8619980828373073 1.5070672863013634 -1.8605889593671214 1.4491445959359783 -1.8594797731721571 1.3939806915957962 -1.858910769187369 1.3414846054694105 -1.8591126404510965 1.2915573493169601 -1.8600616838690323 1.2439314962299299 -1.862456010592243 1.1988239632151907 -1.8794108461736461 1.1639321352520666 -1.8851016400006633 1.1227029259530694 -1.8925829689170486 1.0834416199238281 -1.9020463333465512 1.0460098100308686 -1.9134157204944719 1.0101260718677083 -1.9273728221027453 0.97590713414306918 -1.9438451084386401 0.94305187247662059 -1.9630045176734143 0.91138956338750599 -1.9986715508867761 0.88665691211682995 -2.0236683424000925 0.85625696821292441 -2.0520959749508787 0.82658111778574772 -2.0838749282374329 0.7973015677625036 -2.119171785589383 0.76818796299936054 -2.1579014357585389 0.73891008500504651 -2.2007349678919033 0.70938092524477658 -2.2475846348022452 0.67922057752760745 -2.3125068046282493 0.65189582909297328 -2.3680521585179042 0.61899377964159052 -2.4278702788814606 0.5843808298338552 -2.4926313223755359 0.54778515471427258 -2.5622611677603278 0.50870580245153418 -2.6369337474492784 0.46666769642929135 -2.7168231090716324 0.42114907166428595 -2.8021029136206388 0.37157538904812448 -2.8786263777337098 0.31590671610643012 -2.9751317181638761 0.25692669973006155 -3.0775544662783298 0.19181041046008357 -3.1860598892542256 0.11969235228451783 -3.3008049771217851 0.039604904396766061 -3.407079091635814 -0.049122901182849968 -3.5350512231833107 -0.14772927575066561 -3.6541584806409753 -0.25665547121857035 -3.7958167038204262 -0.37919012920879064 -3.9442805645235395 -0.51667394447701087 -4.0846107791618973 -0.66845313972688425 -4.2869015563361854 -0.849917786660501 -2.2919031256535223 -0.51776967407795504 -2.3589810078189459 -0.57978452350793663 -2.4230034623021122 -0.64571443980167942 -2.452176856158768 -0.70610038227524508 -2.393071104602094 -0.74099331169407012 -2.3678130157342796 -0.78458162595956626 -2.3527583591864514 -0.83124517747242199 -2.1040894666405712 -0.78788825902490922 -1.0761671639497872 -0.41950086526277802 -0.58580100771571664 -0.23310993980390254 0 0
        </DataArray>
        <DataArray type="Float32" Name="u" NumberOfComponents="1">
          0 0.007874015748031496 0.015748031496062992 0.023622047244094488 0.031496062992125984 0.03937007874015748 0.047244094488188976 0.055118110236220472 0.062992125984251968 0.070866141732283464 0.07874015748031496 0.086614173228346455 0.094488188976377951 0.10236220472440945 0.11023622047244094 0.11811023622047244 0.12598425196850394 0.13385826771653545 0.14173228346456693 0.14960629921259844 0.15748031496062992 0.16535433070866143 0.17322834645669291 0.18110236220472442 0.1889763779527559 0.19685039370078741 0.20472440944881889 0.2125984251968504 0.22047244094488189 0.2283464566929134 0.23622047244094488 0.24409448818897639 0.25196850393700787 0.25984251968503935 0.26771653543307089 0.27559055118110237 0.28346456692913385 0.29133858267716534 0.29921259842519687 0.30708661417322836 0.31496062992125984 0.32283464566929132 0.33070866141732286 0.33858267716535434 0.34645669291338582 0.3543307086614173 0.36220472440944884 0.37007874015748032 0.37795275590551181 0.38582677165354329 0.39370078740157483 0.40157480314960631 0.40944881889763779 0.41732283464566927 0.42519685039370081 0.43307086614173229 0.44094488188976377 0.44881889763779526 0.45669291338582679 0.46456692913385828 0.47244094488188976 0.48031496062992124 0.48818897637795278 0.49606299212598426 0.50393700787401574 0.51181102362204722 0.51968503937007871 0.52755905511811019 0.53543307086614178 0.54330708661417326 0.55118110236220474 0.55905511811023623 0.56692913385826771 0.57480314960629919 0.58267716535433067 0.59055118110236215 0.59842519685039375 0.60629921259842523 0.61417322834645671 0.62204724409448819 0.62992125984251968 0.63779527559055116 0.64566929133858264 0.65354330708661412 0.66141732283464572 0.6692913385826772 0.67716535433070868 0.68503937007874016 0.69291338582677164 0.70078740157480313 0.70866141732283461 0.71653543307086609 0.72440944881889768 0.73228346456692917 0.74015748031496065 0.74803149606299213 0.75590551181102361 0.76377952755905509 0.77165354330708658 0.77952755905511806 0.78740157480314965 0.79527559055118113 0.80314960629921262 0.8110236220472441 0.81889763779527558 0.82677165354330706 0.83464566929133854 0.84251968503937003 0.85039370078740162 0.8582677165354331 0.86614173228346458 0.87401574803149606 0.88188976377952755 0.88976377952755903 0.89763779527559051 0.90551181102362199 0.91338582677165359 0.92125984251968507 0.92913385826771655 0.93700787401574803 0.94488188976377951 0.952755905511811 0.96062992125984248 0.96850393700787396 0.97637795275590555 0.98425196850393704 0.99212598425196852 1
        </DataArray>
      </PointData>
      <CellData Scalars="P">
        <DataArray type="Float32" Name="P" NumberOfComponents="1">
          -0.011589523150558582 -0.033089698662947066 -0.05124502126886344 -0.0651631862613401 -0.074258162345053405 -0.078120020927790829 -0.076451545214765756 -0.069032471591900721 -0.055696276417870526 -0.036315552974456704 -0.010790146538861048 0.020959891044755648 0.059000555936081694 0.10338823142815419 0.15417257698517831 0.21139934359881932 0.27511441811497034 0.34536379677542922 0.42219611171135651 0.50566484643503251 0.59582875363807508 0.69275184791088162 0.79650510739541025 0.90716622469328023 1.024820167192628 1.1495613481582942 1.2814917876911534 1.4207190148470741 1.567359144441997 1.7215486555409014 1.8834162475943319 2.0530971007618786 2.230732240375116 2.4164673874835385 2.6104522334480844 2.8128372348825534 3.0237690344014969 3.2433952007094229 3.4718631815824503 3.7093120495990841 3.955871321030016 4.211659904015117 3.945596933719862 3.6708456015953388 3.3898327872107772 3.1048574652109373 2.8166671744915672 2.528493909087814 2.2421010936592713 1.9591283163891386 1.6794097759676503 1.4073787058308398 1.1425695495569546 2.2362701892949919 1.9388562743795432 1.6749420434555569 1.4160694282345683 1.1630787830528022 0.91777071907032226 0.67973129191009296 0.44949974797580544 0.22752295361965247 0.015155597213731855 -0.18834322412983581 -0.38181543777419158 -0.56611458899940681 -0.74116847867307123 -0.90693990434506966 -1.0634731206034556 -1.2108343870829437 -1.3491242724003925 -1.4784722395598329 -1.5990315356439184 -1.7109743997123978 -1.8144876145489093 -1.9097683809817061 -1.9970205290354874 -2.0764510526193938 -2.1482669797459 -2.2126658463983579 -2.2698543781511313 -2.3202801991182262 -2.3638142856786097 -2.4006265402728579 -2.4308746001504709 -2.4547014424047466 -2.4722394093297142 -2.4836039841493776 -2.4888957494258537 -2.4880917951653974 -2.4813261598001524 -2.4686536196337263 -2.450117387201578 -2.4257482662900935 -2.3955713196387118 -2.3595919361463098 -2.3178125578925446 -2.2698427902942413 -2.216027872261189 -2.1563690177513091 -2.0908545579680697 -2.0194857973798102 -1.942273400812645 -1.8592414660564289 -1.7704319944147717 -1.6764675021067945 -1.5769008668129858 -1.4718581627349667 -1.3615061462447093 -1.2460593839171035 -1.126393875700257 -1.0022287934932117 -0.87459698158106725 -0.7433519772834033 -0.60908226196547477 -0.47305881763786511 -0.33402733862516737 -0.27207113495840346 -0.21177721864048027 -0.15417913520726564 -0.10134577378479873 -0.056620753022155232 -0.019732178255257422 0.0087644389737887018 0.024284539997204185 0.019355578665181741 0.0070604154436843891
        </DataArray>
      </CellData>
      <Points>
        <DataArray type="Float32" NumberOfComponents="3" format="ascii">
          3.9764575509019791 5.9599506281137593 0
          3.9787609934770836 5.9674806542775958 0
          3.9811034184736616 5.9749986431766073 0
          3.9835059590051927 5.9824976342411196 0
          3.9859844990391622 5.9899718467710139 0
          3.9885520269025379 5.9974159552885702 0
          3.9912195948943348 6.0048247988049841 0
          3.9939968291971781 6.0121932297835512 0
          3.9968922348824121 6.0195160263964578 0
          3.9999133950840995 6.0267878369973502 0
          4.0030671039750203 6.0340031449149425 0
          4.0063594630260724 6.0411562439491595 0
          4.0097959472744567 6.0482412232809084 0
          4.0133814537248185 6.0552519578022688 0
          4.0171203355028613 6.0621821031092571 0
          4.0210164244807665 6.0690250947589197 0
          4.0250730466169085 6.0757741503557989 0
          4.029293035094331 6.0824222719009127 0
          4.0336787349450454 6.0889622524609699 0
          4.0382320061680863 6.0953866835015376 0
          4.0429542254915427 6.1016879627385796 0
          4.0478462845617216 6.1078583042314527 0
          4.052908585035814 6.1138897509291361 0
          4.0581410338886634 6.1197741873795577 0
          4.0635430365184586 6.125503354663361 0
          4.0691134893852388 6.131068866400037 0
          4.0748507743166931 6.1364622236719537 0
          4.0807527498070941 6.1416748334483353 0
          4.086816740082396 6.1466980307455872 0
          4.0930395277985028 6.151523098160637 0
          4.0994173571092372 6.1561412719249491 0
          4.1059459106473701 6.1605437822694702 0
          4.1126203020875156 6.1647218775969819 0
          4.1194350691337123 6.1686668497095045 0
          4.126384166776468 6.172370060523213 0
          4.133460961348403 6.175822969578407 0
          4.1406582241562617 6.1790171650975179 0
          4.1479681248392701 6.1819444000176613 0
          4.1553822295257348 6.1845966217656967 0
          4.1628914999055473 6.1869660023042536 0
          4.1704862908904445 6.1890449766012514 0
          4.1781563507641026 6.1908262810550765 0
          4.1858908237092933 6.1923029914367369 0
          4.1935690095030518 6.1940488402101384 0
          4.2011829282214999 6.1960564637049638 0
          4.2087252640726449 6.198318160334443 0
          4.2161893742119716 6.2008259401209296 0
          4.2235688524173449 6.2035727581573328 0
          4.2308582868733957 6.2065502854598655 0
          4.2380528959091723 6.2097501210726094 0
          4.2451485252853711 6.2131638028146128 0
          4.2521409952542353 6.2167840772747711 0
          4.2590278892525646 6.2206013492912797 0
          4.2658067561483159 6.2246073073638586 0
          4.2730321397804456 6.2277369256065471 0
          4.28015432726309 6.2310947624800619 0
          4.287179709817301 6.2346506777964272 0
          4.2941049041566126 6.238397961676954 0
          4.3009269002028141 6.2423299778362695 0
          4.3076435229152734 6.2464393934076643 0
          4.3142524986965531 6.2507197790255171 0
          4.3207518653260797 6.2551648267598514 0
          4.3271399486308777 6.2597683657090419 0
          4.3334158955858584 6.2645236407952058 0
          4.339578571134985 6.2694248205714143 0
          4.3456276539629837 6.2744655270237519 0
          4.3515624484040334 6.2796403063559643 0
          4.3573824268573178 6.2849438889966267 0
          4.3630872209928002 6.2903711796728246 0
          4.3686765752649599 6.2959172874710312 0
          4.3741503388122744 6.3015775126272873 0
          4.3795084457056177 6.3073473463151437 0
          4.3847508959083434 6.3132224693896832 0
          4.3898777369607958 6.3191987501887477 0
          4.3948890463920129 6.3252722414844129 0
          4.3997849148320256 6.3314391766856346 0
          4.4045654298152863 6.3376959653611644 0
          4.4092306602446341 6.3440391881552243 0
          4.4137806414952614 6.3504655911469241 0
          4.4182153611106658 6.3569720797125839 0
          4.4225347602726748 6.3635557019470816 0
          4.4267386905135506 6.3702136621088474 0
          4.4308261004680185 6.3769437977335857 0
          4.4347966371931316 6.3837435535744937 0
          4.4386498366860723 6.3906104964238759 0
          4.4423851120079787 6.3975423065321104 0
          4.446001757995516 6.4045367601626699 0
          4.4494989089873727 6.4115917368239153 0
          4.4528755433186538 6.4187052006021847 0
          4.4561304726554933 6.4258751895770541 0
          4.4592614849780574 6.4331001713007341 0
          4.4622670298809357 6.4403782621603956 0
          4.465145344157885 6.4477076234623949 0
          4.4678944567266416 6.4550864411116109 0
          4.4705121782919131 6.4625129113281838 0
          4.4729961066154198 6.4699852201766728 0
          4.4753435848918519 6.4775015381606584 0
          4.477551707180397 6.485059996669591 0
          4.4796164467296125 6.4926589026404571 0
          4.481534358158231 6.5002962174769712 0
          4.4833017310009335 6.5079697965156189 0
          4.4849145481360253 6.5156773721544896 0
          4.4863684903663916 6.5234165227895442 0
          4.4876589256166071 6.5311846433481993 0
          4.4887808981214548 6.5389789129258036 0
          4.4897291176369558 6.5467962591472393 0
          4.4904988367014722 6.5546332320506648 0
          4.491084068460518 6.5624861759207844 0
          4.4914784588311001 6.570351054463786 0
          4.4916752762271921 6.5782233971121391 0
          4.4916674017972964 6.586098238991287 0
          4.4914482416387242 6.5939700797457643 0
          4.4910098558918303 6.6018328057895745 0
          4.4903448540032027 6.6096796638652924 0
          4.4894444465085463 6.617503056029066 0
          4.4882994214305487 6.625294456939919 0
          4.4869010706479795 6.633044454866261 0
          4.4852368432745209 6.6407417946257725 0
          4.4834304418556048 6.6484071582979549 0
          4.481477695067829 6.6560367107849725 0
          4.4793746192569461 6.6636263750934415 0
          4.4771193898094461 6.6711724206407439 0
          4.4747156543818187 6.6786727038801512 0
          4.472164958830473 6.6861245427952154 0
          4.4694682129069374 6.6935250669617297 0
          4.4666408112931242 6.7008770081957749 0
          4.4637464778677058 6.7082033229731231 0
          4.4608155940866219 6.7155156687144766 0
        </DataArray>
      </Points>
      <Cells>
        <DataArray type="Int32" Name="connectivity" format="ascii">
          0 1 1 2 2 3 3 4 4 5 5 6 6 7 7 8 8 9 9 10 10 11 11 12 12 13 13 14 14 15 15 16 16 17 17 18 18 19 19 20 20 21 21 22 22 23 23 24 24 25 25 26 26 27 27 28 28 29 29 30 30 31 31 32 32 33 33 34 34 35 35 36 36 37 37 38 38 39 39 40 40 41 41 42 42 43 43 44 44 45 45 46 46 47 47 48 48 49 49 50 50 51 51 52 52 53 53 54 54 55 55 56 56 57 57 58 58 59 59 60 60 61 61 62 62 63 63 64 64 65 65 66 66 67 67 68 68 69 69 70 70 71 71 72 72 73 73 74 74 75 75 76 76 77 77 78 78 79 79 80 80 81 81 82 82 83 83 84 84 85 85 86 86 87 87 88 88 89 89 90 90 91 91 92 92 93 93 94 94 95 95 96 96 97 97 98 98 99 99 100 100 101 101 102 102 103 103 104 104 105 105 106 106 107 107 108 108 109 109 110 110 111 111 112 112 113 113 114 114 115 115 116 116 117 117 118 118 119 119 120 120 121 121 122 122 123 123 124 124 125 125 126 126 127 
        </DataArray>
        <DataArray type="Int32" Name="offsets" format="ascii">
          2 4 6 8 10 12 14 16 18 20 22 24 26 28 30 32 34 36 38 40 42 44 46 48 50 52 54 56 58 60 62 64 66 68 70 72 74 76 78 80 82 84 86 88 90 92 94 96 98 100 102 104 106 108 110 112 114 116 118 120 122 124 126 128 130 132 134 136 138 140 142 144 146 148 150 152 154 156 158 160 162 164 166 168 170 172 174 176 178 180 182 184 186 188 190 192 194 196 198 200 202 204 206 208 210 212 214 216 218 220 222 224 226 228 230 232 234 236 238 240 242 244 246 248 250 252 254 
        </DataArray>
        <DataArray type="Int32" Name="types" format="ascii">
          3 3 3 3 3 3 3 3 3 3 3 3 3 3 3 3 3 3 3 3 3 3 3 3 3 3 3 3 3 3 3 3 3 3 3 3 3 3 3 3 3 3 3 3 3 3 3 3 3 3 3 3 3 3 3 3 3 3 3 3 3 3 3 3 3 3 3 3 3 3 3 3 3 3 3 3 3 3 3 3 3 3 3 3 3 3 3 3 3 3 3 3 3 3 3 3 3 3 3 3 3 3 3 3 3 3 3 3 3 3 3 3 3 3 3 3 3 3 3 3 3 3 3 3 3 3 3         </DataArray>
      </Cells>
    </Piece>
  </UnstructuredGrid>
</VTKFile>
