<?xml version="1.0"?>
<VTKFile type="UnstructuredGrid" version="0.1" byte_order="LittleEndian">
  <UnstructuredGrid>
    <Piece NumberOfPoints="128" NumberOfCells="127">
      <PointData Scalars="W">
        <DataArray type="Float32" Name="W" NumberOfComponents="2">
          0 0 -0.07170226722319735 -0.156301577437574 -0.081156915850618697 -0.17624091607087528 -0.082971747796252701 -0.17945298196191728 -0.07931275171585013 -0.170856951864061 -0.071171770452433628 -0.15275709312798152 -0.059252832933909698 -0.12677287510405319 -0.044119651118366854 -0.094159222820295971 -0.026227610859155648 -0.055879490477851804 -0.0059142858996335691 -0.012590988920196857 0.016504057750111802 0.035144630513934967 0.040742986041590407 0.08688011081958294 0.066544201713327852 0.1422669734028682 0.093686539187818788 0.2010764811323483 0.12198383914759667 0.26319446388805279 0.15123840768416993 0.32852155988659965 0.18121625335304989 0.39691786743453294 0.2117060205670705 0.46832947810998238 0.24249136844727459 0.54272933887359098 0.27332113577983913 0.62004963874410257 0.3039477643105144 0.70026557687167101 0.33412130942161117 0.78338318055336009 0.36356594097799161 0.86938451286626228 0.39198043501005059 0.95822435045170251 0.41907868932713016 1.0499267859697698 0.44452212766595894 1.1444179642423433 0.4679786719266435 1.2416656883018868 0.48912815163728979 1.3416999015133175 0.50760587050004757 1.4444618378929583 0.52291537417324307 1.5495178079524852 0.53479137239082919 1.6571010146261227 0.54283225027760762 1.7670808646695035 0.54662690753033882 1.8792953857528569 0.54575500631674778 1.9935382779991757 0.53979973248801727 2.1095895612378168 0.5283397120893516 2.2271714564864977 0.5109788301141015 2.3460584281568093 0.48729276250862802 2.4658250357555027 0.45688288406822236 2.5860220302175851 0.41939761980516505 2.7062969930268568 0.37449601752445805 2.8261984576020707 0.32186381207698073 2.9452075715727557 0.59706008534050625 13.07607226389147 -0.76375380591542019 13.174245215530215 -2.1483806912912637 13.123350251001343 -3.5379082110308144 12.914375378345571 1.8643143861778926 -6.1380684598457087 1.5331682769392434 -6.1400289124725846 1.2104916951489986 -6.1221817139846308 0.89744056866627209 -6.0858305737525384 0.59500625196701507 -6.0323231331771634 0.30401884377417959 -5.9629948149557732 0.04204481520638427 -4.6890488511109298 -0.12508810481018892 -4.5565921257757624 -0.2812591530005667 -4.4594560730730564 -0.43129787392400493 -4.3893221554462336 -0.56377928800272847 -4.24108922626111 -0.68260285588371339 -4.0909437484528528 -0.78790595165789945 -3.9378735244880749 -0.87975769998849129 -3.7816013244103348 -0.95872068249039755 -3.6240033455887235 -1.0255726590302425 -3.4668794118168509 -1.0805341020125254 -3.3097477639058415 -1.1044995298872688 -3.1003855944548451 -1.133790832603188 -2.9440382830973535 -1.1527403408245021 -2.7891658421643819 -1.1865045445728843 -2.6902865176572952 -1.2153991098376498 -2.5935981282354672 -1.2397848147593042 -2.4992823127522903 -1.2312238353626637 -2.3538512506502198 -1.2454708055285619 -2.2659559355576109 -1.2563888412144126 -2.180853348506695 -1.2643129164183451 -2.0986326964963706 -1.269571172910239 -2.019367002550613 -1.2382567868749892 -1.8918496017967463 -1.2373558325381167 -1.8198857637632171 -1.2348476152429841 -1.7510334132298824 -1.2309932389062481 -1.6852672833531834 -1.2260973628961283 -1.6226271468769227 -1.2204416809810059 -1.5631206919122917 -1.1730641650186304 -1.4563442113196896 -1.1652510822076771 -1.4043282955835645 -1.157566478281288 -1.3554247772430412 -1.1502690271901859 -1.3096264914841547 -1.1436150453381768 -1.2669242855103564 -1.1378594459761819 -1.2273075141149523 -1.1332758750413321 -1.1907842202099148 -1.1300819282759933 -1.157301634571575 -1.0806044504397248 -1.0795617061968474 -1.0798568764174843 -1.0533282691171453 -1.0813323216770447 -1.0301105610343768 -1.0852970735895224 -1.0098987370229833 -1.0920453292263799 -0.99269948417653009 -1.1018204413833306 -0.97846208131422807 -1.1139294449995776 -0.96632408073905629 -1.1306771015463071 -0.9580161067861428 -1.1513994162286114 -0.95262261240032875 -1.1220180702785163 -0.90666518836727394 -1.1507072498265782 -0.90826597619864891 -1.1844494114555377 -0.91269010968741848 -1.2236547003949365 -0.9198753908960472 -1.2687636562871361 -0.92973973415174882 -1.3202509481446731 -0.94217647614679478 -1.379725508352367 -0.95779902736108058 -1.3855802002384348 -0.93501685778917176 -1.4583476904740278 -0.95583790075646435 -1.5397723426200183 -0.97856274062227167 -1.5668254004283348 -0.96430826522808055 -1.6677346598685769 -0.9924950726457501 -1.7784099780144984 -1.0208622218815215 -1.9009123892060347 -1.0495640976323697 -1.9691389284074581 -1.0431403508158215 -2.117083510245513 -1.072850867226532 -2.2093303575959498 -1.0673206912514324 -2.3872207313325311 -1.0949207403260779 -2.5840700950509348 -1.1188263524836259 -2.7183684941354254 -1.1045837817924566 -2.871223509977558 -1.088332942540287 -3.1244280274376472 -1.0953441260426939 0.90590606393777273 0.30818800037339578 0.62494424596135245 0.21705851663668566 0.85955153121086525 0.30452398812113574 0.57980880711989125 0.20935144062832864 0.26557684515497004 0.096955900642868936 -0.040224007304444732 -0.014727913285247163 -1.8463605377683785 -0.65957111068793839 -5.4913173349309234 -1.7751225907860859 0 0
        </DataArray>
        <DataArray type="Float32" Name="u" NumberOfComponents="1">
          0 0.007874015748031496 0.015748031496062992 0.023622047244094488 0.031496062992125984 0.03937007874015748 0.047244094488188976 0.055118110236220472 0.062992125984251968 0.070866141732283464 0.07874015748031496 0.086614173228346455 0.094488188976377951 0.10236220472440945 0.11023622047244094 0.11811023622047244 0.12598425196850394 0.13385826771653545 0.14173228346456693 0.14960629921259844 0.15748031496062992 0.16535433070866143 0.17322834645669291 0.18110236220472442 0.1889763779527559 0.19685039370078741 0.20472440944881889 0.2125984251968504 0.22047244094488189 0.2283464566929134 0.23622047244094488 0.24409448818897639 0.25196850393700787 0.25984251968503935 0.26771653543307089 0.27559055118110237 0.28346456692913385 0.29133858267716534 0.29921259842519687 0.30708661417322836 0.31496062992125984 0.32283464566929132 0.33070866141732286 0.33858267716535434 0.34645669291338582 0.3543307086614173 0.36220472440944884 0.37007874015748032 0.37795275590551181 0.38582677165354329 0.39370078740157483 0.40157480314960631 0.40944881889763779 0.41732283464566927 0.42519685039370081 0.43307086614173229 0.44094488188976377 0.44881889763779526 0.45669291338582679 0.46456692913385828 0.47244094488188976 0.48031496062992124 0.48818897637795278 0.49606299212598426 0.50393700787401574 0.51181102362204722 0.51968503937007871 0.52755905511811019 0.53543307086614178 0.54330708661417326 0.55118110236220474 0.55905511811023623 0.56692913385826771 0.57480314960629919 0.58267716535433067 0.59055118110236215 0.59842519685039375 0.60629921259842523 0.61417322834645671 0.62204724409448819 0.62992125984251968 0.63779527559055116 0.64566929133858264 0.65354330708661412 0.66141732283464572 0.6692913385826772 0.67716535433070868 0.68503937007874016 0.69291338582677164 0.70078740157480313 0.70866141732283461 0.71653543307086609 0.72440944881889768 0.73228346456692917 0.74015748031496065 0.74803149606299213 0.75590551181102361 0.76377952755905509 0.77165354330708658 0.77952755905511806 0.78740157480314965 0.79527559055118113 0.80314960629921262 0.8110236220472441 0.81889763779527558 0.82677165354330706 0.83464566929133854 0.84251968503937003 0.85039370078740162 0.8582677165354331 0.86614173228346458 0.87401574803149606 0.88188976377952755 0.88976377952755903 0.89763779527559051 0.90551181102362199 0.91338582677165359 0.92125984251968507 0.92913385826771655 0.93700787401574803 0.94488188976377951 0.952755905511811 0.96062992125984248 0.96850393700787396 0.97637795275590555 0.98425196850393704 0.99212598425196852 1
        </DataArray>
      </PointData>
      <CellData Scalars="P">
        <DataArray type="Float32" Name="P" NumberOfComponents="1">
          0.003410691230049904 0.010256727886674248 0.017083503546525103 0.023833096129797452 0.030456911330440171 0.036929501547900305 0.043258105612959591 0.049489022422385259 0.055711823637065519 0.062062654053965653 0.068725697156876653 0.075933797450984095 0.083968386879203036 0.09315947159401769 0.10388582805989904 0.11657360111326882 0.13169295984294721 0.14975688027338863 0.17131870053574469 0.19696722396131031 0.22732370042261998 0.26303848358497656 0.30478537533465838 0.35325503323862373 0.40915233500543391 0.4731857729140343 0.54606279942950176 0.62848680477476071 0.7211455918468912 0.82468007617514449 0.93971756228212366 1.0668424103412437 1.2065858462423624 1.3594145952652041 1.5257216122595763 1.70581353268351 1.8999068361774316 2.1081041504238374 2.3303842924957499 2.5666032343915131 2.8164794786250114 3.0795824190552348 4.2224352123902715 5.3434850153443074 6.4230505222701648 7.4408014382461767 6.9756509789872103 6.5017588492260705 6.0210894583041696 5.5355734230490041 5.0470962724512027 4.5574919501532305 4.1731750403601895 3.7972127800343736 3.4270939932100259 3.0609175834262543 2.706133370468538 2.3634723962361144 2.0337240548860445 1.7176697532397625 1.4158862175015328 1.1287482549349792 0.85663074317350152 0.60450871651693772 0.36796407568794914 0.14708889509776263 -0.062788166850733573 -0.26166694610668612 -0.44958991389289177 -0.6222121472901011 -0.78421834744246499 -0.9357619400174092 -1.0770242620044037 -1.2082110803560544 -1.3258166379652403 -1.4339982435402219 -1.5330198380819011 -1.6231539427617561 -1.7046836585862877 -1.7778979342243422 -1.8402829462072137 -1.8951569536909763 -1.9428098714899 -1.9835266184533651 -2.0175843733032712 -2.0452498901797949 -2.0667775253844329 -2.082404648868823 -2.0912243947046347 -2.094807956377867 -2.0933291401105563 -2.0869370378316066 -2.075754069422397 -2.0598738094209934 -2.0393645711720949 -2.0142585841485294 -1.98455579922915 -1.9511406405215899 -1.9132587406455916 -1.8708037402257849 -1.8236386560610178 -1.7715982844000147 -1.7144927019292382 -1.6520723333375837 -1.5864694479153838 -1.5152994192009337 -1.4383184885674192 -1.3581190775586711 -1.2717445158157414 -1.1790715997156365 -1.0799950023122282 -0.97766981122791474 -0.86906730659530118 -0.75771131152949545 -0.64073044039690996 -0.51872962974215397 -0.39611956642097135 -0.27392723285584697 -0.15056367870445353 -0.15142289935458064 -0.14221340908182484 -0.13845740215125718 -0.12658755086277121 -0.10818257439910141 -0.086040603682483105 -0.048897938731979292 -0.0079569446279415135
        </DataArray>
      </CellData>
      <Points>
        <DataArray type="Float32" NumberOfComponents="3" format="ascii">
          6.3609930481211885 10.316818585803645 0
          6.3681526495552969 10.313540034038789 0
          6.3753077940988225 10.310251795136612 0
          6.3824578895882125 10.306952635467686 0
          6.3896028194272976 10.303642357836196 0
          6.3967428075698329 10.300321496746186 0
          6.4038783567103463 10.296991175632526 0
          6.4110102044538531 10.293653006497314 0
          6.4181392882448778 10.290309012127755 0
          6.4252667170444839 10.286961566383459 0
          6.4323937503310225 10.283613353455991 0
          6.4395217784343419 10.280267333058259 0
          6.4466523048525133 10.2769267127068 0
          6.453786930195843 10.27359492612935 0
          6.4609273384384824 10.270275619097704 0
          6.4680752853448515 10.266972642365017 0
          6.4752325861845064 10.263690045522063 0
          6.4824011011996232 10.260432068340727 0
          6.489582722478735 10.25720313745005 0
          6.4967793605238198 10.254007864677867 0
          6.5039929286606046 10.250851042865804 0
          6.5112253276741567 10.247737644351231 0
          6.5184784302981544 10.244672821360661 0
          6.5257540641006404 10.241661904917228 0
          6.5330539927965319 10.238710402056142 0
          6.5403798984986903 10.235823997337352 0
          6.5477333607163715 10.233008548284804 0
          6.5551158357571797 10.230270083407786 0
          6.5625286368677473 10.227614804074083 0
          6.569972911614105 10.225049080882091 0
          6.5774496110932006 10.222579426786448 0
          6.5849594734766566 10.220212511569747 0
          6.5925029991023658 10.217955153757421 0
          6.6000804249778868 10.215814310585593 0
          6.6076916987109557 10.213797065218941 0
          6.6153364526583278 10.211910613118674 0
          6.6230139777917447 10.210162244825128 0
          6.6307231991298874 10.2085593319777 0
          6.6384626494212791 10.207109300938603 0
          6.6462304444205813 10.20581960493851 0
          6.654024261082224 10.204697702224022 0
          6.66184131641295 10.203751028062268 0
          6.6696783479794561 10.202986962565801 0
          6.6775524208555819 10.203033652198444 0
          6.6853791609582984 10.203897190892102 0
          6.6930727164340142 10.205574430198586 0
          6.7005469302868059 10.208052420326139 0
          6.7081367620758545 10.21014982935694 0
          6.715821680637343 10.211866532488811 0
          6.7235816797062373 10.2132036329998 0
          6.7313973495906732 10.214163381431391 0
          6.739249938641656 10.214749092046613 0
          6.7471214047229724 10.214965060045291 0
          6.7549954782563129 10.214890275960562 0
          6.7628617948905498 10.214532953007545 0
          6.7707106709006215 10.213899114337908 0
          6.7785328035155805 10.21299310870879 0
          6.7863199770457259 10.211824127710861 0
          6.7940648227243043 10.210401481645418 0
          6.801760810151448 10.208734662283247 0
          6.8094022429875167 10.206833360054006 0
          6.8169842240966529 10.20470734769901 0
          6.8245026073469326 10.202366368655163 0
          6.8319539839185799 10.199820166923761 0
          6.8393368658781233 10.197081725609856 0
          6.8466494361908854 10.194160740296297 0
          6.8538905191162041 10.191066815159406 0
          6.8610580214272225 10.187806082027745 0
          6.868150151834608 10.184384536843003 0
          6.8751653986145218 10.180808028401216 0
          6.882104291901789 10.177085575411832 0
          6.8889659486751169 10.173222628530809 0
          6.8957496923151416 10.169224465218079 0
          6.9024550318352382 10.165096184208306 0
          6.909081641536555 10.160842700984531 0
          6.9156314625281547 10.156471923362579 0
          6.9221045510727119 10.15198831401085 0
          6.9285010630921757 10.147396142633198 0
          6.9348212379809135 10.142699487534713 0
          6.9410653797198645 10.137902233153241 0
          6.9472338394146798 10.133008069579718 0
          6.9533295543937346 10.128023618258942 0
          6.9593530096431371 10.122952104692958 0
          6.9653046822116149 10.117796561335012 0
          6.9711850251777623 10.112559828027265 0
          6.9769944517637157 10.107244552560841 0
          6.9827333195360426 10.101853191327445 0
          6.9884019134455118 10.0963880088111 0
          6.9940004323415499 10.0908510808498 0
          6.9995319444252591 10.085247227480778 0
          7.0049964970855729 10.07957807472336 0
          7.0103939999581986 10.073845061453476 0
          7.015724208420858 10.06804943999888 0
          7.0209867053573909 10.062192275708073 0
          7.0261808860729404 10.056274450077463 0
          7.0313060012591508 10.050296714204832 0
          7.0363610141019688 10.044259581465951 0
          7.0413446414446037 10.038163384259745 0
          7.0462587067773539 10.032010969495053 0
          7.051101433269543 10.025802235151449 0
          7.0558707308703816 10.019536903798691 0
          7.0605641708623903 10.013214526425116 0
          7.0651789585242986 10.006834487497825 0
          7.0697119036707434 10.000396011545677 0
          7.0741593208483522 9.9938981251085917 0
          7.0785208496279406 9.9873422345884109 0
          7.0827919803108337 9.9807270429622736 0
          7.0869676662289445 9.9740511345886933 0
          7.0910462324592372 9.9673153849139471 0
          7.0950214237149209 9.9605180382012044 0
          7.0988863786826046 9.953657326850017 0
          7.1026335020686373 9.9467314618322931 0
          7.1062585643645075 9.9397408297730578 0
          7.1097523911055269 9.9326835775127389 0
          7.1131092616881917 9.9255600344239809 0
          7.1163181422988071 9.9183684767144999 0
          7.1193668216972501 9.9111074092479203 0
          7.1222469672672837 9.9037776993542366 0
          7.124949093643794 9.8963803382924951 0
          7.1274574880338966 9.8889148775649769 0
          7.130021924793188 9.8814689527107724 0
          7.1326249949169283 9.8740368419689588 0
          7.1352812693710268 9.8666238869469822 0
          7.1379734199695415 9.8592241219204713 0
          7.1406819840125335 9.8518305139269042 0
          7.1433880246487282 9.8444360732865093 0
          7.1459795864953763 9.8370007498010192 0
          7.148230683761593 9.8294553743471127 0
        </DataArray>
      </Points>
      <Cells>
        <DataArray type="Int32" Name="connectivity" format="ascii">
          0 1 1 2 2 3 3 4 4 5 5 6 6 7 7 8 8 9 9 10 10 11 11 12 12 13 13 14 14 15 15 16 16 17 17 18 18 19 19 20 20 21 21 22 22 23 23 24 24 25 25 26 26 27 27 28 28 29 29 30 30 31 31 32 32 33 33 34 34 35 35 36 36 37 37 38 38 39 39 40 40 41 41 42 42 43 43 44 44 45 45 46 46 47 47 48 48 49 49 50 50 51 51 52 52 53 53 54 54 55 55 56 56 57 57 58 58 59 59 60 60 61 61 62 62 63 63 64 64 65 65 66 66 67 67 68 68 69 69 70 70 71 71 72 72 73 73 74 74 75 75 76 76 77 77 78 78 79 79 80 80 81 81 82 82 83 83 84 84 85 85 86 86 87 87 88 88 89 89 90 90 91 91 92 92 93 93 94 94 95 95 96 96 97 97 98 98 99 99 100 100 101 101 102 102 103 103 104 104 105 105 106 106 107 107 108 108 109 109 110 110 111 111 112 112 113 113 114 114 115 115 116 116 117 117 118 118 119 119 120 120 121 121 122 122 123 123 124 124 125 125 126 126 127 
        </DataArray>
        <DataArray type="Int32" Name="offsets" format="ascii">
          2 4 6 8 10 12 14 16 18 20 22 24 26 28 30 32 34 36 38 40 42 44 46 48 50 52 54 56 58 60 62 64 66 68 70 72 74 76 78 80 82 84 86 88 90 92 94 96 98 100 102 104 106 108 110 112 114 116 118 120 122 124 126 128 130 132 134 136 138 140 142 144 146 148 150 152 154 156 158 160 162 164 166 168 170 172 174 176 178 180 182 184 186 188 190 192 194 196 198 200 202 204 206 208 210 212 214 216 218 220 222 224 226 228 230 232 234 236 238 240 242 244 246 248 250 252 254 
        </DataArray>
        <DataArray type="Int32" Name="types" format="ascii">
          3 3 3 3 3 3 3 3 3 3 3 3 3 3 3 3 3 3 3 3 3 3 3 3 3 3 3 3 3 3 3 3 3 3 3 3 3 3 3 3 3 3 3 3 3 3 3 3 3 3 3 3 3 3 3 3 3 3 3 3 3 3 3 3 3 3 3 3 3 3 3 3 3 3 3 3 3 3 3 3 3 3 3 3 3 3 3 3 3 3 3 3 3 3 3 3 3 3 3 3 3 3 3 3 3 3 3 3 3 3 3 3 3 3 3 3 3 3 3 3 3 3 3 3 3 3 3         </DataArray>
      </Cells>
    </Piece>
  </UnstructuredGrid>
</VTKFile>
