<?xml version="1.0"?>
<VTKFile type="UnstructuredGrid" version="0.1" byte_order="LittleEndian">
  <UnstructuredGrid>
    <Piece NumberOfPoints="128" NumberOfCells="127">
      <PointData Scalars="W">
        <DataArray type="Float32" Name="W" NumberOfComponents="2">
          0 0 0.86255346656433118 0.16098428629266257 1.2757743766888072 0.22682374102131558 1.58172288404164 0.26262367449936469 1.8301440215201477 0.27833814161035753 2.0413980198442574 0.27836132365271482 2.2263507263694815 0.26523610300422018 2.3916037918896151 0.24062981280320173 2.5415028243820932 0.20571337218961674 2.6789473546931548 0.16133471726029364 2.8060550889167351 0.10813626485666547 2.9243629478454305 0.046605228999151524 3.03498475433577 -0.022886790047183723 3.1386866775669628 -0.10005320261385416 3.2359720044544389 -0.1846661849415189 3.3271894795199408 -0.27654106740024631 3.4126458608500014 -0.37553675206015724 3.4924612219090307 -0.48153635002487649 3.5666726958841273 -0.59444267039225163 3.635293827875389 -0.71418294963549889 3.6982378870208459 -0.84069230902692205 3.7553369073919698 -0.97390628522802947 3.8063975298760839 -1.1137675935212474 3.8512181318674163 -1.2602319700274331 3.8894893521342921 -1.4132340940341332 3.9209526642075727 -1.5727360664142414 3.9452543150095876 -1.7386777131877695 3.9619153228058277 -1.9109453215520911 3.9704985728373234 -2.0894365650976821 3.9708542334213774 -2.2742231028396978 3.9621772834862705 -2.4650351492859399 3.9439329716461375 -2.6617221883977078 3.9155269182866568 -2.8640907097329573 3.876361418021808 -3.0719386787630576 3.8257710108974003 -3.2850067254962916 3.7630658152154313 -3.5030037060720174 3.687448101614736 -3.7255196674700302 3.5981889124976503 -3.9521843378564991 3.4945193918991695 -4.1825809225755206 3.3755138001966927 -4.4160832279270608 3.2402629949206228 -4.6520197905515275 3.0878462869961716 -4.8896426277182661 -0.56131349195727065 0.92641486044725274 -0.39477304128860807 0.64104009336233392 -0.27700390074108583 0.44477751134911753 -0.21740828745172402 0.34624429360542763 -0.092168039812993235 0.14604273097057721 -0.029824832870319066 0.047164128149066141 0.097648292353945024 -0.15458939683607306 0.15857947720261698 -0.25210704291497427 0.28528488647475142 -0.45687439090158799 0.41050449473218265 -0.66508302553566834 0.46243832170671267 -0.76037983398126574 0.58040640122243314 -0.97169844484350731 0.6939845077723984 -1.1883556936415065 0.17963428964347233 -0.31248823034608375 0.17454944649894524 -0.30562413151884038 0.16841002767452398 -0.29675259952024402 0.25901749632973436 -0.46007217192084632 0.29659760826240883 -0.53238701361848373 0.33087716499321995 -0.60111143029130332 0.36220301407465877 -0.66697884229500204 0.43833424491439343 -0.8201301815435007 0.46061284556813231 -0.87772246087027594 0.5274802881229731 -1.0261131723099894 0.54096740962314493 -1.0768320474446531 0.55061681583261679 -1.1229808818452138 0.55601219376023558 -1.1632750812567758 0.55834781080734786 -1.1997275820654776 0.55725455496841558 -1.2311063768744257 0.55292766251836423 -1.2572812490960568 0.5455639003579793 -1.2780917697369869 0.53492681756702665 -1.2922821601089582 0.52222028085450856 -1.3020423245054418 0.50719968913911517 -1.3061456463148078 0.49012657167349777 -1.3045387057688704 0.47124870459192297 -1.2971429667466392 0.41560654016565468 -1.1820226375349734 0.39596077138391983 -1.1623046954691676 0.37480805489477087 -1.1355997717512583 0.3531783208163774 -1.104369404711762 0.33083549610893132 -1.0673916047274858 0.30796278704842506 -1.024722035902691 0.28471888612360108 -0.97641613200569266 0.26124086416433706 -0.9225448701961102 0.21028286995615517 -0.76259414191579389 0.1878822426200851 -0.69755094285696417 0.16532038418028774 -0.62724888948473356 0.14260657049816428 -0.55179827835274708 0.11971472907260469 -0.47130243876617672 0.072224816764355285 -0.28806028694696617 0.049160110960964801 -0.19772094445236932 0.025406294635812506 -0.10271807215867029 0.00078443734764363829 -0.003177347710394639 -0.02493301196564867 0.10081905784755289 -0.075633696352895796 0.30369263397516882 -0.10491028383228783 0.41605941848745687 -0.13644007222513568 0.53243871025240075 -0.17061534783377091 0.65270164458758517 -0.20786411719133574 0.77668874306900459 -0.27403263447515697 0.99506412858470306 -0.3205256359168529 1.125656481066003 -0.37196586089294853 1.2594125160446601 -0.42898277906866222 1.3961388288401408 -0.49225058872644489 1.5356010808415121 -0.56251400697711329 1.6775915435656807 -0.64055848576478691 1.821818081007982 -0.72723125281869927 1.9679567768105404 -0.78900763195786616 2.0293599102486328 -0.8925079704799298 2.1795430619696856 -1.0078452449518902 2.3319406657243071 -1.1351438969017638 2.4835817427280507 -1.2333432078404767 2.549177483231829 -1.3853696034277958 2.702230308861179 -1.5052564832624522 2.7677697076516155 -1.687351119802565 2.9211418827112365 -0.21140083246236197 0.35369231505599957 -0.3389021056340642 0.56163454231562682 -0.12662617823756106 0.20817605772886286 -0.20830320952969675 0.34051028758897833 -0.0085624591838879497 0.013945615088157334 -0.32575365456889088 0.52758311288276583 -0.45434143888067446 0.72635861182257588 -0.89382363617906369 1.3979666368228298 -1.3392373924931371 2.0221984658381555 -2.1406788954568321 3.0678776771214618 -3.2128801932523929 4.2704983680649988 0 0
        </DataArray>
        <DataArray type="Float32" Name="u" NumberOfComponents="1">
          0 0.007874015748031496 0.015748031496062992 0.023622047244094488 0.031496062992125984 0.03937007874015748 0.047244094488188976 0.055118110236220472 0.062992125984251968 0.070866141732283464 0.07874015748031496 0.086614173228346455 0.094488188976377951 0.10236220472440945 0.11023622047244094 0.11811023622047244 0.12598425196850394 0.13385826771653545 0.14173228346456693 0.14960629921259844 0.15748031496062992 0.16535433070866143 0.17322834645669291 0.18110236220472442 0.1889763779527559 0.19685039370078741 0.20472440944881889 0.2125984251968504 0.22047244094488189 0.2283464566929134 0.23622047244094488 0.24409448818897639 0.25196850393700787 0.25984251968503935 0.26771653543307089 0.27559055118110237 0.28346456692913385 0.29133858267716534 0.29921259842519687 0.30708661417322836 0.31496062992125984 0.32283464566929132 0.33070866141732286 0.33858267716535434 0.34645669291338582 0.3543307086614173 0.36220472440944884 0.37007874015748032 0.37795275590551181 0.38582677165354329 0.39370078740157483 0.40157480314960631 0.40944881889763779 0.41732283464566927 0.42519685039370081 0.43307086614173229 0.44094488188976377 0.44881889763779526 0.45669291338582679 0.46456692913385828 0.47244094488188976 0.48031496062992124 0.48818897637795278 0.49606299212598426 0.50393700787401574 0.51181102362204722 0.51968503937007871 0.52755905511811019 0.53543307086614178 0.54330708661417326 0.55118110236220474 0.55905511811023623 0.56692913385826771 0.57480314960629919 0.58267716535433067 0.59055118110236215 0.59842519685039375 0.60629921259842523 0.61417322834645671 0.62204724409448819 0.62992125984251968 0.63779527559055116 0.64566929133858264 0.65354330708661412 0.66141732283464572 0.6692913385826772 0.67716535433070868 0.68503937007874016 0.69291338582677164 0.70078740157480313 0.70866141732283461 0.71653543307086609 0.72440944881889768 0.73228346456692917 0.74015748031496065 0.74803149606299213 0.75590551181102361 0.76377952755905509 0.77165354330708658 0.77952755905511806 0.78740157480314965 0.79527559055118113 0.80314960629921262 0.8110236220472441 0.81889763779527558 0.82677165354330706 0.83464566929133854 0.84251968503937003 0.85039370078740162 0.8582677165354331 0.86614173228346458 0.87401574803149606 0.88188976377952755 0.88976377952755903 0.89763779527559051 0.90551181102362199 0.91338582677165359 0.92125984251968507 0.92913385826771655 0.93700787401574803 0.94488188976377951 0.952755905511811 0.96062992125984248 0.96850393700787396 0.97637795275590555 0.98425196850393704 0.99212598425196852 1
        </DataArray>
      </PointData>
      <CellData Scalars="P">
        <DataArray type="Float32" Name="P" NumberOfComponents="1">
          -0.042072796158981442 -0.12371092829397613 -0.20093403520075248 -0.27298828781775936 -0.33952200017335998 -0.40037516856432748 -0.45548101738853103 -0.5048127742523687 -0.54835236852529923 -0.58607302897410563 -0.61792620083210525 -0.64383363143429595 -0.66368226843938083 -0.67732157786333635 -0.68456189571149184 -0.68517224031294122 -0.67887638255233762 -0.66535316995985927 -0.64423504040371482 -0.61510514001873451 -0.57749682514165557 -0.53089305223226047 -0.47472417827205354 -0.40836499665902454 -0.33113550027206545 -0.24229559969558415 -0.14104542417822377 -0.02652795069089876 0.10217554488205234 0.24606521791906957 0.40619182405302695 0.58367296006467861 0.77969240047686117 0.99550279230665584 1.2324236543246985 1.49184181709562 1.7752034573344793 2.0840210340189982 2.4198715366929995 2.7843785972236992 3.1792099661196218 3.6060710378433209 3.4431981357900603 3.3083829616879292 3.194513717195782 3.0914053558956054 3.0128053763173499 2.9465525446925747 2.9060559048147656 2.8777433287151299 2.8748407489157692 2.8967088330224673 2.9280551017803358 2.9817045363804371 3.0562440302184113 3.0276796694098778 2.9966596078067864 2.9628733636493823 2.943303999462854 2.9275213657228165 2.9141963731986964 2.9020749277141986 2.8967410153691273 2.889370902666176 2.8846904109146436 2.8750825041723993 2.8595484622985774 2.837167690200435 2.8072519043744966 2.7692007818534385 2.7225598566417113 2.667022016790928 2.6024203815563753 2.5287592230837608 2.446169018564901 2.3549172295042764 2.2554013885613844 2.1504770900539829 2.0390020464455785 1.9216915839185422 1.7992719102697818 1.6725798412709765 1.5425144149297798 1.4100242705970099 1.2760940720976899 1.1476739752429972 1.0201712485298828 0.89455075369848791 0.77176367003931512 0.65273635984080081 0.54546915635372073 0.4438783375134096 0.3487162961923817 0.26067370112605515 0.18037460831458965 0.11587588798729632 0.0601794366243684 0.013641443908474269 -0.023469747018778669 -0.050979948319251768 -0.061556256190268339 -0.062524953616172815 -0.05400163929717635 -0.036194035656830666 -0.0094030728426623116 0.025982543689297841 0.069484742193420282 0.12054031901069946 0.17245352001240802 0.23074300303755801 0.29467805211510789 0.36329694537777141 0.43037671818522999 0.50047520675078494 0.56765464922328235 0.63602960676141373 0.59461097291776555 0.55974914720044133 0.50550111746520243 0.45313376807171318 0.38621588639947285 0.3308907510894144 0.2746819199688767 0.2231166248721721 0.16905078103111387 0.11028183590550499 0.040249721622376909
        </DataArray>
      </CellData>
      <Points>
        <DataArray type="Float32" NumberOfComponents="3" format="ascii">
          3.8743066340284451 9.0791940660280073 0
          3.8728346453139149 9.0869325959328595 0
          3.8714161741473871 9.094681144536219 0
          3.8700768600100828 9.1024438122967535 0
          3.8688356877636201 9.1102228314588718 0
          3.8677080739694678 9.1180191856382695 0
          3.866707130051223 9.1258328832333966 0
          3.8658443363900039 9.1336631155753061 0
          3.8651299518546272 9.1415083605800014 0
          3.86457328335998 9.1493664555117391 0
          3.8641828657045632 9.1572346496565569 0
          3.8639665929018343 9.1651096442145459 0
          3.8639318134771408 9.1729876225440528 0
          3.8640853995130708 9.1808642732210668 0
          3.8644337941228697 9.1887348078170987 0
          3.8649830426110907 9.1965939750269623 0
          3.8657388140443159 9.2044360721175131 0
          3.8667064202175054 9.2122549536726019 0
          3.8678908230342737 9.2200440388370275 0
          3.8692966367397648 9.2277963173402089 0
          3.8709281286901698 9.2355043540065669 0
          3.8727892138985784 9.2431602927798533 0
          3.8748834445388254 9.2507558607254392 0
          3.8772139978737434 9.2582823715908908 0
          3.8797836636715863 9.2657307285625627 0
          3.8825948249353481 9.2730914283336503 0
          3.8856494417894663 9.280354563474269 0
          3.888949029456569 9.287509826188737 0
          3.892494628461336 9.2945465154011675 0
          3.8962867774357144 9.3014535431387504 0
          3.9003255037637294 9.3082194301169245 0
          3.9046102735505892 9.3148323225279288 0
          3.9091399583747863 9.3212800014286081 0
          3.9139127983414768 9.3275498948016153 0
          3.9189263649333754 9.3336290901497385 0
          3.9241775196590658 9.3395043506538027 0
          3.9296623711895573 9.3451621333067649 0
          3.9353762258032488 9.3505886144281618 0
          3.9413135421064869 9.3557697127172492 0
          3.9474678832827097 9.3606911151972749 0
          3.9538318596059971 9.3653383161643831 0
          3.960397071991713 9.3696966589492394 0
          3.9671540548370943 9.3737513824312551 0
          3.9738759798356025 9.3778635095221929 0
          3.9805731772782322 9.3820153073676575 0
          3.9872529561507726 9.3861945834741647 0
          3.9939190210351989 9.3903952198194709 0
          4.0005791436303779 9.3946047832821442 0
          4.0072371982453916 9.3988171375281642 0
          4.0139010940568687 9.4030197572106307 0
          4.0205746168969885 9.407206593616813 0
          4.0272656270645664 9.4113649384067983 0
          4.0339818919795167 9.4154818721862821 0
          4.0407266380383575 9.4195514891702903 0
          4.0475071817946144 9.4235606811065953 0
          4.0543305669453282 9.4274960110372099 0
          4.0611649391618201 9.4314118620398482 0
          4.0680099909657006 9.4353086662846533 0
          4.0748653490764513 9.4391869800709305 0
          4.0817366328240103 9.4430366724628296 0
          4.0886261763531326 9.4468532615298173 0
          4.0955361089878783 9.4506324884930546 0
          4.1024683767544463 9.4543702721589415 0
          4.1094277008691984 9.4580571158065254 0
          4.116415466430122 9.4616894527727098 0
          4.1234358204162049 9.4652580833814302 0
          4.1304896030706733 9.4687598682929881 0
          4.1375774168462138 9.4721919517346453 0
          4.1446996006667609 9.4755518411213213 0
          4.151856303955956 9.4788372821252516 0
          4.1590474638193085 9.4820463350437496 0
          4.1662728171819037 9.4851773828185433 0
          4.1735319130174231 9.4882291409314234 0
          4.1808240977333533 9.4912007352308549 0
          4.188148589783447 9.494091566072445 0
          4.1955044645417523 9.4969013843505259 0
          4.2028906705269513 9.4996302947730413 0
          4.2103060447699923 9.5022787606991574 0
          4.2177471462677332 9.5048539246383417 0
          4.2252127648204292 9.5073570130712408 0
          4.232701597173012 9.5097896854060906 0
          4.2402123108438303 9.5121538813502635 0
          4.2477435294869661 9.5144518966814502 0
          4.2552938442347488 9.5166863798057069 0
          4.2628618235171807 9.5188603283374569 0
          4.270446021537655 9.5209770847236701 0
          4.2780432880744907 9.5230465680204901 0
          4.2856522441145461 9.5250728129893947 0
          4.2932715008377063 9.5270601803841561 0
          4.3008996601579863 9.5290133501673804 0
          4.3085353130688713 9.5309373151662857 0
          4.3161755233772645 9.532843438672618 0
          4.323818870940153 9.5347373242537241 0
          4.3314638928553615 9.5366248649290597 0
          4.3391090723086903 9.5385122354613969 0
          4.3467528243976146 9.5404058873496584 0
          4.3543920115937969 9.5423184036389586 0
          4.3620248272494093 9.5442567561993759 0
          4.3696493245936772 9.5462281664409989 0
          4.3772633923034112 9.5482400974099644 0
          4.3848647278476793 9.5503002439826012 0
          4.3924492302075384 9.5524221553912536 0
          4.4000140214704571 9.5546139382675808 0
          4.4075559158972917 9.5568838965032779 0
          4.4150713807212396 9.5592405192949048 0
          4.4225564941628965 9.5616924666334722 0
          4.4300068990598325 9.5642485564251913 0
          4.4374177539668187 9.5669177463555517 0
          4.4447836804230114 9.5697091137586483 0
          4.452100848299386 9.5726264811288218 0
          4.4593628316559926 9.5756791785856841 0
          4.4665624679165905 9.5788766744678657 0
          4.473691850224383 9.5822283909381802 0
          4.4807448816633348 9.5857384134512458 0
          4.4877121170404406 9.5894162531898726 0
          4.4945861106390961 9.5932659935343629 0
          4.5013555480217144 9.597297167234494 0
          4.5081110236559123 9.6013497914979151 0
          4.5148447225853632 9.6054368164910766 0
          4.5215699433772523 9.6095363784450356 0
          4.5282817132035662 9.613656738132951 0
          4.5349925294360949 9.6177777033118925 0
          4.5416827939835702 9.6219311697994563 0
          4.5483446201772786 9.6261295106927509 0
          4.5549508370364329 9.6304144109219791 0
          4.5614739152015664 9.6348246216037161 0
          4.5678642569331993 9.6394250324138895 0
          4.5740553934304957 9.6442902103633692 0
        </DataArray>
      </Points>
      <Cells>
        <DataArray type="Int32" Name="connectivity" format="ascii">
          0 1 1 2 2 3 3 4 4 5 5 6 6 7 7 8 8 9 9 10 10 11 11 12 12 13 13 14 14 15 15 16 16 17 17 18 18 19 19 20 20 21 21 22 22 23 23 24 24 25 25 26 26 27 27 28 28 29 29 30 30 31 31 32 32 33 33 34 34 35 35 36 36 37 37 38 38 39 39 40 40 41 41 42 42 43 43 44 44 45 45 46 46 47 47 48 48 49 49 50 50 51 51 52 52 53 53 54 54 55 55 56 56 57 57 58 58 59 59 60 60 61 61 62 62 63 63 64 64 65 65 66 66 67 67 68 68 69 69 70 70 71 71 72 72 73 73 74 74 75 75 76 76 77 77 78 78 79 79 80 80 81 81 82 82 83 83 84 84 85 85 86 86 87 87 88 88 89 89 90 90 91 91 92 92 93 93 94 94 95 95 96 96 97 97 98 98 99 99 100 100 101 101 102 102 103 103 104 104 105 105 106 106 107 107 108 108 109 109 110 110 111 111 112 112 113 113 114 114 115 115 116 116 117 117 118 118 119 119 120 120 121 121 122 122 123 123 124 124 125 125 126 126 127 
        </DataArray>
        <DataArray type="Int32" Name="offsets" format="ascii">
          2 4 6 8 10 12 14 16 18 20 22 24 26 28 30 32 34 36 38 40 42 44 46 48 50 52 54 56 58 60 62 64 66 68 70 72 74 76 78 80 82 84 86 88 90 92 94 96 98 100 102 104 106 108 110 112 114 116 118 120 122 124 126 128 130 132 134 136 138 140 142 144 146 148 150 152 154 156 158 160 162 164 166 168 170 172 174 176 178 180 182 184 186 188 190 192 194 196 198 200 202 204 206 208 210 212 214 216 218 220 222 224 226 228 230 232 234 236 238 240 242 244 246 248 250 252 254 
        </DataArray>
        <DataArray type="Int32" Name="types" format="ascii">
          3 3 3 3 3 3 3 3 3 3 3 3 3 3 3 3 3 3 3 3 3 3 3 3 3 3 3 3 3 3 3 3 3 3 3 3 3 3 3 3 3 3 3 3 3 3 3 3 3 3 3 3 3 3 3 3 3 3 3 3 3 3 3 3 3 3 3 3 3 3 3 3 3 3 3 3 3 3 3 3 3 3 3 3 3 3 3 3 3 3 3 3 3 3 3 3 3 3 3 3 3 3 3 3 3 3 3 3 3 3 3 3 3 3 3 3 3 3 3 3 3 3 3 3 3 3 3         </DataArray>
      </Cells>
    </Piece>
  </UnstructuredGrid>
</VTKFile>
