<?xml version="1.0"?>
<VTKFile type="UnstructuredGrid" version="0.1" byte_order="LittleEndian">
  <UnstructuredGrid>
    <Piece NumberOfPoints="128" NumberOfCells="127">
      <PointData Scalars="W">
        <DataArray type="Float32" Name="W" NumberOfComponents="2">
          0 0 0.68719233131630408 -0.20474893536046479 1.0374093718990298 -0.31712632729453627 1.3000382181912669 -0.41115344847403329 1.5137268020587076 -0.49819482161899736 1.6943336285502106 -0.58277790359342652 1.8503939975424031 -0.66723949389104276 1.9870991968461076 -0.75292675285811994 2.1078757216002546 -0.84067513578215136 2.2150293083859669 -0.9309926386418631 2.3102457450223657 -1.0242178885170372 2.3947446836093307 -1.1205592937193456 2.4694128407621583 -1.2201305723457019 2.5348533668199873 -1.3229519151891782 2.5914838626520362 -1.428977890319062 2.6396110318040127 -1.5381236527074647 2.6795173280520745 -1.6503100310714627 2.7113335006291202 -1.7653833324863368 2.7351574691796348 -1.8831748740154191 2.7510673230397962 -2.0035087332766226 2.7590942869616395 -2.1261804883927833 2.7592204842110637 -2.2509473312157722 2.7514269995274558 -2.377559631226883 2.7356960482007042 -2.5057639658622293 2.7119592650065552 -2.6352529727859455 2.6802130187846767 -2.7657703284493116 2.6404061449071614 -2.8970074712116411 2.5924364212589639 -3.0285803711784642 2.5362595702910893 -3.1601425703207262 2.4720450408126515 -3.2916211192055926 2.3995399290610808 -3.4223993994828317 2.3187257592252397 -3.5521075023069582 2.2295838094840477 -3.6803505018490337 2.132125149548405 -3.8067549518501971 2.0263593923706926 -3.9309208481352509 1.9123137180265153 -4.0524513213261075 1.7899873900980727 -4.1708465536096959 1.6594635004060101 -4.2857415922394244 1.5208384405589697 -4.3967975075665029 1.3741623761919666 -4.5035161613703716 1.2195223343903641 -4.6054241919204886 1.0570354846058225 -4.7020747971202415 -0.87557742168199726 3.9510150729493851 -0.97582936021487177 3.8284727359758968 -1.0775705943132126 3.7409279318670023 -1.1598312299097211 3.6118069207600163 -1.231946209011906 3.4805254507168129 -1.3103079733734839 3.3879989029814057 -1.3656655671748688 3.2551896822835702 -1.4115894136942926 3.1221079258225251 -1.469399109696512 3.0312427578198857 -1.4779832525300411 2.8577223839262311 -1.498173586517207 2.7279467335532677 -1.4258572516001604 2.4579115161341534 7.0906902565265115 -13.75807828168271 5.3801561326048413 -14.570710241930874 3.56986077671823 -15.168815769610557 -0.59628004972682269 3.2278659952492683 -0.66986926887984777 3.1685535493963775 -0.73969248687696243 3.1076932861642947 -0.8056064249896443 3.0448957656242821 -0.86787000709765905 2.9813099455492789 -0.92647121943454191 2.9168479810743384 -0.98138156878579541 2.8514464168100377 -1.0199340936667385 2.7521806792665866 -1.0665383220984632 2.6871181235378696 -1.1100253753848595 2.6223029420813337 -1.1505655682986595 2.55796526874561 -1.1885406538807537 2.4947236739721941 -1.2237402367455752 2.4319066623645185 -1.2565210529552073 2.3700655106753419 -1.2870905966010646 2.309371796687909 -1.3347714040264125 2.2818898580087539 -1.3627705524021643 2.2229987099057547 -1.3890624317778761 2.1654997640303719 -1.4138659852740485 2.1095061979642034 -1.4373640256886118 2.0550601356760434 -1.4600252902114697 2.0025804809233736 -1.4815032160916117 1.9513508295170892 -1.5022467744993699 1.9017756169829294 -1.5452822481219022 1.8811432689685197 -1.5661376328810048 1.8340415042395044 -1.5867733877468708 1.7885890711875785 -1.6076979579843411 1.745120048212093 -1.6284507692300467 1.7029038363037385 -1.649521584371233 1.6622680370939131 -1.6959839006083484 1.6469109514149165 -1.7190879323383226 1.608391788743738 -1.7430055248344238 1.5712938523085782 -1.767892275972593 1.5355374777282362 -1.7939635345788498 1.5010871950659974 -1.8474891048407152 1.4884915354876747 -1.8771624444885171 1.4553840948875385 -1.9085322663075759 1.4232971758712707 -1.9681028749182186 1.4106142210983605 -2.004064067757438 1.3791882090869996 -2.0422715642601781 1.348406322109412 -2.0829066278859854 1.3181129572807877 -2.1529379166952407 1.3040062683823317 -2.1997010583844294 1.2731524961309921 -2.2495355340031038 1.2422480304111108 -2.3026628951976122 1.211075521687021 -2.3593995879668821 1.1794382180908778 -2.4468560866621281 1.1594517793198686 -2.5121634824941732 1.1249213947283241 -2.5819551064902497 1.0890286141413885 -2.6565693827657726 1.0514126496868592 -2.7364715049796606 1.0117033269042597 -2.8220577375358395 0.96943185808096988 -2.8851079023599357 0.91535539187168913 -2.9833197153883644 0.86780079199129267 -3.0890710891900124 0.81600599763484505 -3.1728240412391426 0.75240950822470543 -3.2958709268953896 0.69127295690177248 -3.4299318298046093 0.62328067261218545 -3.5435769753268729 0.54250322665113415 -3.7031665027598346 0.45820612440509823 1.6554566578048144 -0.19118290493981657 2.0490904346504228 -0.26721596289415583 2.2496690990561135 -0.33256784243970161 3.0058227793548062 -0.50893744998399848 2.9987681137837408 -0.58220172913905388 3.5488659299045464 -0.78654482087448274 4.4368407204219231 -1.1350921962850102 5.8391872785070555 -1.7585413652495081 7.0409389904720934 -2.5385253347319194 3.8894597870226222 -1.608324034536361 0 0
        </DataArray>
        <DataArray type="Float32" Name="u" NumberOfComponents="1">
          0 0.007874015748031496 0.015748031496062992 0.023622047244094488 0.031496062992125984 0.03937007874015748 0.047244094488188976 0.055118110236220472 0.062992125984251968 0.070866141732283464 0.07874015748031496 0.086614173228346455 0.094488188976377951 0.10236220472440945 0.11023622047244094 0.11811023622047244 0.12598425196850394 0.13385826771653545 0.14173228346456693 0.14960629921259844 0.15748031496062992 0.16535433070866143 0.17322834645669291 0.18110236220472442 0.1889763779527559 0.19685039370078741 0.20472440944881889 0.2125984251968504 0.22047244094488189 0.2283464566929134 0.23622047244094488 0.24409448818897639 0.25196850393700787 0.25984251968503935 0.26771653543307089 0.27559055118110237 0.28346456692913385 0.29133858267716534 0.29921259842519687 0.30708661417322836 0.31496062992125984 0.32283464566929132 0.33070866141732286 0.33858267716535434 0.34645669291338582 0.3543307086614173 0.36220472440944884 0.37007874015748032 0.37795275590551181 0.38582677165354329 0.39370078740157483 0.40157480314960631 0.40944881889763779 0.41732283464566927 0.42519685039370081 0.43307086614173229 0.44094488188976377 0.44881889763779526 0.45669291338582679 0.46456692913385828 0.47244094488188976 0.48031496062992124 0.48818897637795278 0.49606299212598426 0.50393700787401574 0.51181102362204722 0.51968503937007871 0.52755905511811019 0.53543307086614178 0.54330708661417326 0.55118110236220474 0.55905511811023623 0.56692913385826771 0.57480314960629919 0.58267716535433067 0.59055118110236215 0.59842519685039375 0.60629921259842523 0.61417322834645671 0.62204724409448819 0.62992125984251968 0.63779527559055116 0.64566929133858264 0.65354330708661412 0.66141732283464572 0.6692913385826772 0.67716535433070868 0.68503937007874016 0.69291338582677164 0.70078740157480313 0.70866141732283461 0.71653543307086609 0.72440944881889768 0.73228346456692917 0.74015748031496065 0.74803149606299213 0.75590551181102361 0.76377952755905509 0.77165354330708658 0.77952755905511806 0.78740157480314965 0.79527559055118113 0.80314960629921262 0.8110236220472441 0.81889763779527558 0.82677165354330706 0.83464566929133854 0.84251968503937003 0.85039370078740162 0.8582677165354331 0.86614173228346458 0.87401574803149606 0.88188976377952755 0.88976377952755903 0.89763779527559051 0.90551181102362199 0.91338582677165359 0.92125984251968507 0.92913385826771655 0.93700787401574803 0.94488188976377951 0.952755905511811 0.96062992125984248 0.96850393700787396 0.97637795275590555 0.98425196850393704 0.99212598425196852 1
        </DataArray>
      </PointData>
      <CellData Scalars="P">
        <DataArray type="Float32" Name="P" NumberOfComponents="1">
          -0.011733001701534341 -0.033362339772415886 -0.051463228422818426 -0.065156273514951402 -0.073890403844844368 -0.077306084986392451 -0.075167268072723156 -0.067322229312294327 -0.053678330278192202 -0.034186233365148741 -0.0088271663498095988 0.022395607310629843 0.059462998527502128 0.10234368208442669 0.15099720808042857 0.20537713696939769 0.26543545003929325 0.33112229021975453 0.40238814499184161 0.47918595824224319 0.56147183994977912 0.64920505320235677 0.74234932019401745 0.84087402995947769 0.94475289121327377 1.0539673990009037 1.1685052041345154 1.2883574169007979 1.4135210725014131 1.5440119389033604 1.6798398614708532 1.8210206493302654 1.9675750508836858 2.1195297050717663 2.2769157868277397 2.4397688880220882 2.6081240648439148 2.7820214134646015 2.9615065274729204 3.146622600225327 3.3374107452798785 3.5339102256169301 3.3303025458792113 3.1225644909034842 2.9106577161521221 2.6984826957241159 2.4877958904955721 2.2777781134269843 2.0721082934050523 1.8720434516054734 1.6760744359493009 1.4902483543203666 1.3127438324370571 1.1528639961874696 1.8883450242017283 2.5842035399709373 3.2402499848013333 3.0826211481877785 2.9239661786754505 2.7651221953553806 2.6068934947353561 2.4499787644771023 2.2950296104102113 2.1426510733680777 1.9950225920457285 1.8509370216008514 1.7107871420552121 1.5749108760586656 1.4435751341178684 1.3170397659424402 1.1955018293077657 1.0791163065935503 0.9666131620058066 0.85952800083276082 0.75792632265343174 0.66184463071750277 0.57129585846751152 0.48625841011558613 0.40671919872524648 0.33263517351226074 0.26315718278902211 0.19908864859003186 0.14035808607256761 0.086879011611811399 0.038575629375502789 -0.0046404901443322898 -0.043188301605456079 -0.076753555092894249 -0.10542522330420917 -0.12929142649608347 -0.14843893227152391 -0.16292356161545682 -0.17278365130091167 -0.17809528526105448 -0.1787161170355536 -0.17486507065919296 -0.16660517453869295 -0.15399569243044364 -0.13666660247706178 -0.11504066220897485 -0.089165495667813455 -0.059086243764788549 -0.024844514801021261 0.014136421427853497 0.057239838888231843 0.10442762343252497 0.15566086668021259 0.21090121745248988 0.27010691034872403 0.33243569422156588 0.39861857452302524 0.46860340424907704 0.54146228785699968 0.61799185861802608 0.69813474066610059 0.78088721036088204 0.86709566944752559 0.80102681897389472 0.72422964449941951 0.64319241605489708 0.54466026669991296 0.45119182760245041 0.35202765611354447 0.24562657235654231 0.13271530381582367 0.040125175257485352 0.0055521204466287633
        </DataArray>
      </CellData>
      <Points>
        <DataArray type="Float32" NumberOfComponents="3" format="ascii">
          3.7581800909412308 8.7000581927392933 0
          3.7604073141389094 8.7076112074296503 0
          3.7626771484035757 8.7151515235148604 0
          3.7650113097605895 8.7226721715080693 0
          3.767426083057889 8.730167320178067 0
          3.769934718425648 8.7376315716902955 0
          3.7725484146251986 8.7450596807992138 0
          3.7752768483059067 8.7524464099118582 0
          3.7781284959086667 8.7597864455316596 0
          3.7811108461390859 8.7670743464397596 0
          3.784230542945108 8.774304512185827 0
          3.7874934900530559 8.7814711620838199 0
          3.7909049265995911 8.7885683222841084 0
          3.794469482119009 8.7955898187182999 0
          3.7981912139471627 8.8025292758443285 0
          3.8020736331198215 8.8093801194611974 0
          3.8061197233944739 8.8161355819680391 0
          3.8103319587683391 8.8227887072716698 0
          3.8147123115894987 8.8293323603152256 0
          3.8192622586322589 8.8357592375364344 0
          3.8239827859428135 8.8420618777749027 0
          3.8288743907788714 8.8482326749465994 0
          3.8339370805045996 8.8542638930985973 0
          3.8391703714210945 8.8601476818868345 0
          3.8445732876668801 8.8658760922889837 0
          3.8501443569820317 8.871441095661897 0
          3.8558816104861671 8.8768345996342699 0
          3.8617825795090024 8.8820484672383415 0
          3.8678442892549878 8.8870745407209526 0
          3.874063256060829 8.8919046630248495 0
          3.8804354979051596 8.8965306823107895 0
          3.8869565187299191 8.900944490190124 0
          3.8936213072975661 8.9051380446598092 0
          3.9004243360329762 8.9091033945884721 0
          3.907359561712517 8.9128327028704835 0
          3.9144204260627267 8.9163182712266096 0
          3.921599857448157 8.9195525648101199 0
          3.9288902708281861 8.9225282431960498 0
          3.9362835729115049 8.9252381830079699 0
          3.9437711681351306 8.9276754989310643 0
          3.9513439617770958 8.9298335745967172 0
          3.9589923653545638 8.9317060919306357 0
          3.9667063038908092 8.9332870588539741 0
          3.9743659285688904 8.935112999516976 0
          3.9819650245923763 8.9371763137055975 0
          3.9894972855480328 8.93947157157662 0
          3.9969576123787913 8.9419907654900932 0
          4.004341535204329 8.9447257540859564 0
          4.0116441974205133 8.9476707993402229 0
          4.018862168273496 8.9508176656516003 0
          4.0259926019941084 8.9541581007601199 0
          4.0330319163298878 8.9576864703375367 0
          4.0399795803175618 8.9613920151558499 0
          4.0468343438752559 8.9652666886728483 0
          4.0536006915530223 8.9692937478563479 0
          4.0608066653582124 8.9724677964996431 0
          4.0683462109336652 8.9747384514114543 0
          4.0761070887786603 8.9760686301786912 0
          4.0838309899722507 8.977598937109537 0
          4.0915133530303462 8.9793256945011706 0
          4.0991498499308214 8.981245128792688 0
          4.1067363949884035 8.983353346411489 0
          4.1142691287998474 8.9856464050022478 0
          4.1217444189832779 8.9881203079725349 0
          4.1291588619414048 8.990771000551014 0
          4.136510068205804 8.9935923284497754 0
          4.1437951491014537 8.9965802580665191 0
          4.1510114091624546 8.9997307711946792 0
          4.1581563355716282 9.0030398792850033 0
          4.1652275744903093 9.0065036617900702 0
          4.1722229441044343 9.0101182245260869 0
          4.1791404125068343 9.0138797338463004 0
          4.1859780848331694 9.0177844272735381 0
          4.1927330050971534 9.0218306014009055 0
          4.1994034376545839 9.0260146055228709 0
          4.2059877526619056 9.0303328752641399 0
          4.2124844125030076 9.0347819395932305 0
          4.2188919604565438 9.039358423431306 0
          4.2252089916327087 9.0440590736198576 0
          4.231434174467851 9.0488807145048575 0
          4.2375662228871622 9.053820273008645 0
          4.2436024683865998 9.0588764703268385 0
          4.2495416178572549 9.0640463866994434 0
          4.2553823917722893 9.0693272046224838 0
          4.2611234926603281 9.0747162295577315 0
          4.2667636336709318 9.0802108446413854 0
          4.2723015082062918 9.0858085309933951 0
          4.2777342350134431 9.0915083367512146 0
          4.283060381362926 9.0973078742289211 0
          4.2882784640576359 9.1032048438576325 0
          4.293386939786318 9.1091970292483726 0
          4.298384191771353 9.1152822949946053 0
          4.3032669006570421 9.1214598603583443 0
          4.3080332262773977 9.1277276731693018 0
          4.3126812232576084 9.1340837445415044 0
          4.3172071973561676 9.1405272882915156 0
          4.3216089184751336 9.1470563565065515 0
          4.3258840172149222 9.1536690412310406 0
          4.3300299736332741 9.1603634648234618 0
          4.3340424447909793 9.1671387528397048 0
          4.3379185307313204 9.1739929929184481 0
          4.341655141029884 9.1809242695931914 0
          4.3452489810524026 9.1879306508217446 0
          4.3486965323268256 9.1950101757916514 0
          4.3519923713005122 9.2021616056317761 0
          4.3551324479844782 9.2093828002278642 0
          4.3581124342797999 9.216671535058067 0
          4.3609277029815363 9.2240254788292244 0
          4.3635732989192357 9.2314421705291476 0
          4.3660439143698255 9.2389189903663187 0
          4.3683356390750454 9.2464525873007464 0
          4.3704423821531559 9.2540400141878099 0
          4.3723575850453811 9.2616780610671334 0
          4.3740760532306746 9.2693627870217146 0
          4.3755901552278438 9.277090403090769 0
          4.3768915763139331 9.2848566952902569 0
          4.3779732675208081 9.2926566577696299 0
          4.37882533037223 9.3004850656932909 0
          4.3797800730821619 9.3083018126268566 0
          4.3808619216593163 9.3161022300948559 0
          4.3820833358212248 9.3238823119442635 0
          4.3834912470395491 9.3316311962278569 0
          4.3850852570931735 9.3393443921619301 0
          4.3868995483733402 9.3470093113478114 0
          4.3889893024767979 9.3546044496467662 0
          4.3914416901725293 9.3620912926936022 0
          4.3943309606316738 9.3694202798873398 0
          4.397461425441973 9.3766490250876284 0
        </DataArray>
      </Points>
      <Cells>
        <DataArray type="Int32" Name="connectivity" format="ascii">
          0 1 1 2 2 3 3 4 4 5 5 6 6 7 7 8 8 9 9 10 10 11 11 12 12 13 13 14 14 15 15 16 16 17 17 18 18 19 19 20 20 21 21 22 22 23 23 24 24 25 25 26 26 27 27 28 28 29 29 30 30 31 31 32 32 33 33 34 34 35 35 36 36 37 37 38 38 39 39 40 40 41 41 42 42 43 43 44 44 45 45 46 46 47 47 48 48 49 49 50 50 51 51 52 52 53 53 54 54 55 55 56 56 57 57 58 58 59 59 60 60 61 61 62 62 63 63 64 64 65 65 66 66 67 67 68 68 69 69 70 70 71 71 72 72 73 73 74 74 75 75 76 76 77 77 78 78 79 79 80 80 81 81 82 82 83 83 84 84 85 85 86 86 87 87 88 88 89 89 90 90 91 91 92 92 93 93 94 94 95 95 96 96 97 97 98 98 99 99 100 100 101 101 102 102 103 103 104 104 105 105 106 106 107 107 108 108 109 109 110 110 111 111 112 112 113 113 114 114 115 115 116 116 117 117 118 118 119 119 120 120 121 121 122 122 123 123 124 124 125 125 126 126 127 
        </DataArray>
        <DataArray type="Int32" Name="offsets" format="ascii">
          2 4 6 8 10 12 14 16 18 20 22 24 26 28 30 32 34 36 38 40 42 44 46 48 50 52 54 56 58 60 62 64 66 68 70 72 74 76 78 80 82 84 86 88 90 92 94 96 98 100 102 104 106 108 110 112 114 116 118 120 122 124 126 128 130 132 134 136 138 140 142 144 146 148 150 152 154 156 158 160 162 164 166 168 170 172 174 176 178 180 182 184 186 188 190 192 194 196 198 200 202 204 206 208 210 212 214 216 218 220 222 224 226 228 230 232 234 236 238 240 242 244 246 248 250 252 254 
        </DataArray>
        <DataArray type="Int32" Name="types" format="ascii">
          3 3 3 3 3 3 3 3 3 3 3 3 3 3 3 3 3 3 3 3 3 3 3 3 3 3 3 3 3 3 3 3 3 3 3 3 3 3 3 3 3 3 3 3 3 3 3 3 3 3 3 3 3 3 3 3 3 3 3 3 3 3 3 3 3 3 3 3 3 3 3 3 3 3 3 3 3 3 3 3 3 3 3 3 3 3 3 3 3 3 3 3 3 3 3 3 3 3 3 3 3 3 3 3 3 3 3 3 3 3 3 3 3 3 3 3 3 3 3 3 3 3 3 3 3 3 3         </DataArray>
      </Cells>
    </Piece>
  </UnstructuredGrid>
</VTKFile>
