<?xml version="1.0"?>
<VTKFile type="UnstructuredGrid" version="0.1" byte_order="LittleEndian">
  <UnstructuredGrid>
    <Piece NumberOfPoints="128" NumberOfCells="127">
      <PointData Scalars="W">
        <DataArray type="Float32" Name="W" NumberOfComponents="2">
          0 0 -0.18836415752021435 0.053719202648992048 -0.34098821435206433 0.096447442328476726 -0.4490883242580257 0.12545751707840247 -0.53207976075581764 0.14634526916079435 -0.59781032688453339 0.16146292066674872 -0.65014407737457314 0.17205482179689524 -0.69128401235499293 0.17890971864149358 -0.72260760052900741 0.1825929319303996 -0.74514393266911749 0.18357318741306758 -0.75960351279410632 0.18223034252681033 -0.76653792844838264 0.17889578316917326 -0.76641219464213162 0.17386850913560567 -0.75966302896383775 0.16742637559373941 -0.74670791418674942 0.15982541560554578 -0.727920200332972 0.15129270231581921 -0.70354405645237494 0.14200902502230536 -0.67389623487171779 0.13215082883758775 -0.63926664062263916 0.12186780174670568 -0.5998821560377553 0.11127638717235523 -0.55599569662616766 0.10047701786770656 -0.50787847013332732 0.089551690671519857 -0.45576433744353478 0.078554075406783871 -0.39985764267528895 0.067511957023981745 -0.3404205429220139 0.056442469119080269 -0.27761716666473352 0.045326396951930248 -0.21166670474504093 0.034134746662157732 -0.14287565704046318 0.022833860611197659 -0.071477411114769102 0.011360621376022504 0.0026653433567887875 -0.00042288016690870495 0.078998572745057741 -0.012560184894514728 0.15730818371255706 -0.025162803420927967 0.23735920050166495 -0.038350869910958853 0.31894768157304271 -0.052259884592968729 0.40183277758897823 -0.067028101257030473 0.48578918476066907 -0.0828031745222996 0.57048701266323565 -0.099719384651697232 0.65574637060816532 -0.1179389267148918 0.74138516944762012 -0.13762578705972001 0.82703850992720696 -0.1589090306044208 0.91239710760743586 -0.1819216125769765 0.99716511489810633 -0.20679096472119843 -4.5407623896524898 0.87460634855953712 -4.3319341171030947 0.67603646302972675 -4.1072376503586501 0.500476515188924 -3.8724790806174059 0.34811403296254284 -3.7917542787192615 0.22544930068526436 -3.5426171910563795 0.10799949126567469 -3.4554599200052438 0.010074311181451167 -3.3660971631570762 -0.080625295937276617 -3.2749489970783303 -0.16426463875497824 -3.1824324997589262 -0.24102918388396793 -3.0887976285136052 -0.31110701341313668 -2.9944269342782195 -0.3747070045479754 -2.9031915038777778 -0.43261974234665401 -2.9758305805171141 -0.51503395606106028 -2.549317718966666 -0.49952715084621774 -2.2862990351666479 -0.49431957481201733 -2.0180711327107543 -0.47316258666406075 -1.7490385622362676 -0.43834615093112406 -1.4743717780622614 -0.39011134022465904 -1.1986167209860696 -0.33116936906690025 -0.91620582658586036 -0.26168955681148304 -0.41560934799435073 -0.12116401112491983 0.112482911565201 0.03294427762364343 0.19086699364395818 0.0556438490967303 0.50566569376044512 0.14585282105172087 0.5841944485349494 0.16568304147903415 0.66266108271756363 0.18429169580386331 0.7376562471907766 0.20061180009448354 1.0653552943192659 0.28134190377454543 1.1443509030805399 0.29122738805964793 1.2196783432904994 0.29797052472890301 1.2981584440074883 0.3031578757117212 1.3762110167757955 0.30575247636465608 1.7116474665555692 0.35800188552259643 1.7900574853000555 0.3481999780800778 1.8676692160342994 0.33497884724566324 1.9443614362111146 0.31825509200584567 2.0162857234174982 0.29743762601613721 2.3644640230210419 0.30683940233735713 2.4384289575626386 0.26932472709388827 2.5105332973690597 0.22762513025510137 2.5765345117030853 0.18149886354969302 2.6439691097058238 0.13160668845989038 2.7086963576338117 0.07760854615818992 3.0517512625720373 0.018187130739776285 3.1099291965972222 -0.056925220168007815 3.164035788688234 -0.13619326307773899 3.2137838158237959 -0.21942141827716591 3.2587305435440519 -0.30636799684792798 3.2944812017848868 -0.39621198808477248 3.3290493257524392 -0.48953591941896463 3.647730554771845 -0.64056334462811537 3.6670546692046551 -0.75540927093042476 3.6751872732236683 -0.8712662012889828 3.6801395682753482 -0.98943088080011055 3.6774835405836805 -1.1085263490128445 3.6628622586845414 -1.2264734758696909 3.9288767495842429 -1.4556171869784518 3.8948022754951097 -1.5913163752538175 3.8514585571728026 -1.7248493714881774 3.794763877579153 -1.8532653386573228 3.7331445905218823 -1.9795813550609322 3.9331151030818288 -2.2628073265066728 3.8376095896345701 -2.3939956260901578 3.7365132951074802 -2.5197562473696422 3.8823401420924264 -2.8305255522525745 3.7481852110375078 -2.9554525708540886 3.6048084210773879 -3.0680184235889927 3.693197333178543 -3.3961691080663527 3.5117059199976994 -3.4934289377982783 3.3266657372892832 -3.5761848949954262 3.3539609960877743 -3.9039616769188918 3.1361827976690293 -3.9618524380295135 3.1173442829277112 -4.2861101456485713 3.0657409918142706 -4.6174133899135015 2.7986573013214087 -4.6377100138846492 2.701595201638511 -4.9522597644823634 1.9404929474827091 -3.9169764864079157 1.6667427939409314 -3.664269607045298 1.5393515379817377 -3.6892840738465766 1.4002231084151457 -3.6748154273131113 1.3899780208465486 -4.0350763460933425 1.2801701638886642 -4.1718754576239183 1.2002339276916079 -4.4703202263735351 1.388969749581155 -6.2449084102736228 0 0
        </DataArray>
        <DataArray type="Float32" Name="u" NumberOfComponents="1">
          0 0.007874015748031496 0.015748031496062992 0.023622047244094488 0.031496062992125984 0.03937007874015748 0.047244094488188976 0.055118110236220472 0.062992125984251968 0.070866141732283464 0.07874015748031496 0.086614173228346455 0.094488188976377951 0.10236220472440945 0.11023622047244094 0.11811023622047244 0.12598425196850394 0.13385826771653545 0.14173228346456693 0.14960629921259844 0.15748031496062992 0.16535433070866143 0.17322834645669291 0.18110236220472442 0.1889763779527559 0.19685039370078741 0.20472440944881889 0.2125984251968504 0.22047244094488189 0.2283464566929134 0.23622047244094488 0.24409448818897639 0.25196850393700787 0.25984251968503935 0.26771653543307089 0.27559055118110237 0.28346456692913385 0.29133858267716534 0.29921259842519687 0.30708661417322836 0.31496062992125984 0.32283464566929132 0.33070866141732286 0.33858267716535434 0.34645669291338582 0.3543307086614173 0.36220472440944884 0.37007874015748032 0.37795275590551181 0.38582677165354329 0.39370078740157483 0.40157480314960631 0.40944881889763779 0.41732283464566927 0.42519685039370081 0.43307086614173229 0.44094488188976377 0.44881889763779526 0.45669291338582679 0.46456692913385828 0.47244094488188976 0.48031496062992124 0.48818897637795278 0.49606299212598426 0.50393700787401574 0.51181102362204722 0.51968503937007871 0.52755905511811019 0.53543307086614178 0.54330708661417326 0.55118110236220474 0.55905511811023623 0.56692913385826771 0.57480314960629919 0.58267716535433067 0.59055118110236215 0.59842519685039375 0.60629921259842523 0.61417322834645671 0.62204724409448819 0.62992125984251968 0.63779527559055116 0.64566929133858264 0.65354330708661412 0.66141732283464572 0.6692913385826772 0.67716535433070868 0.68503937007874016 0.69291338582677164 0.70078740157480313 0.70866141732283461 0.71653543307086609 0.72440944881889768 0.73228346456692917 0.74015748031496065 0.74803149606299213 0.75590551181102361 0.76377952755905509 0.77165354330708658 0.77952755905511806 0.78740157480314965 0.79527559055118113 0.80314960629921262 0.8110236220472441 0.81889763779527558 0.82677165354330706 0.83464566929133854 0.84251968503937003 0.85039370078740162 0.8582677165354331 0.86614173228346458 0.87401574803149606 0.88188976377952755 0.88976377952755903 0.89763779527559051 0.90551181102362199 0.91338582677165359 0.92125984251968507 0.92913385826771655 0.93700787401574803 0.94488188976377951 0.952755905511811 0.96062992125984248 0.96850393700787396 0.97637795275590555 0.98425196850393704 0.99212598425196852 1
        </DataArray>
      </PointData>
      <CellData Scalars="P">
        <DataArray type="Float32" Name="P" NumberOfComponents="1">
          0.011625137622121199 0.035112956575206529 0.059134532712986243 0.083743241211093083 0.10887767406450895 0.13440400244882669 0.16013937289577057 0.1858691041469287 0.21136090293991441 0.2363775889922114 0.26068792225971682 0.28407650704131182 0.30635261580986467 0.32735779282134952 0.34697210918286614 0.36511927172501801 0.38177148084331952 0.39695226694641433 0.41073865825338168 0.42326306727236485 0.43471327716477826 0.44533121804824471 0.45541179497333095 0.46530106185803111 0.47539132454571009 0.48611961027935596 0.49796130341166095 0.51142088214097869 0.52702731290242077 0.54534339843239155 0.56692881222645752 0.59234494311830355 0.62214482604683052 0.65686530694554845 0.69701521353125495 0.74306601430974972 0.79543465227649557 0.85448221865494645 0.92050377731644362 0.99370522686144025 1.0741960657978753 1.1619799495092515 0.84478078786998945 0.54010175044741493 0.24951316448783512 -0.025803037330399063 -0.29788845522976182 -0.55279161751017158 -0.8034101244044658 -1.0493374684420218 -1.2902057350010272 -1.5256856960798859 -1.755473001141941 -1.9792995749922369 -2.1972343182041025 -2.423269545058508 -2.613943621892886 -2.7830760316890508 -2.929876029298323 -3.0539611639657749 -3.1545614790611789 -3.2313597885505119 -3.2836143793677972 -3.2919899086203985 -3.2541907228318108 -3.2099998460195924 -3.1389415283135782 -3.0619144285075706 -2.9791453101123233 -2.8911760962604141 -2.7772112245966176 -2.6586091630776072 -2.5360302318552161 -2.4095947053339271 -2.2797289275619188 -2.1273536954520584 -1.9728418532368122 -1.8167222648407526 -1.659532036223814 -1.5020658665740367 -1.3266847094266634 -1.1524646326607311 -0.98002884791761635 -0.81023042772718501 -0.64344964356041345 -0.48029217059915391 -0.3070645872715026 -0.13942790036996749 0.021986482228920742 0.17657824450154638 0.32377564890658933 0.46289436532035055 0.59361353190801969 0.72457254893992973 0.84527530845290122 0.95521602475727918 1.0541830188770349 1.1419198005843743 1.2181807808335336 1.2867321282527915 1.3426886576809662 1.3860964329172001 1.4170950920646999 1.4359829298988476 1.4424314037993848 1.4366244773821926 1.4191667437700815 1.3875877584733858 1.3450442909312816 1.2925715790884498 1.2258662490872094 1.1510580128794123 1.0695694021201068 0.97576344612694677 0.87818490314506537 0.77060961178909559 0.65436094523516464 0.5397876146569317 0.42062620165803671 0.33353861681108971 0.25831649452728606 0.18958587830618098 0.13002438035705222 0.075229921911520822 0.032702984027793584 0.0044118293358528723 -0.0082807976946542294
        </DataArray>
      </CellData>
      <Points>
        <DataArray type="Float32" NumberOfComponents="3" format="ascii">
          3.9101309863698073 8.6487144567247487 0
          3.912296421986972 8.6562853239019031 0
          3.9144501761589905 8.6638595166842247 0
          3.9165827842195586 8.6714396811793613 0
          3.9186875425652956 8.6790276135239761 0
          3.9207593046905584 8.6866246065855197 0
          3.9227939945343016 8.6942315957131679 0
          3.9247883668616637 8.7018492358516806 0
          3.9267398706477841 8.7094779504304416 0
          3.9286465636522379 8.7171179664120952 0
          3.9305070485959752 8.7247693433592239 0
          3.9323204290927483 8.732431996995162 0
          3.9340862754342023 8.7401057197620933 0
          3.9358045957428334 8.747790199372611 0
          3.9374758088796473 8.7554850360512351 0
          3.9391007185447933 8.7631897584232199 0
          3.9406804901151702 8.77090383760771 0
          3.9422166354924442 8.7786266984408989 0
          3.9437109934517105 8.7863577304292875 0
          3.9451657116561916 8.7940962970433105 0
          3.9465832325811565 8.8018417429489606 0
          3.9479662778257243 8.8095934002458094 0
          3.9493178312928761 8.8173505935609864 0
          3.9506411246876656 8.825112643385749 0
          3.9519396248484067 8.832878867806027 0
          3.9532170174966343 8.8406485835713955 0
          3.9544771970683272 8.8484211049091019 0
          3.9557242531349153 8.8561957417304029 0
          3.9569624514149955 8.8639717975461867 0
          3.9581962193230127 8.8717485655544053 0
          3.9594301545054562 8.8795253200885753 0
          3.9606689905177799 8.8873013139150885 0
          3.9619175835818092 8.8950757713141115 0
          3.9631808980524852 8.9028478806232716 0
          3.9644639938126915 8.9106167858257681 0
          3.9657720113834691 8.9183815779645776 0
          3.9671101580015042 8.926141285970246 0
          3.9684836872148819 8.9338948683141233 0
          3.9698978877817868 8.941641202926391 0
          3.9713580724351529 8.949379076998266 0
          3.9728695553133773 8.9571071789443852 0
          3.9744376328396203 8.9648240901185474 0
          3.9760675654337017 8.9725282768662957 0
          3.9774159173803487 8.9802866819456124 0
          3.9784956398077407 8.9880869890017241 0
          3.9793206680147084 8.995918308547374 0
          3.9799055613978926 9.0037711897433574 0
          3.9802553280056148 9.0116380277323191 0
          3.9803854187090177 9.0195115368808665 0
          3.9803012401411855 9.0273856466704707 0
          3.9800083354225144 9.0352547346534937 0
          3.9795123581291922 9.043113616189963 0
          3.9788190464468887 9.050957532936609 0
          3.9779342076868729 9.0587821411720402 0
          3.9768636945793778 9.0665834988378187 0
          3.9756131652390545 9.0743580165888922 0
          3.9741781155529696 9.0821005893875792 0
          3.9725849941114784 9.0898121730027199 0
          3.970850111186746 9.0974930883701344 0
          3.968990100024103 9.1051446454401717 0
          3.9670216436530827 9.1127690012897382 0
          3.9649617743108214 9.1203691450909652 0
          3.9628275914821454 9.127948730111882 0
          3.9606366070827668 9.1355120631384423 0
          3.9584198621372946 9.1430678527392963 0
          3.9562101017278097 9.1506256502222332 0
          3.9540121847242022 9.158186866709217 0
          3.9518456291335671 9.1657570958211991 0
          3.9497153024337037 9.1733375708315172 0
          3.9476260683059552 9.1809294490264381 0
          3.9455825752574216 9.1885337455878542 0
          3.9436051402560746 9.1961554670372507 0
          3.9416986597323973 9.2037952296902237 0
          3.9398678028298604 9.2114534548122009 0
          3.9381174343160947 9.219130466948636 0
          3.9364523926045454 9.2268264296621414 0
          3.9348934741652752 9.2345445845792806 0
          3.933445539744886 9.2422843268281696 0
          3.9321134008028955 9.25004483930066 0
          3.9309018119891821 9.2578250874827681 0
          3.9298152325336524 9.2656237827957408 0
          3.9288752495584363 9.2734415113367561 0
          3.928086449240463 9.2812759494512527 0
          3.9274533026206231 9.2891245137522276 0
          3.9269799025462944 9.2969843461006239 0
          3.9266704309167948 9.3048523546325974 0
          3.9265289019375351 9.3127251926574228 0
          3.9265765868423186 9.3205991801977799 0
          3.9268170944290528 9.3284696615269596 0
          3.9272537812379684 9.3363317229776079 0
          3.9278897337187186 9.3441802050782226 0
          3.9287277407561536 9.3520097175488264 0
          3.9297700211460267 9.3598146901530619 0
          3.9310187204561893 9.3675893367268657 0
          3.9324936017847838 9.3753242983602032 0
          3.9341958664375656 9.3830124544365745 0
          3.936126021880844 9.390646621328635 0
          3.9382843785021779 9.398219472177578 0
          3.940670775029135 9.4057236222172662 0
          3.9432843083278435 9.4131517576227548 0
          3.9461414799443699 9.4204896763277404 0
          3.9492401819435523 9.4277289637200266 0
          3.9525777318153246 9.4348613393039091 0
          3.9561506193204901 9.4418788395938282 0
          3.9599550291363768 9.4487736312734913 0
          3.9640033730592714 9.45552815856575 0
          3.9682897365971401 9.4621342854521746 0
          3.972807859065778 9.4685842123603159 0
          3.9775668002746114 9.4748586745857786 0
          3.9825582525532695 9.4809499232633048 0
          3.9877733370596871 9.486850975673855 0
          3.9932175592809358 9.4925414870688396 0
          3.9988796806842863 9.4980154219611261 0
          4.0047482438831814 9.5032676438206529 0
          4.0108249756415706 9.508277826816343 0
          4.0170963938148816 9.5130423734284797 0
          4.0235613737913019 9.5175411708856625 0
          4.0302167667289917 9.5217536646449581 0
          4.0370460464359041 9.5256785799173205 0
          4.0440432587737067 9.5292963910865431 0
          4.0511611695476226 9.5326712879026196 0
          4.05838283011229 9.5358189337987955 0
          4.0657003999781036 9.538737766083532 0
          4.0731053199208143 9.5414286691140937 0
          4.0805970766673365 9.5438692703521877 0
          4.0881689871924669 9.5460510517832002 0
          4.0958162743086843 9.5479554482797209 0
          4.1035492771317692 9.5494718941647445 0
        </DataArray>
      </Points>
      <Cells>
        <DataArray type="Int32" Name="connectivity" format="ascii">
          0 1 1 2 2 3 3 4 4 5 5 6 6 7 7 8 8 9 9 10 10 11 11 12 12 13 13 14 14 15 15 16 16 17 17 18 18 19 19 20 20 21 21 22 22 23 23 24 24 25 25 26 26 27 27 28 28 29 29 30 30 31 31 32 32 33 33 34 34 35 35 36 36 37 37 38 38 39 39 40 40 41 41 42 42 43 43 44 44 45 45 46 46 47 47 48 48 49 49 50 50 51 51 52 52 53 53 54 54 55 55 56 56 57 57 58 58 59 59 60 60 61 61 62 62 63 63 64 64 65 65 66 66 67 67 68 68 69 69 70 70 71 71 72 72 73 73 74 74 75 75 76 76 77 77 78 78 79 79 80 80 81 81 82 82 83 83 84 84 85 85 86 86 87 87 88 88 89 89 90 90 91 91 92 92 93 93 94 94 95 95 96 96 97 97 98 98 99 99 100 100 101 101 102 102 103 103 104 104 105 105 106 106 107 107 108 108 109 109 110 110 111 111 112 112 113 113 114 114 115 115 116 116 117 117 118 118 119 119 120 120 121 121 122 122 123 123 124 124 125 125 126 126 127 
        </DataArray>
        <DataArray type="Int32" Name="offsets" format="ascii">
          2 4 6 8 10 12 14 16 18 20 22 24 26 28 30 32 34 36 38 40 42 44 46 48 50 52 54 56 58 60 62 64 66 68 70 72 74 76 78 80 82 84 86 88 90 92 94 96 98 100 102 104 106 108 110 112 114 116 118 120 122 124 126 128 130 132 134 136 138 140 142 144 146 148 150 152 154 156 158 160 162 164 166 168 170 172 174 176 178 180 182 184 186 188 190 192 194 196 198 200 202 204 206 208 210 212 214 216 218 220 222 224 226 228 230 232 234 236 238 240 242 244 246 248 250 252 254 
        </DataArray>
        <DataArray type="Int32" Name="types" format="ascii">
          3 3 3 3 3 3 3 3 3 3 3 3 3 3 3 3 3 3 3 3 3 3 3 3 3 3 3 3 3 3 3 3 3 3 3 3 3 3 3 3 3 3 3 3 3 3 3 3 3 3 3 3 3 3 3 3 3 3 3 3 3 3 3 3 3 3 3 3 3 3 3 3 3 3 3 3 3 3 3 3 3 3 3 3 3 3 3 3 3 3 3 3 3 3 3 3 3 3 3 3 3 3 3 3 3 3 3 3 3 3 3 3 3 3 3 3 3 3 3 3 3 3 3 3 3 3 3         </DataArray>
      </Cells>
    </Piece>
  </UnstructuredGrid>
</VTKFile>
