<?xml version="1.0"?>
<VTKFile type="UnstructuredGrid" version="0.1" byte_order="LittleEndian">
  <UnstructuredGrid>
    <Piece NumberOfPoints="128" NumberOfCells="127">
      <PointData Scalars="W">
        <DataArray type="Float32" Name="W" NumberOfComponents="2">
          0 0 0.69311380665789268 0.43470064146671572 1.0578840352756964 0.65157146318203574 1.33170564120538 0.80013023007951434 1.5587430127538107 0.90870392917589304 1.7568590136312203 0.98908490068874688 1.9354131525428189 1.0476623647916647 2.0999326990775518 1.0883528575863317 2.253976263564331 1.1137717843801578 2.3998973554889345 1.1257293202806724 2.5393766966419813 1.1255602078059916 2.6735656266842431 1.1142357960614317 2.8032970077028097 1.0924948500227474 2.9291531870104901 1.0608968368470064 3.0515124384922223 1.0198626301977269 3.1706199287110297 0.96971821904647426 3.2866787959185109 0.91073284986796843 3.3997361211681438 0.8430928333075105 3.5098058256338649 0.76694834800326439 3.6168705735773967 0.68241500886799467 3.72083864214266 0.58956903347743705 3.8215462720865387 0.4884571041651225 3.9188204997084015 0.37911116021937602 4.0124272742982772 0.26154403882414551 4.1021028862240856 0.13575807857471153 4.1876014530205676 0.0017465475951952984 4.2685888065179611 -0.14050853705397207 4.3446437932349724 -0.29102291013713155 4.4153973548953651 -0.44981258455270201 4.4807314974253991 -0.61694006498041865 4.539814175944354 -0.79238952326927337 4.5921493432642659 -0.97615594732041211 4.6372046108783911 -1.1682237414860477 4.6744017559456763 -1.3685610476887111 4.703129001508489 -1.5771191729403857 4.7226904207215377 -1.7938104857311246 4.732290450463621 -2.0184856002380651 4.7312164180161504 -2.2510020698504176 4.7187171262580572 -2.491188850647561 4.6938824981232541 -2.7387705815179202 4.6557820607244276 -2.9934151906701461 4.6034668938026551 -3.2547335220380909 -0.88761108864331695 0.65166073404435143 -0.72572900991741129 0.52407751350266596 -0.55657970930087508 0.39668527270964216 -0.37965572094029665 0.26800689766243463 -0.30055217228695402 0.21069399203222028 -0.1183384455046938 0.082602969896857253 0.065116350542032395 -0.045427956843986692 0.25241561509885901 -0.17666930579695936 0.32754482927672751 -0.23061811458744894 0.6259902812456356 -0.44507156297663497 0.81190670849825752 -0.58581560396591303 12.823810037375171 -10.687020873513911 -2.2871923460056212 2.123316891333582 -0.31819297478754072 0.28721887102834293 -0.25839471173594708 0.23181288444496922 -0.20114345263413033 0.17957139069260181 -0.075766164917276294 0.06744176458992257 -0.021765626272367149 0.019354197351831411 0.029913999377154939 -0.026602106810388982 0.079010652945756668 -0.070344369464250656 0.19552687228825041 -0.17458895745180902 0.23838880805081103 -0.21384556953252315 0.34872570806287784 -0.31478598375328209 0.38417867390323779 -0.34951357588663673 0.41590209584470555 -0.38163105972334255 0.44522185829705113 -0.41233297651661127 0.46925387681294373 -0.43889748968029768 0.48938585282262115 -0.46250377717006363 0.50560924212014868 -0.48303553619932071 0.51793546816968405 -0.50037745815087231 0.52639487771336946 -0.51441728887939686 0.53103547264456086 -0.52504788803164137 0.53191954199386959 -0.53216734792385634 0.52912260511677944 -0.53568142836031429 0.52273080666225014 -0.53550451030179469 0.51283962481653955 -0.53156186887342494 0.49955043120775044 -0.52378970520310519 0.48424078475663312 -0.51349318582312242 0.46446089732289397 -0.49793701634741178 0.37564550832951915 -0.40666509269974221 0.35047108805541233 -0.38264083301208474 0.32235625598755879 -0.35473429129415079 0.29135424097493667 -0.32294636178287361 0.25875854891939176 -0.28869071895166731 0.2222012548131114 -0.24932629582781618 0.1829299664035649 -0.20625560939880849 0.14097228126334843 -0.15956514247714504 0.03404887755938469 -0.038620543495885243 -0.012092310670961511 0.013719532601035769 -0.062201319991124715 0.070508663156915438 -0.11520457309657962 0.13031340854960696 -0.17118130918909472 0.19296909426570266 -0.22910967274718436 0.25704006205904928 -0.29135469277573478 0.32485730470693702 -0.35690848407693493 0.39490832074632437 -0.48756139203951593 0.53413970698875957 -0.56109956683952711 0.60721863242396967 -0.63757154699709107 0.68045816352562605 -0.71943734950820826 0.75595461804957798 -0.80587152115765481 0.83220565492196574 -0.89717503934101639 0.90888611689531185 -0.99367900178502022 0.98565049773182301 -1.0957486956131559 1.0621329062982492 -1.1371601176014228 1.0757356077167921 -1.2498784026774172 1.152275708410113 -1.3693209863980433 1.2275343239221672 -1.4960303972993128 1.3010535195383959 -1.6306108876124141 1.3723387559472808 -1.7001405952890078 1.3821133784867252 -1.8518569028721863 1.4511980236672495 -1.9341918652477124 1.4578614101931191 -2.1054621640428235 1.5226286461799821 -2.2883164236302025 1.5821265968165326 -2.4027318575484466 1.583271832336054 -2.8309229766018928 1.7676132297105394 2.1964376565106782 -1.362409024472488 1.9423627817581097 -1.257327172536105 1.7742693578425988 -1.1931628112668118 1.8778163466478117 -1.310912042890352 1.6760739354946217 -1.2133845934516776 1.3602026464770693 -1.0157916485702685 1.1045296245014371 -0.84597300974397072 0.080804489559046497 -0.06264644609237284 -0.97312826055669044 0.74757412136471535 -4.7489116695797451 3.4416954666798141 0 0
        </DataArray>
        <DataArray type="Float32" Name="u" NumberOfComponents="1">
          0 0.007874015748031496 0.015748031496062992 0.023622047244094488 0.031496062992125984 0.03937007874015748 0.047244094488188976 0.055118110236220472 0.062992125984251968 0.070866141732283464 0.07874015748031496 0.086614173228346455 0.094488188976377951 0.10236220472440945 0.11023622047244094 0.11811023622047244 0.12598425196850394 0.13385826771653545 0.14173228346456693 0.14960629921259844 0.15748031496062992 0.16535433070866143 0.17322834645669291 0.18110236220472442 0.1889763779527559 0.19685039370078741 0.20472440944881889 0.2125984251968504 0.22047244094488189 0.2283464566929134 0.23622047244094488 0.24409448818897639 0.25196850393700787 0.25984251968503935 0.26771653543307089 0.27559055118110237 0.28346456692913385 0.29133858267716534 0.29921259842519687 0.30708661417322836 0.31496062992125984 0.32283464566929132 0.33070866141732286 0.33858267716535434 0.34645669291338582 0.3543307086614173 0.36220472440944884 0.37007874015748032 0.37795275590551181 0.38582677165354329 0.39370078740157483 0.40157480314960631 0.40944881889763779 0.41732283464566927 0.42519685039370081 0.43307086614173229 0.44094488188976377 0.44881889763779526 0.45669291338582679 0.46456692913385828 0.47244094488188976 0.48031496062992124 0.48818897637795278 0.49606299212598426 0.50393700787401574 0.51181102362204722 0.51968503937007871 0.52755905511811019 0.53543307086614178 0.54330708661417326 0.55118110236220474 0.55905511811023623 0.56692913385826771 0.57480314960629919 0.58267716535433067 0.59055118110236215 0.59842519685039375 0.60629921259842523 0.61417322834645671 0.62204724409448819 0.62992125984251968 0.63779527559055116 0.64566929133858264 0.65354330708661412 0.66141732283464572 0.6692913385826772 0.67716535433070868 0.68503937007874016 0.69291338582677164 0.70078740157480313 0.70866141732283461 0.71653543307086609 0.72440944881889768 0.73228346456692917 0.74015748031496065 0.74803149606299213 0.75590551181102361 0.76377952755905509 0.77165354330708658 0.77952755905511806 0.78740157480314965 0.79527559055118113 0.80314960629921262 0.8110236220472441 0.81889763779527558 0.82677165354330706 0.83464566929133854 0.84251968503937003 0.85039370078740162 0.8582677165354331 0.86614173228346458 0.87401574803149606 0.88188976377952755 0.88976377952755903 0.89763779527559051 0.90551181102362199 0.91338582677165359 0.92125984251968507 0.92913385826771655 0.93700787401574803 0.94488188976377951 0.952755905511811 0.96062992125984248 0.96850393700787396 0.97637795275590555 0.98425196850393704 0.99212598425196852 1
        </DataArray>
      </PointData>
      <CellData Scalars="P">
        <DataArray type="Float32" Name="P" NumberOfComponents="1">
          -0.0385087155076844 -0.11305880294164779 -0.18306640205640334 -0.24771165216049706 -0.3066184823422361 -0.3596284076281705 -0.40669541696392747 -0.44782978213979041 -0.48306434601058429 -0.51243456332285675 -0.53596407463389339 -0.5536566394729574 -0.56548970980376956 -0.57141035344304958 -0.5713328054622776 -0.56513619156856298 -0.55266110565118753 -0.53370996247086511 -0.50804480513568706 -0.47538533147950962 -0.43540840644528139 -0.38774782778972733 -0.3319923027614175 -0.26768512336101286 -0.19432291932206849 -0.11135261643438465 -0.018172130576310858 0.085868554808949102 0.20147173222530609 0.32940612282126985 0.47047877939106253 0.6255512379942535 0.79554029998332332 0.98141819613426229 1.1842132060669657 1.4050070201784752 1.644929925603607 1.905166961388816 2.186957110379272 2.4915825513493259 2.8203657947606575 3.1746662917804813 3.0288957061645028 2.8969422750061029 2.7813421884609189 2.6842235642992236 2.5954994434752252 2.527025061694717 2.4790191649131499 2.4516520942163273 2.4319984912570645 2.4438636537006264 2.4738790804563395 3.7413605067219646 3.4300486831697534 3.3376617943811833 3.25209547290968 3.1728992972384567 3.1066552106933769 3.045541314224002 2.9888768997093549 2.9359198645220093 2.8917236329038518 2.8492370104627605 2.8127313605369335 2.7758452333089951 2.7378040770893546 2.6979668539789219 2.6556030875794283 2.6101477405521516 2.5611244006547507 2.5081514156267462 2.4509461784290001 2.3893275655194564 2.323216548327439 2.252635104903371 2.1777034949610141 2.0986360026039002 2.0157352819649934 1.9293459856113833 1.8399567857674461 1.7509897517650146 1.6605136455455518 1.5691164498590267 1.4774221896573383 1.385997955587879 1.2955797907838729 1.2068338571544936 1.1204194210911405 1.0421714232383732 0.96761015288170027 0.89738519481619061 0.83201195403620476 0.77195854184949686 0.71753343749623544 0.66919616350363142 0.62723409850203882 0.59773325131041355 0.57498766136623825 0.55896204206062905 0.54976331159917247 0.5473275293616745 0.55152689362658291 0.56217339552178636 0.579023983211161 0.59639712990377325 0.61945930694601781 0.64782497414844598 0.68107928246484706 0.71879065917816609 0.7557374649998968 0.79653459794063775 0.83610512159008166 0.87891080837243296 0.92454390171881584 0.96871299628287766 1.0254539981113788 0.87845758976423216 0.74544438716314187 0.62309021523888386 0.50161833892723495 0.39248094957412655 0.29765081159832762 0.2131169168150899 0.14753628476775876 0.089274519440648667 0.03518440878453781
        </DataArray>
      </CellData>
      <Points>
        <DataArray type="Float32" NumberOfComponents="3" format="ascii">
          4.0767724369514307 5.7340276295181321 0
          4.0725656780210064 5.7406873752656935 0
          4.0684019168662191 5.7473741087571826 0
          4.0643037825958697 5.7541012951984527 0
          4.0602882628808015 5.7608781593551033 0
          4.0563694437430273 5.7677114440813506 0
          4.0525596176864287 5.7746061423526349 0
          4.0488698643107464 5.7815658938608392 0
          4.0453103931865462 5.7885932281023766 0
          4.0418907646013675 5.7956897266909397 0
          4.0386200355439152 5.8028561356823767 0
          4.0355068639504443 5.8100924483845944 0
          4.0325595801075078 5.8173979656093726 0
          4.0297862382956025 5.8247713414860325 0
          4.0271946528890439 5.8322106181453783 0
          4.0247924217924176 5.8397132518009887 0
          4.022586941616388 5.8472761329411709 0
          4.0205854202444495 5.8548956029993873 0
          4.0187948797132638 5.8625674658780875 0
          4.0172221570331228 5.870286997231049 0
          4.015873903066387 5.8780489516021808 0
          4.0147565767868043 5.8858475671211314 0
          4.0138764350652174 5.8936765683681189 0
          4.0132395218812116 5.9015291683265039 0
          4.0128516537404266 5.9093980691529495 0
          4.01271840324811 5.9172754622995987 0
          4.0128450837864937 5.9251530280773199 0
          4.0132367287095985 5.9330219345250441 0
          4.0138980651359955 5.9408728364237469 0
          4.0148334909728085 5.9486958742986298 0
          4.0160470675227513 5.956480670541219 0
          4.0175424677649101 5.9642163304004301 0
          4.0193229454905914 5.9718914423092633 0
          4.0213913021823862 5.9794940788760416 0
          4.0237498510476684 5.9870117988932323 0
          4.0264003789694716 5.994431650399866 0
          4.0293441032345871 6.0017401761704381 0
          4.0325816220782214 6.0089234230471726 0
          4.0361128703775213 6.0159669508515936 0
          4.0399370729578763 6.0228558430818504 0
          4.0440526880414485 6.0295747240969657 0
          4.0484573494365632 6.0361077798328049 0
          4.0531478075906691 6.0424387820730443 0
          4.0577830205858998 6.0488100458144958 0
          4.0623730385485119 6.0552136422368266 0
          4.0669283616710237 6.0616416560800266 0
          4.0714599714869673 6.0680860939778274 0
          4.0759727820799556 6.0745434006443455 0
          4.0804781012145721 6.0810056225807161 0
          4.084987312481033 6.087464812229876 0
          4.0895120366682676 6.0939128248914782 0
          4.0940569381222467 6.1003463204675175 0
          4.0986405270359034 6.1067519890509212 0
          4.1032743348628964 6.1131211035582123 0
          4.1087036824220018 6.1188271993423813 0
          4.1139911155648905 6.1246649939491293 0
          4.1192586964026239 6.1305204810647167 0
          4.1245101383673317 6.1363902256731997 0
          4.1297489967449037 6.142270989738166 0
          4.1349830495880724 6.1481558180621754 0
          4.1402156502143583 6.1540417319055569 0
          4.1454500078779795 6.1599258852518695 0
          4.1506891715551539 6.1658055699021714 0
          4.1559403691667347 6.1716743234084213 0
          4.1612062630058642 6.1775297171622912 0
          4.1664936977888631 6.1833654954961679 0
          4.1718048765222289 6.1891795118851984 0
          4.1771417710584782 6.1949697819257441 0
          4.1825062043105463 6.2007344091722949 0
          4.1878996715046233 6.2064717539339096 0
          4.1933234262152972 6.2121803600538037 0
          4.1987784798489773 6.217858962064704 0
          4.2042656023590448 6.2235064922843053 0
          4.2097853241277283 6.2291220877237015 0
          4.2153379389359573 6.2347050966817035 0
          4.2209235078123877 6.2402550850182701 0
          4.2265418636962417 6.2457718419566017 0
          4.2321926167526893 6.2512553853552255 0
          4.2378751602610603 6.2567059663095268 0
          4.2435886768630873 6.2621240730810426 0
          4.2493322239353395 6.2675103501606007 0
          4.2551045816525113 6.2728657678374917 0
          4.2609002492448811 6.278195989998701 0
          4.2667176718092676 6.2835025111110161 0
          4.272555111921263 6.2887870660551028 0
          4.2784106528823447 6.294051630072933 0
          4.2842822788907009 6.2992983311416832 0
          4.2901677281303963 6.3045296137024982 0
          4.2960645700894 6.3097481517282619 0
          4.3019702072189689 6.3149568433756107 0
          4.3078780113637567 6.3201631893850285 0
          4.3137851241655367 6.3253704376760442 0
          4.3196884406105838 6.3305821118059598 0
          4.3255846755899023 6.3358019221221804 0
          4.331470358951778 6.3410337555598852 0
          4.3373418988834267 6.3462815866542996 0
          4.3431954351456596 6.3515496220278793 0
          4.349026901594673 6.3568422066304393 0
          4.3548281915700384 6.3621679733919381 0
          4.3605947420778071 6.3675314545489767 0
          4.3663218075417092 6.3729371921016549 0
          4.3720043071566481 6.3783898677249677 0
          4.3776368761495794 6.3838942096128184 0
          4.3832138471454547 6.3894549722865355 0
          4.3887292296750786 6.395076915139005 0
          4.3941766875730828 6.4007647797132998 0
          4.3995536494869087 6.4065194098945435 0
          4.4048531180551764 6.4123455501404409 0
          4.4100676785478115 6.4182478650123524 0
          4.415189465317642 6.4242309107609499 0
          4.4202101244367356 6.4302991046520477 0
          4.4251253399149562 6.4364530515114664 0
          4.4299256950287482 6.4426970314501517 0
          4.4346060799293001 6.4490314560432518 0
          4.4391558655793242 6.4554603372781161 0
          4.4435637050454702 6.4619873602925377 0
          4.4478225000246505 6.4686125946651556 0
          4.4519056805122608 6.4753474601242687 0
          4.4561247725891295 6.4819972977629181 0
          4.4604640522830676 6.4885687391370626 0
          4.4649131421720938 6.4950658761384119 0
          4.469478518911127 6.5014815186036117 0
          4.4741477287803537 6.5078218090029871 0
          4.4789012462736775 6.5140990856002849 0
          4.4837232805646039 6.5203239574788254 0
          4.4885504263370386 6.5265450759386923 0
          4.4933174045322213 6.532812772402055 0
          4.4977898812611494 6.5392938354440471 0
        </DataArray>
      </Points>
      <Cells>
        <DataArray type="Int32" Name="connectivity" format="ascii">
          0 1 1 2 2 3 3 4 4 5 5 6 6 7 7 8 8 9 9 10 10 11 11 12 12 13 13 14 14 15 15 16 16 17 17 18 18 19 19 20 20 21 21 22 22 23 23 24 24 25 25 26 26 27 27 28 28 29 29 30 30 31 31 32 32 33 33 34 34 35 35 36 36 37 37 38 38 39 39 40 40 41 41 42 42 43 43 44 44 45 45 46 46 47 47 48 48 49 49 50 50 51 51 52 52 53 53 54 54 55 55 56 56 57 57 58 58 59 59 60 60 61 61 62 62 63 63 64 64 65 65 66 66 67 67 68 68 69 69 70 70 71 71 72 72 73 73 74 74 75 75 76 76 77 77 78 78 79 79 80 80 81 81 82 82 83 83 84 84 85 85 86 86 87 87 88 88 89 89 90 90 91 91 92 92 93 93 94 94 95 95 96 96 97 97 98 98 99 99 100 100 101 101 102 102 103 103 104 104 105 105 106 106 107 107 108 108 109 109 110 110 111 111 112 112 113 113 114 114 115 115 116 116 117 117 118 118 119 119 120 120 121 121 122 122 123 123 124 124 125 125 126 126 127 
        </DataArray>
        <DataArray type="Int32" Name="offsets" format="ascii">
          2 4 6 8 10 12 14 16 18 20 22 24 26 28 30 32 34 36 38 40 42 44 46 48 50 52 54 56 58 60 62 64 66 68 70 72 74 76 78 80 82 84 86 88 90 92 94 96 98 100 102 104 106 108 110 112 114 116 118 120 122 124 126 128 130 132 134 136 138 140 142 144 146 148 150 152 154 156 158 160 162 164 166 168 170 172 174 176 178 180 182 184 186 188 190 192 194 196 198 200 202 204 206 208 210 212 214 216 218 220 222 224 226 228 230 232 234 236 238 240 242 244 246 248 250 252 254 
        </DataArray>
        <DataArray type="Int32" Name="types" format="ascii">
          3 3 3 3 3 3 3 3 3 3 3 3 3 3 3 3 3 3 3 3 3 3 3 3 3 3 3 3 3 3 3 3 3 3 3 3 3 3 3 3 3 3 3 3 3 3 3 3 3 3 3 3 3 3 3 3 3 3 3 3 3 3 3 3 3 3 3 3 3 3 3 3 3 3 3 3 3 3 3 3 3 3 3 3 3 3 3 3 3 3 3 3 3 3 3 3 3 3 3 3 3 3 3 3 3 3 3 3 3 3 3 3 3 3 3 3 3 3 3 3 3 3 3 3 3 3 3         </DataArray>
      </Cells>
    </Piece>
  </UnstructuredGrid>
</VTKFile>
