<?xml version="1.0"?>
<VTKFile type="UnstructuredGrid" version="0.1" byte_order="LittleEndian">
  <UnstructuredGrid>
    <Piece NumberOfPoints="128" NumberOfCells="127">
      <PointData Scalars="W">
        <DataArray type="Float32" Name="W" NumberOfComponents="2">
          0 0 -0.66440773153668697 -0.22568116019512638 -1.0334757460127901 -0.35921675905493994 -1.2931152768456289 -0.46359864956186125 -1.4911189586257567 -0.55431796819063262 -1.6472377421666369 -0.63726886092288826 -1.7717750624539153 -0.71511628982644793 -1.8709821407543341 -0.7891485883696816 -1.949020744768893 -0.85995255383638625 -2.0089382315143549 -0.92776013501553334 -2.0530140037388755 -0.99256265461999571 -2.0830602477183744 -1.0542199720456591 -2.1005858545941982 -1.1125225863543664 -2.1069287177141485 -1.1672504339559469 -2.1032791269111271 -1.2181821578825782 -2.0906882073208739 -1.2650942127879319 -2.0700353242643121 -1.3077310793732517 -2.0422048145014173 -1.3459068089339337 -2.008000519808415 -1.3794545286385098 -1.9681375868123101 -1.4082146220318688 -1.9232959240359133 -1.4320666763973213 -1.8741355962559574 -1.4509413328216905 -1.8212582825784849 -1.4647907003483904 -1.7652123935968174 -1.4735873135815067 -1.7065520695671164 -1.477371117025519 -1.645722194035965 -1.4761501701223609 -1.5831824255070635 -1.4700015578240651 -1.5194112155670452 -1.4590821577199147 -1.4547971011983261 -1.4435266115547627 -1.3894502822010433 -1.4232377303972816 -1.3239400069917528 -1.3986271647825417 -1.2585480776417366 -1.3698823483169402 -1.1935384654660983 -1.3372204830245518 -1.129122476945686 -1.300846870638442 -1.0654995346199501 -1.2609959208542083 -1.0028357639260901 -1.2179043230230113 -0.94133776066471708 -1.1718991763332005 -0.8810888184439164 -1.123194787445537 -0.82214197575525405 -1.0719937446004777 -0.76462677405801305 -1.0186259079871787 -0.70863240400744887 -0.96340045506248972 -0.65421212701652376 -0.9066041691334753 5.2530635585538903 6.8437428829323332 5.7574784506785504 6.526223182286043 6.2491766968570941 6.1702631651739202 6.7260005981888931 5.7758932876810363 7.1853733726795284 5.3427995819874567 7.6143424505810007 4.8647027595260797 8.0292747760366439 4.3548127632691838 8.4059366539761466 3.8008990378516003 8.7366975635704129 3.2056617113760257 -9.4862659293481926 -3.5151187571355638 -9.0518327594689634 -4.1953787965876774 -8.5698560377060566 -4.816544224354856 -1.6001723483515939 -0.99919603503420373 -1.4746383705833259 -0.95046600503901901 -1.1295754820020618 -0.74779204493537998 -0.86877509788879992 -0.58703990397127459 -0.75744761432320928 -0.52040867484472597 -0.4144777370200578 -0.28820366950937532 -0.30876562236739452 -0.2162921489683346 0.036446369036860451 0.025602092693462909 0.38884216867777149 0.27196052228447204 0.49108651294966299 0.34039307637066962 1.1202449501257719 0.76379976700158214 1.2314918066543277 0.81966001694233459 1.343067827812364 0.8706051699120736 1.4508379560999964 0.91378957353775836 1.5626966622970735 0.95403312477768087 1.9667280105229565 1.1573956130778988 2.0844178088888441 1.1755406395908241 2.2019132718309864 1.1864652713651613 2.3188327411247345 1.1899253308510567 2.4306517519377673 1.1837730979344905 2.5457392268939727 1.1722372485517263 2.6593984815040859 1.152940753871091 2.7712635509391128 1.1258331888651285 2.8809479648481493 1.090901591276159 2.9880531835612496 1.0481738972213812 3.4258904104354762 1.1001997937566881 3.5321610513273249 1.0236836200657145 3.6291520339561156 0.93769487712699451 3.7260870024595647 0.84514226212416699 3.8176264503274036 0.74483109755934473 3.9033114958737252 0.63709701295377608 3.9826958613736352 0.52231651782796595 4.0552418854471775 0.40089704815797361 4.1207796581167075 0.27331956102637833 4.1788269726125078 0.14005702910915185 3.8799178575331732 0.0068309801395625303 3.922382746881361 -0.11366167481364925 3.9574767323777702 -0.23786698423073541 3.9851832421802942 -0.36528019722995209 3.9999666952998143 -0.49463104999104396 4.0120155784810025 -0.62646240548599175 4.0161489950453051 -0.75982260715534033 4.0121418434962957 -0.89409576778694699 3.9999087159080511 -1.0286583043993367 3.9792984088739987 -1.1628378423183388 3.9504926323630927 -1.2960304904903783 3.913405802567016 -1.4275366282525535 3.8630688311154455 -1.5545487546857035 3.809736471912069 -1.6802592864017121 3.7482928573488854 -1.8021182002872782 3.6790575198418503 -1.9194611509633364 3.5972479367428973 -2.02863318009264 3.5129596650595833 -2.1342108342154655 3.4213758703732124 -2.2328397040793484 3.3180048162056264 -2.3202264092876583 3.4889216308533157 -2.6159374532246287 3.3631317195200934 -2.7059522323359344 3.2259224376794875 -2.7801033816379253 3.3482615298244931 -3.0944980336092929 3.1821044654276758 -3.1582876900083416 3.2652780940397652 -3.486196764337226 3.0690538544465245 -3.531482831402867 3.1093259276591261 -3.8647891514843091 3.1254541830484639 -4.221764565312486 2.8760387515046948 -4.2362776608683159 2.2336849671698511 -3.5651584316473079 1.9915409123452597 -3.4181320119814265 1.9030028956672751 -3.5147474467978852 1.8103652460483992 -3.6121594792338541 1.6605979400055872 -3.5913442001956044 1.4192484148937217 -3.3262728578303724 1.1920738830258926 -3.0170989369260508 1.8630325385307542 -5.2398427467306359 0 0
        </DataArray>
        <DataArray type="Float32" Name="u" NumberOfComponents="1">
          0 0.007874015748031496 0.015748031496062992 0.023622047244094488 0.031496062992125984 0.03937007874015748 0.047244094488188976 0.055118110236220472 0.062992125984251968 0.070866141732283464 0.07874015748031496 0.086614173228346455 0.094488188976377951 0.10236220472440945 0.11023622047244094 0.11811023622047244 0.12598425196850394 0.13385826771653545 0.14173228346456693 0.14960629921259844 0.15748031496062992 0.16535433070866143 0.17322834645669291 0.18110236220472442 0.1889763779527559 0.19685039370078741 0.20472440944881889 0.2125984251968504 0.22047244094488189 0.2283464566929134 0.23622047244094488 0.24409448818897639 0.25196850393700787 0.25984251968503935 0.26771653543307089 0.27559055118110237 0.28346456692913385 0.29133858267716534 0.29921259842519687 0.30708661417322836 0.31496062992125984 0.32283464566929132 0.33070866141732286 0.33858267716535434 0.34645669291338582 0.3543307086614173 0.36220472440944884 0.37007874015748032 0.37795275590551181 0.38582677165354329 0.39370078740157483 0.40157480314960631 0.40944881889763779 0.41732283464566927 0.42519685039370081 0.43307086614173229 0.44094488188976377 0.44881889763779526 0.45669291338582679 0.46456692913385828 0.47244094488188976 0.48031496062992124 0.48818897637795278 0.49606299212598426 0.50393700787401574 0.51181102362204722 0.51968503937007871 0.52755905511811019 0.53543307086614178 0.54330708661417326 0.55118110236220474 0.55905511811023623 0.56692913385826771 0.57480314960629919 0.58267716535433067 0.59055118110236215 0.59842519685039375 0.60629921259842523 0.61417322834645671 0.62204724409448819 0.62992125984251968 0.63779527559055116 0.64566929133858264 0.65354330708661412 0.66141732283464572 0.6692913385826772 0.67716535433070868 0.68503937007874016 0.69291338582677164 0.70078740157480313 0.70866141732283461 0.71653543307086609 0.72440944881889768 0.73228346456692917 0.74015748031496065 0.74803149606299213 0.75590551181102361 0.76377952755905509 0.77165354330708658 0.77952755905511806 0.78740157480314965 0.79527559055118113 0.80314960629921262 0.8110236220472441 0.81889763779527558 0.82677165354330706 0.83464566929133854 0.84251968503937003 0.85039370078740162 0.8582677165354331 0.86614173228346458 0.87401574803149606 0.88188976377952755 0.88976377952755903 0.89763779527559051 0.90551181102362199 0.91338582677165359 0.92125984251968507 0.92913385826771655 0.93700787401574803 0.94488188976377951 0.952755905511811 0.96062992125984248 0.96850393700787396 0.97637795275590555 0.98425196850393704 0.99212598425196852 1
        </DataArray>
      </PointData>
      <CellData Scalars="P">
        <DataArray type="Float32" Name="P" NumberOfComponents="1">
          -0.021134533064953314 -0.061399420994811653 -0.097985115699766714 -0.13053850719294019 -0.15925018444424907 -0.18461761102903976 -0.2073282395365447 -0.22818716871812181 -0.24806748287529742 -0.26787270461058194 -0.28850882269021266 -0.31086162451171578 -0.33577822669857565 -0.36405182779442519 -0.39640987438143821 -0.43350495136872985 -0.47590769479238548 -0.52410107440725739 -0.57847685664654336 -0.63933325913433103 -0.70687403675644966 -0.78120921302770774 -0.86235660256380198 -0.95024413955568543 -1.0447144729587918 -1.1455275491398531 -1.252366892892651 -1.3648478483137556 -1.4825225598239009 -1.6048741511194 -1.7313472645938166 -1.8613449001472759 -1.994237041372805 -2.1293671394768197 -2.2660611603070309 -2.403635183938627 -2.541409196899115 -2.6787069921166728 -2.8148623653984659 -2.9492357465300851 -3.0812201313025742 -3.2102463970568511 -2.6986355317704169 -2.1513033735301947 -1.5630784178857604 -0.92910397241734766 -0.2449388457813903 0.49228787844436817 1.2869381031156433 2.1404010930577049 3.0527832697431863 1.8618930927242519 0.61378412837741447 -0.66639204106697647 -0.93885916693428206 -1.1989514995703889 -1.4091094489534721 -1.5802378554315948 -1.7353610116657276 -1.8354167861481947 -1.9191523622661399 -1.9473388712224935 -1.9199774077010137 -1.8787202706217492 -1.7427039770738653 -1.5956503938178759 -1.4388056094157453 -1.2740438359515396 -1.1021219982204287 -0.88591327180148793 -0.66637033209134355 -0.44486813787932555 -0.22277501167748837 -0.0018942693334153804 0.21699024986918231 0.43262962861215093 0.64382444650899218 0.84943044856681382 1.0483640596596417 1.2656510210120266 1.4728075205485798 1.6687476114841828 1.8531677826649908 2.0255031655805724 2.1852880945840627 2.3321556456546841 2.4658315891205045 2.5861488624323874 2.6930285919489858 2.7745372414104081 2.8440497076846198 2.901541067545617 2.9470521076236107 2.9805667525321868 3.0023567152416604 3.0126164709044696 3.0115838725100339 2.9995391122556714 2.976800783946326 2.943724970094614 2.9006996271121603 2.8481487561258967 2.7865256003409011 2.7162978598100804 2.6379556479411943 2.5520635134080245 2.4591127299514608 2.3596520277180728 2.2543331385772816 2.1381596830588379 2.0167593709607954 1.8911316292183455 1.7550895550426167 1.6163907309473511 1.468359089624663 1.3200835363270307 1.1647393049114727 1.003578047164045 0.84758395107517881 0.71413100413110941 0.59038469807377891 0.47188348783352946 0.36004902407168721 0.25822338015742108 0.17028363028282298 0.096125457962419766 0.024189443461631016
        </DataArray>
      </CellData>
      <Points>
        <DataArray type="Float32" NumberOfComponents="3" format="ascii">
          4.3987252358882598 9.1995204826656884 0
          4.3962122472208174 9.2069864414464337 0
          4.3936580346842584 9.2144383769701825 0
          4.3910397006504436 9.2218679898353049 0
          4.3883411383436064 9.2292687916548104 0
          4.3855500663215681 9.2366351430874349 0
          4.3826568029095538 9.2439618878702969 0
          4.3796536268277571 9.2512441873858737 0
          4.3765343892372313 9.2584774407148309 0
          4.3732942554177381 9.2656572482470434 0
          4.3699295155786979 9.2727793973209529 0
          4.3664374433081683 9.2798398627939047 0
          4.3628161830015246 9.2868348157639407 0
          4.3590646561012711 9.2937606365858514 0
          4.3551824779421979 9.3006139285310372 0
          4.3511698837530677 9.3073915315148437 0
          4.3470276632936011 9.3140905359462494 0
          4.3427571061508043 9.3207082985471601 0
          4.3383599467326057 9.3272424538428478 0
          4.33383831426322 9.3336909244566861 0
          4.3291946882903849 9.3400519309434333 0
          4.3244318563898991 9.3463239991807452 0
          4.3195528731141 9.3525059645857809 0
          4.3145610225758713 9.3585969749938389 0
          4.3094597843512927 9.3645964922655711 0
          4.3042527990423425 9.3705042897108743 0
          4.2989438406309137 9.3763204514894749 0
          4.293536787931691 9.3820453677320135 0
          4.288035594895093 9.3876797247159711 0
          4.282444266500705 9.3932244964253986 0
          4.2767668519231359 9.3986809504917392 0
          4.271007409245855 9.4040506225899243 0
          4.2651699880111176 9.4093353047468664 0
          4.259258612885839 9.4145370318136727 0
          4.2532772706019522 9.4196580686858482 0
          4.2472298976413621 9.4247008957292771 0
          4.2411203699918234 9.4296681940757292 0
          4.234952490398852 9.4345628253237823 0
          4.2287299832663212 9.4393878182436861 0
          4.2224564914355351 9.4441463562191004 0
          4.216135568222688 9.4488417568079015 0
          4.2097706719585339 9.4534774525945817 0
          4.2033651627551567 9.4580569734395681 0
          4.1972852941761705 9.4630608791844395 0
          4.1915623390406003 9.468469509451964 0
          4.1862267866938563 9.4742608236363903 0
          4.1813082099909442 9.4804104022980731 0
          4.1768351062883724 9.4868914271026679 0
          4.1728340947969089 9.4936742910524963 0
          4.1693309327099151 9.5007274162667361 0
          4.1663490127046092 9.5080164952410211 0
          4.1639088903515447 9.5155046574655433 0
          4.1608802489566683 9.5227750395223776 0
          4.1572899640644136 9.5297854408121179 0
          4.1531678580869338 9.5364973166643239 0
          4.1489465187546513 9.5431471347313437 0
          4.1446337328319132 9.5497379263888558 0
          4.1402509132451248 9.5562822615538163 0
          4.1358142416696255 9.5627901134484219 0
          4.1313306211414007 9.5692656235411473 0
          4.1268213321482428 9.5757231925836113 0
          4.1222929281534446 9.582167288959976 0
          4.1177668271605681 9.5886129134854201 0
          4.1132648917766339 9.5950753432030229 0
          4.1087934584892638 9.6015588296543335 0
          4.1043915634322836 9.6080896187267957 0
          4.1000660995983811 9.6146711811697561 0
          4.0958239806290564 9.6213066825420821 0
          4.0916718842659083 9.6279988069388889 0
          4.0876167422539185 9.6347500556601577 0
          4.0836836147415676 9.641573035107287 0
          4.079879794576426 9.6484688755172652 0
          4.0762125629692676 9.6554382591897454 0
          4.0726891658336539 9.662481405382179 0
          4.0693165331179628 9.6695979372980219 0
          4.0661017980230625 9.6767871440453774 0
          4.0630520056308921 9.6840478334002604 0
          4.0601740902178491 9.6913783286950412 0
          4.0574748512966119 9.6987764680252084 0
          4.0549609289096882 9.7062396059870331 0
          4.0526594784953556 9.7137709615797601 0
          4.0505770882824796 9.7213657936568012 0
          4.0487197714952474 9.7290187737341398 0
          4.0470935384771582 9.7367241660163 0
          4.0457040654873841 9.7444757534538979 0
          4.0445566662365957 9.7522668585282037 0
          4.0436562642008322 9.7600903665657572 0
          4.0430073592631466 9.7679387509699005 0
          4.0426140171581944 9.7758041029949823 0
          4.0424798395407144 9.7836781610335386 0
          4.0425862907737464 9.7915526783370037 0
          4.0429360079566568 9.7994201848451716 0
          4.0435311714376283 9.8072729797948295 0
          4.0443735037317143 9.815103162949848 0
          4.0454639261613305 9.8229027135292224 0
          4.0468031906393183 9.8306634560706119 0
          4.0483915582672321 9.8383771195875678 0
          4.0502287852728749 9.8460353757199393 0
          4.0523141175998765 9.853629877366588 0
          4.0546462814069306 9.8611523003600432 0
          4.0572234942031349 9.8685943808943524 0
          4.0600434594004442 9.8759479589189976 0
          4.0631030580450611 9.8832051525164086 0
          4.0663989845731976 9.890358159465352 0
          4.0699274294203773 9.8973994156916643 0
          4.0736840986968961 9.9043216365394695 0
          4.0776639175336742 9.9111180438067503 0
          4.081861655940993 9.9177820815169433 0
          4.0862716300355677 9.9243076243536308 0
          4.0908874235027612 9.9306892443468815 0
          4.0957196224079446 9.9369085780390698 0
          4.1007604154194803 9.9429600355071734 0
          4.1060012817056935 9.9488390115565029 0
          4.1114497869639273 9.9545259880434163 0
          4.1170956113682244 9.9600170060751001 0
          4.1229438872010542 9.9652917153067477 0
          4.1289824279617235 9.970347309886586 0
          4.13521370330007 9.9751631131288718 0
          4.1416386851328895 9.9797169867636857 0
          4.1482418910354344 9.984008045662792 0
          4.1549834948254327 9.9880779366240624 0
          4.1618484734697816 9.9919357893541729 0
          4.168831325435864 9.9955756221773626 0
          4.1759263003003282 9.998991407512257 0
          4.1831241149021556 10.002184452735834 0
          4.1904098198865212 10.005171212691094 0
          4.1977693544471864 10.007970875899003 0
          4.2052443537403796 10.010445650553722 0
        </DataArray>
      </Points>
      <Cells>
        <DataArray type="Int32" Name="connectivity" format="ascii">
          0 1 1 2 2 3 3 4 4 5 5 6 6 7 7 8 8 9 9 10 10 11 11 12 12 13 13 14 14 15 15 16 16 17 17 18 18 19 19 20 20 21 21 22 22 23 23 24 24 25 25 26 26 27 27 28 28 29 29 30 30 31 31 32 32 33 33 34 34 35 35 36 36 37 37 38 38 39 39 40 40 41 41 42 42 43 43 44 44 45 45 46 46 47 47 48 48 49 49 50 50 51 51 52 52 53 53 54 54 55 55 56 56 57 57 58 58 59 59 60 60 61 61 62 62 63 63 64 64 65 65 66 66 67 67 68 68 69 69 70 70 71 71 72 72 73 73 74 74 75 75 76 76 77 77 78 78 79 79 80 80 81 81 82 82 83 83 84 84 85 85 86 86 87 87 88 88 89 89 90 90 91 91 92 92 93 93 94 94 95 95 96 96 97 97 98 98 99 99 100 100 101 101 102 102 103 103 104 104 105 105 106 106 107 107 108 108 109 109 110 110 111 111 112 112 113 113 114 114 115 115 116 116 117 117 118 118 119 119 120 120 121 121 122 122 123 123 124 124 125 125 126 126 127 
        </DataArray>
        <DataArray type="Int32" Name="offsets" format="ascii">
          2 4 6 8 10 12 14 16 18 20 22 24 26 28 30 32 34 36 38 40 42 44 46 48 50 52 54 56 58 60 62 64 66 68 70 72 74 76 78 80 82 84 86 88 90 92 94 96 98 100 102 104 106 108 110 112 114 116 118 120 122 124 126 128 130 132 134 136 138 140 142 144 146 148 150 152 154 156 158 160 162 164 166 168 170 172 174 176 178 180 182 184 186 188 190 192 194 196 198 200 202 204 206 208 210 212 214 216 218 220 222 224 226 228 230 232 234 236 238 240 242 244 246 248 250 252 254 
        </DataArray>
        <DataArray type="Int32" Name="types" format="ascii">
          3 3 3 3 3 3 3 3 3 3 3 3 3 3 3 3 3 3 3 3 3 3 3 3 3 3 3 3 3 3 3 3 3 3 3 3 3 3 3 3 3 3 3 3 3 3 3 3 3 3 3 3 3 3 3 3 3 3 3 3 3 3 3 3 3 3 3 3 3 3 3 3 3 3 3 3 3 3 3 3 3 3 3 3 3 3 3 3 3 3 3 3 3 3 3 3 3 3 3 3 3 3 3 3 3 3 3 3 3 3 3 3 3 3 3 3 3 3 3 3 3 3 3 3 3 3 3         </DataArray>
      </Cells>
    </Piece>
  </UnstructuredGrid>
</VTKFile>
