<?xml version="1.0"?>
<VTKFile type="UnstructuredGrid" version="0.1" byte_order="LittleEndian">
  <UnstructuredGrid>
    <Piece NumberOfPoints="128" NumberOfCells="127">
      <PointData Scalars="W">
        <DataArray type="Float32" Name="W" NumberOfComponents="2">
          0 0 -0.008192951759935823 -0.73730742264525029 -0.020538103281903204 -1.1156000911339978 -0.039786987390534795 -1.4039826833677391 -0.066291307314583228 -1.6426649993246349 -0.10007180724740102 -1.848145665939168 -0.14104217795652405 -2.0293097145286842 -0.18908132134338945 -2.1916246931779919 -0.24406127110650441 -2.338710651271017 -0.30584465699200347 -2.4729710447163851 -0.37430264921693668 -2.5961586201082261 -0.44931196649458915 -2.7095392814835422 -0.53075220274639068 -2.8140230455921711 -0.61849085566286499 -2.9102021453274505 -0.71237676888228063 -2.9984339570140794 -0.81224858945488854 -3.0789516014292393 -0.91795324793565303 -3.1519561008845591 -1.0293091855046479 -3.2174966176249136 -1.1461158995745648 -3.2755498717221658 -1.2681766181425496 -3.3260981305284267 -1.3952686453250274 -3.369048067557904 -1.5271412741361337 -3.4042509668859666 -1.6635363454977152 -3.4315624314632482 -1.8041883923593389 -3.4508382988078128 -1.948783615178896 -3.4618618594769801 -2.0970419049791227 -3.4645026180959624 -2.2486382160698866 -3.4585661360696944 -2.4031843184434534 -3.4437924273092535 -2.5603080797328484 -3.4199862865544142 -2.719861873347015 -3.3872479983206372 -2.881258057454585 -3.3451113596346471 -3.0440970281822093 -3.2934135044322548 -3.2079554803615919 -3.2319866565988629 -3.3724144808184553 -3.1606885461860061 -3.5370287503248554 -3.0793699749092331 -3.7013571172126603 -2.9879044442126066 -3.864871251846254 -2.8861169305166401 -4.0271500541803489 -2.7739385797366212 -4.1877576874993139 -2.6512917920907504 -4.3461233315846588 -2.5180265423704191 -4.5016935901067727 -2.3740360448517706 -4.6539323762376776 -2.2192461908659422 4.1645486743512237 1.974884641744628 4.0179305449391416 2.0855383039916453 3.867658873215098 2.184222888207596 3.7222655539626968 2.2757728351915385 3.5752174998559534 2.3566664933800383 3.4204583464804856 2.4220895692909075 3.2733250534805549 2.4823583049117746 3.1271379408906417 2.5331924076144272 2.9826372610647827 2.5751398474675411 2.8404207281336471 2.6087429186413948 2.7010047125437566 2.6345677018600435 2.5648286366347222 2.653195499119597 2.4380271954500343 2.6717188581806064 2.308875364062819 2.6778890207251735 2.1892198903611355 2.6853266474028592 2.0731972487135297 2.6880812615526026 1.951649996724369 2.6735436916995989 1.8397603966432325 2.6616791841143872 1.7278901500084287 2.6394055451775285 1.6210469229206608 2.6139365504254877 1.523615287128667 2.5935178819778195 1.4264520550792334 2.5636013353129989 1.3340349019419746 2.5317945632837762 1.2505242427908103 2.5073166827139133 1.167103408489045 2.4736400061413608 1.0920699835725436 2.4485823757989063 1.0208754575824344 2.4239688572292946 0.95338239908598388 2.4002658243483812 0.88930534606508582 2.377581471145171 0.82849624388368526 2.3563651524698912 0.77077790352214137 2.3370350567971192 0.71585231333665955 2.3196587206271557 0.66352913209395803 2.3046238723485417 0.61357375897410138 2.2922109520082352 0.56573680033870888 2.2826683045328293 0.51978800578472095 2.2763587758933395 0.47540326122046939 2.2732695913573777 0.43233486127936949 2.273728978585658 0.39029657681484659 2.2779516752831426 0.34900449232547287 2.2862504724752375 0.30928917054459737 2.3080624126652531 0.2681150813092682 2.324643772696962 0.2266709412545336 2.3456074066563368 0.18459101000818653 2.3710491651943801 0.14149334720369125 2.4010596959874886 0.096979341116086859 2.4358121030827782 0.050713409647543471 2.4843210887841991 0.0016984900487401386 2.5281055491210718 -0.050063969615681506 2.5763450166042499 -0.10504535572290997 2.6288711695962754 -0.16372820013824652 2.6854673687332307 -0.2274361695842034 2.7547647902189523 -0.29539268926186735 2.8185424175348261 -0.27917834753580678 2.2318346611248017 -0.33057156137002575 2.3045594656638966 -0.38679084773699957 2.3796211818653465 -0.44817967521715485 2.4565033383661561 -0.51507028631649265 2.5346767343462782 -0.44255293690483277 1.9912265461057219 -0.49912895325348189 2.0832037252899598 -0.55897125481811694 2.167292830896157 -0.62422101848717382 2.2517540379386789 -0.69251858151954215 2.3275811199705996 -0.76897158161743517 2.4112576497181251 -0.85163782747475103 2.4940464275633438 -0.94082778923364319 2.5755987575279677 -1.0368945127378726 2.6556382860878802 -1.1402837924062326 2.7340389564644592 -1.5154527387381396 3.3809394695898121 -1.6662242912455809 3.4403633614436275 -1.8226138801543557 3.4875726204164166 -2.3286952758892352 4.1084703511544785 -2.5528164213070692 4.1324220431382779 -2.786280193079909 4.1420851907671334 -3.0355465876836591 4.1455593664996044 -3.3093893364859297 4.1500837428363173 -2.3416311776461458 2.7340083110669293 -2.428004645008806 2.6770543827703994 -2.5671413621584138 2.671528924521485 -2.661053862144144 2.6117444966498349 -2.7384946622275121 2.5341761949046147 -2.7056528847469283 2.3626420134571151 -2.5775380060283868 2.1295250572796767 -1.954704211212944 1.5407807703416811 -1.5425279133135468 1.1728597566893635 0 0
        </DataArray>
        <DataArray type="Float32" Name="u" NumberOfComponents="1">
          0 0.007874015748031496 0.015748031496062992 0.023622047244094488 0.031496062992125984 0.03937007874015748 0.047244094488188976 0.055118110236220472 0.062992125984251968 0.070866141732283464 0.07874015748031496 0.086614173228346455 0.094488188976377951 0.10236220472440945 0.11023622047244094 0.11811023622047244 0.12598425196850394 0.13385826771653545 0.14173228346456693 0.14960629921259844 0.15748031496062992 0.16535433070866143 0.17322834645669291 0.18110236220472442 0.1889763779527559 0.19685039370078741 0.20472440944881889 0.2125984251968504 0.22047244094488189 0.2283464566929134 0.23622047244094488 0.24409448818897639 0.25196850393700787 0.25984251968503935 0.26771653543307089 0.27559055118110237 0.28346456692913385 0.29133858267716534 0.29921259842519687 0.30708661417322836 0.31496062992125984 0.32283464566929132 0.33070866141732286 0.33858267716535434 0.34645669291338582 0.3543307086614173 0.36220472440944884 0.37007874015748032 0.37795275590551181 0.38582677165354329 0.39370078740157483 0.40157480314960631 0.40944881889763779 0.41732283464566927 0.42519685039370081 0.43307086614173229 0.44094488188976377 0.44881889763779526 0.45669291338582679 0.46456692913385828 0.47244094488188976 0.48031496062992124 0.48818897637795278 0.49606299212598426 0.50393700787401574 0.51181102362204722 0.51968503937007871 0.52755905511811019 0.53543307086614178 0.54330708661417326 0.55118110236220474 0.55905511811023623 0.56692913385826771 0.57480314960629919 0.58267716535433067 0.59055118110236215 0.59842519685039375 0.60629921259842523 0.61417322834645671 0.62204724409448819 0.62992125984251968 0.63779527559055116 0.64566929133858264 0.65354330708661412 0.66141732283464572 0.6692913385826772 0.67716535433070868 0.68503937007874016 0.69291338582677164 0.70078740157480313 0.70866141732283461 0.71653543307086609 0.72440944881889768 0.73228346456692917 0.74015748031496065 0.74803149606299213 0.75590551181102361 0.76377952755905509 0.77165354330708658 0.77952755905511806 0.78740157480314965 0.79527559055118113 0.80314960629921262 0.8110236220472441 0.81889763779527558 0.82677165354330706 0.83464566929133854 0.84251968503937003 0.85039370078740162 0.8582677165354331 0.86614173228346458 0.87401574803149606 0.88188976377952755 0.88976377952755903 0.89763779527559051 0.90551181102362199 0.91338582677165359 0.92125984251968507 0.92913385826771655 0.93700787401574803 0.94488188976377951 0.952755905511811 0.96062992125984248 0.96850393700787396 0.97637795275590555 0.98425196850393704 0.99212598425196852 1
        </DataArray>
      </PointData>
      <CellData Scalars="P">
        <DataArray type="Float32" Name="P" NumberOfComponents="1">
          -0.013009399282103047 -0.037153379990796161 -0.0576709881083921 -0.073607627349908916 -0.084331346175438998 -0.089399069790262006 -0.088489929998952055 -0.081365971422158623 -0.067847115950970871 -0.047796215249571124 -0.021106506391115189 0.012306921886123739 0.052513314160329963 0.099569577595462463 0.15352263857357976 0.21441259084291919 0.28227726246124402 0.35715262428387967 0.43907441933624952 0.52808173798126545 0.624217660602149 0.72752994478498534 0.83807347078530703 0.95591246552886433 1.0811195216499307 1.2137808897457798 1.3539954989831662 1.5018730312546755 1.6575376895649878 1.8211452281991316 1.9928544708467408 2.1728427491132272 2.3613058365996253 2.5584594808453116 2.7645386445862807 2.9797984195502196 3.2045089044830428 3.4389619509807527 3.6834695704994385 3.9383546089384511 4.2039506195336553 4.4806010646251035 4.1882491009530849 3.8839000303660325 3.570219397590408 3.2490975788056149 2.9228309861455144 2.5942334251526522 2.2646292055445625 1.9358367693165566 1.6095087179150021 1.2871393238988997 0.97006845401053587 0.65948689159821217 0.35573485725292769 0.060455944968002863 -0.22624530845784463 -0.50365298545093873 -0.76991365085718655 -1.0252114875537977 -1.2685528502534547 -1.4996816581336059 -1.7190379702433278 -1.9259021022713416 -2.1202292155336639 -2.3026247485391869 -2.4725625866182819 -2.6306992474872608 -2.7771386886678382 -2.9120155508493339 -3.0354719615508534 -3.1476714446901721 -3.2487912702545367 -3.3390051666392169 -3.4184930252617582 -3.4874332218132635 -3.5459990004501001 -3.5943578957148525 -3.632663872628596 -3.6610623399310405 -3.6796871572495045 -3.6886598978602776 -3.6880140502935244 -3.677880106499924 -3.658353041942541 -3.62952561473459 -3.5914933425048767 -3.5443579421769003 -3.4879436338166085 -3.422669791012209 -3.3487360993356785 -3.2664023724290678 -3.1760065892171161 -3.0775591594021567 -2.9720252410662282 -2.8601369933371554 -2.7426770208063855 -2.6203729428714797 -2.4939064882254107 -2.3639238919824308 -2.2644085622569872 -2.1619869534429306 -2.0576193739070399 -1.9518063255175693 -1.8454707935726831 -1.7386656632819049 -1.6318361727617887 -1.5253820411471195 -1.419640111256067 -1.3148624292377045 -1.1874080154319342 -1.061914330762135 -0.93842797964770752 -0.81612466259668093 -0.69450726967938148 -0.57357252146599791 -0.45322735957064508 -0.33333587783855623 -0.2656099383033616 -0.20193514528457088 -0.14140546220420164 -0.086901845065983599 -0.040200483731211913 -0.0050683508214649439 0.016363204558058689 0.018640984020114281 0.0088724071673632054
        </DataArray>
      </CellData>
      <Points>
        <DataArray type="Float32" NumberOfComponents="3" format="ascii">
          4.6387405490875935 10.232270766113116 0
          4.6466147833557709 10.232206129922007 0
          4.6544885123933231 10.232095774914308 0
          4.6623609717210694 10.231916243909872 0
          4.6702309681551295 10.231649654795676 0
          4.6780968582741602 10.231281207224329 0
          4.6859565472428457 10.230798159589675 0
          4.6938074942203034 10.230189278103703 0
          4.7016467199031258 10.229444497783113 0
          4.7094708144834279 10.228554697994394 0
          4.7172759461845253 10.227511553436456 0
          4.7250578692643224 10.226307425471591 0
          4.7328119316735675 10.224935283643701 0
          4.7405330825356939 10.223388649263468 0
          4.7482158803772849 10.221661558697646 0
          4.7558545025161765 10.219748541220117 0
          4.7634427550830711 10.21764460456631 0
          4.7709740825308575 10.215345222476248 0
          4.7784415789119166 10.212846331652109 0
          4.78583800033143 10.210144333205456 0
          4.7931557771705764 10.207236093757841 0
          4.8003870279181653 10.204118951225908 0
          4.8075235747398537 10.200790724037864 0
          4.8145569595096758 10.197249720078691 0
          4.8214784602945251 10.193494745617233 0
          4.8282791108348349 10.189525118727987 0
          4.8349497179348511 10.185340677363323 0
          4.8414808816373407 10.180941791386985 0
          4.8478630193134649 10.176329378668537 0
          4.8540863887511563 10.171504917157828 0
          4.8601410973189356 10.166470438634805 0
          4.8660171384087523 10.161228557582881 0
          4.8717044162142207 10.155782481252215 0
          4.8771927719729975 10.150136020027016 0
          4.8824720099323482 10.144293596211826 0
          4.8875319249424543 10.138260253248951 0
          4.8923623297893108 10.132041663530996 0
          4.8969530879263043 10.125644139225811 0
          4.9012941395522578 10.11907463652318 0
          4.9053755285991212 10.112340760429415 0
          4.9091874380859108 10.1054507740588 0
          4.9127202243902444 10.09841360525076 0
          4.9159644504458964 10.091238851167807 0
          4.9194668800734513 10.0841865579127 0
          4.9232184218707209 10.077263584232481 0
          4.9272097581559908 10.070476046831583 0
          4.9314318739696139 10.063829620084064 0
          4.9358756519365423 10.057329317793998 0
          4.9405314966930414 10.050979194772726 0
          4.9453902858479175 10.04478298634397 0
          4.950442955765026 10.038743843029154 0
          4.9556805474356977 10.032864364517733 0
          4.9610942435167518 10.027146633282564 0
          4.9666754003285192 10.021592249667648 0
          4.972415575085253 10.01620236791808 0
          4.9783069062661447 10.010978135884461 0
          4.9843413865900237 10.005919935638593 0
          4.9905115975691317 10.001028227896434 0
          4.996810345934338 9.9963031831020928 0
          5.0032300958286724 9.9917438996721657 0
          5.0097639101795481 9.9873496417839416 0
          5.0164048530801786 9.983119028297974 0
          5.0231463002899002 9.9790504799902457 0
          5.0299822110971135 9.975142730770937 0
          5.0369065614099258 9.9713939257075701 0
          5.0439136213977891 9.96780209268357 0
          5.050998213457925 9.9643657139743897 0
          5.0581551655679657 9.9610827015356911 0
          5.0653798257741505 9.9579515016967335 0
          5.072667780191435 9.9549705883144313 0
          5.0800148445104849 9.9521384916834066 0
          5.0874170463353767 9.9494538052391785 0
          5.0948706160514075 9.9469152134140106 0
          5.1023719758995343 9.94452151756178 0
          5.1099177215764007 9.9422716401442059 0
          5.1175046105288944 9.9401646487723188 0
          5.1251295475274885 9.9381997736007417 0
          5.1327895693491969 9.9363764227388049 0
          5.1404818306773841 9.9346942047704143 0
          5.1482035842191038 9.9331529279975612 0
          5.1559521655972116 9.9317526208436835 0
          5.1637249758974768 9.9304935452428413 0
          5.1715194644040219 9.9293762161374346 0
          5.1793331803454787 9.9284019867603952 0
          5.1871635853664317 9.9275718866293516 0
          5.1950081276117528 9.9268872178231256 0
          5.202864219582449 9.9263495612344919 0
          5.210729215023699 9.9259607825812743 0
          5.2186003848000952 9.9257230436258297 0
          5.2264748963936976 9.9256393618096546 0
          5.2343497531873204 9.9257124649105375 0
          5.2422217948388621 9.9259453611308111 0
          5.250087668471358 9.926341329652649 0
          5.2579437990073501 9.9269039083388755 0
          5.2657863065888382 9.9276374304443138 0
          5.2736110553403392 9.9285458957251027 0
          5.2814179600358742 9.929592776321579 0
          5.2892039082126532 9.9307825679132247 0
          5.2969654787089455 9.9321199134457085 0
          5.3046989212436086 9.9336095706711536 0
          5.3124001368348415 9.9352563789857431 0
          5.3200736862954248 9.937026632259391 0
          5.3277160921084752 9.9389260312158143 0
          5.3353236707614915 9.9409597877124245 0
          5.3428924002967157 9.9431331369870897 0
          5.35041806738095 9.9454507792928872 0
          5.3578959506333375 9.9479179019471413 0
          5.3653209417156242 9.9505396376549946 0
          5.3726875264602993 9.953321042976091 0
          5.3799897633480658 9.9562670813154774 0
          5.387221256254473 9.9593826152929115 0
          5.3943587554569472 9.962707754565141 0
          5.401392931372925 9.9662461892152034 0
          5.4083141072691374 9.9700008551957371 0
          5.4150909181213054 9.9740102560819555 0
          5.421709537173423 9.9782759254735875 0
          5.4281555415559692 9.9827985153495966 0
          5.4344135107097369 9.9875782956575279 0
          5.4404664817204065 9.9926156004397271 0
          5.4463745247184958 9.9978227059303109 0
          5.4521322962518006 10.003196137841019 0
          5.4577311640358532 10.008735604282073 0
          5.4631652904977983 10.014437443691802 0
          5.4684298504832709 10.02029688539684 0
          5.4735268598328295 10.026303327847298 0
          5.4784642479503312 10.032442346896691 0
          5.4832806786299804 10.038677473267162 0
          5.48800173872168 10.044985922691131 0
        </DataArray>
      </Points>
      <Cells>
        <DataArray type="Int32" Name="connectivity" format="ascii">
          0 1 1 2 2 3 3 4 4 5 5 6 6 7 7 8 8 9 9 10 10 11 11 12 12 13 13 14 14 15 15 16 16 17 17 18 18 19 19 20 20 21 21 22 22 23 23 24 24 25 25 26 26 27 27 28 28 29 29 30 30 31 31 32 32 33 33 34 34 35 35 36 36 37 37 38 38 39 39 40 40 41 41 42 42 43 43 44 44 45 45 46 46 47 47 48 48 49 49 50 50 51 51 52 52 53 53 54 54 55 55 56 56 57 57 58 58 59 59 60 60 61 61 62 62 63 63 64 64 65 65 66 66 67 67 68 68 69 69 70 70 71 71 72 72 73 73 74 74 75 75 76 76 77 77 78 78 79 79 80 80 81 81 82 82 83 83 84 84 85 85 86 86 87 87 88 88 89 89 90 90 91 91 92 92 93 93 94 94 95 95 96 96 97 97 98 98 99 99 100 100 101 101 102 102 103 103 104 104 105 105 106 106 107 107 108 108 109 109 110 110 111 111 112 112 113 113 114 114 115 115 116 116 117 117 118 118 119 119 120 120 121 121 122 122 123 123 124 124 125 125 126 126 127 
        </DataArray>
        <DataArray type="Int32" Name="offsets" format="ascii">
          2 4 6 8 10 12 14 16 18 20 22 24 26 28 30 32 34 36 38 40 42 44 46 48 50 52 54 56 58 60 62 64 66 68 70 72 74 76 78 80 82 84 86 88 90 92 94 96 98 100 102 104 106 108 110 112 114 116 118 120 122 124 126 128 130 132 134 136 138 140 142 144 146 148 150 152 154 156 158 160 162 164 166 168 170 172 174 176 178 180 182 184 186 188 190 192 194 196 198 200 202 204 206 208 210 212 214 216 218 220 222 224 226 228 230 232 234 236 238 240 242 244 246 248 250 252 254 
        </DataArray>
        <DataArray type="Int32" Name="types" format="ascii">
          3 3 3 3 3 3 3 3 3 3 3 3 3 3 3 3 3 3 3 3 3 3 3 3 3 3 3 3 3 3 3 3 3 3 3 3 3 3 3 3 3 3 3 3 3 3 3 3 3 3 3 3 3 3 3 3 3 3 3 3 3 3 3 3 3 3 3 3 3 3 3 3 3 3 3 3 3 3 3 3 3 3 3 3 3 3 3 3 3 3 3 3 3 3 3 3 3 3 3 3 3 3 3 3 3 3 3 3 3 3 3 3 3 3 3 3 3 3 3 3 3 3 3 3 3 3 3         </DataArray>
      </Cells>
    </Piece>
  </UnstructuredGrid>
</VTKFile>
