<?xml version="1.0"?>
<VTKFile type="UnstructuredGrid" version="0.1" byte_order="LittleEndian">
  <UnstructuredGrid>
    <Piece NumberOfPoints="128" NumberOfCells="127">
      <PointData Scalars="W">
        <DataArray type="Float32" Name="W" NumberOfComponents="2">
          0 0 -0.41057852859904914 0.19953077960505239 -0.69901245860559247 0.33552140432909877 -0.92518822863616446 0.43605257095984512 -1.1197650233202814 0.51565649309624317 -1.2951664023242155 0.58011706774661354 -1.4576100559459351 0.63226040802672601 -1.6106574758387813 0.67366295408554688 -1.7565018375680856 0.70527183033118523 -1.8966613336762865 0.72772764892146224 -2.0321283330421367 0.74144314815702006 -2.1635890268944151 0.74670502576418352 -2.2915394199967478 0.7437248908206926 -2.4163559203018177 0.7326671492910708 -2.5383282347690006 0.71366041995494667 -2.6576464083109133 0.68679535072146813 -2.7743232223687135 0.6521122893383422 -2.8884049597728803 0.60966149428800431 -2.9998652704668336 0.55947414568117315 -3.1085781370567074 0.5015638942349615 -3.2144088006820812 0.4359488814471133 -3.3172089884843827 0.36264896465456414 -3.4167621356613687 0.28168057577259492 -3.5127979368693385 0.19306526446673422 -3.6050699311469945 0.096837005028721279 -3.6932053370997102 -0.0069618490037295149 -3.7768613311234804 -0.11826784218172909 -3.8557587630376884 -0.23700581312817487 -3.9295200473218164 -0.36308495955392006 -3.9973729245401448 -0.49634069808029729 -4.0592281831572272 -0.63664434633131506 -4.114626340975942 -0.78381965988599733 -4.1631105904103185 -0.9376603628057848 -4.2041777979226698 -1.0979165158154467 -4.2373479500798998 -1.2643052044081062 -4.2621146853223841 -1.4364960815921108 -4.278068742838256 -1.6141515427648507 -4.2846447375759791 -1.7968360960464507 -4.2812828934905358 -1.9840505353380238 -4.2675974805228476 -2.1753149795987334 -4.2431548942735962 -2.3700808932558726 -4.2075246581935106 -2.5677420184475346 4.0099003363256287 2.4521009696143028 4.0322128076506232 2.2667023666227712 4.0523893204993948 2.0889495466751131 4.0541139150708068 1.9103980691827884 4.0534044626089694 1.7393784054863757 4.0369999329482109 1.5701251698846717 4.0198879967282792 1.4088998911660211 3.9958043307864961 1.2529042478768653 3.9653214220229747 1.1023615325796199 3.9288763024012634 0.95741414385340651 3.8874978844856281 0.81829401187875073 3.841490004232059 0.68499600293425211 3.775148462646599 0.55540630476759456 3.704103147940395 0.4329929237841843 3.6386751791975094 0.31847870918545507 3.5606872202737896 0.20989358935346375 3.4901408680400845 0.10853710766212128 3.4069466836141129 0.013377764296225206 3.3331554879199929 -0.075387440649516926 3.2464032034347179 -0.15769321545992029 3.1709529964271477 -0.23460700925487971 3.0818566340272273 -0.30474471171740958 2.9920035647299215 -0.36874402302023557 2.9306359229947776 -0.43140728718674082 2.8558434372736095 -0.48794851399096245 2.7968367290110692 -0.54325304410184505 2.7394097774724724 -0.59564806668144155 2.6684174375987686 -0.64155329223333657 2.6141829015008806 -0.6881406738008673 2.5619330466708257 -0.73261417964762598 2.4962333170549686 -0.77027264230085857 2.448041486614045 -0.81055402830300716 2.401708362711795 -0.8493681698719735 2.3421345682889161 -0.88106712703232759 2.3004663606682967 -0.91725793699367786 2.2607766354179932 -0.95269221780451685 2.2232724076030994 -0.98766954457053457 2.1728226716974222 -1.0151690295782185 2.1399892272811076 -1.049351658349694 2.1093460037965701 -1.0837677297536683 2.081066636774819 -1.1187461588254248 2.039463092332265 -1.1455401636162799 2.015531642362332 -1.1814196834227144 1.9936630414517313 -1.218423375617169 1.9587297586434356 -1.2469817083639003 1.9411503286846485 -1.2863326898608236 1.9254376293162838 -1.3274725067239543 1.9116975366819191 -1.3707674181393108 1.8994335648926344 -1.4161660749140197 1.8739816087588592 -1.452378267432251 1.8653718063298961 -1.5025681333664471 1.8578930901234154 -1.5555669883924894 1.8515913075206623 -1.6117756820424627 1.8321890800861054 -1.6584283458844371 1.8282332719290983 -1.7212816661171562 1.8249127774424361 -1.7881424313710683 1.8082557757919497 -1.8449852500166304 1.8061047843792406 -1.9201778414786925 1.8040431960095498 -2.0004867724286886 1.8013862192761985 -2.0858354417347007 1.7848964457934366 -2.1605695315627038 1.7812505957511189 -2.2570672454251222 1.7758905480557703 -2.3596630861317092 1.7563628166863328 -2.4515703134475539 1.7472857695654405 -2.5674075025508838 1.7234502039324802 -2.6722324824007706 1.7084679457931382 -2.8030951408927387 1.6891729485352354 -2.9427852043674356 1.653908895752995 -3.0711704319119106 1.6136052977583568 -3.207347268970314 1.5778022246865229 -3.3749306465142173 1.5241452919316751 -3.5308179015841179 1.4714748909187023 -3.7206616978480569 1.3992315043373895 -3.8991072578447925 1.3159656099970964 -4.0896135137280467 1.2466862130257006 -4.3947151005660334 1.1364409956956993 -4.6525301167849626 -0.38077023140986488 1.6457505494341755 -0.48927985128296014 1.9817388299007079 -0.68187141235300075 2.5579196506764905 -0.9146411549173441 3.1358273838704025 -1.2054566384100618 3.7358737347858506 -1.9060555235636074 5.2296845983512519 -2.814452893251453 6.6586076512906649 -1.8665428794990924 3.9094623254342138 0 0
        </DataArray>
        <DataArray type="Float32" Name="u" NumberOfComponents="1">
          0 0.007874015748031496 0.015748031496062992 0.023622047244094488 0.031496062992125984 0.03937007874015748 0.047244094488188976 0.055118110236220472 0.062992125984251968 0.070866141732283464 0.07874015748031496 0.086614173228346455 0.094488188976377951 0.10236220472440945 0.11023622047244094 0.11811023622047244 0.12598425196850394 0.13385826771653545 0.14173228346456693 0.14960629921259844 0.15748031496062992 0.16535433070866143 0.17322834645669291 0.18110236220472442 0.1889763779527559 0.19685039370078741 0.20472440944881889 0.2125984251968504 0.22047244094488189 0.2283464566929134 0.23622047244094488 0.24409448818897639 0.25196850393700787 0.25984251968503935 0.26771653543307089 0.27559055118110237 0.28346456692913385 0.29133858267716534 0.29921259842519687 0.30708661417322836 0.31496062992125984 0.32283464566929132 0.33070866141732286 0.33858267716535434 0.34645669291338582 0.3543307086614173 0.36220472440944884 0.37007874015748032 0.37795275590551181 0.38582677165354329 0.39370078740157483 0.40157480314960631 0.40944881889763779 0.41732283464566927 0.42519685039370081 0.43307086614173229 0.44094488188976377 0.44881889763779526 0.45669291338582679 0.46456692913385828 0.47244094488188976 0.48031496062992124 0.48818897637795278 0.49606299212598426 0.50393700787401574 0.51181102362204722 0.51968503937007871 0.52755905511811019 0.53543307086614178 0.54330708661417326 0.55118110236220474 0.55905511811023623 0.56692913385826771 0.57480314960629919 0.58267716535433067 0.59055118110236215 0.59842519685039375 0.60629921259842523 0.61417322834645671 0.62204724409448819 0.62992125984251968 0.63779527559055116 0.64566929133858264 0.65354330708661412 0.66141732283464572 0.6692913385826772 0.67716535433070868 0.68503937007874016 0.69291338582677164 0.70078740157480313 0.70866141732283461 0.71653543307086609 0.72440944881889768 0.73228346456692917 0.74015748031496065 0.74803149606299213 0.75590551181102361 0.76377952755905509 0.77165354330708658 0.77952755905511806 0.78740157480314965 0.79527559055118113 0.80314960629921262 0.8110236220472441 0.81889763779527558 0.82677165354330706 0.83464566929133854 0.84251968503937003 0.85039370078740162 0.8582677165354331 0.86614173228346458 0.87401574803149606 0.88188976377952755 0.88976377952755903 0.89763779527559051 0.90551181102362199 0.91338582677165359 0.92125984251968507 0.92913385826771655 0.93700787401574803 0.94488188976377951 0.952755905511811 0.96062992125984248 0.96850393700787396 0.97637795275590555 0.98425196850393704 0.99212598425196852 1
        </DataArray>
      </PointData>
      <CellData Scalars="P">
        <DataArray type="Float32" Name="P" NumberOfComponents="1">
          -0.0062909373238029418 -0.017853995760523819 -0.027022640673479075 -0.032939035404902242 -0.034941080091150642 -0.032476682773563033 -0.025068273544296974 -0.012293926046963371 0.0062235709483454511 0.030825566291676432 0.061821797855797805 0.099493945819063442 0.1440986930208005 0.19587054127125597 0.25502418970845403 0.3217555491227409 0.39623936549539202 0.47863219529069351 0.56907192409758789 0.66767573230036248 0.77454064849114868 0.88974383236455268 1.0133405998101386 1.1453625947976973 1.2858188714760685 1.4346906843039577 1.591932444484278 1.7574744048439097 1.9312181864463571 2.1130176290341778 2.3027101131033403 2.5000990125505949 2.704953188872766 2.9170039371974976 3.1359453821046777 3.3614322729713058 3.5930844978677858 3.830477642644472 4.0731420050282798 4.3205715597470151 4.5722203424772339 4.8275015744855558 4.5643860117046309 4.2938927578156409 4.0171887361161005 3.7365151415454423 3.4529617526265737 3.1685010328090364 2.8839931087207553 2.6006888083756934 2.3197461888232827 2.0422396022257439 1.7691174933371749 1.5012548017959215 1.2405683744770888 0.9878068198221408 0.74295757844546595 0.50719375361255215 0.28029067962296883 0.063298500611432135 -0.14420935708997384 -0.34129122444294824 -0.52854880593166265 -0.70512755299595087 -0.87100407104804189 -1.0277644829351429 -1.1746939457198715 -1.3126328199315345 -1.4416750784867662 -1.5612534511026581 -1.6722023181206966 -1.774668939538564 -1.8682363032659586 -1.9536786257416727 -2.0311530975588359 -2.1003860971031343 -2.1620428299831982 -2.2162825937157575 -2.2632661322197469 -2.3028925688287969 -2.3356216602566247 -2.3615934828921805 -2.3809402709759948 -2.3937124296642787 -2.4001445572449218 -2.4003354875903926 -2.3944508912867417 -2.3825444357935823 -2.3646811704979664 -2.3409127798830474 -2.3112862991927567 -2.2761554453091186 -2.235276091086956 -2.1886722239339007 -2.1363585360879807 -2.078835980391907 -2.0156685434615573 -1.9468649968968146 -1.8730497358706275 -1.7936655809388045 -1.7087275629788592 -1.6182811255607712 -1.5231335294598989 -1.4226196673293416 -1.316843901771517 -1.2067526663083026 -1.0916984071137574 -0.97274590371814051 -0.84927626892813424 -0.72156911246956223 -0.59088908243384286 -0.45768886362900196 -0.32151082774697576 -0.18386751981015634 -0.044490618131031168 0.094922584453507819 0.23349574275756668 0.37362126114875499 0.51171997296096927 0.45559443790365328 0.39418859364353764 0.3237946379406329 0.24840126212247934 0.17254451381626049 0.088944152250825123 0.020249689399420342 -0.00026172486103585141
        </DataArray>
      </CellData>
      <Points>
        <DataArray type="Float32" NumberOfComponents="3" format="ascii">
          3.9307856475038854 8.7787086384653641 0
          3.9342400816659868 8.7857845210174101 0
          3.9376690597298798 8.7928727752947289 0
          3.9410546985964996 8.7999818332491309 0
          3.9443829751841117 8.807117928208168 0
          3.9476418255426342 8.8142859959350766 0
          3.9508203745864345 8.8214900332549337 0
          3.9539085505945413 8.8287332732853852 0
          3.9568968643967151 8.8360182831820104 0
          3.9597762733960269 8.8433470228632167 0
          3.9625380874408438 8.8507208847297889 0
          3.9651739072984009 8.8581407192552302 0
          3.9676755821117493 8.8656068527609762 0
          3.9700351786485495 8.8731191005357104 0
          3.9722449579651067 8.8806767770278743 0
          3.9742973574460825 8.8882787038192141 0
          3.9761849790235186 8.8959232152440819 0
          3.977900588386611 8.9036081608900997 0
          3.9794371121144656 8.9113309087133743 0
          3.9807876393123545 8.9190883469709927 0
          3.9819454294276238 8.9268768850668181 0
          3.9829039206077068 8.9346924546759627 0
          3.9836567388961033 8.942530510975887 0
          3.9841977116626461 8.9503860336653727 0
          3.9845208843658138 8.9582535283011353 0
          3.984620535836636 8.9661270284050953 0
          3.9844912013946701 8.9740000980915102 0
          3.9841276941064496 8.9818658360028074 0
          3.9835251220959247 8.9897168799715548 0
          3.9826789119579047 8.9975454126525545 0
          3.9815848566418466 9.0053431717298142 0
          3.9802391209850327 9.0131014578979212 0
          3.9786382702029406 9.0208111457926421 0
          3.976779298213406 9.0284626967837678 0
          3.9746596588326697 9.036046174475425 0
          3.972277295537479 9.0435512622510412 0
          3.9696306728603288 9.0509672837593431 0
          3.9667188017637476 9.0582832238503794 0
          3.9635412746940548 9.0654877555807278 0
          3.9600983002867962 9.0725692711689874 0
          3.9563907272804348 9.0795159117529352 0
          3.9524200713978153 9.0863156014031023 0
          3.9481885420331717 9.0929560847149258 0
          3.9442056359755884 9.0997485992322211 0
          3.9404727363142262 9.1066816495432406 0
          3.9369910936323591 9.1137442144140124 0
          3.9337608144921479 9.1209252230381654 0
          3.9307818544912432 9.1282140717039013 0
          3.9280531961267013 9.1356002661889963 0
          3.9255737779988182 9.1430738101292715 0
          3.9233421064504683 9.150625031447154 0
          3.9213562910661044 9.1582445961946668 0
          3.9196140717722159 9.1659235173795999 0
          3.918112882633547 9.1736531693478796 0
          3.9168498706950468 9.1814252874611473 0
          3.9158209223238249 9.1892318369107446 0
          3.9150216322525506 9.1970652278688494 0
          3.9144479434975952 9.2049183603755704 0
          3.9140950203662865 9.2127845020547454 0
          3.9139584885657319 9.2206573688230193 0
          3.9140331896526153 9.2285310607990123 0
          3.9143145481999335 9.2364000746523534 0
          3.9147971852129375 9.2442593075174759 0
          3.9154764224663632 9.2521039909411495 0
          3.9163467356975832 9.2599297765699671 0
          3.9174025537650015 9.2677326966825522 0
          3.9186400716888086 9.2755088665368852 0
          3.9200546521816064 9.2832547809317969 0
          3.9216426367296462 9.290967011404927 0
          3.9234004648076057 9.2986423098906545 0
          3.9253237348710872 9.3062778306761462 0
          3.927409084411162 9.3138706857890909 0
          3.929653274009985 9.321418118315421 0
          3.9320522303962711 9.3289177938736927 0
          3.9346029658322927 9.3363672154640902 0
          3.9373026078572706 9.343763977045521 0
          3.9401474631331928 9.351106113734982 0
          3.9431349485009752 9.3583913821248927 0
          3.9462626035004997 9.3656175856945616 0
          3.9495281032037037 9.3727825562339042 0
          3.9529283201150767 9.3798845891990137 0
          3.9564612189625223 9.3869215656181755 0
          3.9601249002944146 9.3938913520181817 0
          3.9639176112427066 9.4007917800281398 0
          3.9678367729092385 9.4076211887789665 0
          3.9718809020549686 9.4143773539802798 0
          3.9760486433580704 9.4210579816049709 0
          3.9803378315685531 9.4276613013237895 0
          3.9847473773442355 9.4341848735084604 0
          3.9892763070964845 9.4406261475768005 0
          3.9939237695516998 9.4469824392801112 0
          3.9986890049694312 9.4532509338881443 0
          4.0035704360651057 9.4594293863497843 0
          4.0085675296942282 9.4655146847788174 0
          4.0136798228491042 9.4715035430734549 0
          4.0189069254983307 9.4773924760585722 0
          4.0242476355208581 9.4831785911718498 0
          4.0297017083643105 9.4888579911447852 0
          4.0352689388672198 9.4944265301733726 0
          4.0409482951689641 9.4998806837213561 0
          4.0467396446379134 9.505215789259962 0
          4.0526428601785076 9.5104268669577543 0
          4.0586577777763839 9.5155086244327993 0
          4.0647833759892595 9.5204564275798003 0
          4.0710194294961273 9.5252642925817597 0
          4.0773656066839212 9.5299258574361367 0
          4.0838206977805127 9.5344354230088815 0
          4.0903841407115591 9.5387858061047854 0
          4.0970544586409199 9.5429705064612005 0
          4.1038307233533073 9.5469814090401961 0
          4.1107117392070993 9.55080985135743 0
          4.1176953207914329 9.554447871995789 0
          4.1247789702731472 9.5578870262971112 0
          4.1319604684609894 9.561116921867173 0
          4.1392364895970983 9.5641278916112409 0
          4.1466037686417723 9.5669081625514014 0
          4.1540578274407549 9.5694466684997188 0
          4.1615935044478611 9.571731595209144 0
          4.1692065031092316 9.5737440218317982 0
          4.176889988111502 9.5754679599393882 0
          4.1845500509782019 9.5772939938835027 0
          4.1921800110604854 9.5792429801786838 0
          4.1997679895059363 9.5813506834590125 0
          4.2072996264562059 9.583652993150249 0
          4.2147569739949313 9.5861871964373524 0
          4.2220967227782999 9.5890460854841582 0
          4.2292616085275565 9.5923179910155731 0
          4.2363103690619175 9.5958322752840601 0
        </DataArray>
      </Points>
      <Cells>
        <DataArray type="Int32" Name="connectivity" format="ascii">
          0 1 1 2 2 3 3 4 4 5 5 6 6 7 7 8 8 9 9 10 10 11 11 12 12 13 13 14 14 15 15 16 16 17 17 18 18 19 19 20 20 21 21 22 22 23 23 24 24 25 25 26 26 27 27 28 28 29 29 30 30 31 31 32 32 33 33 34 34 35 35 36 36 37 37 38 38 39 39 40 40 41 41 42 42 43 43 44 44 45 45 46 46 47 47 48 48 49 49 50 50 51 51 52 52 53 53 54 54 55 55 56 56 57 57 58 58 59 59 60 60 61 61 62 62 63 63 64 64 65 65 66 66 67 67 68 68 69 69 70 70 71 71 72 72 73 73 74 74 75 75 76 76 77 77 78 78 79 79 80 80 81 81 82 82 83 83 84 84 85 85 86 86 87 87 88 88 89 89 90 90 91 91 92 92 93 93 94 94 95 95 96 96 97 97 98 98 99 99 100 100 101 101 102 102 103 103 104 104 105 105 106 106 107 107 108 108 109 109 110 110 111 111 112 112 113 113 114 114 115 115 116 116 117 117 118 118 119 119 120 120 121 121 122 122 123 123 124 124 125 125 126 126 127 
        </DataArray>
        <DataArray type="Int32" Name="offsets" format="ascii">
          2 4 6 8 10 12 14 16 18 20 22 24 26 28 30 32 34 36 38 40 42 44 46 48 50 52 54 56 58 60 62 64 66 68 70 72 74 76 78 80 82 84 86 88 90 92 94 96 98 100 102 104 106 108 110 112 114 116 118 120 122 124 126 128 130 132 134 136 138 140 142 144 146 148 150 152 154 156 158 160 162 164 166 168 170 172 174 176 178 180 182 184 186 188 190 192 194 196 198 200 202 204 206 208 210 212 214 216 218 220 222 224 226 228 230 232 234 236 238 240 242 244 246 248 250 252 254 
        </DataArray>
        <DataArray type="Int32" Name="types" format="ascii">
          3 3 3 3 3 3 3 3 3 3 3 3 3 3 3 3 3 3 3 3 3 3 3 3 3 3 3 3 3 3 3 3 3 3 3 3 3 3 3 3 3 3 3 3 3 3 3 3 3 3 3 3 3 3 3 3 3 3 3 3 3 3 3 3 3 3 3 3 3 3 3 3 3 3 3 3 3 3 3 3 3 3 3 3 3 3 3 3 3 3 3 3 3 3 3 3 3 3 3 3 3 3 3 3 3 3 3 3 3 3 3 3 3 3 3 3 3 3 3 3 3 3 3 3 3 3 3         </DataArray>
      </Cells>
    </Piece>
  </UnstructuredGrid>
</VTKFile>
