<?xml version="1.0"?>
<VTKFile type="UnstructuredGrid" version="0.1" byte_order="LittleEndian">
  <UnstructuredGrid>
    <Piece NumberOfPoints="128" NumberOfCells="127">
      <PointData Scalars="W">
        <DataArray type="Float32" Name="W" NumberOfComponents="2">
          0 0 -0.36872120319280344 -0.27209422263395494 -0.56814242799371595 -0.42330155678592207 -0.6996058995524842 -0.52807393555449311 -0.79249052487818439 -0.60742343433221591 -0.85914352983269526 -0.6697980245114088 -0.90610840979061613 -0.71939101964102004 -0.93744756229017812 -0.75860132623154197 -0.95593002109481062 -0.78891249514156181 -0.96364080835470212 -0.81135113633472522 -0.96216294913270728 -0.8266164429229077 -0.95276883955291103 -0.83522439645810365 -0.9365210393058323 -0.83758448409102804 -0.91436054908627973 -0.83407197468969163 -0.88711206939330034 -0.825029756463876 -0.85548206027985385 -0.81076145892836116 -0.82002393759990611 -0.79149051198033638 -0.78128708771075461 -0.76749600754408143 -0.73974184085257921 -0.73903977922077091 -0.69577173042021956 -0.7063526212556327 -0.64971954828549816 -0.6696751560170674 -0.6019022544088859 -0.62927060402107204 -0.55257942548297401 -0.58538898099307579 -0.50195909232248093 -0.53826822515678496 -0.45025222011632043 -0.48818892918800855 -0.39757249738756928 -0.43536297344492786 -0.34404960909235727 -0.38005161063698784 -0.28983569657185038 -0.32257202118323969 -0.23501007406439209 -0.26318866386312173 -0.17939732236262998 -0.20190224119922254 -0.12326486362538894 -0.13923077335556816 -0.066628935533548733 -0.075430380534282471 -0.0095055159734686329 -0.0107709861634607 0.048122614435835952 0.054503942130927699 0.10626483813577575 0.12013375620682769 0.16494275157322544 0.18586607658433935 0.22411107135407191 0.25137086080801929 0.28382822899178323 0.31643569587527237 0.34416403845208005 0.38086259218413226 0.40508009991300414 0.44433837404823195 0.46655268532344274 0.50657632044579093 0.52857024366084393 0.56731558042956509 4.9003121225598711 4.9481925239249902 6.5541507154731242 5.844794710131449 8.579352276251166 6.5380545219613913 9.1881736805483296 5.8353486378831638 9.7476806737947186 5.0707132326039606 10.244148506620586 4.2434997473148037 10.686892891897203 3.3634132402247112 11.05343212601603 2.4276415803206213 11.334730076135831 1.4427071887539522 -8.0606869328110164 -0.91920166636968614 -7.8430107977545287 -1.4019687492733119 -7.5902085337964689 -1.8497695635002236 -1.9977779765600292 -0.57015260178087135 -1.8425966955364623 -0.55742486242165989 -1.5045861267188447 -0.47793016855613935 -1.2316052622805331 -0.406631642309568 -1.078833899621805 -0.36771215007608266 -0.73405021915400603 -0.25639883589750373 -0.58309333291567855 -0.20727584323019371 -0.2345542799659055 -0.084282893099823147 0.11952597687582735 0.043014498728667382 0.26755419013663168 0.095797073993534085 0.84479073869626387 0.29805273125662707 0.99606041548526281 0.34284653765356754 1.1467825024531753 0.38332982362788887 1.2935301596439848 0.41788299123918482 1.4425557672683393 0.44808375731145006 1.822335715262273 0.53931558899470433 1.9709153436952072 0.55011696881303151 2.1178279231285324 0.55321729872625092 2.2626120719600302 0.54823259863864038 2.4015814346003053 0.5341664616112094 2.5410513658711085 0.5123478224750998 2.6771205764215527 0.48172986960744857 2.8092631438992286 0.44219241579821178 2.9369208235977879 0.39368631676798849 3.0595120314440103 0.33623780874777237 3.4255735470328785 0.28773067014494258 3.5372057040544167 0.19937494883585402 3.6378246021783904 0.10195435003130185 3.7339623694560697 -0.0038107793851830311 3.8213451952225426 -0.11767435681862748 3.8993559889908638 -0.23904876677435993 3.9674098959570219 -0.36726237655583388 4.0248873240123642 -0.50155166903541915 4.0714682180318862 -0.64110657016256023 4.1066516499099368 -0.78502352863145808 3.8872777073209357 -0.87351043117739979 3.9025094851138271 -1.0073033218989524 3.9063696649155011 -1.1423754265034047 3.8988789516829985 -1.2777571915310435 3.876391136031887 -1.4110382879422187 3.8459935690290079 -1.5435792345325774 3.8043580682520686 -1.6732351433424153 3.7516200214842454 -1.7988871392782602 3.6880744206556133 -1.9194432710353158 3.6140369001202144 -2.0337847455987661 3.5300988356381633 -2.140919868682889 3.4367306623783227 -2.239779590215917 3.3313815306353791 -2.3270796952503021 3.2211768775647012 -2.4062178032842372 3.1034863555877754 -2.4741557045506646 2.9791783661977749 -2.530099960954618 2.8460330713864188 -2.570427852872887 2.7109072482271066 -2.5996550154058058 2.5714904076676599 -2.6144591563283601 2.425768542205522 -2.6110062251855388 2.4423706796978779 -2.7845978631045432 2.2843686792768323 -2.7603519217932777 2.1225530005246651 -2.7143831513507046 2.1137504174409592 -2.8624171236979681 1.941042504172183 -2.7849697538745106 1.9160390929641338 -2.9143771223317501 1.7353666273339123 -2.7996523861033382 1.6964746434256623 -2.9042286020126662 1.6513486006428642 -3.0090379903481108 1.4607069071740484 -2.834413891957694 1.0425780841486298 -2.136794556238089 0.85830266480272788 -1.8394367418599342 0.76813541362170557 -1.7145692593472519 0.67896035914613762 -1.5748676531876322 0.55424514432462935 -1.330841158459162 0.36057545397388524 -0.88940611205908338 0.15434166730453225 -0.38670774410629888 0.6250808694773532 -1.6052979433164467 0 0
        </DataArray>
        <DataArray type="Float32" Name="u" NumberOfComponents="1">
          0 0.007874015748031496 0.015748031496062992 0.023622047244094488 0.031496062992125984 0.03937007874015748 0.047244094488188976 0.055118110236220472 0.062992125984251968 0.070866141732283464 0.07874015748031496 0.086614173228346455 0.094488188976377951 0.10236220472440945 0.11023622047244094 0.11811023622047244 0.12598425196850394 0.13385826771653545 0.14173228346456693 0.14960629921259844 0.15748031496062992 0.16535433070866143 0.17322834645669291 0.18110236220472442 0.1889763779527559 0.19685039370078741 0.20472440944881889 0.2125984251968504 0.22047244094488189 0.2283464566929134 0.23622047244094488 0.24409448818897639 0.25196850393700787 0.25984251968503935 0.26771653543307089 0.27559055118110237 0.28346456692913385 0.29133858267716534 0.29921259842519687 0.30708661417322836 0.31496062992125984 0.32283464566929132 0.33070866141732286 0.33858267716535434 0.34645669291338582 0.3543307086614173 0.36220472440944884 0.37007874015748032 0.37795275590551181 0.38582677165354329 0.39370078740157483 0.40157480314960631 0.40944881889763779 0.41732283464566927 0.42519685039370081 0.43307086614173229 0.44094488188976377 0.44881889763779526 0.45669291338582679 0.46456692913385828 0.47244094488188976 0.48031496062992124 0.48818897637795278 0.49606299212598426 0.50393700787401574 0.51181102362204722 0.51968503937007871 0.52755905511811019 0.53543307086614178 0.54330708661417326 0.55118110236220474 0.55905511811023623 0.56692913385826771 0.57480314960629919 0.58267716535433067 0.59055118110236215 0.59842519685039375 0.60629921259842523 0.61417322834645671 0.62204724409448819 0.62992125984251968 0.63779527559055116 0.64566929133858264 0.65354330708661412 0.66141732283464572 0.6692913385826772 0.67716535433070868 0.68503937007874016 0.69291338582677164 0.70078740157480313 0.70866141732283461 0.71653543307086609 0.72440944881889768 0.73228346456692917 0.74015748031496065 0.74803149606299213 0.75590551181102361 0.76377952755905509 0.77165354330708658 0.77952755905511806 0.78740157480314965 0.79527559055118113 0.80314960629921262 0.8110236220472441 0.81889763779527558 0.82677165354330706 0.83464566929133854 0.84251968503937003 0.85039370078740162 0.8582677165354331 0.86614173228346458 0.87401574803149606 0.88188976377952755 0.88976377952755903 0.89763779527559051 0.90551181102362199 0.91338582677165359 0.92125984251968507 0.92913385826771655 0.93700787401574803 0.94488188976377951 0.952755905511811 0.96062992125984248 0.96850393700787396 0.97637795275590555 0.98425196850393704 0.99212598425196852 1
        </DataArray>
      </PointData>
      <CellData Scalars="P">
        <DataArray type="Float32" Name="P" NumberOfComponents="1">
          -0.030396419712365799 -0.090277709551949747 -0.14865117601546729 -0.20561596744686117 -0.26153274801498383 -0.31688496797488686 -0.37220854954265631 -0.42804811307642632 -0.48492743346045375 -0.54332835064402041 -0.6036760542073385 -0.6663284890370339 -0.7315691383029771 -0.79960283537644494 -0.87055409685309881 -0.94446721171779358 -1.0213068177755937 -1.1009614062443598 -1.1832471063008996 -1.2679116766684224 -1.3546399549461365 -1.4430605000501791 -1.53275167274519 -1.6232478617241344 -1.7140483262992858 -1.8046213537143236 -1.8944137343724954 -1.9828616240111661 -2.06939572470319 -2.1534317516655266 -2.2344100872649162 -2.3117880030804501 -2.3850481543408542 -2.4537040567609325 -2.5173086071737618 -2.575460607025069 -2.627818490524056 -2.6740974685828545 -2.71407444515705 -2.7476047648732091 -2.7746264569744619 -2.7951639460875324 -2.3321566206469528 -1.7135052116139224 -0.95767276813472235 -0.14976786088677829 0.7194565758859981 1.657704472585078 2.6732516606956422 3.7714857228159149 4.9559833169466172 3.9122981302395514 2.7985959922384382 1.6366471226076473 1.2820529892974579 0.94008419499253759 0.64442841315489008 0.38836752891267695 0.15402920973519119 -0.02327995521889217 -0.17597922375469574 -0.26843847647428476 -0.29949719860866486 -0.30589218821742759 -0.21389483308293325 -0.099332560763770769 0.036384977524031824 0.19112079986737074 0.36363685695271092 0.58808945824189485 0.82542926560512775 1.0734650193895972 1.3299199908406214 1.592023379255221 1.8579047379173466 2.1251957709961022 2.3915318855085985 2.6545711443182163 2.9120135830337648 3.1862772951916019 3.4489320531658354 3.6976813656564502 3.9310122166798105 4.147227063228625 4.3447989984891002 4.5223852905218882 4.6788351953624208 4.813214295564979 4.9247982576566178 5.0041298778699463 5.0615653149547351 5.0968588276878055 5.109971144094871 5.1010130625260679 5.0704138211893168 5.0187223986011444 4.9466725948088577 4.8551749867226812 4.7453067002097988 4.6182962835622279 4.4755109590033602 4.3185313376907697 4.1488758266720476 3.9682235659041352 3.778317600867358 3.581092110942202 3.378238306859163 3.1715837622078769 2.9631146939416162 2.7440817924062508 2.526379602302383 2.3121284997751048 2.0918438404940529 1.8786372161485272 1.66281981541218 1.4578245347208463 1.2540488595449464 1.0532340499781134 0.86864522746152961 0.71960395848152525 0.58838787988743868 0.46823389216281247 0.35910287264735136 0.26253713478615415 0.17995060120158105 0.10809619065945524 0.03246122406457698
        </DataArray>
      </CellData>
      <Points>
        <DataArray type="Float32" NumberOfComponents="3" format="ascii">
          4.377605527904942 9.2638881139516727 0
          4.3729395719013073 9.2702350046170281 0
          4.3682507723346298 9.2765649607729568 0
          4.3635267753587108 9.2828685732521024 0
          4.3587594394105063 9.2891393228511792 0
          4.3539430142850257 9.2953722732339159 0
          4.3490733757212414 9.3015635453084027 0
          4.3441476196846125 9.3077100562186086 0
          4.3391638104209322 9.3138093699461919 0
          4.3341208086766265 9.3198596048476663 0
          4.3290181423197609 9.3258593696249612 0
          4.3238559080899872 9.3318077196627645 0
          4.3186346926164774 9.3377041247692532 0
          4.3133555064578939 9.3435484435514002 0
          4.3080197256926915 9.3493408999361094 0
          4.3026290407361891 9.3550820617201911 0
          4.2971854125057671 9.3607728215738799 0
          4.2916910380925986 9.3664143830353552 0
          4.2861483166975338 9.3720082430696898 0
          4.2805598204840054 9.3775561757144352 0
          4.2749282708267593 9.3830602176659337 0
          4.2692565170991772 9.3885226532717123 0
          4.2635475170735759 9.3939459981369691 0
          4.2578043208896537 9.3993329835649799 0
          4.2520300582276551 9.4046865417609027 0
          4.2462279253069344 9.4100097884049028 0
          4.240401177922057 9.415306009499 0
          4.2345531234918736 9.4205786451653246 0
          4.2286871117201645 9.4258312699886346 0
          4.2228065297743242 9.4310675766385206 0
          4.2169148132592591 9.4362913758544185 0
          4.2110154297360145 9.4415065643658185 0
          4.2051118778139482 9.4467171090581274 0
          4.1992076862583732 9.4519270302894132 0
          4.1933064151552797 9.4571403868530872 0
          4.1874116565884991 9.462361259880069 0
          4.1815270360721399 9.467593737257312 0
          4.1756562098334795 9.4728418932333849 0
          4.1698028685240711 9.4781097753196395 0
          4.163970741634146 9.4834013920874636 0
          4.1581635951935336 9.4887206938233533 0
          4.1523852303786644 9.4940715548240604 0
          4.1466394828709889 9.4994577572954846 0
          4.1411979541489341 9.5051505631765014 0
          4.1361631489241706 9.5112055351218174 0
          4.1316602695018538 9.5176660964177238 0
          4.1277270998877329 9.5244887135400056 0
          4.1243983762354688 9.5316260106428441 0
          4.1217049358503912 9.5390267279174736 0
          4.1196742954055745 9.5466363210383083 0
          4.1183292562194724 9.554396785434248 0
          4.1176873434912649 9.5622470589669621 0
          4.1165452994482514 9.5700406163989626 0
          4.1149165661293781 9.5777475140254644 0
          4.1128167635641733 9.5853399710085885 0
          4.1105929866221835 9.5928970576921735 0
          4.1082548641803491 9.6004195649099984 0
          4.1058233742692662 9.6079124156535638 0
          4.1033154585581073 9.6153800287613809 0
          4.1007405965998416 9.622824821628674 0
          4.0981201873666411 9.6302536921785276 0
          4.0954635976639677 9.6376696914578979 0
          4.0927924594640626 9.6450804421974095 0
          4.0901287484661193 9.6524938339792996 0
          4.0874816490987005 9.659913145310778 0
          4.0848869884835866 9.6673509034231042 0
          4.0823541510371877 9.6748098908809528 0
          4.0798924870354538 9.682292622700178 0
          4.0775110999588344 9.689801246049571 0
          4.0752192346299179 9.6973376377622529 0
          4.0730404578803876 9.7049074477113741 0
          4.0709839859294323 9.7125113487838171 0
          4.0690589315421049 9.7201495359384289 0
          4.0672742754305036 9.7278217023888178 0
          4.0656386375158799 9.7355269779693678 0
          4.0641606688924217 9.7432640111957074 0
          4.062848809727913 9.7510309045071999 0
          4.0617112566455464 9.7588252068022854 0
          4.0607559280954719 9.7666439103794787 0
          4.0599904282731831 9.7744834525531701 0
          4.0594374681667329 9.782340811214091 0
          4.059103970889101 9.7902105057700854 0
          4.0589961762803588 9.7980864932555338 0
          4.0591200461820698 9.8059622126160999 0
          4.0594809992348511 9.8138306001746578 0
          4.0600838725648636 9.8216841260856587 0
          4.0609328854660696 9.8295148360054156 0
          4.0620316009246 9.8373143984714027 0
          4.0633829057223787 9.845074155161722 0
          4.0649889793188896 9.8527851769729295 0
          4.0668362117284991 9.8604419862698531 0
          4.0689255454174758 9.8680362812678997 0
          4.0712572170043577 9.8755596806449706 0
          4.0738307584981008 9.8830037837234741 0
          4.0766447711313933 9.8903603202352759 0
          4.0796973648862034 9.8976210656056693 0
          4.0829859520499419 9.9047779742618172 0
          4.0865072556051745 9.9118232491161944 0
          4.0902573275326235 9.9187494093793873 0
          4.0942315684115425 9.925549360042627 0
          4.0984247641363432 9.9322164534653972 0
          4.1028311151530108 9.9387445557685528 0
          4.1074440784082729 9.945128250774836 0
          4.1122568092337293 9.9513626289961277 0
          4.1172619983848069 9.9574434763139745 0
          4.1224519260290231 9.9633673232273168 0
          4.127818324324247 9.9691316697071617 0
          4.1333528026471456 9.9747347048369477 0
          4.1390467045607471 9.9801755130124956 0
          4.1448909832097334 9.9854543118080894 0
          4.1508866524358474 9.9905603330684745 0
          4.1570239050170246 9.9954950867719585 0
          4.1632926986472079 10.000261430757183 0
          4.1696924747392723 10.004850187606172 0
          4.1762125189215356 10.009266169813019 0
          4.1828512720395983 10.013501359050514 0
          4.189597530852561 10.017562881319121 0
          4.196448881052488 10.021444261391922 0
          4.2034025258330709 10.025139011758233 0
          4.2104466548579209 10.028657974520511 0
          4.2175553620462907 10.032044419865114 0
          4.2247172363267014 10.035316794961579 0
          4.2319267031023919 10.038482851231592 0
          4.2391782539420557 10.041551260340658 0
          4.2464641818654734 10.044537162703513 0
          4.2537725081989919 10.047467938466342 0
          4.2610904785039407 10.050374767430638 0
          4.2684473502111686 10.053182118338603 0
        </DataArray>
      </Points>
      <Cells>
        <DataArray type="Int32" Name="connectivity" format="ascii">
          0 1 1 2 2 3 3 4 4 5 5 6 6 7 7 8 8 9 9 10 10 11 11 12 12 13 13 14 14 15 15 16 16 17 17 18 18 19 19 20 20 21 21 22 22 23 23 24 24 25 25 26 26 27 27 28 28 29 29 30 30 31 31 32 32 33 33 34 34 35 35 36 36 37 37 38 38 39 39 40 40 41 41 42 42 43 43 44 44 45 45 46 46 47 47 48 48 49 49 50 50 51 51 52 52 53 53 54 54 55 55 56 56 57 57 58 58 59 59 60 60 61 61 62 62 63 63 64 64 65 65 66 66 67 67 68 68 69 69 70 70 71 71 72 72 73 73 74 74 75 75 76 76 77 77 78 78 79 79 80 80 81 81 82 82 83 83 84 84 85 85 86 86 87 87 88 88 89 89 90 90 91 91 92 92 93 93 94 94 95 95 96 96 97 97 98 98 99 99 100 100 101 101 102 102 103 103 104 104 105 105 106 106 107 107 108 108 109 109 110 110 111 111 112 112 113 113 114 114 115 115 116 116 117 117 118 118 119 119 120 120 121 121 122 122 123 123 124 124 125 125 126 126 127 
        </DataArray>
        <DataArray type="Int32" Name="offsets" format="ascii">
          2 4 6 8 10 12 14 16 18 20 22 24 26 28 30 32 34 36 38 40 42 44 46 48 50 52 54 56 58 60 62 64 66 68 70 72 74 76 78 80 82 84 86 88 90 92 94 96 98 100 102 104 106 108 110 112 114 116 118 120 122 124 126 128 130 132 134 136 138 140 142 144 146 148 150 152 154 156 158 160 162 164 166 168 170 172 174 176 178 180 182 184 186 188 190 192 194 196 198 200 202 204 206 208 210 212 214 216 218 220 222 224 226 228 230 232 234 236 238 240 242 244 246 248 250 252 254 
        </DataArray>
        <DataArray type="Int32" Name="types" format="ascii">
          3 3 3 3 3 3 3 3 3 3 3 3 3 3 3 3 3 3 3 3 3 3 3 3 3 3 3 3 3 3 3 3 3 3 3 3 3 3 3 3 3 3 3 3 3 3 3 3 3 3 3 3 3 3 3 3 3 3 3 3 3 3 3 3 3 3 3 3 3 3 3 3 3 3 3 3 3 3 3 3 3 3 3 3 3 3 3 3 3 3 3 3 3 3 3 3 3 3 3 3 3 3 3 3 3 3 3 3 3 3 3 3 3 3 3 3 3 3 3 3 3 3 3 3 3 3 3         </DataArray>
      </Cells>
    </Piece>
  </UnstructuredGrid>
</VTKFile>
