<?xml version="1.0"?>
<VTKFile type="UnstructuredGrid" version="0.1" byte_order="LittleEndian">
  <UnstructuredGrid>
    <Piece NumberOfPoints="128" NumberOfCells="127">
      <PointData Scalars="W">
        <DataArray type="Float32" Name="W" NumberOfComponents="2">
          0 0 0.67818665517606025 -0.17494670883883584 1.0077209238673905 -0.26734298043029964 1.2558952075546832 -0.34562549197058656 1.4589754470276033 -0.41899692304403668 1.6318468697515223 -0.49113550494767033 1.7825065480321172 -0.56395047417577138 1.9157942782621318 -0.63855048188837982 2.0348907044266018 -0.71563319392975522 2.1419285986973349 -0.79563493778841643 2.2384613297359 -0.87885837644214737 2.3255867274417557 -0.96549478036645997 2.4041008337372975 -1.0556625733785885 2.4745381707308352 -1.1494057611375885 2.5372508486365981 -1.2467106729086384 2.592494818891085 -1.3475347761364997 2.6404985916314718 -1.4518385937978158 2.6813409229294103 -1.5595161905513204 2.7150705792480476 -1.6704488136602085 2.741724873539154 -1.7845160134977294 2.7612865303382166 -1.9015672397947552 2.7736932151044562 -2.0214204024918918 2.7788704030048983 -2.1438795434203204 2.7767432343907408 -2.2687433583394481 2.7671881050563307 -2.395763558665196 2.7501377969030045 -2.5247302032781387 2.7254667130598142 -2.6553752341873698 2.6930061691389349 -2.7873691813117971 2.6526463399640572 -2.9204175897242983 2.6044849482766823 -3.0544611954751701 2.5481703065474695 -3.1889264566788911 2.4836018993445728 -3.323473312179289 2.4106749821391249 -3.4577328411815289 2.3293069432206157 -3.5913408402483049 2.2394113348720963 -3.7239005489776091 2.1409190142322108 -3.855010538394021 2.0337351580720444 -3.9841799106429865 1.9178461365374004 -4.1110216938703603 1.7932521680355213 -4.2351598748756665 1.6599066731023246 -4.3560734638194365 1.5177991441884546 -4.4732482409066723 1.3669564221886845 -4.5861967721968382 -1.3313373156273556 4.4742521406183435 -1.4665313354598679 4.3431946975276441 -1.5902809816246399 4.2070889428360703 -1.7112026451747777 4.086618874749675 -1.8139038276138961 3.9438194906248958 -1.9054840898882575 3.7989647353995299 -1.9976269149145993 3.6731453527133415 -2.0698286595654007 3.5272052005533849 -2.1319737453046805 3.3816465014943189 -2.1845967986733386 3.2372907219995977 -2.2433563740892479 3.1151459749345807 -2.2637173534062565 2.9538842902615743 8.8665720562476977 -12.75854323746497 7.2694901802612053 -13.80612341781641 -1.5840403250221968 3.3831810346624134 -1.6730905777370531 3.3164527413381366 -1.7403532613524471 3.2143404970853395 -1.8017723479564391 3.1121756978599717 -1.8575110248081326 3.0102058978854433 -1.9080362836780749 2.909103106068939 -1.9426143219545293 2.7937393175744534 -1.9826447642298901 2.6955828653534128 -2.0063479301425704 2.5839697665937664 -2.0371529597185032 2.4896651750001246 -2.0642991418421133 2.3973566035619513 -2.088113150494443 2.3071960709643009 -2.1089143445821681 2.2193012004439812 -2.1270200137963045 2.1337655593596723 -2.1428986237155287 2.0508045327462727 -2.1565496961200878 1.9701649593429742 -2.1832251304346446 1.9046485636274257 -2.1941681736444889 1.8283488437920565 -2.203872254508024 1.7545418323973694 -2.2126108739819621 1.6831993599761357 -2.2208381748661608 1.6144130402669501 -2.2284496000201202 1.5478575086883219 -2.2358707997667722 1.4836014062472114 -2.2433416232703252 1.4215635553297972 -2.2510906371287627 1.3616498810803321 -2.2757381172697837 1.3129948865303531 -2.2850871108163822 1.2563423279475494 -2.2953396729537561 1.2014721258745333 -2.306697154902293 1.148251003532061 -2.3193537761338812 1.0965359989160739 -2.333494443964776 1.0461733409389329 -2.3661264039526344 1.0039414102039859 -2.3840621112007359 0.95511219280665538 -2.4039956887678504 0.90711129272474211 -2.426093908956735 0.85974346064307483 -2.450518892478581 0.81280142720885562 -2.4942905416156083 0.77108974497251048 -2.5240433335239829 0.72362900891678705 -2.5565716647130956 0.67587800656944408 -2.5920194594887089 0.62756761826669871 -2.6471856267224472 0.58188733806069548 -2.6890499098474736 0.53086018523836387 -2.7342363609052263 0.47833042174439055 -2.7828741402831172 0.42393916233210482 -2.8512153274613392 0.36920304332523213 -2.9072360036844942 0.30915634673502829 -2.9670637798989969 0.24596275501873052 -3.030811827566033 0.17912322845986953 -3.0988082197906697 0.10809736349984674 -3.1707115419459506 0.032266054836208174 -3.2468343963244108 -0.049013129710883938 -3.327256876125638 -0.13646687142308267 -3.4122909256334908 -0.23092030574154912 -3.5015331081965857 -0.33324698916781498 -3.5789645054571935 -0.4422088026239161 -3.6776002133038852 -0.562523612003755 -3.7806090067012992 -0.69407818399718746 -3.8719218322348286 -0.83457865192128733 -3.984490270363894 -0.99224677243485582 -4.085237215473617 -1.1612710054054145 -4.2080488424018645 -1.3529841152731026 -1.5770744111165127 -0.54912717989413051 -1.4729995230801964 -0.53403346776712701 -1.490198639027579 -0.56133994510688634 -1.4025965193613461 -0.54797258079442679 -1.3174550155036153 -0.53229066908016087 -1.2550274475782917 -0.52312577728646315 -0.86110518226229971 -0.36810384080701947 -0.292996134956726 -0.12696703404862936 1.2789204621195265 0.5478054388067729 2.1415823395151734 0.88053421211788618 0 0
        </DataArray>
        <DataArray type="Float32" Name="u" NumberOfComponents="1">
          0 0.007874015748031496 0.015748031496062992 0.023622047244094488 0.031496062992125984 0.03937007874015748 0.047244094488188976 0.055118110236220472 0.062992125984251968 0.070866141732283464 0.07874015748031496 0.086614173228346455 0.094488188976377951 0.10236220472440945 0.11023622047244094 0.11811023622047244 0.12598425196850394 0.13385826771653545 0.14173228346456693 0.14960629921259844 0.15748031496062992 0.16535433070866143 0.17322834645669291 0.18110236220472442 0.1889763779527559 0.19685039370078741 0.20472440944881889 0.2125984251968504 0.22047244094488189 0.2283464566929134 0.23622047244094488 0.24409448818897639 0.25196850393700787 0.25984251968503935 0.26771653543307089 0.27559055118110237 0.28346456692913385 0.29133858267716534 0.29921259842519687 0.30708661417322836 0.31496062992125984 0.32283464566929132 0.33070866141732286 0.33858267716535434 0.34645669291338582 0.3543307086614173 0.36220472440944884 0.37007874015748032 0.37795275590551181 0.38582677165354329 0.39370078740157483 0.40157480314960631 0.40944881889763779 0.41732283464566927 0.42519685039370081 0.43307086614173229 0.44094488188976377 0.44881889763779526 0.45669291338582679 0.46456692913385828 0.47244094488188976 0.48031496062992124 0.48818897637795278 0.49606299212598426 0.50393700787401574 0.51181102362204722 0.51968503937007871 0.52755905511811019 0.53543307086614178 0.54330708661417326 0.55118110236220474 0.55905511811023623 0.56692913385826771 0.57480314960629919 0.58267716535433067 0.59055118110236215 0.59842519685039375 0.60629921259842523 0.61417322834645671 0.62204724409448819 0.62992125984251968 0.63779527559055116 0.64566929133858264 0.65354330708661412 0.66141732283464572 0.6692913385826772 0.67716535433070868 0.68503937007874016 0.69291338582677164 0.70078740157480313 0.70866141732283461 0.71653543307086609 0.72440944881889768 0.73228346456692917 0.74015748031496065 0.74803149606299213 0.75590551181102361 0.76377952755905509 0.77165354330708658 0.77952755905511806 0.78740157480314965 0.79527559055118113 0.80314960629921262 0.8110236220472441 0.81889763779527558 0.82677165354330706 0.83464566929133854 0.84251968503937003 0.85039370078740162 0.8582677165354331 0.86614173228346458 0.87401574803149606 0.88188976377952755 0.88976377952755903 0.89763779527559051 0.90551181102362199 0.91338582677165359 0.92125984251968507 0.92913385826771655 0.93700787401574803 0.94488188976377951 0.952755905511811 0.96062992125984248 0.96850393700787396 0.97637795275590555 0.98425196850393704 0.99212598425196852 1
        </DataArray>
      </PointData>
      <CellData Scalars="P">
        <DataArray type="Float32" Name="P" NumberOfComponents="1">
          -0.010800300523340321 -0.030719088367025769 -0.047465019365919785 -0.060239918037405908 -0.068522487816349467 -0.071951931511157502 -0.070270415692871929 -0.063290296598590826 -0.05087301477552434 -0.032915913173821913 -0.0093414988788241716 0.019909321641020227 0.054882592735510063 0.095614360021850406 0.14213307942475062 0.19446251536473674 0.25262556940381703 0.31664381415498688 0.38653950616611582 0.46233782094486336 0.54406727729764282 0.63175989905632879 0.72545214609751285 0.82518610680858018 0.93100837849611118 1.042973253086281 1.1611407241212883 1.2855743471113077 1.4163439409691836 1.553538032049709 1.6972382257001231 1.84753189406787 2.0045110638476329 2.168272875348102 2.3389180275601564 2.5165505092222746 2.7012729546063508 2.8931915802128927 3.0924161997596573 3.2990522577837744 3.5132004469862963 3.7349571415554697 3.4789526524152707 3.2148041516024399 2.9448792105221822 2.6700961576571456 2.3937314894551101 2.117709841489265 1.8422917199185989 1.5704655300155488 1.3036698803528095 1.0431690931275934 0.78842124999205565 0.54368572089971945 1.4672405730044908 2.3653359235663016 2.133235229163168 1.9006139173626542 1.6707367875679517 1.4444902738158416 1.2226803244323279 1.0060025073124159 0.79619183386892889 0.5926570446236662 0.39695324800595272 0.20835001438317008 0.027158043814268989 -0.14637348313516949 -0.31205142452361834 -0.46973383545930708 -0.6193351031254678 -0.76079046885032398 -0.89491051442894931 -1.0208301717414607 -1.1385877974987195 -1.2482459215848056 -1.3498950851104661 -1.443627229429292 -1.5295558220462981 -1.6078048072072955 -1.6785057219174586 -1.7421602484134613 -1.7984830782123076 -1.8476121145162681 -1.8896841989850197 -1.9248335368330038 -1.953190352515394 -1.9749363925597281 -1.990077922363529 -1.9987265019423954 -2.0009867069708083 -1.9969559618108272 -1.9865562065596674 -1.9699896286316514 -1.9473329571540079 -1.918657298371111 -1.8837140404394264 -1.8428389554815605 -1.7960929940236021 -1.7435367597526044 -1.6848109452401323 -1.6203698111943365 -1.5502859128637154 -1.4746407935455992 -1.3935211741745903 -1.3070430228739229 -1.2153351894051536 -1.1185504093558136 -1.0168615633355604 -0.91049115849080664 -0.80027598254915933 -0.68592982358297516 -0.56781073918969571 -0.44691545673166311 -0.32312808545241484 -0.19758532939056114 -0.070314668209858336 -0.035431391329082691 -0.0060001769312676622 0.021573256034760718 0.04375719025067077 0.06053025897992053 0.072399858622648347 0.072715486713399752 0.061344167777889709 0.031994739627998391 0.0057751429376956803
        </DataArray>
      </CellData>
      <Points>
        <DataArray type="Float32" NumberOfComponents="3" format="ascii">
          3.7865299367781122 7.4674017780160815 0
          3.7884758142505919 7.4750319673321624 0
          3.7904637431143944 7.4826513073272389 0
          3.7925141563081946 7.4902540681434182 0
          3.7946424419528078 7.4978353952662982 0
          3.7968611920443842 7.5053907388147012 0
          3.7991811254237358 7.5129156254322993 0
          3.8016115836415878 7.5204055398852718 0
          3.8041608310550421 7.5278558563091362 0
          3.8068362520473156 7.5352617949434526 0
          3.8096444832735603 7.5426183950735828 0
          3.8125915099804799 7.5499204962620254 0
          3.8156827340800259 7.5571627264877055 0
          3.8189230235106324 7.5643394948028693 0
          3.8223167453828464 7.5714449886047523 0
          3.8258677878145222 7.5784731744837837 0
          3.8295795758037769 7.5854178008615927 0
          3.8334550854005287 7.592272400439656 0
          3.8374968485926169 7.5990302967687811 0
          3.8417069563325335 7.6056846116133352 0
          3.8460870608541025 7.6122282724206851 0
          3.8506383746045172 7.6186540216569476 0
          3.8553616663826324 7.6249544280983059 0
          3.8602572567215128 7.6311218989820686 0
          3.8653250132503354 7.637148692489073 0
          3.8705643430340251 7.6430269331391694 0
          3.8759741884091721 7.6487486248088059 0
          3.8815530192002892 7.6543056673519052 0
          3.8872988222645666 7.6596898770283204 0
          3.893209094686195 7.6648930047609376 0
          3.8992808498394922 7.6699067398097895 0
          3.9055105955868648 7.6747227453331517 0
          3.9118943280504572 7.6793326794715906 0
          3.9184275251215639 7.6837282182211162 0
          3.9251051413423106 7.6879010780135406 0
          3.9319216025494264 7.6918430403151703 0
          3.9388708015908853 7.6955459765146497 0
          3.945946092450169 7.6990018783578433 0
          3.9531402894046312 7.7022028819386561 0
          3.9604456670423165 7.7051412910101087 0
          3.9678539573769678 7.7078096092841006 0
          3.9753563491993904 7.7102005723111029 0
          3.9829434897442586 7.7123071776987722 0
          3.9904480713463477 7.7146911935521345 0
          3.9978617124713649 7.7173444927500041 0
          4.0051767412391399 7.7202586352982445 0
          4.0123856613862126 7.7234261508737827 0
          4.0194821061787334 7.7268381847500889 0
          4.0264603984446206 7.7304857549031114 0
          4.0333148263466372 7.7343610597673269 0
          4.0400409142516054 7.7384550503063263 0
          4.0466348100715708 7.7427587012725887 0
          4.0530932521089147 7.7472630621403518 0
          4.0594125983282128 7.7519605597149921 0
          4.0655915871732375 7.7568411954750482 0
          4.072320305871969 7.7609307939459651 0
          4.0794997342486257 7.7641644054528607 0
          4.0865809472614707 7.7676077735499831 0
          4.0935584246273402 7.7712567610601857 0
          4.1004279967083441 7.7751050369895598 0
          4.1071858561418395 7.7791462671555838 0
          4.1138285477196801 7.7833741295304897 0
          4.1203529394330776 7.7877823559016477 0
          4.1267568879566143 7.7923637939203427 0
          4.1330379119063414 7.7971123581667152 0
          4.1391945421588092 7.8020211289609716 0
          4.1452248692442746 7.8070842598068264 0
          4.1511272105004959 7.8122960280036127 0
          4.156900089818647 7.8176508440678107 0
          4.162542217842983 7.8231432590223831 0
          4.1680524722989416 7.8287679701949298 0
          4.1734298689478297 7.8345198345682876 0
          4.1786735616177966 7.8403938530830457 0
          4.1837818965155957 7.8463859642717404 0
          4.1887541952750684 7.8524914381739084 0
          4.1935898563066356 7.858705699397925 0
          4.1982883378403368 7.8650243253732741 0
          4.2028491297678032 7.8714430520283125 0
          4.2072717601267238 7.877957753619131 0
          4.2115557687091512 7.8845644469836982 0
          4.215700692190274 7.8912592865084505 0
          4.2197060499564847 7.8980385582954256 0
          4.2235703135291516 7.9048992463466661 0
          4.2272929030058943 7.9118378389627066 0
          4.2308731824190122 7.91885093496618 0
          4.2343104472496744 7.9259352354388506 0
          4.2376039123838911 7.9330875348581804 0
          4.2407527006454639 7.9403047115637797 0
          4.2437547882057967 7.947584147804192 0
          4.2466090624832455 7.9549228170009272 0
          4.2493142869668699 7.9623177439475343 0
          4.2518690908718124 7.9697659927040139 0
          4.2542719590825078 7.9772646537457899 0
          4.2565201767662941 7.9848111415832408 0
          4.2586118983262971 7.9924025145357227 0
          4.2605451059924162 8.0000358129384708 0
          4.2623176008900518 8.0077080424553966 0
          4.2639259613513367 8.0154163715244664 0
          4.2653675904644635 8.0231576373564391 0
          4.266639685218184 8.0309285840006428 0
          4.2677392284824611 8.0387258400891692 0
          4.2686619812254492 8.046546012525992 0
          4.2694044682783856 8.0543853792496378 0
          4.2699629782573858 8.0622400230629818 0
          4.2703335565311438 8.0701058006816133 0
          4.2705119848616739 8.0779783092100192 0
          4.2704938025578629 8.0858528477510863 0
          4.2702742870727279 8.0937243775510037 0
          4.2698484490171245 8.1015874769219636 0
          4.2692110127957239 8.1094362900495476 0
          4.2683564416012656 8.1172644728117866 0
          4.2672799306733502 8.1250652699850416 0
          4.2659753600815691 8.1328312217378471 0
          4.2644363383797774 8.1405541710660696 0
          4.2626571989497135 8.1482254064881676 0
          4.2606309567602798 8.1558351511481018 0
          4.2583513593205335 8.163372924156608 0
          4.2558107855309757 8.1708268366504093 0
          4.2531723574763536 8.1782468366591168 0
          4.250442516102277 8.185633879851272 0
          4.2476201810227368 8.1929862898600465 0
          4.2447107683548548 8.2003049194819528 0
          4.2417195395911511 8.2075907683345193 0
          4.2386503453064019 8.2148444346064107 0
          4.2355275910794683 8.2220755879567591 0
          4.2323864848169954 8.2292992633883664 0
          4.2293245002650544 8.2365574894414681 0
          4.2263951384187086 8.243871074069423 0
        </DataArray>
      </Points>
      <Cells>
        <DataArray type="Int32" Name="connectivity" format="ascii">
          0 1 1 2 2 3 3 4 4 5 5 6 6 7 7 8 8 9 9 10 10 11 11 12 12 13 13 14 14 15 15 16 16 17 17 18 18 19 19 20 20 21 21 22 22 23 23 24 24 25 25 26 26 27 27 28 28 29 29 30 30 31 31 32 32 33 33 34 34 35 35 36 36 37 37 38 38 39 39 40 40 41 41 42 42 43 43 44 44 45 45 46 46 47 47 48 48 49 49 50 50 51 51 52 52 53 53 54 54 55 55 56 56 57 57 58 58 59 59 60 60 61 61 62 62 63 63 64 64 65 65 66 66 67 67 68 68 69 69 70 70 71 71 72 72 73 73 74 74 75 75 76 76 77 77 78 78 79 79 80 80 81 81 82 82 83 83 84 84 85 85 86 86 87 87 88 88 89 89 90 90 91 91 92 92 93 93 94 94 95 95 96 96 97 97 98 98 99 99 100 100 101 101 102 102 103 103 104 104 105 105 106 106 107 107 108 108 109 109 110 110 111 111 112 112 113 113 114 114 115 115 116 116 117 117 118 118 119 119 120 120 121 121 122 122 123 123 124 124 125 125 126 126 127 
        </DataArray>
        <DataArray type="Int32" Name="offsets" format="ascii">
          2 4 6 8 10 12 14 16 18 20 22 24 26 28 30 32 34 36 38 40 42 44 46 48 50 52 54 56 58 60 62 64 66 68 70 72 74 76 78 80 82 84 86 88 90 92 94 96 98 100 102 104 106 108 110 112 114 116 118 120 122 124 126 128 130 132 134 136 138 140 142 144 146 148 150 152 154 156 158 160 162 164 166 168 170 172 174 176 178 180 182 184 186 188 190 192 194 196 198 200 202 204 206 208 210 212 214 216 218 220 222 224 226 228 230 232 234 236 238 240 242 244 246 248 250 252 254 
        </DataArray>
        <DataArray type="Int32" Name="types" format="ascii">
          3 3 3 3 3 3 3 3 3 3 3 3 3 3 3 3 3 3 3 3 3 3 3 3 3 3 3 3 3 3 3 3 3 3 3 3 3 3 3 3 3 3 3 3 3 3 3 3 3 3 3 3 3 3 3 3 3 3 3 3 3 3 3 3 3 3 3 3 3 3 3 3 3 3 3 3 3 3 3 3 3 3 3 3 3 3 3 3 3 3 3 3 3 3 3 3 3 3 3 3 3 3 3 3 3 3 3 3 3 3 3 3 3 3 3 3 3 3 3 3 3 3 3 3 3 3 3         </DataArray>
      </Cells>
    </Piece>
  </UnstructuredGrid>
</VTKFile>
