<?xml version="1.0"?>
<VTKFile type="UnstructuredGrid" version="0.1" byte_order="LittleEndian">
  <UnstructuredGrid>
    <Piece NumberOfPoints="128" NumberOfCells="127">
      <PointData Scalars="W">
        <DataArray type="Float32" Name="W" NumberOfComponents="2">
          0 0 0.78506475785382612 0.24473182092055407 1.2014860743832587 0.36378612327265847 1.5137025260635137 0.43995309763891099 1.7707883973782439 0.48895939440901387 1.9926676503894545 0.51745994531596717 2.1898168669116163 0.52913772753592947 2.368441736536651 0.52630962220041078 2.5325454012202098 0.51056796933514503 2.6847787174869451 0.48305697661852387 2.8270319100931482 0.44465053344892852 2.9605979970472118 0.3960209408473625 3.0864081024935022 0.3377092313988323 3.2051097372364565 0.27015788677027258 3.3171216596961681 0.19373737274951852 3.4227136085203966 0.10876935984486848 3.5221042551603223 0.015539176060671388 3.6153445516933971 -0.085699983568154961 3.7024486073893437 -0.19471430564074799 3.7833971585064474 -0.31128877446256786 3.8580947560751313 -0.43522068706021516 3.9263752623405801 -0.56631082971491487 3.9880670049754867 -0.70436613815985494 4.0429423282010406 -0.84919031194076289 4.0907509724873448 -1.0005841456085451 4.1312669744673123 -1.1583573310749822 4.1641864680831775 -1.3223022227063335 4.1891344267145412 -1.4921815868857378 4.2057983933233682 -1.6677691932422576 4.2141080313088723 -1.8489495384048218 4.2133423483882311 -2.0353351727527182 4.2031168908908558 -2.226639305674976 4.1830324772448657 -2.4225552038623519 4.152668997059882 -2.6227494309315298 4.1115984552952911 -2.8268659843768718 4.0593445518375377 -3.0344933905291813 3.9953751471273855 -3.245140483335244 3.9192600225724252 -3.4583551910837409 3.8305651755304635 -3.673659811045678 3.7287591793313468 -3.8904484573773752 3.6133340382607861 -4.1080747976355259 3.4838077167503925 -4.3258564915760882 -1.3047355602273754 1.6657751077770657 -1.2316923968812912 1.5215954367491842 -1.149670370753789 1.3781213821581948 -1.0584879409492796 1.2346230390764459 -1.0194141418366101 1.1594389644787433 -0.91752473829806314 1.0197047863214681 -0.81067777797597129 0.88282369586679654 -0.69751171200263717 0.74638317700997858 -0.64824583972352845 0.68300461901939236 -0.46089468064219941 0.47949573133073903 -0.33729324566813479 0.34774182966840755 10.681043179769702 -12.495031045782586 -2.0835733801625214 2.7071000155837615 -0.92446471532781838 1.1543878137498893 -0.89192474640586794 1.0881792391486464 -0.85919425361524815 1.0254404118188107 -0.78224055266560388 0.91484338039515067 -0.74745541666291471 0.85801883375274546 -0.7126852740717553 0.80386058456506537 -0.6781954536898438 0.75241074827197052 -0.59860158892703119 0.65420121758899819 -0.56481767414536987 0.60896067778118335 -0.48524607577191997 0.51685140935015161 -0.45336643954332051 0.47771478411155122 -0.42304662804393128 0.44132639597652507 -0.39348786704479161 0.40670021004804591 -0.36673953853119179 0.37581006421661467 -0.34198015963179496 0.34765426300608804 -0.31932159742077137 0.32222240844052435 -0.29886259535018161 0.29950272170170089 -0.28068921368548061 0.27948179220481639 -0.2648753596333257 0.26214427144447405 -0.25148476728557373 0.24747386652974149 -0.24057131045271629 0.23545255001725079 -0.23218037401277283 0.22606073157645978 -0.22634923986998171 0.21927639053383799 -0.22310902104458655 0.21507566314056492 -0.22152507933609866 0.21251319814904532 -0.22353358173106871 0.21340133665039437 -0.2787867075362841 0.26469885779820823 -0.28638704904722062 0.2702515058030816 -0.29668527922195609 0.2782070633340008 -0.30971832251397768 0.28853208643731837 -0.32453933398385343 0.30028025441634792 -0.34307033916891955 0.31515714458972588 -0.36440033302489439 0.33222350796820316 -0.38856077247268433 0.3514118037478714 -0.46586422776551795 0.41750725609279399 -0.4953256240854883 0.43940265199364326 -0.52869540952541039 0.46394959682803999 -0.56512819784727297 0.49023229260929002 -0.60469790942241708 0.51814737032204661 -0.64656793934962808 0.54681026370786601 -0.69267438268013659 0.5776698586191289 -0.7421877223062765 0.60979031933174499 -0.84607963238008066 0.68379379137764906 -0.90353162384778074 0.71713689973984929 -0.96395162911264809 0.75050635656311959 -1.0293491679877795 0.78516764660428906 -1.0990251180815043 0.82021073647213427 -1.1732145677302057 0.85543904831732676 -1.2521849530643028 0.89064213085923694 -1.3362422446954383 0.92559459089526963 -1.3714605522797252 0.92401666537185367 -1.4657836347055027 0.95924480129682199 -1.5663635493345121 0.99358698942233059 -1.6737443084234853 1.0267421661643881 -1.7885566201439411 1.0583735078294014 -1.8527746112546826 1.0553018643443048 -1.9848165852833723 1.0854651156046831 -2.0640740866329192 1.0807963384215702 -2.2168770947418199 1.1078492650543093 -2.3820315594635688 1.1310153629999913 -2.4980205749649462 1.1219338055376908 -2.8632177630294886 1.2075526993988213 6.2056858199261606 -2.7235108588881398 5.8221679262223454 -2.9275621447863172 5.4871267269776816 -3.1156533958833972 5.3349093078808121 -3.3906016279518765 4.9398575151599191 -3.4883429885382631 4.4556336980961264 -3.4643483415794356 4.0099414683676473 -3.4037613477075799 3.0522165626971214 -2.7914829818278499 2.1055496858680525 -2.036085900988156 -1.6167283309385923 1.5717164177913385 0 0
        </DataArray>
        <DataArray type="Float32" Name="u" NumberOfComponents="1">
          0 0.007874015748031496 0.015748031496062992 0.023622047244094488 0.031496062992125984 0.03937007874015748 0.047244094488188976 0.055118110236220472 0.062992125984251968 0.070866141732283464 0.07874015748031496 0.086614173228346455 0.094488188976377951 0.10236220472440945 0.11023622047244094 0.11811023622047244 0.12598425196850394 0.13385826771653545 0.14173228346456693 0.14960629921259844 0.15748031496062992 0.16535433070866143 0.17322834645669291 0.18110236220472442 0.1889763779527559 0.19685039370078741 0.20472440944881889 0.2125984251968504 0.22047244094488189 0.2283464566929134 0.23622047244094488 0.24409448818897639 0.25196850393700787 0.25984251968503935 0.26771653543307089 0.27559055118110237 0.28346456692913385 0.29133858267716534 0.29921259842519687 0.30708661417322836 0.31496062992125984 0.32283464566929132 0.33070866141732286 0.33858267716535434 0.34645669291338582 0.3543307086614173 0.36220472440944884 0.37007874015748032 0.37795275590551181 0.38582677165354329 0.39370078740157483 0.40157480314960631 0.40944881889763779 0.41732283464566927 0.42519685039370081 0.43307086614173229 0.44094488188976377 0.44881889763779526 0.45669291338582679 0.46456692913385828 0.47244094488188976 0.48031496062992124 0.48818897637795278 0.49606299212598426 0.50393700787401574 0.51181102362204722 0.51968503937007871 0.52755905511811019 0.53543307086614178 0.54330708661417326 0.55118110236220474 0.55905511811023623 0.56692913385826771 0.57480314960629919 0.58267716535433067 0.59055118110236215 0.59842519685039375 0.60629921259842523 0.61417322834645671 0.62204724409448819 0.62992125984251968 0.63779527559055116 0.64566929133858264 0.65354330708661412 0.66141732283464572 0.6692913385826772 0.67716535433070868 0.68503937007874016 0.69291338582677164 0.70078740157480313 0.70866141732283461 0.71653543307086609 0.72440944881889768 0.73228346456692917 0.74015748031496065 0.74803149606299213 0.75590551181102361 0.76377952755905509 0.77165354330708658 0.77952755905511806 0.78740157480314965 0.79527559055118113 0.80314960629921262 0.8110236220472441 0.81889763779527558 0.82677165354330706 0.83464566929133854 0.84251968503937003 0.85039370078740162 0.8582677165354331 0.86614173228346458 0.87401574803149606 0.88188976377952755 0.88976377952755903 0.89763779527559051 0.90551181102362199 0.91338582677165359 0.92125984251968507 0.92913385826771655 0.93700787401574803 0.94488188976377951 0.952755905511811 0.96062992125984248 0.96850393700787396 0.97637795275590555 0.98425196850393704 0.99212598425196852 1
        </DataArray>
      </PointData>
      <CellData Scalars="P">
        <DataArray type="Float32" Name="P" NumberOfComponents="1">
          -0.024891429082900138 -0.072107162478827355 -0.11447986505352659 -0.15102161815488763 -0.18123007759117213 -0.2048612615366244 -0.22182070795991055 -0.23210295367632014 -0.2357535533360467 -0.23284530283187624 -0.22346036010548773 -0.20767933429228144 -0.18557241144605038 -0.15719330050017449 -0.12257522528895237 -0.081727405166356695 -0.03463065525426829 0.018762762948204878 0.078531673013814543 0.14478801456835394 0.21767707205061701 0.29737724002083882 0.38410138470648925 0.47809628663080733 0.57964282870545214 0.68905772666235388 0.80669141014926549 0.93292551708006055 1.068175429285811 1.2129015784978658 1.3675812134821987 1.5327217985414316 1.7088597570897011 1.8965586236104544 2.0964075860025977 2.3090172326697287 2.5350135987593645 2.7750419217391067 3.0297643069971278 3.2998492304264038 3.5859682847847396 3.888792845911925 3.7151744593274798 3.545920812553522 3.3835269677603108 3.2302195209612283 3.0808451814358411 2.9433602406181896 2.8187299189981858 2.7078379088161073 2.6034244041029386 2.5208575196055545 2.4524884303856989 3.5696395748884204 3.2928243373336801 3.1544724829386408 3.0220689139063475 2.8957753008510267 2.7802730259888753 2.6709495581309173 2.5677222136304918 2.4704349367851894 2.38287031750765 2.300563336329529 2.2268457901227321 2.1574812480215839 2.0920866602648482 2.0303363449375516 1.9717851422451542 1.9160654215222794 1.8628286474773585 1.8117507205421093 1.7625364357201803 1.7149230604317385 1.6686830077245089 1.6236257031340418 1.5795986468453205 1.5364877361630063 1.4942168711298767 1.4527466081842224 1.4120688490452038 1.3726949373647714 1.3344304463626113 1.2973568912015514 1.261580348517148 1.2272030887084202 1.1943900648924526 1.1632994102223189 1.1340992794945897 1.1088902100997804 1.0860277338102102 1.0657166329358752 1.0481233629213385 1.0334080187981656 1.0216768324020391 1.0131126659181329 1.0078400419532005 1.0085999006127333 1.0129064775300864 1.0207834903742727 1.0323346523729533 1.0475995831244362 1.066602457505726 1.0893533986429922 1.1158505528309783 1.1433025419596421 1.1744850844157202 1.2093729591510163 1.2479412757335508 1.2901711986613975 1.3333283905659092 1.3802518361721132 1.4282039120146155 1.4801016528000048 1.5360326765032279 1.5935975836845806 1.662325139131253 1.3969714115038037 1.1452369057361955 0.91026711249165926 0.6891984546244736 0.49454833758237265 0.33124954489219943 0.19846629208524003 0.10581983682298358 0.043899374479409344 0.018812452822279814
        </DataArray>
      </CellData>
      <Points>
        <DataArray type="Float32" NumberOfComponents="3" format="ascii">
          4.0301939931773472 5.7987929014369737 0
          4.0278256746272572 5.8063044289092414 0
          4.0255060573002819 5.8138311306754158 0
          4.0232609731610234 5.8213803892977438 0
          4.0211097895498753 5.8289569282341667 0
          4.0190684536026371 5.8365637867725422 0
          4.0171507282943804 5.8442027325996344 0
          4.0153688423985585 5.85187449013464 0
          4.013733875491508 5.8595788841737084 0
          4.0122560063148605 5.8673149386165875 0
          4.0109446772439146 5.8750809474097601 0
          4.0098087115658361 5.8828745287301789 0
          4.0088563937069814 5.8906926666696551 0
          4.0080955270072227 5.8985317447799952 0
          4.0075334738979125 5.9063875735071854 0
          4.0071771818871618 5.9142554131598786 0
          4.0070332002986966 5.9221299938520904 0
          4.0071076938405943 5.9300055331922836 0
          4.0074064457682192 5.9378757519797922 0
          4.0079348587597794 5.9457338886994267 0
          4.0086979537198575 5.9535727128505673 0
          4.0097003638553899 5.9613845375129886 0
          4.0109463243651211 5.9691612316967877 0
          4.0124396617840778 5.9768942323115279 0
          4.0141837798537985 5.9845745563368915 0
          4.0161816439888982 5.992192813174479 0
          4.0184357672491835 5.999739216448801 0
          4.0209481914780536 6.0072035968849962 0
          4.0237204640255069 6.0145754170234484 0
          4.0267536183510249 6.0218437852536493 0
          4.030048169643826 6.0289974629817298 0
          4.0336040700824931 6.0360248886689574 0
          4.0374206849690522 6.04291419562899 0
          4.0414967679489457 6.0496532310650153 0
          4.0458304349325722 6.0562295767664329 0
          4.0504191375278218 6.062630571208679 0
          4.0552596334768571 6.0688433350976618 0
          4.0603479536302789 6.0748548018614095 0
          4.0656793752449367 6.0806517457209202 0
          4.0712483950492482 6.08622081135527 0
          4.0770486962684194 6.0915485515222532 0
          4.0830731171069061 6.0966214671923771 0
          4.0893136208458625 6.1014260499207982 0
          4.095473104628744 6.1063338842824813 0
          4.1015561018939399 6.1113360225078939 0
          4.1075677029813544 6.1164235614826952 0
          4.1135135663175859 6.1215875975054885 0
          4.1193961210218024 6.1268234668975357 0
          4.1252216894284253 6.1321225012411773 0
          4.1309969013223986 6.1374762101523661 0
          4.1367287782834445 6.14287613161496 0
          4.1424203813428706 6.14831833747375 0
          4.1480833302703468 6.1537902067408012 0
          4.1537252937169002 6.159283571366295 0
          4.1600295625050689 6.1640021252852222 0
          4.1662046181964874 6.1688885314070783 0
          4.1723223020040736 6.1738464802394457 0
          4.1783846356739529 6.1788718670178575 0
          4.1843936526976018 6.1839608024843526 0
          4.1903541276104201 6.1891064294514671 0
          4.1962682212297286 6.1943052261478702 0
          4.2021380933377923 6.1995538363880094 0
          4.2079658862269476 6.2048490721524203 0
          4.2137565380347155 6.2101848458680813 0
          4.219512147187193 6.2155583550568938 0
          4.2252376504475171 6.2209638910425591 0
          4.2309350280666855 6.2263990302190306 0
          4.236606163457612 6.2318615194462357 0
          4.2422528927112619 6.2373492148794876 0
          4.247876877540306 6.2428602043285073 0
          4.2534796561992732 6.2483927451156021 0
          4.2590626365429207 6.2539452634037902 0
          4.2646270898977452 6.2595163534413913 0
          4.2701741457193734 6.2651047767076635 0
          4.2757047870030513 6.2707094609406369 0
          4.2812198463245812 6.2763294991088197 0
          4.2867200024924523 6.2819641482778472 0
          4.2922057777262959 6.2876128283827235 0
          4.2976775353379146 6.2932751208518791 0
          4.3031354777951414 6.2989507671193934 0
          4.308579704677304 6.3046396100178503 0
          4.3140100926010003 6.3103417061208278 0
          4.3194232158729431 6.3160602365646445 0
          4.3248186038220133 6.3217955466581346 0
          4.3301956182828505 6.3275481305099524 0
          4.335553451305751 6.3333186289581827 0
          4.3408911838849269 6.339107770917555 0
          4.3462076667527043 6.3449164791043069 0
          4.3515015768860206 6.3507458118224465 0
          4.3567714155619619 6.3565969587842188 0
          4.3620123875683303 6.3624740169664387 0
          4.367222665062533 6.3683783435997947 0
          4.3724001776827102 6.3743114601743098 0
          4.3775426649994165 6.3802749956836529 0
          4.3826476719465681 6.3862706802258096 0
          4.3877126007353047 6.3923002901865624 0
          4.3927345907746389 6.398365738047378 0
          4.397710570147737 6.4044690143898864 0
          4.4026340937324235 6.4106147055034191 0
          4.407501597259472 6.4168048775997368 0
          4.4123093324418736 6.4230415984975631 0
          4.4170532423429067 6.4293270160566918 0
          4.4217290047692597 6.4356633017823714 0
          4.4263320177125669 6.4420526386467412 0
          4.4308573827843523 6.4484972080500418 0
          4.4352998862604469 6.4549991758552636 0
          4.4396573441394116 6.4615584441988423 0
          4.4439239063020404 6.4681771961242385 0
          4.4480933347780871 6.4748575597744376 0
          4.452158970024076 6.4816015897340638 0
          4.4561136918230968 6.4884112461536008 0
          4.4599535184586232 6.4952863389495956 0
          4.4636702615115214 6.5022287373919596 0
          4.4672590068396127 6.5092381526380079 0
          4.470710278829471 6.5163162612870478 0
          4.4740138361121451 6.5234644990219683 0
          4.477162487011201 6.5306823036951993 0
          4.4801335837030303 6.5379749792649706 0
          4.48348938435658 6.5450985424740331 0
          4.4872061023108349 6.5520404102065122 0
          4.4912629712074468 6.5587889859418373 0
          4.495650572099974 6.565327282670431 0
          4.500344437579118 6.571649290107362 0
          4.5053145794573588 6.5777565384738006 0
          4.5105334039716345 6.5836528193084032 0
          4.5159415802901437 6.5893761320032231 0
          4.521480467337339 6.5949733526799514 0
          4.5269193824147873 6.6006683292777817 0
        </DataArray>
      </Points>
      <Cells>
        <DataArray type="Int32" Name="connectivity" format="ascii">
          0 1 1 2 2 3 3 4 4 5 5 6 6 7 7 8 8 9 9 10 10 11 11 12 12 13 13 14 14 15 15 16 16 17 17 18 18 19 19 20 20 21 21 22 22 23 23 24 24 25 25 26 26 27 27 28 28 29 29 30 30 31 31 32 32 33 33 34 34 35 35 36 36 37 37 38 38 39 39 40 40 41 41 42 42 43 43 44 44 45 45 46 46 47 47 48 48 49 49 50 50 51 51 52 52 53 53 54 54 55 55 56 56 57 57 58 58 59 59 60 60 61 61 62 62 63 63 64 64 65 65 66 66 67 67 68 68 69 69 70 70 71 71 72 72 73 73 74 74 75 75 76 76 77 77 78 78 79 79 80 80 81 81 82 82 83 83 84 84 85 85 86 86 87 87 88 88 89 89 90 90 91 91 92 92 93 93 94 94 95 95 96 96 97 97 98 98 99 99 100 100 101 101 102 102 103 103 104 104 105 105 106 106 107 107 108 108 109 109 110 110 111 111 112 112 113 113 114 114 115 115 116 116 117 117 118 118 119 119 120 120 121 121 122 122 123 123 124 124 125 125 126 126 127 
        </DataArray>
        <DataArray type="Int32" Name="offsets" format="ascii">
          2 4 6 8 10 12 14 16 18 20 22 24 26 28 30 32 34 36 38 40 42 44 46 48 50 52 54 56 58 60 62 64 66 68 70 72 74 76 78 80 82 84 86 88 90 92 94 96 98 100 102 104 106 108 110 112 114 116 118 120 122 124 126 128 130 132 134 136 138 140 142 144 146 148 150 152 154 156 158 160 162 164 166 168 170 172 174 176 178 180 182 184 186 188 190 192 194 196 198 200 202 204 206 208 210 212 214 216 218 220 222 224 226 228 230 232 234 236 238 240 242 244 246 248 250 252 254 
        </DataArray>
        <DataArray type="Int32" Name="types" format="ascii">
          3 3 3 3 3 3 3 3 3 3 3 3 3 3 3 3 3 3 3 3 3 3 3 3 3 3 3 3 3 3 3 3 3 3 3 3 3 3 3 3 3 3 3 3 3 3 3 3 3 3 3 3 3 3 3 3 3 3 3 3 3 3 3 3 3 3 3 3 3 3 3 3 3 3 3 3 3 3 3 3 3 3 3 3 3 3 3 3 3 3 3 3 3 3 3 3 3 3 3 3 3 3 3 3 3 3 3 3 3 3 3 3 3 3 3 3 3 3 3 3 3 3 3 3 3 3 3         </DataArray>
      </Cells>
    </Piece>
  </UnstructuredGrid>
</VTKFile>
