<?xml version="1.0"?>
<VTKFile type="UnstructuredGrid" version="0.1" byte_order="LittleEndian">
  <UnstructuredGrid>
    <Piece NumberOfPoints="128" NumberOfCells="127">
      <PointData Scalars="W">
        <DataArray type="Float32" Name="W" NumberOfComponents="2">
          0 0 0.50672311250796409 -0.58286746265679112 0.75126307197336295 -0.87751679394064053 0.92766238641126786 -1.1062782310506165 1.0639616536666781 -1.300999372613137 1.1717996981249286 -1.4746158721603007 1.2575208269644609 -1.6339727622599585 1.3250735303003098 -1.7831831434847536 1.3771241987150005 -1.9249201134068021 1.4155061247993186 -2.0609149045274187 1.4415992107221014 -2.1924112546367067 1.4564405468888246 -2.3202817139115184 1.4608173720513449 -2.44512563873616 1.45531788872054 -2.5673088140961511 1.4403873544032115 -2.6870163195252439 1.4163928744044227 -2.8043373819219126 1.3836767154986249 -2.9193591943303998 1.3424940794369435 -3.0320339431724515 1.2930684735886033 -3.1422661194532142 1.235617047011395 -3.2499670311876105 1.1703225633323857 -3.3549829639784297 1.09734780867715 -3.4571098872318959 1.0168573336845323 -3.5561455618104478 0.92902113111575735 -3.6519126101815802 0.83398778513461147 -3.7441575920501924 0.73192640990735425 -3.8327137493351753 0.62298819767359481 -3.9173541629997555 0.50731273877059646 -3.9977520353891638 0.38506096272608203 -4.0736615554614968 0.25641240155049999 -4.1452132566156603 0.12147665132496833 -4.2118475233006603 -0.019592292773182481 -4.273344029468725 -0.16664407170561601 -4.3294588271369632 -0.31953436556853693 -4.3799946839932549 -0.47812588041754994 -4.4247222971178566 -0.64229164830719876 -4.4634329764117826 -0.8118983305271914 -4.4958228067340462 -0.98684293232333509 -4.5217282850071339 -1.1670506027460841 -4.540992617927305 -1.3524209837507641 -4.5532762049007447 -1.5428726317077837 -4.558290821148498 -1.7383438436964322 -4.55575888418171 1.5026363568856005 3.9060891605535115 1.5488818345911597 4.4918524349973419 1.3561944449741876 4.463500931134865 1.1729714848449355 4.4352648178952219 0.99375260675995558 4.38680477134226 0.82444099621394551 4.3414930238821512 0.66065445641136267 4.2779661423728736 0.50649876765118163 4.2203215665717932 0.35878717775251168 4.1460123022218704 0.21945714592494028 4.0676198993871093 0.088445095442730437 3.9990566837422401 -0.035448484619969009 3.9155757047333619 -0.15161853380514706 3.830362409304982 -0.27055510340814809 3.8639599517527969 -0.38211251092133047 3.8008347836856613 -0.48893943222646913 3.737558315399458 -0.47546543281501075 3.0054405188804498 -0.53693595972448405 2.9398736293211285 -0.59492836578026798 2.8760726639374976 -0.64977366918620605 2.8142301917882833 -0.69932968699132247 2.7452430386632658 -0.74868496113721883 2.6886746081430988 -0.9924370269362407 3.2547471525901108 -1.0681755284756917 3.1952045704945555 -1.1423224497640327 3.1387528448828954 -1.2154937475506105 3.0856858290209543 -1.2881723033309633 3.0358858909001607 -1.3609453704464234 2.9894739340262193 -1.4343386941674676 2.9463772198567209 -1.5088490366101983 2.9064443022419986 -1.584991063224666 2.8695414451447485 -1.6630620638575218 2.8351441837456406 -1.7434683106514144 2.8029647698140345 -1.4581976263899001 2.2260336980775848 -1.5184698196017639 2.2148525421010565 -1.5879921421863927 2.2136157457718189 -1.6550863092065473 2.2050413794448378 -1.7256668834549782 2.1973330850482173 -1.7996931097927895 2.1898751170008248 -1.8773411442056054 2.1823536105836379 -1.958704532655607 2.1743546432243184 -2.0438709850600465 2.1654656017500904 -1.6786630842548342 1.70482161777879 -1.7577978991562331 1.7182722788605467 -1.8337332353989479 1.7235643633242232 -1.9133992065987053 1.7274772040380557 -1.9968044858312348 1.7296305637758935 -2.0839538039274443 1.7296430689498523 -1.6958588521802755 1.3533754518265038 -1.7752900088704955 1.3669851290247916 -1.858240731405028 1.3784927086966836 -1.9446981381115234 1.3875520086626627 -2.0346501624169164 1.3938153413075709 -1.6345238051164312 1.0783632303909443 -1.7194979031914976 1.0959767724999769 -1.8076352871436556 1.1109347252990249 -1.898905992245381 1.1229049329836571 -1.9932722433045658 1.1315482220756099 -2.0986380878804831 1.140743963711818 -2.1992315949081074 1.1413882744154014 -1.7834679482825391 0.886127942834956 -1.8803102242401935 0.89692386466063012 -1.9797782387250347 0.90393042506366017 -2.6133039050004387 1.131265089184887 -2.7272667180200831 1.1074650368102981 -2.8434761382929321 1.0773317312716608 -2.9533642879470401 1.037635609565374 -3.0734030349869759 0.99407399818231834 -3.7700065918250076 1.1030401568748394 -3.9027155388819992 1.0102492427370537 -4.0268173436317163 0.90543513786738627 -4.7679969535499138 0.89631927183842108 -4.8992174087767344 0.72648113176008178 -5.6734553298697046 0.59932061348620302 -4.2630573420619768 0.28159277278037764 -4.2874288068832298 0.13829587258543441 -4.2474063729594045 -0.0058205382505502681 -4.2617687156400921 -0.14873715982354321 -4.8857278729198264 -0.34729946373832898 -4.9489486089304258 -0.54589407551246827 -4.8585001890870947 -0.72842190590026124 -4.6867904020658653 -0.88658643169388363 -4.3487228895880614 -0.9876108514009696 -3.6597362221803573 -0.95708598900954223 -3.2150335547794584 -0.93805740703550577 0 0
        </DataArray>
        <DataArray type="Float32" Name="u" NumberOfComponents="1">
          0 0.007874015748031496 0.015748031496062992 0.023622047244094488 0.031496062992125984 0.03937007874015748 0.047244094488188976 0.055118110236220472 0.062992125984251968 0.070866141732283464 0.07874015748031496 0.086614173228346455 0.094488188976377951 0.10236220472440945 0.11023622047244094 0.11811023622047244 0.12598425196850394 0.13385826771653545 0.14173228346456693 0.14960629921259844 0.15748031496062992 0.16535433070866143 0.17322834645669291 0.18110236220472442 0.1889763779527559 0.19685039370078741 0.20472440944881889 0.2125984251968504 0.22047244094488189 0.2283464566929134 0.23622047244094488 0.24409448818897639 0.25196850393700787 0.25984251968503935 0.26771653543307089 0.27559055118110237 0.28346456692913385 0.29133858267716534 0.29921259842519687 0.30708661417322836 0.31496062992125984 0.32283464566929132 0.33070866141732286 0.33858267716535434 0.34645669291338582 0.3543307086614173 0.36220472440944884 0.37007874015748032 0.37795275590551181 0.38582677165354329 0.39370078740157483 0.40157480314960631 0.40944881889763779 0.41732283464566927 0.42519685039370081 0.43307086614173229 0.44094488188976377 0.44881889763779526 0.45669291338582679 0.46456692913385828 0.47244094488188976 0.48031496062992124 0.48818897637795278 0.49606299212598426 0.50393700787401574 0.51181102362204722 0.51968503937007871 0.52755905511811019 0.53543307086614178 0.54330708661417326 0.55118110236220474 0.55905511811023623 0.56692913385826771 0.57480314960629919 0.58267716535433067 0.59055118110236215 0.59842519685039375 0.60629921259842523 0.61417322834645671 0.62204724409448819 0.62992125984251968 0.63779527559055116 0.64566929133858264 0.65354330708661412 0.66141732283464572 0.6692913385826772 0.67716535433070868 0.68503937007874016 0.69291338582677164 0.70078740157480313 0.70866141732283461 0.71653543307086609 0.72440944881889768 0.73228346456692917 0.74015748031496065 0.74803149606299213 0.75590551181102361 0.76377952755905509 0.77165354330708658 0.77952755905511806 0.78740157480314965 0.79527559055118113 0.80314960629921262 0.8110236220472441 0.81889763779527558 0.82677165354330706 0.83464566929133854 0.84251968503937003 0.85039370078740162 0.8582677165354331 0.86614173228346458 0.87401574803149606 0.88188976377952755 0.88976377952755903 0.89763779527559051 0.90551181102362199 0.91338582677165359 0.92125984251968507 0.92913385826771655 0.93700787401574803 0.94488188976377951 0.952755905511811 0.96062992125984248 0.96850393700787396 0.97637795275590555 0.98425196850393704 0.99212598425196852 1
        </DataArray>
      </PointData>
      <CellData Scalars="P">
        <DataArray type="Float32" Name="P" NumberOfComponents="1">
          -0.0201022728460028 -0.058329357364041656 -0.092857556954144674 -0.12282860836652229 -0.14772807065303994 -0.16723888099507733 -0.18116971549526245 -0.18941388316029034 -0.19192328145569582 -0.18869280828823795 -0.17974730339672432 -0.16513271171829749 -0.14490958322100683 -0.11914873482928233 -0.087927791970635161 -0.051326983545723591 -0.0094232381197308732 0.037711594784603855 0.090014383177318844 0.14743567770259566 0.2099424789631377 0.27752126787748471 0.35018253289357304 0.42796605750223349 0.51094310617091654 0.59922377042080854 0.69295977186769264 0.79234584038979905 0.89762707625828675 1.0091170416654573 1.1271789907001859 1.252242493685803 1.3848076532731219 1.5254520578737762 1.6748348468739436 1.8337028794828305 2.0028919722139276 2.1833382441756184 2.3760844137237638 2.5822766701780506 2.8031720373925508 3.0401440198473115 2.7328763032837844 2.4132555411372092 2.0846972116754485 1.7501162792959093 1.4136400310995665 1.0774536553073428 0.74506864372138248 0.41795383141703663 0.09900403107442525 -0.21008197777938889 -0.50885433799560964 -0.79531291670866933 -1.06865502486797 -1.3362595928750822 -1.5911151363245462 -1.8329904892804922 -2.0607543098321144 -2.2750615170566055 -2.4758352594796622 -2.6628598766924862 -2.8353577700438852 -2.9933668978895533 -3.1359482301087698 -3.2629994021827944 -3.374178665975994 -3.4693087014733708 -3.5483531165027293 -3.6114129859035264 -3.6587143438430347 -3.6906023133386046 -3.7075382494518299 -3.7101027270913356 -3.6990011737865971 -3.6750743016564451 -3.6391691017649075 -3.5917230120062467 -3.53359565841573 -3.4653086128099253 -3.3873111517770851 -3.299980622852313 -3.2036380156832269 -3.0985588303583582 -3.0150623110096166 -2.9244265413214792 -2.8273344104221816 -2.7240093817701232 -2.6146790682330141 -2.4995741127996745 -2.4117461515549281 -2.3193289091174925 -2.2225840132767649 -2.1217916145713533 -2.0172467976630397 -1.9409615109032299 -1.8615440440730116 -1.7793469117470533 -1.6947463310138127 -1.6081387015522268 -1.5194885440169903 -1.429676313841777 -1.3663961871875214 -1.3021918355036863 -1.2375615258543025 -1.1485782026623863 -1.0610739776369242 -0.97553344431094424 -0.89276113665783341 -0.81288459625972487 -0.71669363618730209 -0.62525516683398241 -0.53909928325702894 -0.44141842362602762 -0.35025060767819077 -0.25014972257549573 -0.19069716241486342 -0.13755568342465735 -0.09162598289828508 -0.05151064125055517 -0.017701353521033327 0.011414138466183532 0.033310700668927502 0.046538294240545806 0.048916262706878613 0.037874301318059203 0.016011133389922615
        </DataArray>
      </CellData>
      <Points>
        <DataArray type="Float32" NumberOfComponents="3" format="ascii">
          3.8874082032951898 9.3826813624337291 0
          3.8933355524638693 9.3878661104510481 0
          3.8992943376081022 9.3930147217723956 0
          3.905299729010451 9.3981089274266516 0
          3.9113626693323136 9.4031345423452439 0
          3.9174916134356375 9.4080794912008319 0
          3.9236932504788813 9.4129330065751162 0
          3.9299728974934127 9.4176852046773085 0
          3.9363347443083114 9.4223268304154111 0
          3.9427820189303184 9.4268490917359635 0
          3.9493171012414545 9.431243552356257 0
          3.9559416085714494 9.435502054718901 0
          3.9626564600077123 9.4396166659604326 0
          3.9694619252111201 9.4435796408194204 0
          3.9763576608911144 9.4473833990283769 0
          3.9833427384203364 9.4510205139116845 0
          3.9904156666084383 9.4544837069273218 0
          3.9975744129425994 9.4577658423336519 0
          4.0048164194362652 9.4608599302278495 0
          4.0121386165208879 9.4637591325403321 0
          4.0195374365525636 9.4664567686034893 0
          4.0270088251957326 9.4689463247492078 0
          4.0345482515777711 9.4712214670219055 0
          4.0421507185629943 9.4732760537740859 0
          4.0498107733740465 9.4751041467122015 0
          4.0575225168950464 9.4767000266505868 0
          4.0652796142569105 9.4780582038786463 0
          4.0730753043192225 9.4791734322467711 0
          4.0809024084398047 9.4800407294323747 0
          4.0887533405726506 9.480655392167586 0
          4.096620118522984 9.4810129881112051 0
          4.1044943708665231 9.4811093905024428 0
          4.1123673466208386 9.480940791754044 0
          4.1202299246871075 9.4805037184904641 0
          4.1280726229092455 9.4797950436690925 0
          4.1358856066858403 9.4788120006705991 0
          4.1436586969262095 9.4775521960923701 0
          4.1513813783815889 9.4760136284296372 0
          4.1590428060703637 9.4741946980353671 0
          4.1666318099293944 9.4720942166535007 0
          4.1741369010138722 9.4697114282810624 0
          4.1815462764868325 9.4670460268439118 0
          4.1888478233439868 9.4640981732190674 0
          4.1962427882916202 9.4613924194288916 0
          4.2037337142544562 9.4589652144288703 0
          4.2113086581208394 9.4568147894962316 0
          4.2189562652109007 9.4549393840622802 0
          4.2266654303408284 9.4533359847872269 0
          4.2344256642174489 9.4520017747153791 0
          4.2422268215857928 9.4509328088498972 0
          4.2500593561875437 9.4501255083095863 0
          4.2579141232569429 9.4495752625782004 0
          4.2657825000364804 9.4492772097612239 0
          4.2736563820792934 9.4492270994159906 0
          4.2815281092592778 9.4494197585518478 0
          4.2893905036286517 9.4498499095084423 0
          4.2972362173799565 9.4505196442839523 0
          4.305058364616178 9.4514250616358133 0
          4.3128503564129241 9.4525622552038477 0
          4.3206126250934398 9.4538857672265735 0
          4.3283414412121335 9.4553915314870149 0
          4.3360332827636006 9.4570755974837599 0
          4.3436848150188441 9.4589341413082941 0
          4.3512930236906779 9.4609629002987639 0
          4.3588548998609884 9.4631583851483132 0
          4.3663551563225793 9.4655556423063079 0
          4.3737891517091141 9.4681509921684341 0
          4.3811523472195937 9.4709409546694658 0
          4.3884402683765362 9.4739222682405853 0
          4.3956484750395735 9.4770918833657394 0
          4.4027725248960339 9.480446971037102 0
          4.4098079406566617 9.4839849193035963 0
          4.416750178878444 9.4877033250146496 0
          4.4235945974370319 9.4915999866988443 0
          4.4303364361926167 9.4956728731988953 0
          4.436970790517802 9.4999201068902277 0
          4.4435144149123493 9.5043053072341053 0
          4.4499636106249953 9.5088277869824598 0
          4.4563140993419017 9.5134874752569836 0
          4.4625617491264444 9.5182838456526131 0
          4.4687022073849541 9.5232164246868614 0
          4.4747309039070631 9.528284753452624 0
          4.4806430404517545 9.5334883680595386 0
          4.4864335854745656 9.5388267739433168 0
          4.4920972692223309 9.5442994203310079 0
          4.4976567723971943 9.5498777528336696 0
          4.503107191306662 9.5555626038357939 0
          4.5084438204387718 9.5613542993130292 0
          4.5136617225749038 9.5672530791993449 0
          4.518755728478304 9.5732590739525758 0
          4.5237204367852728 9.5793722810422075 0
          4.5285799347835551 9.5855693801432942 0
          4.5333292985223519 9.5918512135361986 0
          4.537963386007112 9.5982184931856285 0
          4.5424768380561513 9.6046717793632244 0
          4.5468640790850383 9.6112114591675084 0
          4.5511499361174499 9.6178179849517971 0
          4.5553291410576398 9.6244924484363406 0
          4.5593962299349009 9.6312357769812564 0
          4.5633455447441751 9.6380487130254426 0
          4.5671712357614007 9.6449317930853269 0
          4.5708667712368527 9.6518855881156949 0
          4.5744259156752376 9.6589101394510894 0
          4.5778744609292321 9.6659896347680032 0
          4.5812064031549946 9.6731247460233849 0
          4.5844155757292624 9.6803159107335173 0
          4.5874626879959415 9.6875772146213937 0
          4.5903406754104221 9.6949071856916742 0
          4.5930423338895912 9.7023039597392859 0
          4.5955608511096679 9.7097650803173128 0
          4.5978887848012819 9.7172878515448016 0
          4.5999829342931919 9.7248790201104995 0
          4.6018350718025438 9.7325328377247331 0
          4.6034375025485481 9.7402428107823606 0
          4.6047442622512795 9.748008362224553 0
          4.6057472146870628 9.7558189648267994 0
          4.6063983471682661 9.7636667173266591 0
          4.606785123317211 9.7715319607562776 0
          4.6069060288896173 9.7794058076334451 0
          4.6067635431642282 9.7872793160254705 0
          4.6063567741343689 9.7951436102308751 0
          4.6056469547395631 9.8029870381914961 0
          4.6046300619616112 9.8107974319256215 0
          4.6033115870673926 9.8185635785749792 0
          4.601702058076798 9.8262757278031572 0
          4.5998223358230534 9.833927627801323 0
          4.5977150908210493 9.8415211571331245 0
          4.5954078826607851 9.8490573748122383 0
        </DataArray>
      </Points>
      <Cells>
        <DataArray type="Int32" Name="connectivity" format="ascii">
          0 1 1 2 2 3 3 4 4 5 5 6 6 7 7 8 8 9 9 10 10 11 11 12 12 13 13 14 14 15 15 16 16 17 17 18 18 19 19 20 20 21 21 22 22 23 23 24 24 25 25 26 26 27 27 28 28 29 29 30 30 31 31 32 32 33 33 34 34 35 35 36 36 37 37 38 38 39 39 40 40 41 41 42 42 43 43 44 44 45 45 46 46 47 47 48 48 49 49 50 50 51 51 52 52 53 53 54 54 55 55 56 56 57 57 58 58 59 59 60 60 61 61 62 62 63 63 64 64 65 65 66 66 67 67 68 68 69 69 70 70 71 71 72 72 73 73 74 74 75 75 76 76 77 77 78 78 79 79 80 80 81 81 82 82 83 83 84 84 85 85 86 86 87 87 88 88 89 89 90 90 91 91 92 92 93 93 94 94 95 95 96 96 97 97 98 98 99 99 100 100 101 101 102 102 103 103 104 104 105 105 106 106 107 107 108 108 109 109 110 110 111 111 112 112 113 113 114 114 115 115 116 116 117 117 118 118 119 119 120 120 121 121 122 122 123 123 124 124 125 125 126 126 127 
        </DataArray>
        <DataArray type="Int32" Name="offsets" format="ascii">
          2 4 6 8 10 12 14 16 18 20 22 24 26 28 30 32 34 36 38 40 42 44 46 48 50 52 54 56 58 60 62 64 66 68 70 72 74 76 78 80 82 84 86 88 90 92 94 96 98 100 102 104 106 108 110 112 114 116 118 120 122 124 126 128 130 132 134 136 138 140 142 144 146 148 150 152 154 156 158 160 162 164 166 168 170 172 174 176 178 180 182 184 186 188 190 192 194 196 198 200 202 204 206 208 210 212 214 216 218 220 222 224 226 228 230 232 234 236 238 240 242 244 246 248 250 252 254 
        </DataArray>
        <DataArray type="Int32" Name="types" format="ascii">
          3 3 3 3 3 3 3 3 3 3 3 3 3 3 3 3 3 3 3 3 3 3 3 3 3 3 3 3 3 3 3 3 3 3 3 3 3 3 3 3 3 3 3 3 3 3 3 3 3 3 3 3 3 3 3 3 3 3 3 3 3 3 3 3 3 3 3 3 3 3 3 3 3 3 3 3 3 3 3 3 3 3 3 3 3 3 3 3 3 3 3 3 3 3 3 3 3 3 3 3 3 3 3 3 3 3 3 3 3 3 3 3 3 3 3 3 3 3 3 3 3 3 3 3 3 3 3         </DataArray>
      </Cells>
    </Piece>
  </UnstructuredGrid>
</VTKFile>
