<?xml version="1.0"?>
<VTKFile type="UnstructuredGrid" version="0.1" byte_order="LittleEndian">
  <UnstructuredGrid>
    <Piece NumberOfPoints="128" NumberOfCells="127">
      <PointData Scalars="W">
        <DataArray type="Float32" Name="W" NumberOfComponents="2">
          0 0 0.33162903564809343 0.38860496189213806 0.4860177842306096 0.56385112514184055 0.60759262829338323 0.69560543869935343 0.71320463067026363 0.80366666427206834 0.80975918712008887 0.89611750027609061 0.90101330337499508 0.97729928113108 0.98926795029293635 1.0498024773506647 1.0760670917543949 1.1152901432215343 1.1624633843756043 1.1748219528484591 1.2492612481981789 1.2291347365858734 1.3370533664827424 1.2786968879486651 1.4262971886251259 1.3238001254555871 1.5173162922715655 1.3645746269323329 1.6103385457724997 1.4010385187289784 1.7055497237528701 1.4331544006529111 1.8031433967941164 1.4608728788655034 1.9032056821290442 1.4840397612361622 2.0058090770578914 1.5024816914882047 2.1110226590192318 1.5160132539666935 2.2188687599007855 1.5244059243989638 2.3293229540279765 1.5273942006497538 2.4423399871991198 1.5246975598814565 2.5578632738195219 1.5160271579011326 2.6757684028782851 1.5010542901476867 2.7959733235856645 1.4794768293462413 2.9183079719185208 1.4509451161253388 3.0425145592152507 1.4150754939685457 3.1683696715293603 1.3715145061096379 3.2959199300227873 1.3200189760654524 3.4245548161623076 1.2600728190955091 3.5539406219561385 1.1913089715157672 3.6836862747122567 1.1133551613315098 3.8133827422436788 1.0258503395316618 3.9425529616769346 0.92843216884204904 4.0706845648714305 0.82075139857010104 4.1971334274410701 0.70245898351784042 4.3213399433417639 0.57325263413204652 4.4427138890178828 0.43284408685264097 4.5604675661475298 0.28095167730514892 4.6737835693424739 0.11733780850002623 4.7818328098603606 -0.058190822782643523 -0.040288598610775495 0.0012435045723560385 0.23598696298769126 -0.0074659662938035736 0.51811024742363454 -0.017933636714175253 0.61621166176073605 -0.024089081169307747 0.90186513275216218 -0.040664843471431476 1.1931175976980914 -0.063681867415492116 1.2842812516469326 -0.08114742425463449 1.5740875456381849 -0.11731250995055829 1.8680178828298657 -0.16480411830151309 2.1640078792112898 -0.22577398036698243 2.2374790558146724 -0.27298614042733038 2.761412078209537 -0.39272866173734511 15.458815916418736 -3.3697356355741785 15.037936006065506 -5.3171192694861444 1.1643191857393955 -0.50290971653580485 0.90221062890559067 -0.39924175572893761 0.95151069643866459 -0.43019260318716673 0.99980831224743616 -0.46224579340049204 1.0481843297188305 -0.49598985498337872 1.0933822624912568 -0.52994986761639429 1.2855559459543311 -0.63975609276627599 1.3246913732732579 -0.67837853265775783 1.511519145655484 -0.79823997462001284 1.5443062805479411 -0.84273440112153664 1.5737044006227559 -0.88768544808756678 1.5995148393011505 -0.93287552484531999 1.6216294206940238 -0.9781110581059943 1.6399452836580442 -1.0231773090538718 1.6527986197057851 -1.0668091012184941 1.6633494547644945 -1.1108126124486932 1.5286799517155871 -1.0548034640950508 1.5343897274364184 -1.0924542277444402 1.5363515636201164 -1.1287781072567094 1.5346036350130774 -1.1635566784926685 1.5275892204297861 -1.1952887848869247 1.518544625686665 -1.2261866353818351 1.5059613561008949 -1.2548362310067491 1.489943641303725 -1.2810190391212373 1.4706342305580378 -1.3045430762954842 1.3258333489367644 -1.211658965474294 1.303664261100667 -1.2256186046708808 1.2787027907850002 -1.2364493434813653 1.251087607431852 -1.243982487373418 1.2209682619775328 -1.2480633426934202 1.1885205327326662 -1.2485708652809548 1.0449444126738225 -1.1263441193068013 1.0112611392375881 -1.116572734227782 0.9756805692943864 -1.1030167503321358 0.93832734863258449 -1.0855799797153087 0.89932452977296606 -1.0641806152403344 0.75997581440234496 -0.91808034398857041 0.72037694013189923 -0.88670864198131139 0.6793119292330293 -0.85133757172599334 0.63684919614085533 -0.81193743697601972 0.50128422456883759 -0.64878697286155984 0.45770615195785419 -0.60003773180800823 0.41259950502657977 -0.54731179022285392 0.36592565466322224 -0.49059246439350424 0.23228343759670125 -0.31399843381876741 0.18286634579905336 -0.24862548997861011 0.13129270982673552 -0.17928972394746304 0.077350779730075869 -0.10593699843564175 0.019636632901886764 -0.026930269390258634 -0.039837871107307014 0.054619371370670813 -0.1025716778218161 0.14034960099791269 -0.168946885168101 0.2302956529256279 -0.24068840587335666 0.32622358962983383 -0.31588973557529726 0.42486752068084865 -0.30860811885295109 0.41153069333203529 -0.3951122980368077 0.52186296605147231 -0.48681498071181761 0.63538667536608961 -0.49435735917650125 0.63684510765969127 -0.60003643344875279 0.76192334624468949 -0.61845669795969005 0.77296625921127171 -0.74328563820697124 0.91290101507235644 -0.77495787933056426 0.9337087821586042 -0.81440085736765555 0.96200528442120636 -0.97512806206381764 1.1268796248814998 -0.91353757882949549 1.0319120282654226 -1.5297820837817271 1.6787608427174854 -1.724456524604062 1.8222688469603268 -1.804703535326829 1.832196431723133 -2.0897868283538035 2.0318638909144382 -2.3010983827724329 2.1329907223566402 -2.0480680048927224 1.8121897950884434 0 0
        </DataArray>
        <DataArray type="Float32" Name="u" NumberOfComponents="1">
          0 0.007874015748031496 0.015748031496062992 0.023622047244094488 0.031496062992125984 0.03937007874015748 0.047244094488188976 0.055118110236220472 0.062992125984251968 0.070866141732283464 0.07874015748031496 0.086614173228346455 0.094488188976377951 0.10236220472440945 0.11023622047244094 0.11811023622047244 0.12598425196850394 0.13385826771653545 0.14173228346456693 0.14960629921259844 0.15748031496062992 0.16535433070866143 0.17322834645669291 0.18110236220472442 0.1889763779527559 0.19685039370078741 0.20472440944881889 0.2125984251968504 0.22047244094488189 0.2283464566929134 0.23622047244094488 0.24409448818897639 0.25196850393700787 0.25984251968503935 0.26771653543307089 0.27559055118110237 0.28346456692913385 0.29133858267716534 0.29921259842519687 0.30708661417322836 0.31496062992125984 0.32283464566929132 0.33070866141732286 0.33858267716535434 0.34645669291338582 0.3543307086614173 0.36220472440944884 0.37007874015748032 0.37795275590551181 0.38582677165354329 0.39370078740157483 0.40157480314960631 0.40944881889763779 0.41732283464566927 0.42519685039370081 0.43307086614173229 0.44094488188976377 0.44881889763779526 0.45669291338582679 0.46456692913385828 0.47244094488188976 0.48031496062992124 0.48818897637795278 0.49606299212598426 0.50393700787401574 0.51181102362204722 0.51968503937007871 0.52755905511811019 0.53543307086614178 0.54330708661417326 0.55118110236220474 0.55905511811023623 0.56692913385826771 0.57480314960629919 0.58267716535433067 0.59055118110236215 0.59842519685039375 0.60629921259842523 0.61417322834645671 0.62204724409448819 0.62992125984251968 0.63779527559055116 0.64566929133858264 0.65354330708661412 0.66141732283464572 0.6692913385826772 0.67716535433070868 0.68503937007874016 0.69291338582677164 0.70078740157480313 0.70866141732283461 0.71653543307086609 0.72440944881889768 0.73228346456692917 0.74015748031496065 0.74803149606299213 0.75590551181102361 0.76377952755905509 0.77165354330708658 0.77952755905511806 0.78740157480314965 0.79527559055118113 0.80314960629921262 0.8110236220472441 0.81889763779527558 0.82677165354330706 0.83464566929133854 0.84251968503937003 0.85039370078740162 0.8582677165354331 0.86614173228346458 0.87401574803149606 0.88188976377952755 0.88976377952755903 0.89763779527559051 0.90551181102362199 0.91338582677165359 0.92125984251968507 0.92913385826771655 0.93700787401574803 0.94488188976377951 0.952755905511811 0.96062992125984248 0.96850393700787396 0.97637795275590555 0.98425196850393704 0.99212598425196852 1
        </DataArray>
      </PointData>
      <CellData Scalars="P">
        <DataArray type="Float32" Name="P" NumberOfComponents="1">
          -0.040043062249876714 -0.11935288608709411 -0.19722692352425475 -0.2732518342628707 -0.34708522183908186 -0.41841063576338222 -0.48691683977072192 -0.5522875168322432 -0.61419545283183463 -0.67230010330773227 -0.72624529868066956 -0.77565879040803154 -0.82015202446864099 -0.85932123487659284 -0.89274869165972037 -0.9200031176545248 -0.94063873031012368 -0.95419823165945206 -0.96021315257132345 -0.95820378129113293 -0.94768077072732582 -0.92814701366966457 -0.89909859219691368 -0.86002527895383329 -0.81041372324982053 -0.74974541604591649 -0.67750095476863548 -0.59316484691723137 -0.496223975532748 -0.38615180281739053 -0.26244562300015017 -0.12461150376935348 0.027832045546646582 0.19535270961931206 0.37839969609357199 0.57740094527956576 0.79275341205719119 1.0248280181537504 1.2739669422369007 1.5404681525950548 1.8245813615971633 2.1265051771232151 2.0564077843462445 2.010227754011829 1.9889455672413978 1.9762368721149384 1.9880198489712115 2.0237170785297098 2.0648648917514163 2.1268675847577607 2.2079562952219423 2.3059451698099678 2.4019034170009896 2.5264908713323502 3.4387153528873853 4.2890290302040981 4.2921143292395092 4.2789959931634529 4.2693911574380587 4.2627762876024153 4.2586546644869481 4.2562802948558423 4.2642831412351132 4.2722522378683436 4.2882489555221674 4.3022928427297336 4.3136201749158198 4.321492189873342 4.3252083256661731 4.3241140493206327 4.3175445994482464 4.3050330712661662 4.2814371144475594 4.2516842545063049 4.2153927418093513 4.1722535279380946 4.1220073223100711 4.0645317424920799 3.9997505507554916 3.9276677970057463 3.8483672627956769 3.7628800455342426 3.6711610715884642 3.57343424342359 3.4699882136590978 3.3611727649530114 3.2473938948423346 3.1329306898285827 3.0148998620837308 2.8937620169627882 2.7700120248100983 2.644173265655251 2.5222897750411635 2.3997065932734327 2.2769247964049519 2.1544513000397134 2.0390619547600397 1.9251596692178463 1.8131826100827568 1.7035573697201642 1.603206535412836 1.5060825086462077 1.4125186850400944 1.3228272196345114 1.237386118317394 1.1563619214956489 1.0799789449098272 1.0084231928332386 0.9419360293196285 0.88052559734856184 0.81785457001735362 0.76054654548748146 0.70845300913710008 0.65545531883613695 0.60754951789795952 0.55874305696744853 0.51467377499000122 0.46940855495792178 0.42291021193934153 0.37979882673445298 0.32999178509471844 0.29577482735926164 0.25890352304878311 0.2148976278200497 0.16623332178618466 0.1092523083171683 0.039657447668676168
        </DataArray>
      </CellData>
      <Points>
        <DataArray type="Float32" NumberOfComponents="3" format="ascii">
          3.9937097924526985 7.161634342626594 0
          3.9877097960875854 7.1667338185721903 0
          3.9817303464965494 7.1718574033726883 0
          3.9757810078314448 7.17701597116434 0
          3.969869311449874 7.1822176984478698 0
          3.9640017998276091 7.1874692925501105 0
          3.9581844544328861 7.1927764930971883 0
          3.9524229285918384 7.1981443413342756 0
          3.9467226901597474 7.2035773408108827 0
          3.9410891172961469 7.20907956052557 0
          3.9355275637977756 7.2146547006371406 0
          3.9300434090509015 7.2203061381449425 0
          3.9246420948601899 7.2260369559151583 0
          3.9193291538944024 7.2318499607448459 0
          3.9141102298308024 7.2377476914026397 0
          3.9089910915630335 7.2437324197151414 0
          3.9039776447964227 7.2498061482044536 0
          3.8990759441244558 7.2559706069769945 0
          3.8942921984376717 7.262227244107347 0
          3.8896327754842415 7.2685772148280119 0
          3.8851042062146872 7.2750213699660495 0
          3.8807131862230646 7.2815602417004142 0
          3.8764665742832887 7.2881940270199683 0
          3.8723713895887197 7.2949225702441947 0
          3.8684348082841011 7.3017453450222911 0
          3.8646641557845158 7.3086614338537705 0
          3.8610669017176256 7.3156695092530084 0
          3.8576506493999001 7.3227678119595137 0
          3.854423119863541 7.3299541270333233 0
          3.8513921380106719 7.3372257618194636 0
          3.8485656355224611 7.3445795307525623 0
          3.8459516129795386 7.3520117232197206 0
          3.8435581191549484 7.3595180806670388 0
          3.841393226741145 7.3670937733787527 0
          3.8394650069570342 7.3747333779488944 0
          3.8377814999268516 7.3824308546691766 0
          3.8363506828623763 7.3901795257252809 0
          3.8351804300599452 7.3979720534016851 0
          3.8342784781403396 7.405800421185023 0
          3.8336523893845116 7.4136559157340747 0
          3.8333095028032829 7.4215291092543305 0
          3.8332568833575666 7.4294098446031924 0
          3.8335012704490405 7.4372872231393581 0
          3.8337431486547735 7.4451644678491382 0
          3.8339996763470778 7.4530410236813571 0
          3.834288372528746 7.4609162271603076 0
          3.8346153264512219 7.4687896993552592 0
          3.8349982718948712 7.4766603989590177 0
          3.8354552871877674 7.4845268853972682 0
          3.8359920255058593 7.4923880798007341 0
          3.836626470406582 7.5002417270366815 0
          3.8373768579840499 7.5080848698037919 0
          3.8382615485189602 7.5159137154610702 0
          3.8392850889473484 7.5237253427162312 0
          3.8404799791798241 7.5315122978964535 0
          3.8426343758388697 7.5390902932733228 0
          3.845722226881954 7.5463384444504547 0
          3.8488822769705613 7.5535552201286498 0
          3.8520982640224672 7.560747080235938 0
          3.8553732453416143 7.5679121068368307 0
          3.8587102157816613 7.5750483137305498 0
          3.8621121747875313 7.5821536098314626 0
          3.865581924400685 7.5892258908964196 0
          3.8691313822342188 7.5962583369219843 0
          3.8727629731213673 7.6032485554256315 0
          3.8764882811599399 7.6101891042797947 0
          3.8803093363039256 7.617077227807509 0
          3.8842279581617629 7.623910142216519 0
          3.8882457437096449 7.630685049102512 0
          3.8923640606192729 7.6373991474572165 0
          3.8965840409174741 7.6440496469895702 0
          3.9009064778659766 7.6506338466895638 0
          3.9053320219382712 7.6571490226066485 0
          3.9098523202464137 7.6635986615614486 0
          3.9144677236759575 7.6699804331146062 0
          3.9191783507703777 7.6762920893075508 0
          3.923984090139931 7.6825314782039094 0
          3.9288845040025944 7.6886966370546164 0
          3.9338790288540615 7.6947856549401088 0
          3.9389668819947037 7.7007967605337369 0
          3.9441470680357686 7.7067283356416993 0
          3.9494183877931328 7.7125789270936354 0
          3.9547718638197682 7.7183543048443228 0
          3.9602061204386332 7.7240536082437474 0
          3.9657196091901343 7.729676170772704 0
          3.9713106174671919 7.7352215304887535 0
          3.9769772778235946 7.7406894396028605 0
          3.9827175789065152 7.7460798719683037 0
          3.9885226217391261 7.7514004142277413 0
          3.9943903191996744 7.7566516769972464 0
          4.0003184670134821 7.7618345056080136 0
          4.0063047515071162 7.7669499860603999 0
          4.0123467572614473 7.7719994500875407 0
          4.018435849214919 7.776991962417906 0
          4.0245695757584574 7.7819294726132995 0
          4.0307453949101344 7.7868141782642599 0
          4.0369606785701313 7.7916485268360187 0
          4.0432070273237271 7.7964426388411647 0
          4.0494817445615681 7.8011995411405115 0
          4.0557820394142645 7.8059225072917737 0
          4.062105024357038 7.8106150586088612 0
          4.0684424198314968 7.8152881485221704 0
          4.074791168684575 7.8199458349842885 0
          4.08114808049418 7.8245924219445913 0
          4.0875098184172058 7.829232462756039 0
          4.0938728120912602 7.8338708617180943 0
          4.1002333823652659 7.8385126812736523 0
          4.1065876482968164 7.843163243610678 0
          4.1129315033960889 7.8478281329287789 0
          4.1192605085526939 7.8525133050088414 0
          4.1255700102189996 7.8572248848573745 0
          4.1318604728089889 7.8619620568433266 0
          4.1381265424623184 7.8667316727740371 0
          4.1443625426932558 7.8715407835101256 0
          4.1505680201286141 7.876389494446137 0
          4.1567364313229271 7.8812855757311455 0
          4.1628666489954389 7.8862297301899327 0
          4.1689509408748178 7.8912306526068265 0
          4.1749873577261427 7.8962896550682569 0
          4.1809734685081992 7.9014085162106991 0
          4.1868993107947237 7.9065974839451307 0
          4.1927687283101394 7.9118507005522565 0
          4.1985434627024789 7.9172082994124118 0
          4.2042114352851021 7.9226792120498333 0
          4.2097676742058816 7.9282640920934133 0
          4.2151944798694183 7.9339753598953067 0
          4.2204787336960523 7.939819331179347 0
          4.2256361736677022 7.9457761732848233 0
        </DataArray>
      </Points>
      <Cells>
        <DataArray type="Int32" Name="connectivity" format="ascii">
          0 1 1 2 2 3 3 4 4 5 5 6 6 7 7 8 8 9 9 10 10 11 11 12 12 13 13 14 14 15 15 16 16 17 17 18 18 19 19 20 20 21 21 22 22 23 23 24 24 25 25 26 26 27 27 28 28 29 29 30 30 31 31 32 32 33 33 34 34 35 35 36 36 37 37 38 38 39 39 40 40 41 41 42 42 43 43 44 44 45 45 46 46 47 47 48 48 49 49 50 50 51 51 52 52 53 53 54 54 55 55 56 56 57 57 58 58 59 59 60 60 61 61 62 62 63 63 64 64 65 65 66 66 67 67 68 68 69 69 70 70 71 71 72 72 73 73 74 74 75 75 76 76 77 77 78 78 79 79 80 80 81 81 82 82 83 83 84 84 85 85 86 86 87 87 88 88 89 89 90 90 91 91 92 92 93 93 94 94 95 95 96 96 97 97 98 98 99 99 100 100 101 101 102 102 103 103 104 104 105 105 106 106 107 107 108 108 109 109 110 110 111 111 112 112 113 113 114 114 115 115 116 116 117 117 118 118 119 119 120 120 121 121 122 122 123 123 124 124 125 125 126 126 127 
        </DataArray>
        <DataArray type="Int32" Name="offsets" format="ascii">
          2 4 6 8 10 12 14 16 18 20 22 24 26 28 30 32 34 36 38 40 42 44 46 48 50 52 54 56 58 60 62 64 66 68 70 72 74 76 78 80 82 84 86 88 90 92 94 96 98 100 102 104 106 108 110 112 114 116 118 120 122 124 126 128 130 132 134 136 138 140 142 144 146 148 150 152 154 156 158 160 162 164 166 168 170 172 174 176 178 180 182 184 186 188 190 192 194 196 198 200 202 204 206 208 210 212 214 216 218 220 222 224 226 228 230 232 234 236 238 240 242 244 246 248 250 252 254 
        </DataArray>
        <DataArray type="Int32" Name="types" format="ascii">
          3 3 3 3 3 3 3 3 3 3 3 3 3 3 3 3 3 3 3 3 3 3 3 3 3 3 3 3 3 3 3 3 3 3 3 3 3 3 3 3 3 3 3 3 3 3 3 3 3 3 3 3 3 3 3 3 3 3 3 3 3 3 3 3 3 3 3 3 3 3 3 3 3 3 3 3 3 3 3 3 3 3 3 3 3 3 3 3 3 3 3 3 3 3 3 3 3 3 3 3 3 3 3 3 3 3 3 3 3 3 3 3 3 3 3 3 3 3 3 3 3 3 3 3 3 3 3         </DataArray>
      </Cells>
    </Piece>
  </UnstructuredGrid>
</VTKFile>
