<?xml version="1.0"?>
<VTKFile type="UnstructuredGrid" version="0.1" byte_order="LittleEndian">
  <UnstructuredGrid>
    <Piece NumberOfPoints="128" NumberOfCells="127">
      <PointData Scalars="W">
        <DataArray type="Float32" Name="W" NumberOfComponents="2">
          0 0 0.031803785464022787 -0.53630074695553209 0.043037679488472043 -0.79655908193397096 0.047078183629434014 -1.0034622553405377 0.045239229956894125 -1.1814853480051881 0.038001223371562524 -1.3407422548279371 0.025576672684058332 -1.4868086081627714 0.0080439247261530223 -1.6231918808867971 -0.014603088126267394 -1.7522193115805145 -0.042426039479904191 -1.875428369698243 -0.075525266396688967 -1.9939267578913076 -0.11402981530079122 -2.1084859719208033 -0.15809078205193516 -2.2196522552313307 -0.20786891900108354 -2.3277243383504129 -0.2635235115336127 -2.4328049998164452 -0.32521122851285722 -2.534904984406992 -0.39309347318891952 -2.6340250609334888 -0.467315900388587 -2.7300229648120249 -0.54801065909260593 -2.822695585706855 -0.63530112556874607 -2.9118220671201325 -0.72929079865958746 -2.9971183910528101 -0.83005169488192654 -3.0782201504336077 -0.93763868687964669 -3.1547630852841038 -1.0520850041335181 -3.2263646122260963 -1.1733648752991011 -3.292526745698634 -1.3014549406086706 -3.3528382701129127 -1.4362754424687303 -3.406800679262584 -1.5776757028358599 -3.453833015143946 -1.725482273647247 -3.493402650262325 -1.8796562715004379 -3.5252935263848264 -2.0397876066045262 -3.5486246805828947 -2.2055603458623572 -3.5628418905090538 -2.3766133089355317 -3.5674024316759905 -2.5525333720008194 -3.5617682509403288 -2.7328388726923616 -3.5453910978819168 -2.9170116188213626 -3.5177635574374917 -3.1044065057459522 -3.478316889986004 -3.2944235402166311 -3.4266327672216415 -3.4863988662281518 -3.3622985443134952 -3.6795159907190387 -3.2848422266385371 -3.8729250470859551 -3.1938722677986142 -4.0657328394054444 -3.0890639206087136 3.3684159822208946 2.5407499110357188 3.2132795306847939 2.5937284886144742 3.0411331657317979 2.6201556267468105 2.8714767679594573 2.6341650020086695 2.7227805705632413 2.6541490957654963 2.5598897559519997 2.6468800720256409 2.4187709602390473 2.6486125224199046 2.2815850301055001 2.6426575772167626 2.1488775435977012 2.6298565914985916 2.0205662955449295 2.6103737417451818 1.8970719402292087 2.5850309516483603 1.778398090036617 2.5541785047379117 1.6650007493134491 2.5188729158324015 1.5703580829789994 2.5016511912467383 1.4406158305699968 2.4150253597952207 1.3306882944241316 2.3448691412905105 1.2268938768885234 2.270603521286314 1.1292878643479274 2.1930810995919554 1.0373863423246079 2.1121441602412641 0.95119185400184159 2.0285610943315846 0.87068043710056287 1.9431420780211055 0.78198163764314066 1.8237811354868267 0.69860537795948174 1.6994839505188131 0.64781051993905103 1.6417536029781621 0.60038481687300338 1.5844316607691391 0.55634000004925865 1.5281991617612209 0.50331287708979011 1.4377571273033518 0.46634922335554146 1.384095779159191 0.43221451878400113 1.3321944358339852 0.40089822607046799 1.2827231376799983 0.36075874136951214 1.197098115045055 0.33487843975358 1.1512892981929619 0.31131786477376638 1.1084332218617075 0.28964576369507844 1.0676316723026904 0.26989039448987912 1.0295504266811439 0.2420793724430777 0.95480072517971459 0.22652571836744748 0.92291675832565023 0.21237379406192086 0.89360872212894249 0.19965961170838165 0.86752672840432599 0.18828577373304073 0.84478118881409625 0.17828402365354273 0.82606819694933176 0.16083350140860367 0.76912666489527626 0.15346259677715829 0.75702836407766882 0.14707730851183884 0.74874764701989127 0.14160411399294032 0.74442385048336757 0.13707008048513217 0.7447595193081693 0.1331768293902626 0.74871000200953619 0.12995851760227914 0.75701083515180922 0.12034477300909067 0.7268058048283168 0.11873234157238446 0.74413229475774956 0.11762537798606601 0.76684112261718096 0.11673156208442111 0.79389994345249171 0.11603008437758661 0.82607843879228249 0.11538621367559868 0.86355016401054074 0.11465025427852046 0.906527443270016 0.10855978347972951 0.91109481542112802 0.10777655145450403 0.96559903274010883 0.10635903320932844 1.0262618777114272 0.10404941583325369 1.0933220774907195 0.10060343864378465 1.1676885606586791 0.092225586120444222 1.2018969752416586 0.086214479390306187 1.2897247054387941 0.07795420561108854 1.3857800607533779 0.066844384426540324 1.4890658691291183 0.051055618656088896 1.5524464398563256 0.033754257132925528 1.673274350524725 0.011685464556962349 1.802443517847848 -0.015257235633570327 1.8919852218563356 -0.048064584170778489 2.0405264035426289 -0.088586241005687266 2.1994445851130955 -0.13478599290504847 2.3185898841450601 -0.1930830917259436 2.4998366814265047 -0.25804710715418688 2.6408021834450799 -0.34087422493547459 2.847409286757419 -0.43199422836516671 3.0126266235356924 -0.53810636476173035 3.1893642615409061 -0.6614432526615458 3.3767627376109162 -0.87011872187751904 3.8457344914022995 0.97652348802113298 -4.3576816426760736 0.82460401378810866 -4.4006577680833674 0.63093634108051289 -4.1438336063942138 0.45176540282108668 -3.7561897441261514 0.30801774963476281 -3.355701626368595 0.14986635500256093 -2.1434335917675993 -0.3095057301548037 4.0035040340486123 0 0
        </DataArray>
        <DataArray type="Float32" Name="u" NumberOfComponents="1">
          0 0.007874015748031496 0.015748031496062992 0.023622047244094488 0.031496062992125984 0.03937007874015748 0.047244094488188976 0.055118110236220472 0.062992125984251968 0.070866141732283464 0.07874015748031496 0.086614173228346455 0.094488188976377951 0.10236220472440945 0.11023622047244094 0.11811023622047244 0.12598425196850394 0.13385826771653545 0.14173228346456693 0.14960629921259844 0.15748031496062992 0.16535433070866143 0.17322834645669291 0.18110236220472442 0.1889763779527559 0.19685039370078741 0.20472440944881889 0.2125984251968504 0.22047244094488189 0.2283464566929134 0.23622047244094488 0.24409448818897639 0.25196850393700787 0.25984251968503935 0.26771653543307089 0.27559055118110237 0.28346456692913385 0.29133858267716534 0.29921259842519687 0.30708661417322836 0.31496062992125984 0.32283464566929132 0.33070866141732286 0.33858267716535434 0.34645669291338582 0.3543307086614173 0.36220472440944884 0.37007874015748032 0.37795275590551181 0.38582677165354329 0.39370078740157483 0.40157480314960631 0.40944881889763779 0.41732283464566927 0.42519685039370081 0.43307086614173229 0.44094488188976377 0.44881889763779526 0.45669291338582679 0.46456692913385828 0.47244094488188976 0.48031496062992124 0.48818897637795278 0.49606299212598426 0.50393700787401574 0.51181102362204722 0.51968503937007871 0.52755905511811019 0.53543307086614178 0.54330708661417326 0.55118110236220474 0.55905511811023623 0.56692913385826771 0.57480314960629919 0.58267716535433067 0.59055118110236215 0.59842519685039375 0.60629921259842523 0.61417322834645671 0.62204724409448819 0.62992125984251968 0.63779527559055116 0.64566929133858264 0.65354330708661412 0.66141732283464572 0.6692913385826772 0.67716535433070868 0.68503937007874016 0.69291338582677164 0.70078740157480313 0.70866141732283461 0.71653543307086609 0.72440944881889768 0.73228346456692917 0.74015748031496065 0.74803149606299213 0.75590551181102361 0.76377952755905509 0.77165354330708658 0.77952755905511806 0.78740157480314965 0.79527559055118113 0.80314960629921262 0.8110236220472441 0.81889763779527558 0.82677165354330706 0.83464566929133854 0.84251968503937003 0.85039370078740162 0.8582677165354331 0.86614173228346458 0.87401574803149606 0.88188976377952755 0.88976377952755903 0.89763779527559051 0.90551181102362199 0.91338582677165359 0.92125984251968507 0.92913385826771655 0.93700787401574803 0.94488188976377951 0.952755905511811 0.96062992125984248 0.96850393700787396 0.97637795275590555 0.98425196850393704 0.99212598425196852 1
        </DataArray>
      </PointData>
      <CellData Scalars="P">
        <DataArray type="Float32" Name="P" NumberOfComponents="1">
          -0.0069663969370158335 -0.019990746917619394 -0.031202832317724485 -0.039949979521499514 -0.04566498045912256 -0.04782349779434808 -0.045922924587822905 -0.039470119298727485 -0.027974437948406126 -0.010944743993571929 0.012113173762896341 0.041697338794279747 0.078309835908011216 0.12245451330859096 0.17463371469925637 0.23534613116557054 0.3050864057576621 0.38434029684813314 0.47358132000298592 0.57326847374298173 0.68384201119447019 0.80571779731115989 0.93928447990187414 1.0848998521901605 1.2428820309940039 1.4135101518145505 1.5970163383627503 1.7935767369164473 2.0033095884145724 2.2262919170099846 2.4625127918922796 2.7118880906115299 2.9742563385353606 3.2493740093009991 3.5369094008893178 3.8364404703717732 4.1474435991225498 4.4693009352899757 4.8012958467363154 5.1426008213924019 5.4922783636273413 5.8492810906207326 5.5339308471661628 5.2125050138376867 4.8890211388480012 4.5656246103653357 4.2421305583320779 3.9223977578019378 3.6057598801815192 3.2935671429000846 2.9870058371371644 2.687180804129929 2.3950396726449008 2.1114307205453895 1.8370268097082858 1.5700307372785141 1.3179518474065597 1.0788991533460162 0.85315452017315685 0.6408562576632002 0.44210299506190115 0.25686571388106383 0.084992504620850479 -0.070963577817411666 -0.21120513765392371 -0.34168960864939801 -0.46268569934208759 -0.57452827190895306 -0.67510993970802202 -0.76739473386455714 -0.85177916581615232 -0.92869660444702995 -0.99643613241450169 -1.0576319702985484 -1.1127142575846947 -1.1620520890562356 -1.206029212779302 -1.2435650935091185 -1.2766277818374281 -1.3055249024002353 -1.3305583489417774 -1.3520020395754517 -1.3701100941368074 -1.38451137309447 -1.3961162213617551 -1.4050667512450583 -1.4114683495580489 -1.4153879332721393 -1.4168528370466345 -1.4158531225152451 -1.4128319681865313 -1.4073614664336311 -1.3993025147829683 -1.388498663246827 -1.3747493001160549 -1.3578206576441714 -1.337447585455783 -1.3147773159342626 -1.2881725632858911 -1.2572904169271177 -1.2217731601641835 -1.1812267963496521 -1.1373306084818511 -1.0877808229128929 -1.0321863012496084 -0.97024008385898242 -0.90399085612996843 -0.83083919470614054 -0.75061193484633237 -0.66565040312741941 -0.57344959766383052 -0.4740737425117979 -0.37023167301983095 -0.25973647437097552 -0.14560851961507915 -0.026017115084630369 0.09561527083101462 0.2181052541226306 0.33992606779736889 0.46911709929694562 0.33519596210909153 0.21590652811887401 0.12034382204661233 0.049891183828595219 0.0018899769142100625 -0.018662319775018005 0.0014447705829390765
        </DataArray>
      </CellData>
      <Points>
        <DataArray type="Float32" NumberOfComponents="3" format="ascii">
          5.7441171918856133 10.571040824913442 0
          5.7519763954885725 10.571523576382049 0
          5.7598375707676608 10.571973077125532 0
          5.7677014142210083 10.572373191096238 0
          5.7755681764617277 10.572711090279061 0
          5.7834377436628133 10.57297573722734 0
          5.7913096673289344 10.573157257993801 0
          5.7991831774605203 10.573246596434196 0
          5.8070571874006962 10.573235296737133 0
          5.8149302934490459 10.573115359128764 0
          5.8228007710281506 10.572879144543569 0
          5.8306665684532373 10.57251930594115 0
          5.8385252989220469 10.572028740468392 0
          5.8463742311377818 10.571400555587863 0
          5.8542102793334809 10.570628050552694 0
          5.8620299933874698 10.569704710031232 0
          5.8698295491011727 10.568624203438592 0
          5.8776047381835177 10.567380384887482 0
          5.8853509592119204 10.565967302008026 0
          5.8930632094308333 10.564379208540922 0
          5.9007360770944572 10.562610578031755 0
          5.9083637350421592 10.560656121442289 0
          5.9159399362261595 10.558510809746839 0
          5.9234580103025785 10.556169896520453 0
          5.9309108615648549 10.553628941664021 0
          5.9382909705358378 10.550883842285328 0
          5.945590395410977 10.547930858201045 0
          5.9528007769989406 10.544766642851609 0
          5.959913348060196 10.541388279328938 0
          5.9669189440581727 10.537793313408187 0
          5.9738080055679825 10.533979766951978 0
          5.9805706037015929 10.529946192540489 0
          5.9871964596960785 10.525691707843299 0
          5.9936749673082463 10.521216029278456 0
          5.999995218430846 10.516519505381938 0
          6.0061460329592933 10.511603150809234 0
          6.0121159909242348 10.506468677804783 0
          6.0178934724939159 10.501118531473344 0
          6.023466695180268 10.495555915724903 0
          6.028823755005341 10.489784818866539 0
          6.0339526771323193 10.483810042873452 0
          6.0388414685662637 10.477637227671165 0
          6.0434781735417253 10.471272871275074 0
          6.0483237320583099 10.465066054108737 0
          6.0533685246159585 10.45902006107401 0
          6.0586018767742162 10.453136531025038 0
          6.0640132684563586 10.447416332798765 0
          6.0695934794740092 10.441860705339918 0
          6.0753324092454735 10.436469198038516 0
          6.0812213074419361 10.431241918082303 0
          6.0872516676139332 10.426178495991424 0
          6.0934152610229138 10.421278137787159 0
          6.0997041315371909 10.416539635181399 0
          6.1061106217170424 10.411961416539409 0
          6.1126273730346341 10.407541568604355 0
          6.1192473541542958 10.403277902002579 0
          6.1259646969309935 10.399169348420518 0
          6.1327713560361863 10.395210536854187 0
          6.1396605150404877 10.391397117240633 0
          6.1466257378163309 10.38772448470144 0
          6.1536609719754507 10.38418783240796 0
          6.1607605188618324 10.38078214181094 0
          6.167919033719377 10.377502230284151 0
          6.1751315242166465 10.374342801358862 0
          6.1823924900927585 10.371296454246339 0
          6.1896967611817129 10.368355482084988 0
          6.1970411882476109 10.365516304975607 0
          6.2044228309937308 10.362775368372448 0
          6.2118389587943623 10.3601291853058 0
          6.2192862838647001 10.357572147904746 0
          6.2267625147655767 10.355100928652433 0
          6.2342655355100547 10.352712309182099 0
          6.2417934049135688 10.350403221817693 0
          6.2493436345815372 10.348168357420578 0
          6.2569146205253992 10.34600487542737 0
          6.2645049026431456 10.343910118369688 0
          6.2721131379771071 10.341881556184363 0
          6.2797381024701222 10.339916827489544 0
          6.2873780725912436 10.338011297493262 0
          6.2950320849818269 10.336162989071903 0
          6.3026992632574146 10.334370084829189 0
          6.3103788202433284 10.332630967402023 0
          6.3180700519372675 10.330944226305578 0
          6.3257723394775196 10.329308701091424 0
          6.3334846023662541 10.327720861127606 0
          6.3412063850750764 10.326179956097761 0
          6.3489372932608683 10.324685472396618 0
          6.3566769892079842 10.323237141771331 0
          6.3644251935031058 10.321834984883665 0
          6.3721816665423434 10.320479246544032 0
          6.379946210645989 10.319170441321015 0
          6.3877182320931976 10.317906696341785 0
          6.3954976330093567 10.316689085835886 0
          6.403284346928948 10.315519017799845 0
          6.4110783206817583 10.314398169999068 0
          6.4188795130942555 10.313328537702928 0
          6.4266878866325996 10.312312444460106 0
          6.4345033981164743 10.311352555279806 0
          6.4423256731722391 10.310449153632774 0
          6.4501546658963376 10.309605619461783 0
          6.4579902911024893 10.308825714726858 0
          6.4658324083264835 10.308113598233669 0
          6.473680806655131 10.307473882022485 0
          6.481534970450272 10.30690868819862 0
          6.4893945298762281 10.306423463949459 0
          6.4972589755960399 10.306024166934341 0
          6.5051276215517513 10.305717203490286 0
          6.5129994928149575 10.305506505738331 0
          6.5208735193320209 10.30539956855068 0
          6.5287483353081823 10.305404404502099 0
          6.5366222740879101 10.305526569243659 0
          6.544493303699249 10.305775277689806 0
          6.552358913511668 10.306160388869564 0
          6.5602162422342811 10.306689295970413 0
          6.5680616762898305 10.307373244090794 0
          6.575891190146165 10.308220981047286 0
          6.5836996479804908 10.309245326296852 0
          6.5914814011860452 10.310456533371543 0
          6.5992298708546695 10.311865571248338 0
          6.6069374092371893 10.313484071144204 0
          6.6145910628130693 10.315341127377131 0
          6.622304907179192 10.316927818136042 0
          6.6300695710922914 10.318241526934571 0
          6.6378730857226005 10.319298219520881 0
          6.6457043816601695 10.320121964338629 0
          6.6535545896747772 10.320737617444365 0
          6.6614139392217417 10.32122035940235 0
          6.6692539697312956 10.321951314199929 0
        </DataArray>
      </Points>
      <Cells>
        <DataArray type="Int32" Name="connectivity" format="ascii">
          0 1 1 2 2 3 3 4 4 5 5 6 6 7 7 8 8 9 9 10 10 11 11 12 12 13 13 14 14 15 15 16 16 17 17 18 18 19 19 20 20 21 21 22 22 23 23 24 24 25 25 26 26 27 27 28 28 29 29 30 30 31 31 32 32 33 33 34 34 35 35 36 36 37 37 38 38 39 39 40 40 41 41 42 42 43 43 44 44 45 45 46 46 47 47 48 48 49 49 50 50 51 51 52 52 53 53 54 54 55 55 56 56 57 57 58 58 59 59 60 60 61 61 62 62 63 63 64 64 65 65 66 66 67 67 68 68 69 69 70 70 71 71 72 72 73 73 74 74 75 75 76 76 77 77 78 78 79 79 80 80 81 81 82 82 83 83 84 84 85 85 86 86 87 87 88 88 89 89 90 90 91 91 92 92 93 93 94 94 95 95 96 96 97 97 98 98 99 99 100 100 101 101 102 102 103 103 104 104 105 105 106 106 107 107 108 108 109 109 110 110 111 111 112 112 113 113 114 114 115 115 116 116 117 117 118 118 119 119 120 120 121 121 122 122 123 123 124 124 125 125 126 126 127 
        </DataArray>
        <DataArray type="Int32" Name="offsets" format="ascii">
          2 4 6 8 10 12 14 16 18 20 22 24 26 28 30 32 34 36 38 40 42 44 46 48 50 52 54 56 58 60 62 64 66 68 70 72 74 76 78 80 82 84 86 88 90 92 94 96 98 100 102 104 106 108 110 112 114 116 118 120 122 124 126 128 130 132 134 136 138 140 142 144 146 148 150 152 154 156 158 160 162 164 166 168 170 172 174 176 178 180 182 184 186 188 190 192 194 196 198 200 202 204 206 208 210 212 214 216 218 220 222 224 226 228 230 232 234 236 238 240 242 244 246 248 250 252 254 
        </DataArray>
        <DataArray type="Int32" Name="types" format="ascii">
          3 3 3 3 3 3 3 3 3 3 3 3 3 3 3 3 3 3 3 3 3 3 3 3 3 3 3 3 3 3 3 3 3 3 3 3 3 3 3 3 3 3 3 3 3 3 3 3 3 3 3 3 3 3 3 3 3 3 3 3 3 3 3 3 3 3 3 3 3 3 3 3 3 3 3 3 3 3 3 3 3 3 3 3 3 3 3 3 3 3 3 3 3 3 3 3 3 3 3 3 3 3 3 3 3 3 3 3 3 3 3 3 3 3 3 3 3 3 3 3 3 3 3 3 3 3 3         </DataArray>
      </Cells>
    </Piece>
  </UnstructuredGrid>
</VTKFile>
