<?xml version="1.0"?>
<VTKFile type="UnstructuredGrid" version="0.1" byte_order="LittleEndian">
  <UnstructuredGrid>
    <Piece NumberOfPoints="128" NumberOfCells="127">
      <PointData Scalars="W">
        <DataArray type="Float32" Name="W" NumberOfComponents="2">
          0 0 0.16234178615941974 -0.51123439334412324 0.23357489431157727 -0.74903957844316682 0.28402913700786986 -0.93355816442968276 0.32169616337335366 -1.0898280842910093 0.34988504258786723 -1.2281873813148598 0.37041100446488495 -1.354337207785258 0.38439562294372515 -1.4718860879241098 0.39255713032873141 -1.5832641038739388 0.39534302239353791 -1.6901153797138728 0.39304100587460983 -1.7936564225425318 0.38581793509004986 -1.8947866927932953 0.37375228585352821 -1.994186923161638 0.35684121234605209 -2.0922981329529851 0.33502425768628574 -2.1893724892973201 0.30821034597100155 -2.2855745073686835 0.27629197370603858 -2.3810649690992509 0.23913013174852135 -2.475868594193618 0.19657101744253241 -2.5699376350336331 0.14845579389823876 -2.6632331956416482 0.094615254557141384 -2.7556590186130903 0.034874509210589079 -2.847040432356744 -0.030940704286377574 -2.9372064298223099 -0.10300592422615708 -3.0259701565775536 -0.18149045827882904 -3.113017807571647 -0.26656252136108433 -3.1981334341870009 -0.35838279482201085 -3.2810054634128485 -0.45709218873919411 -3.3612259836662455 -0.56282119521396268 -3.4384196501114821 -0.67576493682186589 -3.5125700715950625 -0.79598509655127803 -3.582898760276152 -0.92356943016607962 -3.6489584188081308 -1.0585877740799992 -3.7102815113928997 -1.2010915846310699 -3.7663816020109153 -1.3511018623743538 -3.8167223399689587 -1.508623272443457 -3.8607699331320395 -1.6735899854932736 -3.8978635964889388 -1.8459585247855439 -3.9274603686841703 -2.0256523491596736 -3.9489711923173316 -2.2124950108204509 -3.9616576512918109 -2.4062747179249526 -3.9647953850642064 -2.60673487410845 -3.9576534088134121 -0.054441459939550456 -0.079322770200236897 -0.10952571444953495 -0.15919264803660235 -0.27086450286286512 -0.39147926833116053 -0.43705440037099874 -0.62512918911658844 -0.49636000557702814 -0.70038551564966711 -0.67106975648542344 -0.93121693325298327 -0.85546651844378541 -1.161907226384957 -0.92192755912533464 -1.2219306125328342 -1.1191009474825118 -1.4431665013049901 -1.328397910090884 -1.6590804200727176 -1.5514042605632252 -1.8679159886699204 -1.9499286448175961 -2.2485801534390157 -11.179850057698086 -11.116226565093768 -12.577600623507641 -9.7163506502758086 -1.0038779886835918 -0.67265492850527353 -0.91288636386775512 -0.59976970446397759 -0.96555896412850528 -0.62224342201894411 -0.87856909074504785 -0.55552538731014767 -0.93023036054096953 -0.57730202805003028 -0.98169741563591795 -0.59728930182563755 -1.1780216776485082 -0.7008134792793157 -1.2301513040041221 -0.71362297523914853 -1.4304865444836996 -0.80692226824061453 -1.4841019634024275 -0.81166517407223893 -1.5362958341182786 -0.81344578252477096 -1.5851079222611799 -0.81136645168239474 -1.6337362275161338 -0.80721066013588239 -1.6802173499827517 -0.80006772116140945 -1.7243513053809467 -0.78999624862425377 -1.765926269975403 -0.77706909060063012 -1.6452742288712863 -0.69542480053781275 -1.6772820996951736 -0.68111926908241327 -1.7080675117623634 -0.66523709865825431 -1.7356238417305234 -0.64712155092055335 -1.7597819252110245 -0.62692077609472396 -1.7804107691693338 -0.60480773653426356 -1.7973220479794862 -0.58094554471485849 -1.8104162430992987 -0.55553597118506326 -1.8195862592231951 -0.52878272438428431 -1.6615546659731202 -0.45729109634881687 -1.6613848436232439 -0.43312328080624279 -1.6572112758069619 -0.4082590912214874 -1.6489159489495289 -0.38288036867343972 -1.6364734338255327 -0.3571902766405769 -1.6198494069652261 -0.3313846834206865 -1.4404049395440026 -0.27628451559816913 -1.4146883012341231 -0.2546171241513896 -1.3848599886076782 -0.2332834509836525 -1.3509318849502632 -0.2124337679525177 -1.1584195105614379 -0.17031592114441338 -1.1178499493378982 -0.15402658536318561 -1.0711833524805501 -0.13811695492465176 -1.0204296918487945 -0.12297274455610686 -0.81566204809142506 -0.092278348743888586 -0.75648700040215389 -0.080816035581917342 -0.69322037186574259 -0.070036287124143101 -0.62574457598917577 -0.059922463686548091 -0.55402153520433339 -0.050447039455242697 -0.33270771458836451 -0.029119594743248812 -0.25222037840623507 -0.021487747076125999 -0.16726120918535148 -0.01397051510774211 -0.077616443434565363 -0.0064073178822289531 0.016859135039039134 0.0013876650521738895 0.11635960436976291 0.0096391441317638868 0.22107545340377077 0.018610516059988171 0.33131648982109818 0.028619255574311987 0.44938402093454588 0.040215372781895499 0.57148102701989212 0.053467836608776437 0.70221306668919425 0.06926970996920373 0.69280498163277726 0.072205933690369234 0.83598063561106983 0.092247610646751368 0.83973391454053048 0.098310360771398986 1.0021673261043367 0.12475540838726461 1.017331409073172 0.13493471620473985 1.1999100794125168 0.1699253943014567 1.2345214116671757 0.18704560530492964 1.4389829908127798 0.23373926641945061 1.4958711646160421 0.26101137671042346 1.5548018875002048 0.29089898705148742 2.2718564554605791 0.46128322213699652 2.4560454625331034 0.54757294583426808 2.6937454578220255 0.65976803823748265 2.8149490965245669 0.75669204563035342 2.9425723558461216 0.86584212582787745 2.6121214303298244 0.83401768076312643 0 0
        </DataArray>
        <DataArray type="Float32" Name="u" NumberOfComponents="1">
          0 0.007874015748031496 0.015748031496062992 0.023622047244094488 0.031496062992125984 0.03937007874015748 0.047244094488188976 0.055118110236220472 0.062992125984251968 0.070866141732283464 0.07874015748031496 0.086614173228346455 0.094488188976377951 0.10236220472440945 0.11023622047244094 0.11811023622047244 0.12598425196850394 0.13385826771653545 0.14173228346456693 0.14960629921259844 0.15748031496062992 0.16535433070866143 0.17322834645669291 0.18110236220472442 0.1889763779527559 0.19685039370078741 0.20472440944881889 0.2125984251968504 0.22047244094488189 0.2283464566929134 0.23622047244094488 0.24409448818897639 0.25196850393700787 0.25984251968503935 0.26771653543307089 0.27559055118110237 0.28346456692913385 0.29133858267716534 0.29921259842519687 0.30708661417322836 0.31496062992125984 0.32283464566929132 0.33070866141732286 0.33858267716535434 0.34645669291338582 0.3543307086614173 0.36220472440944884 0.37007874015748032 0.37795275590551181 0.38582677165354329 0.39370078740157483 0.40157480314960631 0.40944881889763779 0.41732283464566927 0.42519685039370081 0.43307086614173229 0.44094488188976377 0.44881889763779526 0.45669291338582679 0.46456692913385828 0.47244094488188976 0.48031496062992124 0.48818897637795278 0.49606299212598426 0.50393700787401574 0.51181102362204722 0.51968503937007871 0.52755905511811019 0.53543307086614178 0.54330708661417326 0.55118110236220474 0.55905511811023623 0.56692913385826771 0.57480314960629919 0.58267716535433067 0.59055118110236215 0.59842519685039375 0.60629921259842523 0.61417322834645671 0.62204724409448819 0.62992125984251968 0.63779527559055116 0.64566929133858264 0.65354330708661412 0.66141732283464572 0.6692913385826772 0.67716535433070868 0.68503937007874016 0.69291338582677164 0.70078740157480313 0.70866141732283461 0.71653543307086609 0.72440944881889768 0.73228346456692917 0.74015748031496065 0.74803149606299213 0.75590551181102361 0.76377952755905509 0.77165354330708658 0.77952755905511806 0.78740157480314965 0.79527559055118113 0.80314960629921262 0.8110236220472441 0.81889763779527558 0.82677165354330706 0.83464566929133854 0.84251968503937003 0.85039370078740162 0.8582677165354331 0.86614173228346458 0.87401574803149606 0.88188976377952755 0.88976377952755903 0.89763779527559051 0.90551181102362199 0.91338582677165359 0.92125984251968507 0.92913385826771655 0.93700787401574803 0.94488188976377951 0.952755905511811 0.96062992125984248 0.96850393700787396 0.97637795275590555 0.98425196850393704 0.99212598425196852 1
        </DataArray>
      </PointData>
      <CellData Scalars="P">
        <DataArray type="Float32" Name="P" NumberOfComponents="1">
          -0.040201990637981702 -0.11979160550736752 -0.19787313543103141 -0.27401440418590645 -0.34786350829357815 -0.41910081023530532 -0.48741612668505252 -0.55249624678953024 -0.61401811971769016 -0.67164593539644302 -0.72502872880916625 -0.77379927871197418 -0.81757343434164675 -0.85595138776368185 -0.88851956896641848 -0.91485149212490247 -0.93450694748981167 -0.94703469368593451 -0.9519742890178029 -0.94885580342525699 -0.93720147028277057 -0.91652845631077973 -0.88634908466318785 -0.84617158471048481 -0.79550554691030739 -0.7338584519469783 -0.66074002184226932 -0.57566751340889988 -0.47816525582491226 -0.36774553911428842 -0.24394904982692689 -0.10632935832324539 0.0455450110121767 0.21208852915358387 0.39369441998177956 0.59073366279240624 0.80354441651660846 1.0324388160170936 1.277698505154919 1.5395606078476589 1.8182156120525677 2.1138034876746357 2.055249010249272 2.0051870440591282 1.9797785340334628 1.9792072678147103 1.9862492692992595 2.0166699625202464 2.0693811176213681 2.1256029488199681 2.2004987086973862 2.2918607149579797 2.3972703869336227 2.5306504236103384 3.4180504791806303 4.2443636415708195 4.2422421952594167 4.2339593209425406 4.2290797287360631 4.2174491066864057 4.208231691684106 4.2008146851741222 4.2038098200775815 4.2069153523627358 4.218098192918192 4.2275519031367734 4.234539379144679 4.2382654404953044 4.2381422564528313 4.2335338849324522 4.2238567951085226 4.2085861966076905 4.182618915444448 4.1508013725486714 4.1128135118711393 4.068349948429181 4.0171782122541027 3.9591415759812141 3.8941598518910188 3.8222308810101242 3.743429771282798 3.6587273536153377 3.5681105791472763 3.4717892247942257 3.3700363775021764 3.2631842723021225 3.1516202914955551 3.0395038885575834 2.9240205711467602 2.8056104870972138 2.6847462023474344 2.5669991299920967 2.4480587670946417 2.3284616352834764 2.2086906058905029 2.0951865020770812 1.9826861665134745 1.8716218260129283 1.762423594326368 1.655510929957061 1.5577952913125539 1.4632298235316812 1.3721406684848918 1.2848356408246169 1.2015961098679511 1.1226740563688966 1.048286580039246 0.97861590244087204 0.91389343198105744 0.85411794378772321 0.79942770105928651 0.74353580442186096 0.69271693087331876 0.64090476848014755 0.59411631677531784 0.54622967857189264 0.50290305066582941 0.45831929189698845 0.41729588841233334 0.37442684050873953 0.32916491354263666 0.29529580011237738 0.25794246177728414 0.21637907288311359 0.16727425337621851 0.10946059977917796 0.039715938837109416
        </DataArray>
      </CellData>
      <Points>
        <DataArray type="Float32" NumberOfComponents="3" format="ascii">
          6.1934768599865127 10.419193356894414 0
          6.2009768621217489 10.421592420313582 0
          6.2084869518882693 10.423959791109976 0
          6.2160115583987228 10.42628072732666 0
          6.223553820328247 10.428543789870949 0
          6.2311160827708649 10.430739290406423 0
          6.2387001028842501 10.432858650441371 0
          6.24630716263 10.434894047839927 0
          6.2539381383852151 10.436838193049789 0
          6.2615935454859715 10.438684178382299 0
          6.2692735659511776 10.440425376018851 0
          6.2769780662795167 10.442055362529082 0
          6.2847066077406799 10.443567863047942 0
          6.2924584511783674 10.44495670901701 0
          6.3002325567646773 10.446215810793653 0
          6.3080275801774288 10.447339141975821 0
          6.3158418668751244 10.448320729167428 0
          6.3236734453502645 10.449154641979856 0
          6.3315200184260778 10.449834991477854 0
          6.3393789536333198 10.450355933126374 0
          6.3472472732728766 10.450711669194451 0
          6.3551216438333267 10.45089645472348 0
          6.3629983650542608 10.450904608366629 0
          6.3708733590271391 10.450730523007712 0
          6.3787421592157667 10.450368677369822 0
          6.386599899862218 10.449813655507633 0
          6.3944413054599494 10.449060160234882 0
          6.402260680693808 10.44810303249179 0
          6.4100519016066446 10.446937276697932 0
          6.4178084074123536 10.445558084091351 0
          6.4255231882977464 10.443960833794389 0
          6.4331887815061464 10.442141141184148 0
          6.4407972658034582 10.440094885715537 0
          6.4483402570567767 10.4378182400061 0
          6.4558089049544165 10.43530770009917 0
          6.4631938916167551 10.432560118830503 0
          6.4704854312211317 10.429572739040614 0
          6.4776732740032363 10.426343234676343 0
          6.4847467088697437 10.422869744581163 0
          6.4916945680623037 10.419150909150659 0
          6.4985052380232062 10.415185916266841 0
          6.5051666724533304 10.41097454636458 0
          6.5116664081489093 10.406517217914129 0
          6.5181625692707907 10.402055095043895 0
          6.524651736789175 10.397583216377456 0
          6.5311238804851062 10.393087164469451 0
          6.5375686712348564 10.38855243914635 0
          6.5439824326208509 10.383974368543617 0
          6.5503543104197091 10.379338630749119 0
          6.556672851471439 10.374630915017567 0
          6.56293394020103 10.369847498622637 0
          6.5691253346809866 10.364974661160394 0
          6.5752340435193206 10.359999014952859 0
          6.581246227782886 10.354907614006381 0
          6.587137146547696 10.349676861037734 0
          6.5923343168269684 10.343756046150409 0
          6.596750935044903 10.337232005371783 0
          6.601105145602947 10.330666361444303 0
          6.6054026080123087 10.324063628487734 0
          6.6096400580876367 10.317422411997532 0
          6.6138229050468125 10.310746843598539 0
          6.6179479469846303 10.304035572139171 0
          6.6220119942716176 10.297287357620279 0
          6.6260028634174644 10.290495785408545 0
          6.6299173251032908 10.283660061165129 0
          6.6337429494804416 10.276774405131212 0
          6.6374764164963684 10.269838523669661 0
          6.6411144945015357 10.262852306887485 0
          6.6446541618912986 10.255815884201278 0
          6.6480924085719479 10.248729513843731 0
          6.6514263578088251 10.241593639234882 0
          6.6546532786077668 10.234408885313256 0
          6.6577705988297318 10.227176053982966 0
          6.6607858123587738 10.219900202081947 0
          6.6636969396726604 10.212582216666952 0
          6.6665020770927343 10.205223082470752 0
          6.6691995212675126 10.197823922522748 0
          6.6717877796368095 10.190385988929215 0
          6.6742655785262457 10.182910652116716 0
          6.6766318747968967 10.175399390684895 0
          6.6788858619844076 10.167853778866101 0
          6.6810269769072752 10.160275473865532 0
          6.6830650264319322 10.152668901810024 0
          6.6850000256081037 10.145035559218231 0
          6.6868322376425748 10.13737698542581 0
          6.6885621811877334 10.12969475128557 0
          6.6901906318881759 10.121990446549338 0
          6.6917186244795888 10.114265667703153 0
          6.6931572899295881 10.10652382398758 0
          6.6945082258488249 10.098766254924808 0
          6.6957732845800439 10.090994278909685 0
          6.6969545724415713 10.083209183875985 0
          6.6980640284206645 10.075413573980502 0
          6.6991041698420091 10.067608454054776 0
          6.7000778918547672 10.059794804894111 0
          6.7009883427989525 10.051973559357068 0
          6.7018482198361031 10.044146613178 0
          6.7026611928912168 10.036314670543115 0
          6.7034311854235096 10.028478392825084 0
          6.7041623817340756 10.020638399600964 0
          6.7048592293505962 10.012795270346588 0
          6.7055354503594842 10.0049503196275 0
          6.7061960356072916 9.9971040121913255 0
          6.706846253254092 9.9892568051531949 0
          6.7074916620848972 9.9814091579470876 0
          6.7081381205818671 9.9735615438451504 0
          6.7087917990377832 9.96571446389299 0
          6.7094591914598647 9.9578684632487526 0
          6.7101471348858048 9.9500241508838361 0
          6.7108629521991956 9.9421822337587926 0
          6.711614216835569 9.9343435210452409 0
          6.7124090385112778 9.9265089796518637 0
          6.7132468378695576 9.9186787736510329 0
          6.7141364981282452 9.9108541313707157 0
          6.7150782577395836 9.9030354084873906 0
          6.7160821967585536 9.8952242293484094 0
          6.7171492636202705 9.8874212027169168 0
          6.7182907912931675 9.8796284822380738 0
          6.7195089375846084 9.8718471055813897 0
          6.7208163974825252 9.8640799522216334 0
          6.722216715006712 9.8563286886492349 0
          6.7237135632877703 9.8485951422516127 0
          6.7253514474404437 9.8408898978174868 0
          6.7271418203709548 9.8332182931654639 0
          6.7290994595843063 9.8255872778600466 0
          6.7312319195275157 9.8180028462316855 0
          6.733547158492061 9.8104717508951342 0
          6.736024715597055 9.8029919529478988 0
        </DataArray>
      </Points>
      <Cells>
        <DataArray type="Int32" Name="connectivity" format="ascii">
          0 1 1 2 2 3 3 4 4 5 5 6 6 7 7 8 8 9 9 10 10 11 11 12 12 13 13 14 14 15 15 16 16 17 17 18 18 19 19 20 20 21 21 22 22 23 23 24 24 25 25 26 26 27 27 28 28 29 29 30 30 31 31 32 32 33 33 34 34 35 35 36 36 37 37 38 38 39 39 40 40 41 41 42 42 43 43 44 44 45 45 46 46 47 47 48 48 49 49 50 50 51 51 52 52 53 53 54 54 55 55 56 56 57 57 58 58 59 59 60 60 61 61 62 62 63 63 64 64 65 65 66 66 67 67 68 68 69 69 70 70 71 71 72 72 73 73 74 74 75 75 76 76 77 77 78 78 79 79 80 80 81 81 82 82 83 83 84 84 85 85 86 86 87 87 88 88 89 89 90 90 91 91 92 92 93 93 94 94 95 95 96 96 97 97 98 98 99 99 100 100 101 101 102 102 103 103 104 104 105 105 106 106 107 107 108 108 109 109 110 110 111 111 112 112 113 113 114 114 115 115 116 116 117 117 118 118 119 119 120 120 121 121 122 122 123 123 124 124 125 125 126 126 127 
        </DataArray>
        <DataArray type="Int32" Name="offsets" format="ascii">
          2 4 6 8 10 12 14 16 18 20 22 24 26 28 30 32 34 36 38 40 42 44 46 48 50 52 54 56 58 60 62 64 66 68 70 72 74 76 78 80 82 84 86 88 90 92 94 96 98 100 102 104 106 108 110 112 114 116 118 120 122 124 126 128 130 132 134 136 138 140 142 144 146 148 150 152 154 156 158 160 162 164 166 168 170 172 174 176 178 180 182 184 186 188 190 192 194 196 198 200 202 204 206 208 210 212 214 216 218 220 222 224 226 228 230 232 234 236 238 240 242 244 246 248 250 252 254 
        </DataArray>
        <DataArray type="Int32" Name="types" format="ascii">
          3 3 3 3 3 3 3 3 3 3 3 3 3 3 3 3 3 3 3 3 3 3 3 3 3 3 3 3 3 3 3 3 3 3 3 3 3 3 3 3 3 3 3 3 3 3 3 3 3 3 3 3 3 3 3 3 3 3 3 3 3 3 3 3 3 3 3 3 3 3 3 3 3 3 3 3 3 3 3 3 3 3 3 3 3 3 3 3 3 3 3 3 3 3 3 3 3 3 3 3 3 3 3 3 3 3 3 3 3 3 3 3 3 3 3 3 3 3 3 3 3 3 3 3 3 3 3         </DataArray>
      </Cells>
    </Piece>
  </UnstructuredGrid>
</VTKFile>
