<?xml version="1.0"?>
<VTKFile type="UnstructuredGrid" version="0.1" byte_order="LittleEndian">
  <UnstructuredGrid>
    <Piece NumberOfPoints="128" NumberOfCells="127">
      <PointData Scalars="W">
        <DataArray type="Float32" Name="W" NumberOfComponents="2">
          0 0 0.68702955065248705 0.13227154648218917 1.0101933355420363 0.187373659146989 1.2443345430726862 0.2192105218939833 1.4279615419325411 0.23587264067585462 1.5769021842184336 0.24110439345736073 1.6996988798601633 0.23724242625483302 1.8015703591288033 0.2259660877524336 1.8860066477465069 0.20859616760160815 1.9554080570565038 0.18622206922821818 2.0115754133813453 0.1597877728772924 2.0558601900998852 0.13012547562058055 2.0893187709366807 0.097984231800768762 2.1127452354656286 0.064045582467351647 2.1267725877777446 0.02894041351459031 2.1319471153998437 -0.0067426977483373831 2.128821440391063 -0.04245651207404455 2.1178053704832656 -0.077692893322042211 2.0992962668726265 -0.11197946026267092 2.0736916981400668 -0.14488167215301515 2.0413552494687117 -0.17600148651525371 2.0026039198715591 -0.20497417039040719 1.9577591667223613 -0.23147161914742029 1.907150297363762 -0.25520451992908272 1.8510402619447563 -0.2759125458349404 1.7897767992045683 -0.29338532778987786 1.7236303133928585 -0.30744083537964906 1.6527936398510159 -0.31791949267687714 1.5775254353328725 -0.32470942590851359 1.4983977017996464 -0.32780864305073726 1.415309914176976 -0.32711468451923925 1.3284903846741556 -0.32262507189216377 1.2381184180888338 -0.31436428193645855 1.1443983478152666 -0.30240115586352795 1.0474948976832203 -0.28683293722404535 0.94756554935764725 -0.26779259717290194 0.84465263622532383 -0.2454168848280659 0.73892847598668843 -0.21991535259142483 0.63056632752284503 -0.19153621777228705 0.51957382754309778 -0.1605133013947074 0.40596850521913586 -0.12711585722152752 0.28979366338979085 -0.091654016392158491 -9.3878707442120977 2.5897327959925445 -9.6815090243387143 1.8817807677875935 -9.9319872105124247 1.1348375623122475 -10.121859733800578 0.34949262505422057 -10.257117608200844 -0.47017950835115596 -10.31960317634738 -1.3199527297440281 -10.315784312719558 -2.1957745793339223 -10.227654857095709 -3.0893083216851904 -10.056416468144853 -3.9937522143755686 -9.8037831221928933 -4.9040426501215215 -9.4540167811704379 -5.8053116886713383 -9.0052788336484646 -6.684687387846771 6.7101632321253204 5.0963262126894078 6.9191190896537771 4.5699741421354512 7.0752008041242558 4.0412884557450166 7.1826480243126669 3.5174155284972297 7.242875869157003 3.0027129840787845 7.2589835772074629 2.5017316945077939 7.2343335049282178 2.0183278049720061 4.02765888192289 0.92700698280740679 3.6604220757831198 0.72392786245868135 3.2606523002941263 0.55144755334633022 2.8458712543026077 0.41031490384485308 2.6861796714483539 0.32720799515425353 2.5238067059551401 0.25467976574291906 2.3595539507729755 0.19216120952752153 2.0534382830977047 0.13126239092065287 1.8873153778795355 0.091217256533192501 1.7159734251408683 0.058526159216321226 1.5506783564140363 0.032919167774282276 1.3863970753185211 0.013392182086402566 1.077719725074473 -4.6528085039308825e-05 0.91651983382095414 -0.0072364602349415108 0.75725716580867108 -0.010970499809603232 0.59489116217185656 -0.011786806348350791 0.44013571781498162 -0.010515512126039409 0.13719722553089364 -0.0035900066295639532 -0.012321567112829054 0.00032847994033165224 -0.15899047925292992 0.0041311687160334766 -0.30263898508468934 0.0073131240641444483 -0.4481699788429449 0.0095039682689755812 -0.58522141867048505 0.010027942312930268 -0.87461600647336646 0.009958334980428649 -1.0042679590811783 0.0040048281897449274 -1.1298165236569728 -0.0049875247439694547 -1.2558966203854656 -0.017342190888941733 -1.3723568316614809 -0.033159090777091879 -1.4837847025344082 -0.052559127810600223 -1.7508847796629357 -0.084377892820318712 -1.8556395212679919 -0.11589710802613352 -1.9493379050294168 -0.15116776501392168 -2.0362957910917392 -0.19021704610710558 -2.1160673074827616 -0.23280316139697849 -2.3580301941265183 -0.30185014374338465 -2.421113792522819 -0.35678648972213922 -2.4753880024188488 -0.41429306073184097 -2.5203891480365401 -0.47376842717748202 -2.7284695918914021 -0.57265696708383962 -2.751807972195397 -0.64135836803840385 -2.764276655047647 -0.70978677102687571 -2.7655684511977645 -0.77698222859476818 -2.925188101755996 -0.89603951905384582 -2.9043082925648505 -0.96678104891982108 -2.8668670476591078 -1.0315331794364027 -2.9879903245712525 -1.1589459237380331 -2.9216592936551504 -1.2183732220133265 -2.842143006192507 -1.2685628642909401 -2.9206641990342823 -1.3921623511311323 -2.8067210253215982 -1.4254968347642651 -2.6832786296350735 -1.4462083929199256 -2.716716363997139 -1.5506475186996811 -2.557858303782977 -1.5427927839468505 -2.5602766426056998 -1.6282643613094314 -2.3689515600562383 -1.5848556663705851 -2.3388070372063061 -1.6419696020505696 -1.554333342757765 -1.135524651147785 -1.4677570845673504 -1.1060047055720978 -1.1634610559177763 -0.90071956106073703 -1.0323115032316497 -0.8174752695801335 -0.6500468873200923 -0.52378934490456086 -0.40223285433850048 -0.32766043745102386 -0.29533614504236499 -0.24233058488664913 0.21598875379134197 0.17737012351179257 0.47991218191818369 0.3912672809037232 0.35634981352902162 0.28801861501771214 0 0
        </DataArray>
        <DataArray type="Float32" Name="u" NumberOfComponents="1">
          0 0.007874015748031496 0.015748031496062992 0.023622047244094488 0.031496062992125984 0.03937007874015748 0.047244094488188976 0.055118110236220472 0.062992125984251968 0.070866141732283464 0.07874015748031496 0.086614173228346455 0.094488188976377951 0.10236220472440945 0.11023622047244094 0.11811023622047244 0.12598425196850394 0.13385826771653545 0.14173228346456693 0.14960629921259844 0.15748031496062992 0.16535433070866143 0.17322834645669291 0.18110236220472442 0.1889763779527559 0.19685039370078741 0.20472440944881889 0.2125984251968504 0.22047244094488189 0.2283464566929134 0.23622047244094488 0.24409448818897639 0.25196850393700787 0.25984251968503935 0.26771653543307089 0.27559055118110237 0.28346456692913385 0.29133858267716534 0.29921259842519687 0.30708661417322836 0.31496062992125984 0.32283464566929132 0.33070866141732286 0.33858267716535434 0.34645669291338582 0.3543307086614173 0.36220472440944884 0.37007874015748032 0.37795275590551181 0.38582677165354329 0.39370078740157483 0.40157480314960631 0.40944881889763779 0.41732283464566927 0.42519685039370081 0.43307086614173229 0.44094488188976377 0.44881889763779526 0.45669291338582679 0.46456692913385828 0.47244094488188976 0.48031496062992124 0.48818897637795278 0.49606299212598426 0.50393700787401574 0.51181102362204722 0.51968503937007871 0.52755905511811019 0.53543307086614178 0.54330708661417326 0.55118110236220474 0.55905511811023623 0.56692913385826771 0.57480314960629919 0.58267716535433067 0.59055118110236215 0.59842519685039375 0.60629921259842523 0.61417322834645671 0.62204724409448819 0.62992125984251968 0.63779527559055116 0.64566929133858264 0.65354330708661412 0.66141732283464572 0.6692913385826772 0.67716535433070868 0.68503937007874016 0.69291338582677164 0.70078740157480313 0.70866141732283461 0.71653543307086609 0.72440944881889768 0.73228346456692917 0.74015748031496065 0.74803149606299213 0.75590551181102361 0.76377952755905509 0.77165354330708658 0.77952755905511806 0.78740157480314965 0.79527559055118113 0.80314960629921262 0.8110236220472441 0.81889763779527558 0.82677165354330706 0.83464566929133854 0.84251968503937003 0.85039370078740162 0.8582677165354331 0.86614173228346458 0.87401574803149606 0.88188976377952755 0.88976377952755903 0.89763779527559051 0.90551181102362199 0.91338582677165359 0.92125984251968507 0.92913385826771655 0.93700787401574803 0.94488188976377951 0.952755905511811 0.96062992125984248 0.96850393700787396 0.97637795275590555 0.98425196850393704 0.99212598425196852 1
        </DataArray>
      </PointData>
      <CellData Scalars="P">
        <DataArray type="Float32" Name="P" NumberOfComponents="1">
          -0.0040474344054154208 -0.010498402949021548 -0.01413630210805502 -0.014692228485799859 -0.01230354875313535 -0.0073574885363339951 -0.00040530409505155533 0.0078928691082169791 0.016807685938203788 0.025570130826926694 0.033395921737285554 0.03950508756752498 0.043138624216202577 0.043572553444381733 0.040130617544570216 0.032195594040915161 0.01921894031221117 0.00072894638900888398 -0.023662141277776643 -0.054252538239895495 -0.091246382469021545 -0.13474985655305324 -0.18476883138732578 -0.24120785737303815 -0.30386842770818917 -0.37245181854712389 -0.4465589382394462 -0.52568965860167782 -0.60924776365390587 -0.69656024377717463 -0.78685250842531973 -0.87926683882261758 -0.97286571375501496 -1.0666397907061562 -1.1595126948720296 -1.2503481363351445 -1.337948883676308 -1.4210747004561082 -1.4984523925591902 -1.5687706497692457 -1.6306890703380068 -1.6828495991273726 -0.69474040789172009 0.35395679689854853 1.4608136917636818 2.6209073907821012 3.8295009702002054 5.0790538823470373 6.3621956998407878 7.668540155593714 8.987080354273262 10.30626478769593 11.611507816043632 12.887018254588718 11.88928391893754 10.826307791977072 9.7096983019099348 8.5507092337214008 7.3605968719639412 6.1502674898013838 4.9301566640380408 4.2559376674467275 3.6412422112376914 3.0937264176902732 2.61752033366652 2.1689422666164981 1.7492701034277622 1.3594480916118155 1.0243929935794915 0.71996555238069948 0.44707633509590233 0.20455274433898352 -0.0080705062462682435 -0.16787469035368432 -0.29976390289339183 -0.40480083206290102 -0.48339624104345258 -0.53771043540017305 -0.54749978152166767 -0.53669184783626334 -0.50696797796956561 -0.46008415127717145 -0.39722039825463401 -0.32090984795887406 -0.21509451970598426 -0.10053033769101087 0.020815529231195264 0.14746403521590112 0.27695438295999419 0.40737116077789548 0.54986804947968881 0.68895150406288042 0.82249387706998467 0.9488519448781142 1.0664992221659133 1.1825493001004665 1.2861211077529366 1.3761450622419225 1.4517427914667491 1.5166211451092768 1.5648130190741099 1.596128761822416 1.61063004322118 1.608906341334172 1.5902277327099159 1.5554887346965456 1.503327461416099 1.4368079125772557 1.3576868498663952 1.2629597143081492 1.1592448360448953 1.0489057828981425 0.92765642283067162 0.80485077003236394 0.67537383554966002 0.54990449666368213 0.42281195360262519 0.3328732033440609 0.24777589629285479 0.17885095325922198 0.11843427659264476 0.07719579687574446 0.048067152746917641 0.024811052962070503 0.016797652032667983 0.012677366280091435 0.0046699366500936399
        </DataArray>
      </CellData>
      <Points>
        <DataArray type="Float32" NumberOfComponents="3" format="ascii">
          3.8750150185815828 8.2509697956203443 0
          3.8735048141235109 8.2586991573119573 0
          3.8720372243261263 8.2664367095355793 0
          3.870632294111723 8.2741858617575268 0
          3.869304546140087 8.2819485821137118 0
          3.868065369391207 8.2897258985003806 0
          3.8669240009454944 8.2975181305460701 0
          3.8658880558737603 8.3053250344170504 0
          3.8649638509740498 8.3131459069174625 0
          3.8641566212862792 8.3209796673810548 0
          3.863470669019355 8.32882492522746 0
          3.8629094752969011 8.3366800385068345 0
          3.8624757840336379 8.3445431655150166 0
          3.8621716675101352 8.3524123112527313 0
          3.8619985756794843 8.3602853696964221 0
          3.8619573754838394 8.3681601629251396 0
          3.8620483847919935 8.3760344776203173 0
          3.8622714067279147 8.3839060989983736 0
          3.8626257551404937 8.3917728423145128 0
          3.8631102792986907 8.3996325821453492 0
          3.8637233885961484 8.4074832793211325 0
          3.8644630751445463 8.4153230055911727 0
          3.8653269334738667 8.4231499662204534 0
          3.8663121805044587 8.4309625203122049 0
          3.8674156760007907 8.4387591987227779 0
          3.8686339389053037 8.4465387201773172 0
          3.8699631689241425 8.4543000042864627 0
          3.8713992633119942 8.4620421828051722 0
          3.8729378288417116 8.4697646094989469 0
          3.8745741978495425 8.477466867052728 0
          3.876303463702738 8.4851487671675851 0
          3.8781204745631586 8.4928103568879347 0
          3.8800198475345891 8.5004519187312066 0
          3.8819959797663826 8.5080739691481782 0
          3.8840430611040384 8.5156772542348733 0
          3.8861550842793311 8.5232627436858905 0
          3.8883258546471264 8.530831622535084 0
          3.8905489927789874 8.538385282664537 0
          3.8928179451121738 8.5459253098022394 0
          3.8951259946536259 8.5534534681249035 0
          3.8974662614123234 8.5609716857555185 0
          3.8998317034422616 8.5684820380660511 0
          3.9022151194809354 8.5759867284472868 0
          3.90401648311797 8.5836520128749321 0
          3.9052175826085391 8.5914340044606341 0
          3.9058028801007731 8.599286398110813 0
          3.905760593315295 8.6071605068105068 0
          3.9050823241372887 8.6150055136694785 0
          3.903764184579873 8.6227687337047811 0
          3.9018063959750662 8.6303958644552576 0
          3.8992144056915743 8.637831502701351 0
          3.8959988130034349 8.6450195656916975 0
          3.8921752633413886 8.6519036045800366 0
          3.8877654245868327 8.6584277263288207 0
          3.8827971016184475 8.6645373916669559 0
          3.8782448432672214 8.6709631638587279 0
          3.8741216199263127 8.6776724146223518 0
          3.8704371244807332 8.6846323693809193 0
          3.867198034910535 8.6918105504016356 0
          3.8644081018053926 8.6991750469299376 0
          3.8620683403004104 8.7066947973894155 0
          3.8601772383453774 8.7143398285343636 0
          3.8585359477564749 8.7220423306717478 0
          3.8571216910086856 8.7297896980421612 0
          3.8559096722529662 8.7375712223286683 0
          3.8548741642435869 8.7453781398790085 0
          3.8540052592053069 8.7532052964049392 0
          3.8532928834490345 8.7610481939459035 0
          3.8527268470938498 8.7689029555369515 0
          3.8522881629636987 8.776765799959195 0
          3.8519665259292384 8.7846342445646464 0
          3.8517513076333758 8.7925062627222292 0
          3.8516322551335955 8.8003802674134981 0
          3.8515991787653063 8.8082550487500075 0
          3.8516329348399436 8.8161297701196055 0
          3.8517235256464932 8.8240039871125848 0
          3.851861073998474 8.8318774696707116 0
          3.8520355106438884 8.8397501685682602 0
          3.8522372386239008 8.8476221642211446 0
          3.8524474726181617 8.855493884052585 0
          3.8526569412149212 8.8633655730641152 0
          3.8528565500165737 8.8712374691320317 0
          3.8530373921837091 8.8791097717077694 0
          3.8531904443974301 8.886982618767318 0
          3.8533072093396865 8.8948560451313412 0
          3.8533697439825216 8.9027300463674717 0
          3.8533700103448121 8.9106042563240759 0
          3.8533002249722861 8.9184781205808417 0
          3.8531525715209618 8.9263508763532009 0
          3.8529198301252308 8.9342215464475228 0
          3.8525950929090316 8.9420889317090229 0
          3.8521618001768467 8.9499510620599541 0
          3.8516134576930994 8.9578059878961298 0
          3.8509442565044112 8.9656515273157833 0
          3.8501488052943951 8.9734852643985175 0
          3.8492221579694195 8.9813045641987337 0
          3.8481493121140309 8.9891051517305982 0
          3.8469263552966546 8.9968836274752277 0
          3.8455499206793751 9.0046364327979216 0
          3.8440172157101267 9.0123598872145827 0
          3.8423153356102229 9.0200478684432017 0
          3.840442829037058 9.0276961249877417 0
          3.8383989176862356 9.035300422371769 0
          3.8361835153128165 9.0428566026103869 0
          3.833786716570581 9.0503572952119935 0
          3.8312098071546479 9.0577981229400653 0
          3.8284550985945778 9.0651750796889221 0
          3.8255150670173346 9.0724802780464398 0
          3.822393812105862 9.0797100420812882 0
          3.819096250119268 9.0868612682719974 0
          3.8156174925448059 9.0939263058871056 0
          3.8119645873424464 9.1009030959512138 0
          3.8081451708001346 9.1077903618868312 0
          3.8041571437504609 9.11458164060301 0
          3.8000103363378908 9.1212774262379437 0
          3.7957045685088473 9.1278724316222579 0
          3.7912516822309525 9.134369355456764 0
          3.786653512965275 9.1407646692129489 0
          3.781958729321206 9.1470897681906891 0
          3.7771726752699926 9.1533464984806443 0
          3.7723142144069106 9.1595476020176303 0
          3.7673914574789196 9.1656982618815057 0
          3.7624281139855338 9.1718167094729761 0
          3.7574395428268228 9.17791513686206 0
          3.7524323447608059 9.183998876599075 0
          3.7474382523097121 9.1900939997976501 0
          3.7424736199529289 9.1962138365489388 0
          3.7375306972994529 9.2023520822638289 0
        </DataArray>
      </Points>
      <Cells>
        <DataArray type="Int32" Name="connectivity" format="ascii">
          0 1 1 2 2 3 3 4 4 5 5 6 6 7 7 8 8 9 9 10 10 11 11 12 12 13 13 14 14 15 15 16 16 17 17 18 18 19 19 20 20 21 21 22 22 23 23 24 24 25 25 26 26 27 27 28 28 29 29 30 30 31 31 32 32 33 33 34 34 35 35 36 36 37 37 38 38 39 39 40 40 41 41 42 42 43 43 44 44 45 45 46 46 47 47 48 48 49 49 50 50 51 51 52 52 53 53 54 54 55 55 56 56 57 57 58 58 59 59 60 60 61 61 62 62 63 63 64 64 65 65 66 66 67 67 68 68 69 69 70 70 71 71 72 72 73 73 74 74 75 75 76 76 77 77 78 78 79 79 80 80 81 81 82 82 83 83 84 84 85 85 86 86 87 87 88 88 89 89 90 90 91 91 92 92 93 93 94 94 95 95 96 96 97 97 98 98 99 99 100 100 101 101 102 102 103 103 104 104 105 105 106 106 107 107 108 108 109 109 110 110 111 111 112 112 113 113 114 114 115 115 116 116 117 117 118 118 119 119 120 120 121 121 122 122 123 123 124 124 125 125 126 126 127 
        </DataArray>
        <DataArray type="Int32" Name="offsets" format="ascii">
          2 4 6 8 10 12 14 16 18 20 22 24 26 28 30 32 34 36 38 40 42 44 46 48 50 52 54 56 58 60 62 64 66 68 70 72 74 76 78 80 82 84 86 88 90 92 94 96 98 100 102 104 106 108 110 112 114 116 118 120 122 124 126 128 130 132 134 136 138 140 142 144 146 148 150 152 154 156 158 160 162 164 166 168 170 172 174 176 178 180 182 184 186 188 190 192 194 196 198 200 202 204 206 208 210 212 214 216 218 220 222 224 226 228 230 232 234 236 238 240 242 244 246 248 250 252 254 
        </DataArray>
        <DataArray type="Int32" Name="types" format="ascii">
          3 3 3 3 3 3 3 3 3 3 3 3 3 3 3 3 3 3 3 3 3 3 3 3 3 3 3 3 3 3 3 3 3 3 3 3 3 3 3 3 3 3 3 3 3 3 3 3 3 3 3 3 3 3 3 3 3 3 3 3 3 3 3 3 3 3 3 3 3 3 3 3 3 3 3 3 3 3 3 3 3 3 3 3 3 3 3 3 3 3 3 3 3 3 3 3 3 3 3 3 3 3 3 3 3 3 3 3 3 3 3 3 3 3 3 3 3 3 3 3 3 3 3 3 3 3 3         </DataArray>
      </Cells>
    </Piece>
  </UnstructuredGrid>
</VTKFile>
