<?xml version="1.0"?>
<VTKFile type="UnstructuredGrid" version="0.1" byte_order="LittleEndian">
  <UnstructuredGrid>
    <Piece NumberOfPoints="128" NumberOfCells="127">
      <PointData Scalars="W">
        <DataArray type="Float32" Name="W" NumberOfComponents="2">
          0 0 0.74787735438924774 0.36681790973697392 1.1255483186675523 0.5406568089832503 1.4104477057305171 0.65843252671038177 1.646658949804622 0.74230551168175762 1.8520809316780271 0.80157190330324324 2.0361302709129374 0.84132483604817077 2.2043860007784866 0.8647310670390993 2.3604302783012083 0.87393555985661564 2.5066235896404527 0.87045507026346247 2.6446387119263388 0.85543526505698375 2.7756336006759459 0.82974924230273583 2.9004098108111052 0.7940819124222831 3.0195259238196339 0.74898812506494172 3.1333343393895903 0.69492207735906353 3.2420477232108151 0.63227050391827977 3.3458617370545851 0.56138568280416501 3.4448071888564202 0.48256292164131814 3.538879832913318 0.39607560071299464 3.6280636127165904 0.30217885120556398 3.7122890213276714 0.2011066565342805 3.7914212399410103 0.093078339001025953 3.8653081715552116 -0.021692929479361914 3.9337841712354504 -0.14299888237685135 3.9966388581960102 -0.27063253686334171 4.0537184516688072 -0.40439266754767578 4.1047878220741758 -0.54407544354649473 4.1495388997876033 -0.68946103178762996 4.1877436548377895 -0.84033242550923093 4.2194741485597351 -0.9965483792187616 4.2441028664152816 -1.1578199174352617 4.2613652642030218 -1.3239062082871518 4.2709840551737361 -1.4945561079344323 4.272691575822817 -1.6695146870763744 4.2662015825707575 -1.8485132056001319 4.2512227672754763 -2.0312715202866487 4.2273568317911216 -2.2174410334768733 4.1943462421140394 -2.4067210054292612 4.1519456447391558 -2.598815533911218 4.0997803330288392 -2.7933388438403597 4.0375084838814645 -2.9898960516732127 3.9648206029720567 -3.1880911058860306 -1.9650569529590565 1.6127923052227962 -1.8842318353861394 1.4860470541472306 -1.8630624031015033 1.4137776285473562 -1.769190787855734 1.293468092139711 -1.741215160417739 1.2280943971723808 -1.6379005502406163 1.1159523836565322 -1.528937386654925 1.0084352026204957 -1.4947528810862178 0.95571543496604583 -1.3805204362465993 0.85686808275297077 -1.2625502854899116 0.76245984082805962 -1.1414004043807129 0.67224001264058642 -0.92395818845155098 0.53252369831623925 13.138225325685584 -8.6181305060594013 12.014203825315642 -10.213872014359486 10.68962437923873 -11.665980065516575 -1.1362703602779747 1.3866706959858812 -1.1336249620803849 1.3446431509626668 -1.1805795550089846 1.3611526207419764 -1.1767330653254642 1.3188114643698265 -1.1715463459812343 1.277123322816581 -1.1652475265059095 1.2362997068348114 -1.1580633064925692 1.1965237513839972 -1.0955891217576241 1.1036260951381685 -1.0853464171509166 1.0671348047310794 -1.0755476817117158 1.0326950265327359 -1.0651098613219445 0.99914794426166276 -1.0548538984038218 0.96718895049937359 -1.0449548573570413 0.93686382209486618 -1.0356043070131036 0.90822639405841332 -1.0269611242735055 0.88129548088652521 -1.0191832925190114 0.85608535669623731 -1.0721918409928592 0.88120999570194514 -1.0675914478574151 0.85818010737404204 -1.064256916234378 0.83687314605630547 -1.0630463224801299 0.8178170115906338 -1.0626383855836201 0.79985530733423438 -1.063873554804379 0.7835231018384502 -1.066866510699455 0.76877682702701289 -1.0717158130407696 0.75555945850404516 -1.1401057525938836 0.78579203499495898 -1.1498903535555063 0.77416942394214749 -1.1618194141054861 0.76387646765199457 -1.175989104322503 0.7548365596065616 -1.1924913659504159 0.74696642114142608 -1.2106272614106688 0.73970112300155366 -1.2941612167105696 0.77041570319206243 -1.3190157689150628 0.76404545813511737 -1.3465450742136251 0.7584059292005606 -1.3768249066536258 0.75336922780054505 -1.4716874335704866 0.78108106306749003 -1.5077831064041021 0.77483890243053333 -1.5476645765897197 0.76914230978286946 -1.5906433244233167 0.76340810864798636 -1.6981673302390883 0.78530864455105365 -1.748463434872229 0.7771568078027451 -1.8021470269021256 0.76832934260574937 -1.8585221710497075 0.75828707437348775 -1.9802251339831387 0.77060460978454626 -2.0455661289019877 0.75635697020232118 -2.1147850400365553 0.7403620972457895 -2.1880425188554797 0.7223225073354741 -2.265517253895148 0.70191464564590311 -2.3473972256173292 0.67878135116548621 -2.4339361565801756 0.65254182778657432 -2.5262217959512445 0.62296022952085506 -2.6228986287729197 0.58912948821141742 -2.7251456830338827 0.55074190600011019 -2.83342734337131 0.50719629162869351 -2.9491418312752486 0.45792049012994485 -3.0711794760050681 0.40181209492185582 -3.1363866655365 0.33205495884596736 -3.276121650213915 0.26303961544204257 -3.3581528418726392 0.18129358625026887 -3.5205589229905199 0.094455944907971254 5.4364177839701124 -0.1869535014645993 5.5834967219806071 -0.43554453318598413 5.4081615024862382 -0.65953677853579051 5.5457322802711184 -0.92310804070105956 4.9991253537574059 -1.0508545058202452 4.712399238316018 -1.1854006051376016 4.3875223302349911 -1.2785864032857392 4.0271840513093942 -1.3267444401782373 2.9258457892444736 -1.0587223226201163 1.8638120061294474 -0.71713635589518387 -2.6413547486427396 1.0064164636445492 0 0
        </DataArray>
        <DataArray type="Float32" Name="u" NumberOfComponents="1">
          0 0.007874015748031496 0.015748031496062992 0.023622047244094488 0.031496062992125984 0.03937007874015748 0.047244094488188976 0.055118110236220472 0.062992125984251968 0.070866141732283464 0.07874015748031496 0.086614173228346455 0.094488188976377951 0.10236220472440945 0.11023622047244094 0.11811023622047244 0.12598425196850394 0.13385826771653545 0.14173228346456693 0.14960629921259844 0.15748031496062992 0.16535433070866143 0.17322834645669291 0.18110236220472442 0.1889763779527559 0.19685039370078741 0.20472440944881889 0.2125984251968504 0.22047244094488189 0.2283464566929134 0.23622047244094488 0.24409448818897639 0.25196850393700787 0.25984251968503935 0.26771653543307089 0.27559055118110237 0.28346456692913385 0.29133858267716534 0.29921259842519687 0.30708661417322836 0.31496062992125984 0.32283464566929132 0.33070866141732286 0.33858267716535434 0.34645669291338582 0.3543307086614173 0.36220472440944884 0.37007874015748032 0.37795275590551181 0.38582677165354329 0.39370078740157483 0.40157480314960631 0.40944881889763779 0.41732283464566927 0.42519685039370081 0.43307086614173229 0.44094488188976377 0.44881889763779526 0.45669291338582679 0.46456692913385828 0.47244094488188976 0.48031496062992124 0.48818897637795278 0.49606299212598426 0.50393700787401574 0.51181102362204722 0.51968503937007871 0.52755905511811019 0.53543307086614178 0.54330708661417326 0.55118110236220474 0.55905511811023623 0.56692913385826771 0.57480314960629919 0.58267716535433067 0.59055118110236215 0.59842519685039375 0.60629921259842523 0.61417322834645671 0.62204724409448819 0.62992125984251968 0.63779527559055116 0.64566929133858264 0.65354330708661412 0.66141732283464572 0.6692913385826772 0.67716535433070868 0.68503937007874016 0.69291338582677164 0.70078740157480313 0.70866141732283461 0.71653543307086609 0.72440944881889768 0.73228346456692917 0.74015748031496065 0.74803149606299213 0.75590551181102361 0.76377952755905509 0.77165354330708658 0.77952755905511806 0.78740157480314965 0.79527559055118113 0.80314960629921262 0.8110236220472441 0.81889763779527558 0.82677165354330706 0.83464566929133854 0.84251968503937003 0.85039370078740162 0.8582677165354331 0.86614173228346458 0.87401574803149606 0.88188976377952755 0.88976377952755903 0.89763779527559051 0.90551181102362199 0.91338582677165359 0.92125984251968507 0.92913385826771655 0.93700787401574803 0.94488188976377951 0.952755905511811 0.96062992125984248 0.96850393700787396 0.97637795275590555 0.98425196850393704 0.99212598425196852 1
        </DataArray>
      </PointData>
      <CellData Scalars="P">
        <DataArray type="Float32" Name="P" NumberOfComponents="1">
          -0.023129214306899747 -0.06690000481723013 -0.10610193585242135 -0.13984340252928246 -0.16768778022237452 -0.18944504182159144 -0.20507142060741337 -0.21461340321221431 -0.21817278983862246 -0.21588473589024737 -0.20790128283485595 -0.1943807308269318 -0.17547998694916725 -0.15134865331044023 -0.12212519736077747 -0.087933720622922304 -0.048879222203110549 -0.0050475083277645516 0.043497144842707974 0.096714358300111006 0.15458846721736785 0.21712854905562307 0.2843693877085729 0.35637229650076324 0.43322480012733006 0.51504315522489497 0.60197062615387931 0.69417561555226159 0.79185448489859989 0.89524234929338076 1.0045897890462305 1.1201747867967009 1.2423022383930022 1.371304216642717 1.5075390927977985 1.6513910498324431 1.8032648030718288 1.9635909052436751 2.1328260634896541 2.3114460835711563 2.4999459873152512 2.6988403144467275 2.5375621569157341 2.3785729160112923 2.2194132231663466 2.0663694294893649 1.9160166982009335 1.7743536273345477 1.6422919707796955 1.5153869413661984 1.3989767205973673 1.2931481224065819 1.1977361294585198 1.1170952069612843 1.6867405246653484 2.2036529828885709 2.6823203328352956 2.584815695441089 2.4867163521712703 2.3858858606775124 2.28562005202151 2.1864583855256194 2.0888691556890158 1.9932531461386582 1.9026158710315522 1.8145178738420022 1.7291241886236279 1.6466125415237369 1.5670898939700235 1.4906278122210792 1.4172667209582228 1.3470218137131196 1.2798874200034986 1.2143586391067889 1.1520675874381217 1.0929859511014939 1.0370673228598084 0.98428583433933448 0.93460050914327564 0.88797070020501023 0.84435774402075381 0.80372957955091384 0.7662399479098897 0.73186954902917545 0.70060344264613694 0.67243102215810657 0.64733502396867038 0.62630839864689269 0.60851986446977446 0.59397554854720824 0.58268233553445803 0.57613170730335483 0.57295009080312798 0.57316404025045875 0.57677826873760707 0.5856339137187635 0.59797990926649114 0.61381207071437094 0.63309433947101756 0.65789504362652151 0.6861980295026241 0.71798476173101666 0.75323354114830365 0.79192045984186166 0.83402031469950455 0.87950985034883489 0.92839899702420581 0.98064450233828293 1.0362435447653042 1.0952103332908985 1.1576123174952901 1.2234850319899753 1.2906788327671144 1.3616587303392551 1.4343089242189686 1.5112853175054428 1.3054170975240051 1.0956191811632594 0.89653669147731974 0.7013956770262838 0.53399071268178488 0.38752848872281803 0.26336489327270907 0.16165405632047447 0.091067069426941608 0.041821071282508518 0.01818321243479953
        </DataArray>
      </CellData>
      <Points>
        <DataArray type="Float32" NumberOfComponents="3" format="ascii">
          4.0134029525672323 6.692386193884567 0
          4.0099115540524952 6.6994458755928159 0
          4.0064665478909447 6.7065283058871161 0
          4.0030913612929098 6.7136442659980311 0
          3.9998036663882828 6.7208010604520627 0
          3.9966181149210156 6.7280038912394877 0
          3.9935474486104012 6.7352564342780097 0
          3.9906030833199493 6.742561155250673 0
          3.9877954551623365 6.749919505988089 0
          3.9851342427273049 6.7573320574877354 0
          3.9826285135223802 6.7647985939761117 0
          3.9802868277499837 6.772318183958447 0
          3.9781173101465348 6.7798892343649877 0
          3.9761276997112422 6.7875095330265802 0
          3.9743253843610105 6.7951762830843156 0
          3.9727174227941102 6.8028861311569697 0
          3.9713105576846228 6.810635191324617 0
          3.9701112278205541 6.8184190669755917 0
          3.9691255700151284 6.8262328691202061 0
          3.9683594188425917 6.8340712333447788 0
          3.9678183056403338 6.8419283356342238 0
          3.9675074541946667 6.8497979068833592 0
          3.9674317723746442 6.8576732464993189 0
          3.9675958426933926 6.8655472356230094 0
          3.9680039120284021 6.8734123500468982 0
          3.9686598785663731 6.8812606730537844 0
          3.9695672822581982 6.8890839078992157 0
          3.970729290227669 6.8968733904563191 0
          3.9721486776555737 6.904620102854051 0
          3.9738278136280298 6.9123146869410608 0
          3.9757686655980309 6.9199474530514093 0
          3.9779727604548416 6.9275083979346022 0
          3.9804411681070295 6.9349872197006226 0
          3.9831744842751813 6.9423733334058442 0
          3.9861728138817014 6.9496558868751492 0
          3.9894357532885012 6.9568237773821471 0
          3.9929623722210579 6.9638656690382268 0
          3.996751189057048 6.9707700144290818 0
          4.000800154846857 6.9775250732845544 0
          4.0051066380906528 6.9841189308501708 0
          4.0096674014936946 6.9905395218348163 0
          4.0144785807629129 6.9967746549251295 0
          4.01953566541063 7.0028120373741025 0
          4.024470799161203 7.00894936291236 0
          4.0292890003537094 7.0151787666732384 0
          4.0339915892551224 7.0214957658053256 0
          4.0385843929710123 7.0278928962686402 0
          4.0430691535064787 7.0343661043452599 0
          4.0474522831452742 7.040908434246032 0
          4.0517405442392223 7.047513217959664 0
          4.0559360631709538 7.0541771887507014 0
          4.0600459284975594 7.0608942179039618 0
          4.0640774602910179 7.06765845290911 0
          4.0680381755303827 7.0744643018966968 0
          4.0719415605785647 7.0813031029572295 0
          4.0766595831561991 7.0876075242238068 0
          4.0821225445969009 7.0932786227970928 0
          4.0882483108797691 7.0982263625927713 0
          4.0943035824522367 7.1032600492803395 0
          4.1002885284620207 7.1083770784994673 0
          4.1062002432957412 7.1135784763389323 0
          4.1120389699549982 7.118861619281093 0
          4.1178050343214894 7.1242239245069081 0
          4.1234988310158469 7.1296628629937766 0
          4.1291208093444265 7.1351759708527327 0
          4.1346748460807916 7.1407574904169024 0
          4.1401615798994991 7.1464051619264222 0
          4.1455816217444355 7.1521168529409298 0
          4.1509356219737201 7.157890486465905 0
          4.1562242194655861 7.1637240840509504 0
          4.1614480307648423 7.1696157686076027 0
          4.1666076382058188 7.1755637677269837 0
          4.1717035800619877 7.1815664148265581 0
          4.1767363407507991 7.1876221500159581 0
          4.1817026353252036 7.1937325337417306 0
          4.1866027506399783 7.19989614107668 0
          4.1914368948631395 7.2061116538671603 0
          4.19620514426681 7.2123778934393776 0
          4.2009075251595789 7.2186937489005301 0
          4.2055439617719346 7.2250582102932288 0
          4.2101142691453965 7.2314703658809938 0
          4.2146181470214321 7.2379293986006541 0
          4.2190513543900288 7.2444371842297537 0
          4.2234132844653844 7.2509930041679773 0
          4.2277031973042343 7.2575962221054988 0
          4.2319202138444538 7.2642462792650706 0
          4.2360633102063412 7.270942689231501 0
          4.2401313610461564 7.2776850029348576 0
          4.2441191847238899 7.2844751246391954 0
          4.2480252388550781 7.2913126602705791 0
          4.2518478150446661 7.2981972608772647 0
          4.2555850341949446 7.3051286146982779 0
          4.2592310113427772 7.3121084388025768 0
          4.2627835064604733 7.3191363462130692 0
          4.2662400446444844 7.3262119835745283 0
          4.2695979588330131 7.3333349950143827 0
          4.272850578375972 7.3405067362900969 0
          4.2759947823053208 7.3477267011539107 0
          4.2790272395477595 7.3549943412918024 0
          4.2819444521072318 7.3623090329206669 0
          4.2847388699124398 7.3696715367052859 0
          4.2874064389997457 7.3770809676700111 0
          4.2899428649588263 7.3845363323563458 0
          4.2923436029850777 7.3920365103860783 0
          4.294603846813339 7.3995802344086048 0
          4.2967185170752291 7.4071660679655702 0
          4.2986822455785925 7.4147923818893338 0
          4.3004893078562922 7.4224573396634907 0
          4.3021337072595589 7.430158841243772 0
          4.3036091018428611 7.4378945039641371 0
          4.3049087755756332 7.445661625268384 0
          4.3060255516352237 7.4534571472121378 0
          4.306951861246362 7.4612775881716908 0
          4.3076836604876805 7.4691186223993364 0
          4.3082122832574807 7.4769759678889613 0
          4.3085326423554715 7.4848445555624226 0
          4.3086346658904455 7.4927189982056737 0
          4.3090738139554592 7.5005814950905867 0
          4.3098591706060976 7.5084167090464939 0
          4.3109798386619875 7.5162108191370427 0
          4.3124443350760622 7.523947553846364 0
          4.3142187657054452 7.5316190520173194 0
          4.3162853610234837 7.5392170330215817 0
          4.3186239949849998 7.5467357768065231 0
          4.3212123498581407 7.5541723503800116 0
          4.3239821725446674 7.5615434319719714 0
          4.3268676483851909 7.5688702659327447 0
          4.3295894799613857 7.5762599056601196 0
        </DataArray>
      </Points>
      <Cells>
        <DataArray type="Int32" Name="connectivity" format="ascii">
          0 1 1 2 2 3 3 4 4 5 5 6 6 7 7 8 8 9 9 10 10 11 11 12 12 13 13 14 14 15 15 16 16 17 17 18 18 19 19 20 20 21 21 22 22 23 23 24 24 25 25 26 26 27 27 28 28 29 29 30 30 31 31 32 32 33 33 34 34 35 35 36 36 37 37 38 38 39 39 40 40 41 41 42 42 43 43 44 44 45 45 46 46 47 47 48 48 49 49 50 50 51 51 52 52 53 53 54 54 55 55 56 56 57 57 58 58 59 59 60 60 61 61 62 62 63 63 64 64 65 65 66 66 67 67 68 68 69 69 70 70 71 71 72 72 73 73 74 74 75 75 76 76 77 77 78 78 79 79 80 80 81 81 82 82 83 83 84 84 85 85 86 86 87 87 88 88 89 89 90 90 91 91 92 92 93 93 94 94 95 95 96 96 97 97 98 98 99 99 100 100 101 101 102 102 103 103 104 104 105 105 106 106 107 107 108 108 109 109 110 110 111 111 112 112 113 113 114 114 115 115 116 116 117 117 118 118 119 119 120 120 121 121 122 122 123 123 124 124 125 125 126 126 127 
        </DataArray>
        <DataArray type="Int32" Name="offsets" format="ascii">
          2 4 6 8 10 12 14 16 18 20 22 24 26 28 30 32 34 36 38 40 42 44 46 48 50 52 54 56 58 60 62 64 66 68 70 72 74 76 78 80 82 84 86 88 90 92 94 96 98 100 102 104 106 108 110 112 114 116 118 120 122 124 126 128 130 132 134 136 138 140 142 144 146 148 150 152 154 156 158 160 162 164 166 168 170 172 174 176 178 180 182 184 186 188 190 192 194 196 198 200 202 204 206 208 210 212 214 216 218 220 222 224 226 228 230 232 234 236 238 240 242 244 246 248 250 252 254 
        </DataArray>
        <DataArray type="Int32" Name="types" format="ascii">
          3 3 3 3 3 3 3 3 3 3 3 3 3 3 3 3 3 3 3 3 3 3 3 3 3 3 3 3 3 3 3 3 3 3 3 3 3 3 3 3 3 3 3 3 3 3 3 3 3 3 3 3 3 3 3 3 3 3 3 3 3 3 3 3 3 3 3 3 3 3 3 3 3 3 3 3 3 3 3 3 3 3 3 3 3 3 3 3 3 3 3 3 3 3 3 3 3 3 3 3 3 3 3 3 3 3 3 3 3 3 3 3 3 3 3 3 3 3 3 3 3 3 3 3 3 3 3         </DataArray>
      </Cells>
    </Piece>
  </UnstructuredGrid>
</VTKFile>
