<?xml version="1.0"?>
<VTKFile type="UnstructuredGrid" version="0.1" byte_order="LittleEndian">
  <UnstructuredGrid>
    <Piece NumberOfPoints="128" NumberOfCells="127">
      <PointData Scalars="W">
        <DataArray type="Float32" Name="W" NumberOfComponents="2">
          0 0 0.7244341845216119 0.15634186692350771 1.0928849285229825 0.22750626633513965 1.3727317862561565 0.27160468855515302 1.6051784608751338 0.29772970090593037 1.8070303738140223 0.30972395813494608 1.9871972003459633 0.30971745804210815 2.1509927298672848 0.2990494898787377 2.3018516783495118 0.27863709749819565 2.4420453243364006 0.24913810317324706 2.5731931226165177 0.21105574395220383 2.6964170680743234 0.16478195611422208 2.8124922856861367 0.11063455314733983 2.9219566722963166 0.048882294952867861 3.0251442858328876 -0.020238786069804077 3.1222514574959845 -0.096510879182711465 3.2134596342726809 -0.17973127825106192 3.2987834519742343 -0.26970287684022637 3.3782027400548831 -0.36622990372626796 3.4516856838973395 -0.46911999207314892 3.5191463090073185 -0.57817838461693394 3.5804339325586416 -0.69319963525112882 3.6353817857334794 -0.81397007717765923 3.6838110577585934 -0.94026760980150292 3.7255010782360869 -1.0718516660847703 3.76028876040214 -1.208489417940434 3.7879356544400991 -1.3499185854354008 3.8081395937927147 -1.4958367610162258 3.8206806866772074 -1.6459518977390983 3.8256233262598656 -1.8000991614866404 3.8223850467493219 -1.9578161102473588 3.8107360881601271 -2.1187553265190737 3.7904446986338467 -2.2825493043648351 3.7612995357116659 -2.4488225850624321 3.7230846889992617 -2.6171768217441111 3.6755934462654816 -2.7871968977284531 3.6185406034455556 -2.9583754586066635 3.5517833390374545 -3.1302785752291822 3.4752046815966104 -3.3024785035032287 3.3885946137674403 -3.4744343674242995 3.2917935251509434 -3.6456056402855799 3.1846908756606096 -3.815461572405443 -2.2971963433369282 2.7823805482222457 -2.3044241213125458 2.6371600536161623 -2.3367687380711888 2.5310004060301314 -2.3267475975776359 2.3889395178425743 -2.3463495794543814 2.2868449218234099 -2.3214474246240635 2.150527345176223 -2.2883581284506169 2.0181024016019484 -2.2916668444046562 1.9260388500094558 -2.2470391339490732 1.8015379406665948 -2.1958798983510825 1.6817254242649209 -2.1387200805756175 1.5667336904430975 -2.0223965068297969 1.4197526957644622 12.287365530841427 -9.611416971189799 11.051721410838699 -11.085594625051657 9.6324611117542425 -12.402717574177009 -1.6217092601624903 2.3221903296650526 -1.6487571742414764 2.2529589272894159 -1.7014912851526856 2.2207770173643779 -1.723971694336168 2.1510098088090475 -1.7434506519924338 2.081779683699414 -1.7601162378411463 2.0133060113182037 -1.7741634961047041 1.9457822263201388 -1.7533829745046836 1.8459469675035778 -1.7611027812990765 1.7817384555557696 -1.7672421394918945 1.7193133351151839 -1.7712343948611859 1.6580107181676609 -1.773651549087802 1.5982973421654498 -1.7746840350867787 1.5402329851419498 -1.7745337027687038 1.4838748720438082 -1.7733831805188671 1.4292524710611358 -1.771414742663123 1.3763862486109433 -1.8063144511305522 1.3528715519132564 -1.804175517972078 1.302219559148162 -1.8016841175005993 1.2533239950345729 -1.7994626265657392 1.2064660099752866 -1.7967524630880276 1.1609912578020574 -1.7941591069005676 1.1171843244247264 -1.7918294177028788 1.0750017624198318 -1.7898985424807112 1.0343901357682612 -1.8280392039781095 1.0168716035935885 -1.8280168240225618 0.97795920189005558 -1.828752978595146 0.94043687528501907 -1.8303735589925851 0.90423338903334749 -1.83300059375415 0.86927275760314393 -1.8362452120969526 0.83524844632330419 -1.8812856983489952 0.81961855894959423 -1.8881572172871934 0.7866197155859298 -1.8964683019716264 0.75450924892158311 -1.9063256397437944 0.72318443732337367 -1.9575614757378146 0.70651644125716939 -1.9707909349369364 0.67498150461909834 -1.9863810127487211 0.64407201508156797 -2.003947484060971 0.61347720282993579 -2.0628319899448346 0.59400741060035411 -2.0850872313478228 0.56231572639002669 -2.1096703825075966 0.53049348242948058 -2.1362088842669258 0.49826267969087851 -2.2044421436493726 0.47363088517217672 -2.2371692434083572 0.43903258447317983 -2.2728197997034512 0.40353598648470385 -2.3115856075067445 0.36691130750490825 -2.3536779273607884 0.32890520323481726 -2.3993232875293051 0.28923557876017064 -2.4488001567943516 0.247590187034258 -2.502915888356255 0.20365095257193058 -2.5609755321914287 0.15692128263164465 -2.6238779916410246 0.10699824672587767 -2.6920950991083932 0.05335138828121621 -2.7666916034450022 -0.0046465185601790807 -2.8472245097500353 -0.067736912860360696 -2.8957128654544588 -0.13449503942834054 -2.9923691013476685 -0.20871642954570555 -3.057441125524726 -0.28682409040809864 -3.1747366720890255 -0.37706497613384105 3.0017038894544936 0.35859911827524571 3.0632789384926191 0.29152838361231348 3.3636384614585615 0.23411767349267551 3.859815767628088 0.15834932533100857 3.9336190210697701 0.040514796607916938 4.6573208063637175 -0.10964596721448375 5.3814876492886592 -0.34014411278765899 6.0908626697624264 -0.6634231797847564 7.5869381954541204 -1.2470778159421918 6.495237484993325 -1.4484770907748052 3.1174067712806028 -0.82371699741910076 0 0
        </DataArray>
        <DataArray type="Float32" Name="u" NumberOfComponents="1">
          0 0.007874015748031496 0.015748031496062992 0.023622047244094488 0.031496062992125984 0.03937007874015748 0.047244094488188976 0.055118110236220472 0.062992125984251968 0.070866141732283464 0.07874015748031496 0.086614173228346455 0.094488188976377951 0.10236220472440945 0.11023622047244094 0.11811023622047244 0.12598425196850394 0.13385826771653545 0.14173228346456693 0.14960629921259844 0.15748031496062992 0.16535433070866143 0.17322834645669291 0.18110236220472442 0.1889763779527559 0.19685039370078741 0.20472440944881889 0.2125984251968504 0.22047244094488189 0.2283464566929134 0.23622047244094488 0.24409448818897639 0.25196850393700787 0.25984251968503935 0.26771653543307089 0.27559055118110237 0.28346456692913385 0.29133858267716534 0.29921259842519687 0.30708661417322836 0.31496062992125984 0.32283464566929132 0.33070866141732286 0.33858267716535434 0.34645669291338582 0.3543307086614173 0.36220472440944884 0.37007874015748032 0.37795275590551181 0.38582677165354329 0.39370078740157483 0.40157480314960631 0.40944881889763779 0.41732283464566927 0.42519685039370081 0.43307086614173229 0.44094488188976377 0.44881889763779526 0.45669291338582679 0.46456692913385828 0.47244094488188976 0.48031496062992124 0.48818897637795278 0.49606299212598426 0.50393700787401574 0.51181102362204722 0.51968503937007871 0.52755905511811019 0.53543307086614178 0.54330708661417326 0.55118110236220474 0.55905511811023623 0.56692913385826771 0.57480314960629919 0.58267716535433067 0.59055118110236215 0.59842519685039375 0.60629921259842523 0.61417322834645671 0.62204724409448819 0.62992125984251968 0.63779527559055116 0.64566929133858264 0.65354330708661412 0.66141732283464572 0.6692913385826772 0.67716535433070868 0.68503937007874016 0.69291338582677164 0.70078740157480313 0.70866141732283461 0.71653543307086609 0.72440944881889768 0.73228346456692917 0.74015748031496065 0.74803149606299213 0.75590551181102361 0.76377952755905509 0.77165354330708658 0.77952755905511806 0.78740157480314965 0.79527559055118113 0.80314960629921262 0.8110236220472441 0.81889763779527558 0.82677165354330706 0.83464566929133854 0.84251968503937003 0.85039370078740162 0.8582677165354331 0.86614173228346458 0.87401574803149606 0.88188976377952755 0.88976377952755903 0.89763779527559051 0.90551181102362199 0.91338582677165359 0.92125984251968507 0.92913385826771655 0.93700787401574803 0.94488188976377951 0.952755905511811 0.96062992125984248 0.96850393700787396 0.97637795275590555 0.98425196850393704 0.99212598425196852 1
        </DataArray>
      </PointData>
      <CellData Scalars="P">
        <DataArray type="Float32" Name="P" NumberOfComponents="1">
          -0.012630200689479253 -0.035904172757882005 -0.055397470677517088 -0.070198899544377816 -0.079748084172026029 -0.083686057735475897 -0.081782374463771637 -0.073893906804896548 -0.059938576139576684 -0.039878709737722118 -0.013707946489228422 0.018557241746392481 0.056883781415044805 0.10122697907788918 0.15153370541841862 0.20774520266179367 0.26980171471359948 0.33764228589238499 0.41120702877627197 0.49043953863872092 0.5752876434263825 0.66570328886827501 0.76164345736193373 0.86307093535070667 0.96995379392146786 1.0822680344001017 1.199995477467833 1.3231215011131827 1.451637957292409 1.5855547048577499 1.7248737259439735 1.8696020623501794 2.0197510158473002 2.1753361795450226 2.3363762143470383 2.5028920538599486 2.6749012337099147 2.8524232512720893 3.035479546819551 3.2240862419572487 3.4182542991824763 3.6179898317482433 3.4348337528252331 3.2493733422802729 3.0609296703995126 2.8737788466953114 2.6866494464796893 2.5036993911985537 2.3261822716660268 2.1520713021631082 1.985253587327013 1.8264687376171795 1.6762915182197342 1.5384436794416798 2.2437213689374906 2.9015768471172811 3.5131471480210448 3.382355101926044 3.2507826202274548 3.1171479310751491 2.9840513871267027 2.8521058173611418 2.7218630231777579 2.5938157301488518 2.4703820826448371 2.3499680700276921 2.2328653818540234 2.1193628431322877 2.0096823727720388 1.9040049138515576 1.8024729890056761 1.705194779415095 1.6122471229964679 1.5221601641721973 1.4365494861627026 1.3554263573446956 1.2787671024162752 1.2065623974127986 1.1387719762752668 1.075343130624671 1.0162129931559085 0.9604904602434442 0.90900606150852115 0.86168297344842604 0.81844081472049435 0.77919698823191408 0.74387259172604614 0.71209136747216362 0.68414242644996393 0.65994853055460556 0.6394349392596631 0.62256384432836742 0.6093088150102931 0.59960895403692371 0.59340738324907205 0.59096124914783976 0.59198113547089626 0.59642747300891208 0.60425999271595332 0.61599144593079325 0.63112048876753324 0.64963349368946843 0.67152380442201143 0.69679205120140209 0.72544637036145498 0.75750334124530749 0.79299945307879094 0.83195857684943353 0.87442578788557956 0.92045841889317059 0.97014066755736628 1.0235459829556133 1.079750216440124 1.1399112254121651 1.2030710547583356 1.270530348888659 1.1654018580558865 1.057281255086743 0.94063908600865687 0.81173313161144589 0.68475888847433863 0.54575113598555702 0.40052959673352334 0.25725207173401543 0.1237813755181166 0.037151208439081061 0.0065012100020286059
        </DataArray>
      </CellData>
      <Points>
        <DataArray type="Float32" NumberOfComponents="3" format="ascii">
          3.9754083276452552 6.7443896077650853 0
          3.9737246696182149 6.752082172543016 0
          3.9720859346432342 6.7597844287731652 0
          3.9705149706616165 6.7675007878054725 0
          3.9690291310549863 6.7752339831461112 0
          3.9676428297593342 6.7829856340525509 0
          3.9663685834049072 6.7907564837213394 0
          3.9652175638281468 6.7985465313203264 0
          3.9641999275966588 6.8063551150094748 0
          3.963325029009352 6.8141809687887838 0
          3.9626015609496221 6.8220222632778862 0
          3.9620376553173653 6.8298766369134416 0
          3.9616409526123553 6.8377412202471159 0
          3.9614186500073401 6.8456126556487442 0
          3.9613775347099041 6.8534871139687228 0
          3.9615240046837115 6.861360309171693 0
          3.9618640808288283 6.8692275118407675 0
          3.9624034182385097 6.8770835617454962 0
          3.9631473071117362 6.8849228800627973 0
          3.9641006715070195 6.8927394815152798 0
          3.9652680673737555 6.9005269862985532 0
          3.9666536772248384 6.9082786321568888 0
          3.9682613007964935 6.9159872871217125 0
          3.9700943447103536 6.9236454627599135 0
          3.972155811388558 6.9312453279451525 0
          3.9744482853729854 6.9387787237742655 0
          3.9769739232148846 6.9462371780038534 0
          3.979734438691223 6.9536119213131684 0
          3.9827310840699734 6.9608939060552464 0
          3.9859646364769019 6.968073824365649 0
          3.9894354018898945 6.9751421183831974 0
          3.9931431790233285 6.9820890089245795 0
          3.9970872450826951 6.9889045170266639 0
          4.0012663413956568 6.9955784867344919 0
          4.005678660308611 7.0021006083824648 0
          4.0103218318000211 7.0084604432948243 0
          4.0151929106641191 7.0146474495260156 0
          4.0202883588276652 7.0206510133204301 0
          4.025604036495448 7.0264604760193423 0
          4.0311351948987317 7.0320651605843665 0
          4.0368764632743952 7.0374544051358159 0
          4.0428218389697692 7.0426175964693831 0
          4.0489646805902959 7.0475442029665425 0
          4.0549650568326907 7.0526433113025453 0
          4.0608225219270064 7.057905915356506 0
          4.06653507343652 7.0633254319249907 0
          4.0721033350836251 7.0688930514397601 0
          4.0775260944293992 7.0746024433350838 0
          4.0828048977984235 7.0804451547766813 0
          4.0879417991226452 7.086412974613145 0
          4.0929365959812118 7.0925001950741366 0
          4.0977920575610796 7.0986990969030108 0
          4.1025113579620118 7.1050022518460256 0
          4.1070980432661219 7.1114025308576378 0
          4.11155932741607 7.1178908214121988 0
          4.1167824393200032 7.1237831939523781 0
          4.1226907675970645 7.1289882483891427 0
          4.1291963165726093 7.1334243222108551 0
          4.135601309252066 7.1380043674998177 0
          4.141904070205161 7.1427240921377493 0
          4.14810133153156 7.1475815013423798 0
          4.1541917007311584 7.1525722699251348 0
          4.1601739712999484 7.1576921060737302 0
          4.1660471110686652 7.1629367649429305 0
          4.171810250110167 7.1683020606375374 0
          4.177464677696892 7.1737818039597903 0
          4.1830099160694303 7.1793720146973321 0
          4.1884455853618681 7.1850688232394599 0
          4.1937714387363325 7.190868429592947 0
          4.1989873269216229 7.1967671323118099 0
          4.2040931864091222 7.2027613321957054 0
          4.2090890269411032 7.2088475358305137 0
          4.2139749201910419 7.2150223574086034 0
          4.2187509884660779 7.2212825199915329 0
          4.2234150680011844 7.2276265662182642 0
          4.2279672915003115 7.2340513563337758 0
          4.23240781345807 7.2405538594525396 0
          4.2367367715735336 7.2471311709829722 0
          4.2409543337912083 7.2537804720607095 0
          4.245060660762749 7.2604990471877962 0
          4.2490558967454435 7.2672842815369787 0
          4.2529401612268618 7.2741336576373046 0
          4.256711088937001 7.2810460893692595 0
          4.2603686809494494 7.2880191644789516 0
          4.2639128912791344 7.2950505568551653 0
          4.2673436190802612 7.3021380221135699 0
          4.2706607010835729 7.3092793928868423 0
          4.2738639357131847 7.3164725598271643 0
          4.2769505297083921 7.3237165535137203 0
          4.2799200565902584 7.3310093280600785 0
          4.282772000616335 7.3383488926296101 0
          4.2855057501679177 7.3457333050701994 0
          4.288118127832651 7.3531615313912653 0
          4.2906083129219956 7.3606316163423324 0
          4.2929753383824121 7.368141643431299 0
          4.2952181146218749 7.3756897156679244 0
          4.297332990022559 7.3832746252294399 0
          4.2993185843018544 7.3908944070863019 0
          4.3011733728453132 7.3985470881225091 0
          4.3028957098073661 7.4062306699130849 0
          4.3044813639788142 7.4139436245700061 0
          4.3059283058272211 7.4216838068921103 0
          4.3072343245554086 7.4294490160150231 0
          4.3083970162053005 7.4372369811701322 0
          4.3094137705538866 7.4450453459827788 0
          4.3102817570614729 7.45287165098794 0
          4.3109979075981375 7.4607133142759148 0
          4.3115588663749982 7.4685676117675115 0
          4.3119610330258595 7.4764316464478222 0
          4.3122005068581162 7.4843023233795147 0
          4.3122730575829538 7.4921763168167814 0
          4.3121740592796067 7.5000500313080138 0
          4.3118985178447007 7.5079195557451648 0
          4.3114434259437093 7.5157807524703575 0
          4.3108027894388767 7.5236290203900547 0
          4.309972572333356 7.5314595183605366 0
          4.3089455003120527 7.5392666521531666 0
          4.3081045368487416 7.547096186317769 0
          4.3074535093932678 7.5549440001405506 0
          4.3070110571324411 7.5628065837917333 0
          4.3068079718001755 7.5706793041524243 0
          4.3068488610772127 7.5785549117756865 0
          4.3071786577659692 7.5864241893120861 0
          4.3078423533390922 7.5942729521899084 0
          4.3088840618087083 7.6020812755021074 0
          4.3103965008327485 7.6098118705911784 0
          4.312311872537844 7.6174522509254237 0
          4.3144205323718507 7.6250410840103831 0
        </DataArray>
      </Points>
      <Cells>
        <DataArray type="Int32" Name="connectivity" format="ascii">
          0 1 1 2 2 3 3 4 4 5 5 6 6 7 7 8 8 9 9 10 10 11 11 12 12 13 13 14 14 15 15 16 16 17 17 18 18 19 19 20 20 21 21 22 22 23 23 24 24 25 25 26 26 27 27 28 28 29 29 30 30 31 31 32 32 33 33 34 34 35 35 36 36 37 37 38 38 39 39 40 40 41 41 42 42 43 43 44 44 45 45 46 46 47 47 48 48 49 49 50 50 51 51 52 52 53 53 54 54 55 55 56 56 57 57 58 58 59 59 60 60 61 61 62 62 63 63 64 64 65 65 66 66 67 67 68 68 69 69 70 70 71 71 72 72 73 73 74 74 75 75 76 76 77 77 78 78 79 79 80 80 81 81 82 82 83 83 84 84 85 85 86 86 87 87 88 88 89 89 90 90 91 91 92 92 93 93 94 94 95 95 96 96 97 97 98 98 99 99 100 100 101 101 102 102 103 103 104 104 105 105 106 106 107 107 108 108 109 109 110 110 111 111 112 112 113 113 114 114 115 115 116 116 117 117 118 118 119 119 120 120 121 121 122 122 123 123 124 124 125 125 126 126 127 
        </DataArray>
        <DataArray type="Int32" Name="offsets" format="ascii">
          2 4 6 8 10 12 14 16 18 20 22 24 26 28 30 32 34 36 38 40 42 44 46 48 50 52 54 56 58 60 62 64 66 68 70 72 74 76 78 80 82 84 86 88 90 92 94 96 98 100 102 104 106 108 110 112 114 116 118 120 122 124 126 128 130 132 134 136 138 140 142 144 146 148 150 152 154 156 158 160 162 164 166 168 170 172 174 176 178 180 182 184 186 188 190 192 194 196 198 200 202 204 206 208 210 212 214 216 218 220 222 224 226 228 230 232 234 236 238 240 242 244 246 248 250 252 254 
        </DataArray>
        <DataArray type="Int32" Name="types" format="ascii">
          3 3 3 3 3 3 3 3 3 3 3 3 3 3 3 3 3 3 3 3 3 3 3 3 3 3 3 3 3 3 3 3 3 3 3 3 3 3 3 3 3 3 3 3 3 3 3 3 3 3 3 3 3 3 3 3 3 3 3 3 3 3 3 3 3 3 3 3 3 3 3 3 3 3 3 3 3 3 3 3 3 3 3 3 3 3 3 3 3 3 3 3 3 3 3 3 3 3 3 3 3 3 3 3 3 3 3 3 3 3 3 3 3 3 3 3 3 3 3 3 3 3 3 3 3 3 3         </DataArray>
      </Cells>
    </Piece>
  </UnstructuredGrid>
</VTKFile>
