<?xml version="1.0"?>
<VTKFile type="UnstructuredGrid" version="0.1" byte_order="LittleEndian">
  <UnstructuredGrid>
    <Piece NumberOfPoints="128" NumberOfCells="127">
      <PointData Scalars="W">
        <DataArray type="Float32" Name="W" NumberOfComponents="2">
          0 0 0.53634476781432705 0.27023749964193122 0.80509547651448687 0.39970592970366609 1.0159595139508373 0.49431876509009415 1.1968683101007493 0.56810202065790194 1.359263018331891 0.62677792407557564 1.5092888546471503 0.67339087188253111 1.6506497954703627 0.70974178355083306 1.7857515916365145 0.73696398551669473 1.91618189907595 0.75577287151457606 2.0430908224226423 0.76665177391315054 2.1672592791239587 0.76989750397774892 2.2892225614228634 0.76568497928221346 2.4093198501444677 0.75409874637994334 2.5277310731117568 0.73515818511945752 2.6445436437332317 0.70884796795840599 2.7598316490846941 0.67514290979002145 2.8735135247039585 0.63397458890054925 2.9854821640416307 0.58527307995937494 3.0956053011889466 0.52896690867728713 3.2036823307208357 0.46497744607271435 3.3094582768632113 0.39322760076454261 3.4126378178873629 0.31364858278900293 3.5128992179428811 0.22618449426636386 3.6098710932880711 0.13079372873934755 3.7032149035886017 0.027454597561217032 3.7924973455323268 -0.083837900731972892 3.877198890253795 -0.20305776758376295 3.9568660218491822 -0.33014836402677572 4.0313423962369725 -0.46506606826634828 4.0997608218737467 -0.60767467181365387 4.1616019116904184 -0.75781551788772161 4.2163270958379657 -0.9152900450981627 4.2634076088868458 -1.079863069607941 4.302277929881507 -1.2512494882450584 4.3323926112217261 -1.4291239677948602 4.3531073911142917 -1.6130764441420162 4.36392548302896 -1.8026900675543789 4.3643791279914463 -1.9975169622624243 4.3538902612723707 -2.1970082045773136 4.3319181830126201 -2.4005606898825937 4.2979964970219413 -2.6075407715717942 -4.2669726618768076 2.589543366811367 -4.2994449061767162 2.3849490584595956 -4.0672275911362918 2.0616190121835043 -4.0495457277305826 1.8749643051601323 -4.0301382900803677 1.6983481814262014 -4.0013162500001647 1.5278211892474269 -3.9638892810273818 1.3638299001221053 -3.918664116441291 1.2067256671207205 -3.8778199961638706 1.0596899289867328 -3.8337566484129839 0.91954024077544838 -3.7824466263072263 0.7851642706221883 -3.7273772383041459 0.6573512882345518 -3.6678595406402685 0.53584702311974264 -3.6057251883005859 0.4208051990615102 -3.5165028129730458 0.31020941273944436 -3.4235860092621073 0.20767100079317866 -3.3279719326845374 0.11309587468022693 -3.2301391481638815 0.026300596565711831 -3.1294464527487684 -0.052888679446099277 -3.0267810574955041 -0.1246177798941465 -2.9230343615687913 -0.18911405727841124 -2.8172786957382092 -0.24650286651594666 -2.7116977146147536 -0.29716012276559378 -2.6258421739167637 -0.34413890251967777 -2.56391926893233 -0.38999770971993947 -2.5040063366868006 -0.43284134436996008 -2.424419434168374 -0.46851309945864988 -2.3691565162777874 -0.50534818522819824 -2.2932291095281818 -0.53443288004716116 -2.2432080400695726 -0.56643552238909545 -2.1729064593555369 -0.59042343484270143 -2.128555339991832 -0.61878039285351871 -2.0870743964160177 -0.64614733735706453 -2.024396414559154 -0.66463767301601906 -1.9890679750150408 -0.68999316157802726 -1.9574814012407147 -0.71541972216924765 -1.9037133049817787 -0.73101356378669657 -1.8778159850438976 -0.75575602950581033 -1.8550129532995796 -0.78106054893025445 -1.8104826434669097 -0.79602353689008354 -1.7942299713722505 -0.82241904810070909 -1.7818036173040916 -0.850481716403376 -1.746619570772832 -0.86707106466446138 -1.740005879192793 -0.89741510361874399 -1.7364384538517057 -0.92984398649246092 -1.7105411704652764 -0.95028884734751418 -1.7133771651472611 -0.98689724058094963 -1.7191219725662574 -1.0264066347821901 -1.7029303444616417 -1.05350966008617 -1.7147518959430681 -1.0989060436035294 -1.7292371915230909 -1.14810275084156 -1.7207620782724005 -1.1835747618217762 -1.7407846517550127 -1.2405120807168479 -1.7630725441626358 -1.302270998456134 -1.7620481338789753 -1.3494340148007944 -1.7896487352639157 -1.4216308376514208 -1.818187372473675 -1.4993071327739469 -1.8229909251690877 -1.5615358671610131 -1.85472532738833 -1.6515949187867802 -1.887131688604387 -1.7490399303324555 -1.8952469046133973 -1.8302139425196304 -1.9292439513228359 -1.9435797332522358 -1.9375645909605799 -2.0392327301405069 -1.9698435043721374 -2.1693981504480324 -1.9762350133322266 -2.2816009257238536 -2.0053722304888519 -2.4322165925530577 -2.0069519891589191 -2.5632344650098497 -2.0052232290817704 -2.7033553223925746 -2.0227247916169104 -2.8875093469459587 -2.0103682391620707 -3.0498003009589532 -1.991409600615162 -3.2226956630638091 -1.9649920017202465 -3.4074273390282181 -1.9492364469750247 -3.6426984540809935 -1.9001416712253669 -3.8530789172155795 1.8680525792236646 3.7906526133379481 1.9274468546835701 3.6081731209319141 2.1342728445375592 3.6971715887721626 1.9981033252369362 3.2207585046773191 1.9791643757636717 2.9925551150350849 1.9184473578816383 2.7355316747272664 1.8535107906826835 2.5049762840490524 1.5595717239978386 2.0123169352602797 1.2568275830503308 1.5630173033806825 0.60048798264165337 0.72926899726670469 -2.5513376977280022 -3.1775138401985084 0 0
        </DataArray>
        <DataArray type="Float32" Name="u" NumberOfComponents="1">
          0 0.007874015748031496 0.015748031496062992 0.023622047244094488 0.031496062992125984 0.03937007874015748 0.047244094488188976 0.055118110236220472 0.062992125984251968 0.070866141732283464 0.07874015748031496 0.086614173228346455 0.094488188976377951 0.10236220472440945 0.11023622047244094 0.11811023622047244 0.12598425196850394 0.13385826771653545 0.14173228346456693 0.14960629921259844 0.15748031496062992 0.16535433070866143 0.17322834645669291 0.18110236220472442 0.1889763779527559 0.19685039370078741 0.20472440944881889 0.2125984251968504 0.22047244094488189 0.2283464566929134 0.23622047244094488 0.24409448818897639 0.25196850393700787 0.25984251968503935 0.26771653543307089 0.27559055118110237 0.28346456692913385 0.29133858267716534 0.29921259842519687 0.30708661417322836 0.31496062992125984 0.32283464566929132 0.33070866141732286 0.33858267716535434 0.34645669291338582 0.3543307086614173 0.36220472440944884 0.37007874015748032 0.37795275590551181 0.38582677165354329 0.39370078740157483 0.40157480314960631 0.40944881889763779 0.41732283464566927 0.42519685039370081 0.43307086614173229 0.44094488188976377 0.44881889763779526 0.45669291338582679 0.46456692913385828 0.47244094488188976 0.48031496062992124 0.48818897637795278 0.49606299212598426 0.50393700787401574 0.51181102362204722 0.51968503937007871 0.52755905511811019 0.53543307086614178 0.54330708661417326 0.55118110236220474 0.55905511811023623 0.56692913385826771 0.57480314960629919 0.58267716535433067 0.59055118110236215 0.59842519685039375 0.60629921259842523 0.61417322834645671 0.62204724409448819 0.62992125984251968 0.63779527559055116 0.64566929133858264 0.65354330708661412 0.66141732283464572 0.6692913385826772 0.67716535433070868 0.68503937007874016 0.69291338582677164 0.70078740157480313 0.70866141732283461 0.71653543307086609 0.72440944881889768 0.73228346456692917 0.74015748031496065 0.74803149606299213 0.75590551181102361 0.76377952755905509 0.77165354330708658 0.77952755905511806 0.78740157480314965 0.79527559055118113 0.80314960629921262 0.8110236220472441 0.81889763779527558 0.82677165354330706 0.83464566929133854 0.84251968503937003 0.85039370078740162 0.8582677165354331 0.86614173228346458 0.87401574803149606 0.88188976377952755 0.88976377952755903 0.89763779527559051 0.90551181102362199 0.91338582677165359 0.92125984251968507 0.92913385826771655 0.93700787401574803 0.94488188976377951 0.952755905511811 0.96062992125984248 0.96850393700787396 0.97637795275590555 0.98425196850393704 0.99212598425196852 1
        </DataArray>
      </PointData>
      <CellData Scalars="P">
        <DataArray type="Float32" Name="P" NumberOfComponents="1">
          -0.0071350370028528207 -0.02015009969199838 -0.030705571118782461 -0.038048306489643594 -0.041595773744975181 -0.040860939056678099 -0.035415975167494479 -0.024872475372727475 -0.0088694944393283535 0.012933115992874961 0.040860366281759125 0.075224561362258663 0.11632689362142787 0.16445782893580341 0.21989660647251538 0.28291119626719657 0.35375981744982593 0.43268773293262497 0.51992715749673457 0.61569697146436742 0.72020066652104464 0.83362432661732666 0.95613478665581297 1.0878780937784538 1.2289768225915751 1.3795306759074479 1.5396115742197818 1.7092585054294251 1.8884791029790313 2.0772631215966975 2.2755466962457094 2.4832270560973373 2.7001598831924083 2.9261581052645784 3.1609880725972466 3.4043687190947978 3.6559636685894299 3.9153876144186888 4.1822062324902767 4.4559271738546062 4.7359997936985545 5.0218174676894218 4.7126781247224256 4.3935253129132192 4.0857968641374605 3.7746886436611322 3.4614422554085311 3.1478240649397109 2.8354731633011472 2.5258979954516687 2.2195698951298226 1.9175016782174303 1.6209647820004904 1.3308928241719324 1.0482130701281842 0.77365096549200185 0.50971977561188409 0.25704518162077833 0.016105493117921685 -0.21272624160512654 -0.42910183071988506 -0.63280615878370761 -0.82375115606685811 -1.0018535080456146 -1.1672321155436802 -1.3211994552952462 -1.4652006015818522 -1.5993641031304342 -1.7227444165671753 -1.8366855244393594 -1.9403509233284981 -2.0350489445598794 -2.1201130753056803 -2.1967120542412526 -2.2650536481268611 -2.3246673325062921 -2.3765160644443606 -2.4207968496790824 -2.4572408048935483 -2.4865209095959377 -2.50877011780661 -2.5239568802006502 -2.5324230224509923 -2.534235203530018 -2.5295814438039539 -2.5184442526369404 -2.5008188957009376 -2.4771207483225517 -2.4469593450254523 -2.4102582920780202 -2.3676444887191113 -2.318375321510342 -2.2623142932434308 -2.2003500225033767 -2.1313752514727464 -2.0552174172451205 -1.9730187997122244 -1.8833344492607416 -1.7860312790872999 -1.6825232788538871 -1.571180253779737 -1.4518974827242388 -1.3263865745152144 -1.1928613413802538 -1.053316285719673 -0.90600240309407709 -0.75312808473737125 -0.5929671209117755 -0.42806724762814863 -0.25904506927415827 -0.084446166057178293 0.092654476321777118 0.27116902215381045 0.44985957152859385 0.62925348778685219 0.80550141688634214 0.64712915128213488 0.50485585551695256 0.36817019019774905 0.26015143652927436 0.17045390366899046 0.099157273295532464 0.044236083385374006 0.0094706988282558906 -0.010147619527668766 -0.015135872077892222 0.0005223649090577595
        </DataArray>
      </CellData>
      <Points>
        <DataArray type="Float32" NumberOfComponents="3" format="ascii">
          3.9912697578719243 7.1404553454849236 0
          3.9877101033569819 7.1474788724519636 0
          3.984183702504843 7.154519155010675 0
          3.9807072179849752 7.1615842207083737 0
          3.9772937234961159 7.1686799359197853 0
          3.9739544355228502 7.1758108755185868 0
          3.9706994226904548 7.1829806776786453 0
          3.9675379867702865 7.1901922326379957 0
          3.9644788923275724 7.1974477943620023 0
          3.9615305158787537 7.2047490508130103 0
          3.9587009443265497 7.2120971683065447 0
          3.9559980462666426 7.2194928214787222 0
          3.9534295204044767 7.2269362116886562 0
          3.9510029287430664 7.2344270778629847 0
          3.9487257176116595 7.2419647017370217 0
          3.9466052288204629 7.2495479090553419 0
          3.9446487050792793 7.2571750686203345 0
          3.9428632945898081 7.2648440907295209 0
          3.9412560459872101 7.2725524229320824 0
          3.9398339016979032 7.2802970456921789 0
          3.9386036897373087 7.2880744679562541 0
          3.9375721112703057 7.2958807222767925 0
          3.9367457248004993 7.3037113600314907 0
          3.936130927857838 7.3115614471572616 0
          3.9357339370483819 7.3194255606836673 0
          3.9355607650257034 7.3272977861526298 0
          3.9356171994985361 7.3351717162732566 0
          3.9359087763628673 7.3430404506114879 0
          3.9364407474878091 7.3508965972020368 0
          3.9372180525943614 7.3587322760603193 0
          3.938245309559441 7.36653912188752 0
          3.9395267606459368 7.374308292516508 0
          3.9410662402973853 7.3820304787498188 0
          3.9428671417433616 7.3896959166720864 0
          3.9449323842128914 7.3972944022333929 0
          3.9472643778690979 7.4048153089279829 0
          3.9498649899886331 7.412247607967549 0
          3.9527355050146422 7.419579893708252 0
          3.9558765937537848 7.4268004094986511 0
          3.9592882843733328 7.4338970754514735 0
          3.9629699265593907 7.440857522480715 0
          3.9669201579921682 7.4476691296981654 0
          3.9711368754286243 7.4543190637036441 0
          3.9750890308474882 7.4611295558271351 0
          3.9787746107848045 7.4680879206464637 0
          3.9822080116861827 7.4751741076295293 0
          3.9853903300576143 7.4823765432907656 0
          3.9883227694801096 7.4896842766843124 0
          3.9910071172855681 7.4970867344245118 0
          3.9934456943521726 7.5045737483763872 0
          3.9956413050820387 7.512135577442173 0
          3.9975964822926557 7.519763104947601 0
          3.9993139584049198 7.5274476412221025 0
          4.0007969151367302 7.5351808545779511 0
          4.0020487672902405 7.542954820277699 0
          4.0030732054632088 7.5507620047539845 0
          4.0038740824839669 7.5585952751530936 0
          4.0044569306552207 7.5664477740681226 0
          4.0048275113511069 7.5743131436927946 0
          4.0049917531878609 7.5821855199962807 0
          4.0049557223469128 7.5900595213535116 0
          4.0047256623249208 7.5979302377613527 0
          4.0043079389201042 7.6057932218070787 0
          4.0037089849579122 7.6136444745820651 0
          4.0029353578010953 7.6214804379061221 0
          4.0019936039524113 7.6292979710412743 0
          4.0008890468687941 7.6370941615209471 0
          3.9996255261019695 7.6448661665065361 0
          3.9982067565343691 7.6526113301328884 0
          3.9966376728124975 7.6603274411283531 0
          3.9949217014114073 7.6680122162450957 0
          3.9930635499749032 7.6756638527158314 0
          3.9910663198675054 7.6832803669901359 0
          3.9889343698044524 7.6908602724140538 0
          3.9866704494877618 7.6984018115525075 0
          3.9842771306063245 7.7059032883762333 0
          3.98175829900477 7.7133635572310943 0
          3.9791161447766248 7.7207810468769349 0
          3.9763526259519235 7.7281541816865804 0
          3.9734710757283587 7.7354819957350767 0
          3.9704730992448436 7.7427629558797832 0
          3.9673601097186597 7.749995494144482 0
          3.9641348673387382 7.7571786838535584 0
          3.96079837902096 7.7643108894453023 0
          3.9573514143655122 7.7713903719923954 0
          3.9537961537889847 7.778416104097249 0
          3.9501330062997417 7.7853862054218652 0
          3.9463621919395573 7.7922986663530835 0
          3.9424853149945855 7.7991522205234425 0
          3.9385021982570527 7.805944599180112 0
          3.9344124840600014 7.8126733536663382 0
          3.9302171745374328 7.8193368048017264 0
          3.9259155349914012 7.8259321388615266 0
          3.9215066654431365 7.8324563064189734 0
          3.9169910891345672 7.8389071093197087 0
          3.9123675624642598 7.8452810180517876 0
          3.9076347012375283 7.8515742040247467 0
          3.9027925662290901 7.8577837439769773 0
          3.8978394435194565 7.8639051618508429 0
          3.8927735608729006 7.869933641656675 0
          3.8875946171643969 7.8758653255647078 0
          3.8823006416621268 7.8816946293682868 0
          3.8768896218266229 7.8874155106054138 0
          3.8713610506378568 7.8930229360361732 0
          3.8657128166109707 7.8985098753578642 0
          3.8599443996138412 7.9038703969028505 0
          3.8540537943930047 7.9090964278786116 0
          3.8480406001046634 7.9141810095901031 0
          3.8419030061075921 7.9191148001375886 0
          3.8356409096840682 7.9238896731056432 0
          3.8292544131379813 7.9284969370403022 0
          3.8227424272287567 7.9329251684316251 0
          3.8161057132829939 7.9371642996838645 0
          3.8093454420397466 7.9412036048571055 0
          3.8024632468859978 7.945031623182147 0
          3.7954601015334295 7.9486337579438358 0
          3.7883390462630313 7.9519969560063037 0
          3.7813341464505728 7.9555950930425068 0
          3.7744490251572698 7.9594168490602506 0
          3.7676964442602361 7.9634677493343089 0
          3.7610679143483146 7.9677182574080465 0
          3.7545622118564386 7.9721542386427187 0
          3.7481755265168584 7.9767597771260368 0
          3.7419037894920684 7.9815206031772572 0
          3.7357287361653908 7.9864062012424277 0
          3.7296315552954886 7.9913887495288938 0
          3.7235715049180635 7.9964165976177846 0
          3.7173530264585422 8.001247606406217 0
        </DataArray>
      </Points>
      <Cells>
        <DataArray type="Int32" Name="connectivity" format="ascii">
          0 1 1 2 2 3 3 4 4 5 5 6 6 7 7 8 8 9 9 10 10 11 11 12 12 13 13 14 14 15 15 16 16 17 17 18 18 19 19 20 20 21 21 22 22 23 23 24 24 25 25 26 26 27 27 28 28 29 29 30 30 31 31 32 32 33 33 34 34 35 35 36 36 37 37 38 38 39 39 40 40 41 41 42 42 43 43 44 44 45 45 46 46 47 47 48 48 49 49 50 50 51 51 52 52 53 53 54 54 55 55 56 56 57 57 58 58 59 59 60 60 61 61 62 62 63 63 64 64 65 65 66 66 67 67 68 68 69 69 70 70 71 71 72 72 73 73 74 74 75 75 76 76 77 77 78 78 79 79 80 80 81 81 82 82 83 83 84 84 85 85 86 86 87 87 88 88 89 89 90 90 91 91 92 92 93 93 94 94 95 95 96 96 97 97 98 98 99 99 100 100 101 101 102 102 103 103 104 104 105 105 106 106 107 107 108 108 109 109 110 110 111 111 112 112 113 113 114 114 115 115 116 116 117 117 118 118 119 119 120 120 121 121 122 122 123 123 124 124 125 125 126 126 127 
        </DataArray>
        <DataArray type="Int32" Name="offsets" format="ascii">
          2 4 6 8 10 12 14 16 18 20 22 24 26 28 30 32 34 36 38 40 42 44 46 48 50 52 54 56 58 60 62 64 66 68 70 72 74 76 78 80 82 84 86 88 90 92 94 96 98 100 102 104 106 108 110 112 114 116 118 120 122 124 126 128 130 132 134 136 138 140 142 144 146 148 150 152 154 156 158 160 162 164 166 168 170 172 174 176 178 180 182 184 186 188 190 192 194 196 198 200 202 204 206 208 210 212 214 216 218 220 222 224 226 228 230 232 234 236 238 240 242 244 246 248 250 252 254 
        </DataArray>
        <DataArray type="Int32" Name="types" format="ascii">
          3 3 3 3 3 3 3 3 3 3 3 3 3 3 3 3 3 3 3 3 3 3 3 3 3 3 3 3 3 3 3 3 3 3 3 3 3 3 3 3 3 3 3 3 3 3 3 3 3 3 3 3 3 3 3 3 3 3 3 3 3 3 3 3 3 3 3 3 3 3 3 3 3 3 3 3 3 3 3 3 3 3 3 3 3 3 3 3 3 3 3 3 3 3 3 3 3 3 3 3 3 3 3 3 3 3 3 3 3 3 3 3 3 3 3 3 3 3 3 3 3 3 3 3 3 3 3         </DataArray>
      </Cells>
    </Piece>
  </UnstructuredGrid>
</VTKFile>
