<?xml version="1.0"?>
<VTKFile type="UnstructuredGrid" version="0.1" byte_order="LittleEndian">
  <UnstructuredGrid>
    <Piece NumberOfPoints="128" NumberOfCells="127">
      <PointData Scalars="W">
        <DataArray type="Float32" Name="W" NumberOfComponents="2">
          0 0 -0.24950205919454441 0.59278887296690808 -0.39906531964984393 0.93109953147702063 -0.5121268837947216 1.1657865487922923 -0.60713237032205247 1.3424232198198436 -0.69121466047477953 1.4798372793043924 -0.76770935634888027 1.5878458361320669 -0.8383073950892721 1.6723443793757393 -0.90388752102010672 1.7372660179509436 -0.96493209285722203 1.7855282868870166 -1.0216368129527083 1.8193105323300849 -1.0740397538865125 1.8403461602177438 -1.122094632516732 1.8500821195257051 -1.1657337792422142 1.8497999142461308 -1.2049050115123701 1.8406776798703335 -1.2395394840776717 1.8237434255967819 -1.2695311415355361 1.7998605734239477 -1.2948210595164318 1.7698620718753522 -1.3153824494484292 1.7345264811444454 -1.3311762021086182 1.6945241271368672 -1.3422095597839458 1.6505018463027807 -1.3485336087679776 1.6030781484119245 -1.350208082874683 1.5528030287475632 -1.347298804905898 1.5001629291379255 -1.3399484102271499 1.445663148120824 -1.3282508648634372 1.3896913383686698 -1.3123646602580457 1.3326478648708013 -1.2925251938136773 1.2749528173823657 -1.2689324928985968 1.2169341100019804 -1.2415265786450485 1.158633350191717 -1.2107888353920855 1.1005672167971443 -1.1769540777596059 1.0429653904010621 -1.1402689144712013 0.98603228302137669 -1.1009782786106397 0.92993874504042418 -1.0593436036907691 0.87484114188849937 -1.0156238601887766 0.82086808353545881 -0.97015693459171604 0.76818795734809886 -0.92315899643042532 0.71685075957789246 -0.87486542502846554 0.66690868789838509 -0.82563000910350115 0.61849029810180645 -0.77577162197700855 0.57168218835819673 -0.72558438454065388 0.52654220947836639 6.0030969018001858 -4.6016709345141109 6.7174101401659438 -5.8791211796045761 6.3348163257067975 -6.3873399851066015 5.918200050401965 -6.8841236022658041 5.4556104179067191 -7.3538270454785772 4.9538351133544056 -7.8000991868051077 4.4129045286225788 -8.2199491850911084 3.8331894698483291 -8.6106897160768003 3.2148086521658561 -8.968770169129618 2.5557525505396681 -9.2801827722779517 -2.6400690127229955 9.5454057269558543 -3.3242839292113326 9.1832687099650236 -3.9560288012323634 8.7713881597570129 -0.63625879045045985 1.2613961511157665 -0.68991667533961554 1.3296430180849685 -0.51025669334573276 0.95937654746941736 -0.31809387104112374 0.58822967725562592 -0.25708554006962153 0.47006778949706129 -0.19461368628940265 0.35273750510636015 0.01193235094671951 -0.02155143709195249 0.2227755913851521 -0.40418700982737338 0.28362797538602902 -0.51968191437291278 0.4874313492564048 -0.90682768266329372 0.68940258171849489 -1.3135891924698098 0.73051585016775111 -1.4341105799727087 0.76637378876963169 -1.5547782304014661 0.79661743848047051 -1.6754319062806071 0.82091599446019292 -1.7958878490033465 0.83896930433472483 -1.9159397235668116 0.8505052844422194 -2.0353481832152558 0.85528794503589012 -2.1538545811225562 0.85311484125801873 -2.2711715814480948 0.95273604374322451 -2.7065309228934522 0.92212453882780887 -2.8254550334924842 0.88528990324962242 -2.9490547695513603 0.83776990031383247 -3.0627218868108499 0.782034546017217 -3.173226220987071 0.71812492575574804 -3.2799831401110731 0.64616957026182642 -3.3825276539899809 0.56634389645730032 -3.4803833848374364 0.47887346729616298 -3.573081393179224 0.38403176899274061 -3.6601548091076448 0.28214029933413731 -3.7411454393179899 0.17356777340254714 -3.8156082944656347 0.058727547104637706 -3.8901126284200811 -0.062353598694443249 -3.9502601736895864 -0.18874946662372688 -4.0026463470322362 -0.31991634791901585 -4.0469217012370633 -0.45527294913492072 -4.0827708103808122 -0.59420370726547034 -4.1099182369753988 -0.73738159236583722 -4.1348818361272057 -0.88191300804038786 -4.1437445804688009 -0.94162068939427923 -3.8169202728090919 -1.0673046643847071 -3.8127898230055051 -1.1931738212095995 -3.8003212283438925 -1.3208410108693627 -3.785698573251763 -1.4454112534391359 -3.7562351283850415 -1.5680452223889558 -3.7183089600136801 -1.687987859688558 -3.6719605204179042 -1.804456470779257 -3.6172604108471726 -1.916644716318624 -3.5543206548642616 -2.1984096157590707 -3.7724094330014055 -2.3185880950372395 -3.6819956614765665 -2.4311733361250112 -3.5830202059268759 -2.5352066680282599 -3.4758997995677925 -2.6297123623556744 -3.3610931161151791 -2.9428247037733279 -3.5027916507606851 -3.0334432982019721 -3.3585455788101699 -3.1055019133637058 -3.2028112744826109 -3.4321246151211255 -3.2917534842876992 -3.4901283691424978 -3.1070352969760915 -3.8269546143351869 -3.1550453210888665 -3.8690416072910088 -2.9460010882527761 -4.2032937940061048 -2.9465925495424812 -3.4089043855706618 -2.2100795875307817 -3.2758672175620633 -1.9820525672752631 -3.1431398686928684 -1.7781079773058825 -3.4023384016568641 -1.7949648903008348 -3.1213629119055777 -1.5333475049545813 -2.9039703681306506 -1.3330270287589989 -2.9471333453171265 -1.2639075854556627 -2.9046007269357239 -1.1607876490025526 -2.7028981617985766 -1.0066610418178839 -2.6244676847329678 -0.91136226936224141 -4.0796042523334322 -1.2908272308665909 0 0
        </DataArray>
        <DataArray type="Float32" Name="u" NumberOfComponents="1">
          0 0.007874015748031496 0.015748031496062992 0.023622047244094488 0.031496062992125984 0.03937007874015748 0.047244094488188976 0.055118110236220472 0.062992125984251968 0.070866141732283464 0.07874015748031496 0.086614173228346455 0.094488188976377951 0.10236220472440945 0.11023622047244094 0.11811023622047244 0.12598425196850394 0.13385826771653545 0.14173228346456693 0.14960629921259844 0.15748031496062992 0.16535433070866143 0.17322834645669291 0.18110236220472442 0.1889763779527559 0.19685039370078741 0.20472440944881889 0.2125984251968504 0.22047244094488189 0.2283464566929134 0.23622047244094488 0.24409448818897639 0.25196850393700787 0.25984251968503935 0.26771653543307089 0.27559055118110237 0.28346456692913385 0.29133858267716534 0.29921259842519687 0.30708661417322836 0.31496062992125984 0.32283464566929132 0.33070866141732286 0.33858267716535434 0.34645669291338582 0.3543307086614173 0.36220472440944884 0.37007874015748032 0.37795275590551181 0.38582677165354329 0.39370078740157483 0.40157480314960631 0.40944881889763779 0.41732283464566927 0.42519685039370081 0.43307086614173229 0.44094488188976377 0.44881889763779526 0.45669291338582679 0.46456692913385828 0.47244094488188976 0.48031496062992124 0.48818897637795278 0.49606299212598426 0.50393700787401574 0.51181102362204722 0.51968503937007871 0.52755905511811019 0.53543307086614178 0.54330708661417326 0.55118110236220474 0.55905511811023623 0.56692913385826771 0.57480314960629919 0.58267716535433067 0.59055118110236215 0.59842519685039375 0.60629921259842523 0.61417322834645671 0.62204724409448819 0.62992125984251968 0.63779527559055116 0.64566929133858264 0.65354330708661412 0.66141732283464572 0.6692913385826772 0.67716535433070868 0.68503937007874016 0.69291338582677164 0.70078740157480313 0.70866141732283461 0.71653543307086609 0.72440944881889768 0.73228346456692917 0.74015748031496065 0.74803149606299213 0.75590551181102361 0.76377952755905509 0.77165354330708658 0.77952755905511806 0.78740157480314965 0.79527559055118113 0.80314960629921262 0.8110236220472441 0.81889763779527558 0.82677165354330706 0.83464566929133854 0.84251968503937003 0.85039370078740162 0.8582677165354331 0.86614173228346458 0.87401574803149606 0.88188976377952755 0.88976377952755903 0.89763779527559051 0.90551181102362199 0.91338582677165359 0.92125984251968507 0.92913385826771655 0.93700787401574803 0.94488188976377951 0.952755905511811 0.96062992125984248 0.96850393700787396 0.97637795275590555 0.98425196850393704 0.99212598425196852 1
        </DataArray>
      </PointData>
      <CellData Scalars="P">
        <DataArray type="Float32" Name="P" NumberOfComponents="1">
          -0.02473257833656128 -0.072413844576425093 -0.11681912270124335 -0.15770464228753528 -0.19532578904543063 -0.23020991997162851 -0.26304511190155588 -0.29461255843451417 -0.325739926744746 -0.35726618240365343 -0.39001608604320498 -0.42477981680086335 -0.46229669104777332 -0.50324217074772759 -0.54821808104137115 -0.59774587636018783 -0.65226168128315798 -0.71211293123287855 -0.77755698494657199 -0.84876068215843237 -0.92580159473144885 -1.008670747339395 -1.0972757574944669 -1.1914445054927381 -1.2909316761745904 -1.3954223019435099 -1.5045393467909549 -1.6178531362403745 -1.7348868636784822 -1.8551104576526478 -1.9779734051446924 -2.102901187131077 -2.2293033978044448 -2.3565811664694394 -2.4841356419152878 -2.6113753088461298 -2.7377284764392158 -2.8626425304489724 -2.9855917736934683 -3.1060919526373469 -3.2237039683942323 -3.3380374764613241 -2.9311223162109985 -2.4595774879311589 -1.9539072538393936 -1.4068478557523563 -0.81268065964501501 -0.1655230953732488 0.53997410416394298 1.3085845106300156 2.1443466687902029 3.0493686251068204 1.903605165782188 0.6939319771161393 -0.55349191928072616 -0.77059047155281613 -1.0035427469748723 -1.1851043125071334 -1.3124054473007116 -1.4231015280079342 -1.5168287413926 -1.5533377268477504 -1.5319056171823537 -1.4947176732874046 -1.4017267209396795 -1.2526801976568447 -1.0919754459115054 -0.92088507651053131 -0.74074681682792909 -0.55294974055119361 -0.35892092490701727 -0.16011405230329556 0.042003114349837369 0.24595932716101329 0.48471708348327996 0.72109395286451161 0.95442343576207667 1.1826738771735932 1.4046239844841459 1.6191115664411033 1.8250520203876677 2.0214429365208675 2.2073690981497136 2.3820059098668533 2.5446222386215984 2.6945824965749678 2.8316974851249945 2.955144821760376 3.0645844250169088 3.1597732477417182 3.2405637949596429 3.3069021060643893 3.3590017064013415 3.3967795044364539 3.414209968022504 3.4191062684583939 3.4116016755778773 3.3919415894765992 3.3602851803998086 3.3169266114027689 3.262207813834423 3.1965163779893211 3.1202836714578424 3.0311707663736369 2.9315885951303402 2.8223631660305921 2.7043650559562926 2.5785049362557113 2.4390990310799925 2.2931614663723363 2.1421710983416697 1.9789792663637686 1.8131580860369332 1.6370582740724686 1.4615430330183632 1.2792514129307204 1.1250588820998704 0.97930725754704984 0.84221080663348269 0.70460445664068683 0.58010881906316614 0.46694511176125036 0.36034694096168673 0.26257278053750011 0.17604848578024224 0.099474737707625535 0.027099897584396029
        </DataArray>
      </CellData>
      <Points>
        <DataArray type="Float32" NumberOfComponents="3" format="ascii">
          6.2351772562493544 9.8680468475736198 0
          6.2424459138675301 9.8710845383872492 0
          6.2496990599935565 9.8741590066481084 0
          6.2569273956048166 9.8772912399774189 0
          6.2641238904173777 9.8804957953620871 0
          6.2712826368696621 9.8837836269250054 0
          6.2783984069874714 9.887163254219633 0
          6.285466445170214 9.8906413714539596 0
          6.2924823631529891 9.894223213403718 0
          6.2994420854225108 9.8979127995796059 0
          6.3063418192552492 9.9017131153934717 0
          6.3131780425531723 9.9056262475310035 0
          6.319947501461221 9.909653491661965 0
          6.3266472132149625 9.9137954423811827 0
          6.3332744703077051 9.9180520728855051 0
          6.3398268436877556 9.9224228082350745 0
          6.3463021869796306 9.926906589295422 0
          6.3526986430034071 9.9315019264617135 0
          6.3590146473602243 9.936206951483264 0
          6.3652489300152872 9.9410194659025315 0
          6.371400517637098 9.9459369827670887 0
          6.3774687330548465 9.9509567668700267 0
          6.3834531919914284 9.9560758732173333 0
          6.389353799256849 9.9612911812288374 0
          6.3951707445622814 9.9665994249802274 0
          6.4009044935706196 9.9719972245966186 0
          6.4065557819671994 9.977481110332457 0
          6.4121256055325011 9.983047547422272 0
          6.4176152054512805 9.9886929621371277 0
          6.4230260558217953 9.9944137621087012 0
          6.4283598672941595 10.000206338885757 0
          6.4336185571500257 10.006067099933368 0
          6.438804234681224 10.011992482823333 0
          6.4439191858473359 10.017978967846471 0
          6.448965858047865 10.024023088534397 0
          6.4539468438822336 10.030121441275288 0
          6.4588648650734211 10.036270693202701 0
          6.4637227515094624 10.042467592546377 0
          6.4685234278417152 10.048708971640499 0
          6.4732698989019788 10.054991750067982 0
          6.477965227787184 10.06131294254055 0
          6.4826125161169683 10.067669664180984 0
          6.4872148858330254 10.07405913402825 0
          6.4921893350070441 10.080163087988424 0
          6.4975803619708214 10.085902591419671 0
          6.5033642779784042 10.091246131962194 0
          6.5095152876091698 10.096162899328259 0
          6.5160047471883473 10.100623754859495 0
          6.5228015845988523 10.104601004380775 0
          6.5298723000984351 10.108068582946251 0
          6.5371809880946188 10.111002220812807 0
          6.5446893431573923 10.113379663033491 0
          6.5523565343451065 10.115181537902799 0
          6.5598602621335402 10.117575650090114 0
          6.5671580803176566 10.120539616285447 0
          6.574210786973711 10.124047969717537 0
          6.5812239385587654 10.127634552537618 0
          6.5881942237242379 10.13130360560999 0
          6.5951327821668961 10.135032148624258 0
          6.6020515293250979 10.138797147674662 0
          6.6089542574153777 10.142591273968707 0
          6.6158448492282185 10.14640725079215 0
          6.622736111879747 10.150221852078413 0
          6.6296411185314978 10.154011335168443 0
          6.636563651035341 10.157768539651933 0
          6.6435163452357804 10.161469445423673 0
          6.6505117222664758 10.165088816952363 0
          6.6575523387122919 10.168619184600209 0
          6.6646404249358167 10.172053069549694 0
          6.6717778628524522 10.175382993693599 0
          6.6789661654497694 10.17860149098779 0
          6.686206458205354 10.18170112020761 0
          6.6934994622428059 10.184674479754964 0
          6.7008454797225587 10.187514223664834 0
          6.7082443813093677 10.190213079393477 0
          6.7157023375525551 10.19274404211555 0
          6.7232174549929091 10.19509974004958 0
          6.730787453840394 10.19727251084114 0
          6.7384093918150381 10.199255307828187 0
          6.7460798170345155 10.201041280000215 0
          6.7537947705579091 10.202623808245534 0
          6.7615497943415566 10.203996534178716 0
          6.7693399420969955 10.205153389677783 0
          6.7771597932525589 10.206088625963964 0
          6.7850034698812633 10.206796842557839 0
          6.7928646566006039 10.207273015702892 0
          6.8007366233953634 10.207512525976606 0
          6.8086122509055809 10.207510750852181 0
          6.8164840326253078 10.207263957799226 0
          6.8243441319957405 10.20676889521661 0
          6.832184416067614 10.206022814153659 0
          6.8399964914942926 10.205023487932371 0
          6.8477717426515676 10.203769229301171 0
          6.8555012895328815 10.20225848629018 0
          6.8631761677895451 10.200490705447644 0
          6.8707926888234763 10.198486151503035 0
          6.8783430559047316 10.196245075751117 0
          6.8858194599570144 10.193768246839142 0
          6.8932139791831597 10.19105656740722 0
          6.9005188832943105 10.188111861010221 0
          6.9077265612192553 10.184936476717493 0
          6.9148295679669465 10.18153328675873 0
          6.9218206732246177 10.177905682299627 0
          6.9286929114442222 10.174057566644272 0
          6.9354287819984926 10.169975419483178 0
          6.9420208231080389 10.165664852280814 0
          6.9484620437764493 10.161132008986062 0
          6.95474598342423 10.156383540245919 0
          6.9608667725936133 10.151426574985011 0
          6.9668049677671959 10.146252342970282 0
          6.972554943037065 10.140869803640769 0
          6.978112224941718 10.135288630004395 0
          6.9834565382714437 10.129503331346719 0
          6.9885842861231797 10.123525381396368 0
          6.9934745679346735 10.117351831779594 0
          6.9981247801951989 10.110995665999251 0
          7.0025141918317653 10.104456876972757 0
          7.006692104210468 10.097781128478459 0
          7.0106667771464997 10.090982572912052 0
          7.0144464509099862 10.084073868148492 0
          7.0180150545689015 10.077053990079577 0
          7.0213900271062908 10.069939163646382 0
          7.0245848620860487 10.062741811902914 0
          7.0275968936887443 10.055466224583055 0
          7.0304287727948136 10.048118791096064 0
          7.0330930214669092 10.040709052957846 0
          7.0355945183258619 10.033242896119022 0
          7.037843061298239 10.025696758223106 0
        </DataArray>
      </Points>
      <Cells>
        <DataArray type="Int32" Name="connectivity" format="ascii">
          0 1 1 2 2 3 3 4 4 5 5 6 6 7 7 8 8 9 9 10 10 11 11 12 12 13 13 14 14 15 15 16 16 17 17 18 18 19 19 20 20 21 21 22 22 23 23 24 24 25 25 26 26 27 27 28 28 29 29 30 30 31 31 32 32 33 33 34 34 35 35 36 36 37 37 38 38 39 39 40 40 41 41 42 42 43 43 44 44 45 45 46 46 47 47 48 48 49 49 50 50 51 51 52 52 53 53 54 54 55 55 56 56 57 57 58 58 59 59 60 60 61 61 62 62 63 63 64 64 65 65 66 66 67 67 68 68 69 69 70 70 71 71 72 72 73 73 74 74 75 75 76 76 77 77 78 78 79 79 80 80 81 81 82 82 83 83 84 84 85 85 86 86 87 87 88 88 89 89 90 90 91 91 92 92 93 93 94 94 95 95 96 96 97 97 98 98 99 99 100 100 101 101 102 102 103 103 104 104 105 105 106 106 107 107 108 108 109 109 110 110 111 111 112 112 113 113 114 114 115 115 116 116 117 117 118 118 119 119 120 120 121 121 122 122 123 123 124 124 125 125 126 126 127 
        </DataArray>
        <DataArray type="Int32" Name="offsets" format="ascii">
          2 4 6 8 10 12 14 16 18 20 22 24 26 28 30 32 34 36 38 40 42 44 46 48 50 52 54 56 58 60 62 64 66 68 70 72 74 76 78 80 82 84 86 88 90 92 94 96 98 100 102 104 106 108 110 112 114 116 118 120 122 124 126 128 130 132 134 136 138 140 142 144 146 148 150 152 154 156 158 160 162 164 166 168 170 172 174 176 178 180 182 184 186 188 190 192 194 196 198 200 202 204 206 208 210 212 214 216 218 220 222 224 226 228 230 232 234 236 238 240 242 244 246 248 250 252 254 
        </DataArray>
        <DataArray type="Int32" Name="types" format="ascii">
          3 3 3 3 3 3 3 3 3 3 3 3 3 3 3 3 3 3 3 3 3 3 3 3 3 3 3 3 3 3 3 3 3 3 3 3 3 3 3 3 3 3 3 3 3 3 3 3 3 3 3 3 3 3 3 3 3 3 3 3 3 3 3 3 3 3 3 3 3 3 3 3 3 3 3 3 3 3 3 3 3 3 3 3 3 3 3 3 3 3 3 3 3 3 3 3 3 3 3 3 3 3 3 3 3 3 3 3 3 3 3 3 3 3 3 3 3 3 3 3 3 3 3 3 3 3 3         </DataArray>
      </Cells>
    </Piece>
  </UnstructuredGrid>
</VTKFile>
