<?xml version="1.0"?>
<VTKFile type="UnstructuredGrid" version="0.1" byte_order="LittleEndian">
  <UnstructuredGrid>
    <Piece NumberOfPoints="128" NumberOfCells="127">
      <PointData Scalars="W">
        <DataArray type="Float32" Name="W" NumberOfComponents="2">
          0 0 0.14296011045953891 0.20783994718618762 0.25755167649945326 0.37668304604465364 0.34165330288396889 0.50421240005855095 0.40860904248187468 0.60994712254432526 0.4637897261387407 0.701690310140069 0.50982826217098021 0.78319216382618595 0.54820973211309854 0.856473819885889 0.57989441870960368 0.92274262911140681 0.60560691789922549 0.98282691716612647 0.62588824168001767 1.0372513634987086 0.64119060184195209 1.0863837428793073 0.6519017363172841 1.1304735255958898 0.65840531646100398 1.169756958109299 0.66108696205414863 1.2044772957822791 0.66029581627550649 1.2348224226642019 0.65632515760328058 1.2608855411211206 0.649486289847791 1.2828031035661596 0.6400750345253079 1.3006983193863197 0.62835771669154994 1.3146530750085312 0.61459882703417534 1.3247641204299836 0.5990637912722685 1.3311548058315925 0.58198941683016214 1.3339134020424608 0.56359477917964407 1.33311381548909 0.54412185991140904 1.3289147749541308 0.52375401076271277 1.321368537546185 0.50268884810756664 1.3105923752937998 0.48113736764087023 1.2967799799392961 0.45926879430770595 1.2800604326765288 0.43711852052351025 1.2602131355014117 0.41495602274824639 1.2377103455416314 0.39291077196034097 1.21269168463355 0.3710959009769681 1.1852892673621005 0.34961265513603201 1.1556393226785466 0.32855952416202294 1.1239130546904359 0.30801164383379021 1.0902477549335567 0.28806183365531024 1.0548897877989238 0.26874839322453092 1.017936505069492 0.25010848835628335 0.97951370853728814 0.23220574677585276 0.93989327521337873 0.21508022904095167 0.89930681929415635 0.19875873362666244 0.85797685137563506 0.77185568899289492 3.6290159266334707 0.65775403958661938 3.6037172897193992 0.51268438117894843 3.3279839992779205 0.38960042523134736 3.0383654527455968 0.31167588650895989 2.9975859613062221 0.21888476348607031 2.6930828082029508 0.15919673194335943 2.6497357021483299 0.10242668700254171 2.6056473901200814 0.048530564662081277 2.5640774369789479 -0.0027475669570626382 2.5190816019740314 -0.051342649858673144 2.4738489468992642 -0.097191843871589356 2.4254342235236503 -0.14057725640437504 2.3801061017555427 -0.20551760370127053 2.6067640576313278 -0.19731434104284415 2.027901203166472 -0.19129902702442059 1.704423671990952 -0.17113842775931221 1.3733949751365786 -0.13949995253564232 1.0383765071905973 -0.097719249708742989 0.69133444094637997 -0.048806715037257635 0.33540432930083919 0.0037764007934571208 -0.025729287223863199 0.10893090377122563 -0.75863057887618024 0.20632963530277823 -1.5364247048243345 0.19081792150595084 -1.5670132762735376 0.17463322492586786 -1.6014490480681609 0.15709584011977468 -1.6346362730143629 0.16757669788838245 -2.058906121914021 0.13568642776652162 -2.089897613224327 0.10228793364441262 -2.118901756043051 0.067346176028016361 -2.1404351716638219 0.033184161703612151 -2.5778680058920371 -0.01954512318188251 -2.6003283620678097 -0.073356800206968706 -2.6143821478812419 -0.12829920701963732 -2.6312703660625534 -0.18421934177983429 -2.6451314483575619 -0.28466101732890337 -3.0803065494096691 -0.36058560419975355 -3.0800540207920135 -0.43744503302089222 -3.0817347751779267 -0.51455118021047763 -3.079604977006023 -0.59169165957998393 -3.0737508287039303 -0.66725326603725688 -3.0581652482893538 -0.85409019232635819 -3.4717363149013241 -0.95204474331291489 -3.4482457246188694 -1.0488722327346041 -3.4203107142480857 -1.1442577634299385 -3.3878693320250113 -1.2357340899634439 -3.3453356314451521 -1.3272482203695088 -3.3046830529132842 -1.4166092150396012 -3.2599985984107911 -1.7035175518705301 -3.6215031639042423 -1.8119920014418771 -3.5569566907285823 -1.9139408389932375 -3.4825405144084347 -2.0151049953456375 -3.4097393730699848 -2.1125270577782351 -3.333143649577841 -2.2061249563792078 -3.2531298038122469 -2.2956858240135061 -3.169841233173325 -2.6716267533172231 -3.4467348062855776 -2.7759878650933878 -3.3385538109786803 -2.8749955273467425 -3.2270569962484292 -2.9686803585536614 -3.112693803402852 -3.052135216361104 -2.9911721946950869 -3.5005557219252275 -3.1951754740892668 -3.6000898830852011 -3.0482558120526453 -3.6873498732699033 -2.8947135102416142 -3.7733217634471439 -2.7438083271324496 -4.2770053609284551 -2.8642102916025607 -4.3638743711870935 -2.6734945017871286 -4.4486731939409081 -2.4851774827106459 -4.9888955649839817 -2.5177567914215908 -5.0754241642147306 -2.2875985968834418 -5.1520180644750395 -2.0559290722528436 -5.724287089740117 -1.9862604000363706 -5.7948261737427593 -1.7062045766604019 -6.3897380556736785 -1.5411787210840009 -6.4367319926462958 -1.2046159859439314 -7.0403285361444912 -0.9294374097929966 -7.6629520808390632 -0.56067414149208616 -8.3124238739898502 -0.083491969383731074 -6.0804730259732898 0.28393110874751959 -6.3538990329972664 0.61035742167116203 -6.1591172428317371 0.90198786148382248 -6.4339298274283614 1.2758079166435727 -5.8760491663384435 1.4718593049448012 -5.1307999834670674 1.5331680093909037 -3.923992747857235 1.3343097925076464 -2.256932999036187 0.8329702065283493 0 0
        </DataArray>
        <DataArray type="Float32" Name="u" NumberOfComponents="1">
          0 0.007874015748031496 0.015748031496062992 0.023622047244094488 0.031496062992125984 0.03937007874015748 0.047244094488188976 0.055118110236220472 0.062992125984251968 0.070866141732283464 0.07874015748031496 0.086614173228346455 0.094488188976377951 0.10236220472440945 0.11023622047244094 0.11811023622047244 0.12598425196850394 0.13385826771653545 0.14173228346456693 0.14960629921259844 0.15748031496062992 0.16535433070866143 0.17322834645669291 0.18110236220472442 0.1889763779527559 0.19685039370078741 0.20472440944881889 0.2125984251968504 0.22047244094488189 0.2283464566929134 0.23622047244094488 0.24409448818897639 0.25196850393700787 0.25984251968503935 0.26771653543307089 0.27559055118110237 0.28346456692913385 0.29133858267716534 0.29921259842519687 0.30708661417322836 0.31496062992125984 0.32283464566929132 0.33070866141732286 0.33858267716535434 0.34645669291338582 0.3543307086614173 0.36220472440944884 0.37007874015748032 0.37795275590551181 0.38582677165354329 0.39370078740157483 0.40157480314960631 0.40944881889763779 0.41732283464566927 0.42519685039370081 0.43307086614173229 0.44094488188976377 0.44881889763779526 0.45669291338582679 0.46456692913385828 0.47244094488188976 0.48031496062992124 0.48818897637795278 0.49606299212598426 0.50393700787401574 0.51181102362204722 0.51968503937007871 0.52755905511811019 0.53543307086614178 0.54330708661417326 0.55118110236220474 0.55905511811023623 0.56692913385826771 0.57480314960629919 0.58267716535433067 0.59055118110236215 0.59842519685039375 0.60629921259842523 0.61417322834645671 0.62204724409448819 0.62992125984251968 0.63779527559055116 0.64566929133858264 0.65354330708661412 0.66141732283464572 0.6692913385826772 0.67716535433070868 0.68503937007874016 0.69291338582677164 0.70078740157480313 0.70866141732283461 0.71653543307086609 0.72440944881889768 0.73228346456692917 0.74015748031496065 0.74803149606299213 0.75590551181102361 0.76377952755905509 0.77165354330708658 0.77952755905511806 0.78740157480314965 0.79527559055118113 0.80314960629921262 0.8110236220472441 0.81889763779527558 0.82677165354330706 0.83464566929133854 0.84251968503937003 0.85039370078740162 0.8582677165354331 0.86614173228346458 0.87401574803149606 0.88188976377952755 0.88976377952755903 0.89763779527559051 0.90551181102362199 0.91338582677165359 0.92125984251968507 0.92913385826771655 0.93700787401574803 0.94488188976377951 0.952755905511811 0.96062992125984248 0.96850393700787396 0.97637795275590555 0.98425196850393704 0.99212598425196852 1
        </DataArray>
      </PointData>
      <CellData Scalars="P">
        <DataArray type="Float32" Name="P" NumberOfComponents="1">
          0.010232000235825415 0.031073350541643136 0.052848230985599362 0.075820200848272609 0.1001167380774988 0.12577255436023366 0.15274850209436652 0.1809431453652682 0.2102020435882726 0.24032654283413474 0.27108104341528577 0.30220037616673046 0.33339680760328494 0.36436751044104992 0.39480164988567829 0.42438637335882162 0.45281219995711081 0.47977908175054995 0.50500152520759478 0.52821322927165393 0.54917157379906201 0.56766149361343854 0.58349880730740866 0.59653326389934858 0.60665054147307351 0.61377463281105349 0.61786890071009637 0.61893577895439233 0.61701734826375221 0.6122013048022914 0.60460918581716816 0.59439945559306484 0.58176581631418545 0.56693485925745191 0.55016235723342222 0.53173097501445044 0.51194325855884926 0.49112229769930882 0.4696070193453562 0.44774251967234213 0.42587655265108565 0.40435510015032078 0.27860815717563747 0.15179218954794729 0.035114408872080179 -0.070287512880619657 -0.17482521742418167 -0.26664123641615384 -0.35689832731804727 -0.44532871687948877 -0.5318417931773477 -0.61611837603506747 -0.69800694971264343 -0.77725471197679752 -0.85389940502420769 -0.93925313962003587 -0.9996578206807567 -1.0460630701283562 -1.0784297957212845 -1.0969167931588788 -1.1014327475627383 -1.0920997942490336 -1.0692784804844311 -1.0200852966643443 -0.94446353825295415 -0.86989900497565675 -0.79652810277406849 -0.7246441841990453 -0.64270720287093741 -0.56339990022190645 -0.48702027061539216 -0.41396585525490237 -0.33461250093401901 -0.2596219629474229 -0.18931731551960707 -0.12373528855376288 -0.062988842270261497 -0.0010201647954517104 0.055093351101899848 0.10541806524390064 0.14999474524870204 0.18891900784487098 0.22230437654302232 0.25196646437633496 0.27574508050418672 0.29389554156405673 0.30672176151290398 0.31458663915394974 0.31786866016904775 0.31698421409061789 0.30960836061034447 0.29841763784748804 0.28393860343068461 0.26662354426853829 0.24698164089329244 0.22552714096062551 0.2027756017156532 0.17435160007898656 0.14547455669812073 0.11662636387561565 0.088274776680771452 0.060939992266117529 0.029978017517213528 0.00088145141997807207 -0.025936219122856846 -0.050224145589050952 -0.075935947822714678 -0.098269142563670461 -0.11711479486017584 -0.13564202813057433 -0.15013318217475224 -0.16059385631051512 -0.1693356447068104 -0.1738348279439671 -0.17589271402357654 -0.17383507493319147 -0.16902853971478368 -0.16139238919870533 -0.15111086026982079 -0.137172670061705 -0.12166187750470001 -0.10451260940117725 -0.085859762091675784 -0.066102661356560677 -0.046037652495561486 -0.026712572928819581 -0.0086759033196471078
        </DataArray>
      </CellData>
      <Points>
        <DataArray type="Float32" NumberOfComponents="3" format="ascii">
          5.8394377767111063 10.528768000854964 0
          5.8459209515867281 10.524299138309781 0
          5.8524129906422093 10.519843162093913 0
          5.8589209986587445 10.515410540978817 0
          5.8654501897663014 10.511009182324786 0
          5.8720047148695986 10.506645642256613 0
          5.8785879946815278 10.502325609443421 0
          5.885202882989736 10.498054137596929 0
          5.8918517587525647 10.493835770766781 0
          5.8985365856561263 10.489674618180979 0
          5.9052589570592477 10.485574405587135 0
          5.9120201295576029 10.481538507768013 0
          5.9188210510441053 10.477569971329844 0
          5.9256623847740268 10.473671530156814 0
          5.9325445331802857 10.469845620047158 0
          5.9394676618117419 10.466094393785475 0
          5.9464317210121447 10.462419732783658 0
          5.9534364641374475 10.458823252853358 0
          5.9604814668925892 10.455306312662049 0
          5.9675661457100642 10.451870021370091 0
          5.974689774301118 10.448515243707822 0
          5.9818515000944048 10.445242605976313 0
          5.9890503607336507 10.442052503699285 0
          5.9962852988016859 10.438945107101954 0
          6.0035551754455616 10.435920365700953 0
          6.0108587854221245 10.432978018154719 0
          6.0181948685085516 10.430117595513796 0
          6.0255621217971465 10.427338428502969 0
          6.0329592128193861 10.424639659541938 0
          6.0403847900797514 10.422020250760344 0
          6.0478374852913488 10.419478970332262 0
          6.0553159301242205 10.417014421767339 0
          6.0628187642726905 10.414625052577451 0
          6.0703446425091414 10.412309162476515 0
          6.0778922410002076 10.410064911833571 0
          6.0854602634518065 10.40789033229218 0
          6.09304744580575 10.405783335284648 0
          6.100652562032673 10.403741727306441 0
          6.1082744265444928 10.401763215948124 0
          6.1159118965366943 10.399845417687718 0
          6.1235638759720867 10.397985874737293 0
          6.1312293181038209 10.39618206938996 0
          6.1389072271770075 10.394431437799279 0
          6.1466329245293139 10.392905873912701 0
          6.154399340941227 10.391603800842688 0
          6.162197479585636 10.390508113749606 0
          6.1700197075752721 10.389600847547358 0
          6.1778611996859265 10.388879467842083 0
          6.1857162020588481 10.388325088303715 0
          6.1935810202775849 10.387935016812806 0
          6.2014521404254506 10.387706515982911 0
          6.2093262264166347 10.387637005193849 0
          6.2172001039991835 10.38772369193847 0
          6.2250707648704662 10.387963769495945 0
          6.2329353705345056 10.38835423424857 0
          6.2407912349438659 10.388892274319007 0
          6.2486343396334236 10.389591942757921 0
          6.2564651878658228 10.390417346310771 0
          6.2642841518621024 10.391348427153815 0
          6.2720924810949921 10.392364659546958 0
          6.2798921370015277 10.393445270703515 0
          6.2876857101285735 10.394568742701328 0
          6.2954762336155294 10.395713006940998 0
          6.3032669687274225 10.396855672623424 0
          6.3110644341314091 10.397951299032631 0
          6.3188746700755232 10.398951663092047 0
          6.3266967222496682 10.399854869931579 0
          6.3345295938020625 10.400658785714024 0
          6.3423722032456453 10.401361353617922 0
          6.3502252062479618 10.401936269331854 0
          6.3580866312736593 10.40238161146546 0
          6.3659544124434451 10.402695581434253 0
          6.3738263873297161 10.402876843494564 0
          6.381700444708394 10.402898275375383 0
          6.389573318979056 10.402758482872217 0
          6.3974416764375732 10.402456592724118 0
          6.4053021124188545 10.401991555738771 0
          6.4131511607569287 10.401362510303183 0
          6.4209826008979087 10.400542470943972 0
          6.4287917255377245 10.399531450173182 0
          6.436573768544875 10.398329340688919 0
          6.4443239475964607 10.396936271619175 0
          6.4520374774158658 10.395352603269144 0
          6.4597096697444849 10.39357929971853 0
          6.4673289458533514 10.391590711724602 0
          6.4748892282133683 10.389388293005593 0
          6.4823845084873097 10.386973773417632 0
          6.4898088671673202 10.384349162865236 0
          6.4971566265375165 10.381517097799231 0
          6.5044221063601446 10.37848009867006 0
          6.5115997597065851 10.375240936651853 0
          6.5186718009368612 10.371777189558806 0
          6.5256314974411591 10.368092860323816 0
          6.5324725211034211 10.364192564822496 0
          6.5391885927618194 10.36008081947976 0
          6.5457736655711445 10.355762376751597 0
          6.552221930216982 10.351242201707244 0
          6.5585278282218606 10.346525463052377 0
          6.5646680531498891 10.341594985762605 0
          6.570636129033101 10.336457482253689 0
          6.5764259125453464 10.331119871022542 0
          6.5820315911800842 10.325589248646269 0
          6.587447987473567 10.319873155939518 0
          6.5926473018597225 10.313958937300283 0
          6.5976233603939072 10.307855708003416 0
          6.6023707509906462 10.30157299415259 0
          6.6068841424098608 10.295120158028713 0
          6.6111323089759448 10.288489726886143 0
          6.6151098639881694 10.281693531005251 0
          6.6188115499857494 10.274743251412191 0
          6.6222038752445904 10.267636859636028 0
          6.6252814749253339 10.260388630065755 0
          6.6280396007973152 10.253012930248854 0
          6.6304427728500839 10.245514069539094 0
          6.6324866175056263 10.237909414183086 0
          6.6341342485107075 10.230209183858356 0
          6.6353827505746574 10.222434246632174 0
          6.6361946951773474 10.214601648785152 0
          6.6365314695928328 10.206734236022955 0
          6.6363527898580665 10.198861572583608 0
          6.6357970532713626 10.191006493553108 0
          6.634847297727517 10.183189218397963 0
          6.6335155916570985 10.175427814093235 0
          6.6317850029920837 10.167745936680884 0
          6.6296901378738866 10.160155571797581 0
          6.627277189886871 10.152660375134344 0
          6.624620950597877 10.145247899141713 0
          6.6218247418566065 10.137886968634595 0
        </DataArray>
      </Points>
      <Cells>
        <DataArray type="Int32" Name="connectivity" format="ascii">
          0 1 1 2 2 3 3 4 4 5 5 6 6 7 7 8 8 9 9 10 10 11 11 12 12 13 13 14 14 15 15 16 16 17 17 18 18 19 19 20 20 21 21 22 22 23 23 24 24 25 25 26 26 27 27 28 28 29 29 30 30 31 31 32 32 33 33 34 34 35 35 36 36 37 37 38 38 39 39 40 40 41 41 42 42 43 43 44 44 45 45 46 46 47 47 48 48 49 49 50 50 51 51 52 52 53 53 54 54 55 55 56 56 57 57 58 58 59 59 60 60 61 61 62 62 63 63 64 64 65 65 66 66 67 67 68 68 69 69 70 70 71 71 72 72 73 73 74 74 75 75 76 76 77 77 78 78 79 79 80 80 81 81 82 82 83 83 84 84 85 85 86 86 87 87 88 88 89 89 90 90 91 91 92 92 93 93 94 94 95 95 96 96 97 97 98 98 99 99 100 100 101 101 102 102 103 103 104 104 105 105 106 106 107 107 108 108 109 109 110 110 111 111 112 112 113 113 114 114 115 115 116 116 117 117 118 118 119 119 120 120 121 121 122 122 123 123 124 124 125 125 126 126 127 
        </DataArray>
        <DataArray type="Int32" Name="offsets" format="ascii">
          2 4 6 8 10 12 14 16 18 20 22 24 26 28 30 32 34 36 38 40 42 44 46 48 50 52 54 56 58 60 62 64 66 68 70 72 74 76 78 80 82 84 86 88 90 92 94 96 98 100 102 104 106 108 110 112 114 116 118 120 122 124 126 128 130 132 134 136 138 140 142 144 146 148 150 152 154 156 158 160 162 164 166 168 170 172 174 176 178 180 182 184 186 188 190 192 194 196 198 200 202 204 206 208 210 212 214 216 218 220 222 224 226 228 230 232 234 236 238 240 242 244 246 248 250 252 254 
        </DataArray>
        <DataArray type="Int32" Name="types" format="ascii">
          3 3 3 3 3 3 3 3 3 3 3 3 3 3 3 3 3 3 3 3 3 3 3 3 3 3 3 3 3 3 3 3 3 3 3 3 3 3 3 3 3 3 3 3 3 3 3 3 3 3 3 3 3 3 3 3 3 3 3 3 3 3 3 3 3 3 3 3 3 3 3 3 3 3 3 3 3 3 3 3 3 3 3 3 3 3 3 3 3 3 3 3 3 3 3 3 3 3 3 3 3 3 3 3 3 3 3 3 3 3 3 3 3 3 3 3 3 3 3 3 3 3 3 3 3 3 3         </DataArray>
      </Cells>
    </Piece>
  </UnstructuredGrid>
</VTKFile>
