<?xml version="1.0"?>
<VTKFile type="UnstructuredGrid" version="0.1" byte_order="LittleEndian">
  <UnstructuredGrid>
    <Piece NumberOfPoints="128" NumberOfCells="127">
      <PointData Scalars="W">
        <DataArray type="Float32" Name="W" NumberOfComponents="2">
          0 0 0.15076378997710793 -0.71496440822359397 0.21802889069812192 -1.0720459845408334 0.259967568771651 -1.3449334816512712 0.28483903711897995 -1.5719525065932562 0.29618012912615982 -1.7688368421834546 0.29600405753227738 -1.9440579692527604 0.28562386036774556 -2.1028276356982745 0.26595892794718118 -2.2485794561137329 0.23767551141313867 -2.3835816096490499 0.20129239682682437 -2.509487722609463 0.15721959981992958 -2.6275024599808727 0.10578718904847298 -2.7384865803213301 0.047268608522072354 -2.84300909927097 -0.018096508117430774 -2.9413957552740304 -0.090085363152995729 -3.0338685424780913 -0.16849053222961483 -3.1206270733853025 -0.25311257649612851 -3.2017317216010546 -0.34375117209951705 -3.2771622514029768 -0.440209572303283 -3.346909462097778 -0.54228463860339682 -3.4108891034337936 -0.64976069409883142 -3.4689603952785117 -0.76241589876488269 -3.5209885498684308 -0.88002558630707439 -3.5668493190531279 -1.0023358530392374 -3.6063290209624386 -1.1291072676580054 -3.639309250132845 -1.2600743549965729 -3.6656025790543323 -1.3949292140698808 -3.6849462513399907 -1.5333706760325541 -3.6971558487954717 -1.6752448421388448 -3.702390805822211 -1.8201070069151277 -3.7001398588082708 -1.967624216038842 -3.6902394831154504 -2.1174546718747749 -3.6725375551940269 -2.2692547843404678 -3.6469031467468951 -2.4226675731904219 -3.6132047062815462 -2.5773353745624372 -3.5713307100568135 -2.732836581075881 -3.5211067788221091 -2.8888386414354699 -3.4625024758835941 -3.044999846024468 -3.3954744987152425 -3.200878983499766 -3.3198816296550189 -3.3560586567710686 -3.2356417689699648 -3.5101369489189542 -3.1427092057323618 2.8682998457531581 2.5503410841597085 2.6774072940760516 2.5264268869570277 2.4881222104225 2.4848106215502739 2.2579845180665798 2.3790061042903616 -10.711698332848071 -10.30112816774294 -11.894079528234473 -9.0142978339932505 -12.922551905062434 -7.583831247573606 -13.778762992159587 -6.028569853906494 -14.446716371666593 -4.3697596975268063 -14.912301157755154 -2.6306733433476386 4.7351563328680841 0.63723501121742443 4.6678905362921235 0.80721380113187857 4.5906572427089332 0.97060545238724361 3.8754210085273257 0.95888255614654982 3.8104499433198131 1.0704143444917107 3.7020968596710473 1.1643704239767376 3.5896955431263753 1.2495123560732588 3.4958889180671648 1.3345109910382802 3.3993159469808187 1.4127909410108017 3.2790772236929744 1.4743461526390607 3.1574819378366694 1.5272026308442532 3.057629873993148 1.5835702738760136 2.9358536181022625 1.6215702997444759 2.8139717242766129 1.6513393457481897 2.7159272317862064 1.6881039681082284 2.6189034862593292 1.7197379888541116 2.5232427684604626 1.7465539882625969 2.4292486870689336 1.7688793383191521 2.3371875605942143 1.787052216918281 2.2472908340592181 1.8014186751174326 2.1597559815201666 1.8123288543564635 2.0747491865803802 1.820134838179394 1.9725363961954958 1.806596518524356 1.8937492046050857 1.8084323236974851 1.8174035029814106 1.8078360124122796 1.7444145599918099 1.8059805667565998 1.6743712523890435 1.8027749962886477 1.6072992381790867 1.798549040618685 1.5431991375808372 1.7936172663634782 1.4820562337348746 1.7882868127302605 1.4238411322298561 1.7828564174821622 1.3685116023589059 1.7776171181462745 1.3160136046546638 1.7728523738209816 1.2662822774465083 1.7688384532254893 1.2189262733376831 1.7653781934318684 1.1745099887571082 1.7636581553729176 1.1326082430389355 1.7634808473680033 1.0931194412462244 1.7650999405788474 1.055933561200485 1.7687655265021371 1.0209319802934052 1.774724931150689 0.98772247381753187 1.7827367553006963 0.95671878884567463 1.7940220463731651 0.93971012477599636 1.8326513290119142 0.91130808976672928 1.8506367699671573 0.88434110991595061 1.8721421507573264 0.85840618107093225 1.8969368956207964 0.83375277221565713 1.9262628110750566 0.80992861934475724 1.9599125851566754 0.78669410959962704 1.9981728041535314 0.76378632732674123 2.0413434611015298 0.74091504508917316 2.0897394172926065 0.70934304426674633 2.1178051449456081 0.68647906783279633 2.1773640480937844 0.66261354459082467 2.2432256625096265 0.63730212427370692 2.3157970181428369 0.61004308486815007 2.3955194323479252 0.57413293935676724 2.4553990863320108 0.54232281816599115 2.5506498103907109 0.50676927241940573 2.6552087160589481 0.46188472115957335 2.7399133232643043 0.41723252125421778 2.8638845730735834 0.36244932327365625 2.9684601642854287 0.30434957803215595 3.1148583035084889 0.23485398942972649 3.2440716509788157 0.15977921681187343 3.4950152489118471 0.064132898283851103 3.6941891043035113 -0.049215215862662108 3.9097198911125033 0.031200435970141431 -1.3845589859648433 0.016494510905997802 -1.4520811126683677 -0.0047703098644458295 -2.0291399929172398 -0.062740199066408792 -2.8881928550901841 -0.1828374020408467 -3.7997665926267881 -0.48284565776797134 -5.6420386575633428 -1.1688975546742593 -8.2615752251562391 -0.87190596680824806 -4.4978458467771087 0 0
        </DataArray>
        <DataArray type="Float32" Name="u" NumberOfComponents="1">
          0 0.007874015748031496 0.015748031496062992 0.023622047244094488 0.031496062992125984 0.03937007874015748 0.047244094488188976 0.055118110236220472 0.062992125984251968 0.070866141732283464 0.07874015748031496 0.086614173228346455 0.094488188976377951 0.10236220472440945 0.11023622047244094 0.11811023622047244 0.12598425196850394 0.13385826771653545 0.14173228346456693 0.14960629921259844 0.15748031496062992 0.16535433070866143 0.17322834645669291 0.18110236220472442 0.1889763779527559 0.19685039370078741 0.20472440944881889 0.2125984251968504 0.22047244094488189 0.2283464566929134 0.23622047244094488 0.24409448818897639 0.25196850393700787 0.25984251968503935 0.26771653543307089 0.27559055118110237 0.28346456692913385 0.29133858267716534 0.29921259842519687 0.30708661417322836 0.31496062992125984 0.32283464566929132 0.33070866141732286 0.33858267716535434 0.34645669291338582 0.3543307086614173 0.36220472440944884 0.37007874015748032 0.37795275590551181 0.38582677165354329 0.39370078740157483 0.40157480314960631 0.40944881889763779 0.41732283464566927 0.42519685039370081 0.43307086614173229 0.44094488188976377 0.44881889763779526 0.45669291338582679 0.46456692913385828 0.47244094488188976 0.48031496062992124 0.48818897637795278 0.49606299212598426 0.50393700787401574 0.51181102362204722 0.51968503937007871 0.52755905511811019 0.53543307086614178 0.54330708661417326 0.55118110236220474 0.55905511811023623 0.56692913385826771 0.57480314960629919 0.58267716535433067 0.59055118110236215 0.59842519685039375 0.60629921259842523 0.61417322834645671 0.62204724409448819 0.62992125984251968 0.63779527559055116 0.64566929133858264 0.65354330708661412 0.66141732283464572 0.6692913385826772 0.67716535433070868 0.68503937007874016 0.69291338582677164 0.70078740157480313 0.70866141732283461 0.71653543307086609 0.72440944881889768 0.73228346456692917 0.74015748031496065 0.74803149606299213 0.75590551181102361 0.76377952755905509 0.77165354330708658 0.77952755905511806 0.78740157480314965 0.79527559055118113 0.80314960629921262 0.8110236220472441 0.81889763779527558 0.82677165354330706 0.83464566929133854 0.84251968503937003 0.85039370078740162 0.8582677165354331 0.86614173228346458 0.87401574803149606 0.88188976377952755 0.88976377952755903 0.89763779527559051 0.90551181102362199 0.91338582677165359 0.92125984251968507 0.92913385826771655 0.93700787401574803 0.94488188976377951 0.952755905511811 0.96062992125984248 0.96850393700787396 0.97637795275590555 0.98425196850393704 0.99212598425196852 1
        </DataArray>
      </PointData>
      <CellData Scalars="P">
        <DataArray type="Float32" Name="P" NumberOfComponents="1">
          -0.012718141919035947 -0.036344616796786078 -0.056547815610452336 -0.072484509351644216 -0.083624197461023328 -0.089619189123918183 -0.090239689022668088 -0.085335561580076699 -0.074812328269885611 -0.058616876654083508 -0.036725597949305917 -0.0091362508029373454 0.024137500138847589 0.063069171092644524 0.10762093875337178 0.15774641530414596 0.21339438151629297 0.27450886148969911 0.34102974046989271 0.41289531316056494 0.49004211642791429 0.57240475825464165 0.65991726350299629 0.75251444506611487 0.85012984066709585 0.95269943881275421 1.0601599345715813 1.1724462621053675 1.2894943683268385 1.4112546902107979 1.5376668398077136 1.6686722160485199 1.8042142321718146 1.9442389216887226 2.088694563811651 2.2375321517387912 2.3907017538240218 2.5481587698570896 2.7098630841678122 2.8757731881922419 3.0458481156641204 3.2200484599367005 3.0374484160296018 2.855664738821087 2.6771614723601083 2.5072036521876102 3.1584053666687741 3.7767835623282973 4.3625749893925105 4.9162824840206207 5.4385417184657054 5.929960283712485 5.7447272708797188 5.5381757249358152 5.3129242729176971 5.1044170108824662 4.8844681394533831 4.6572037276038127 4.4247068648165611 4.1874950852936976 3.9472587671182158 3.707116854534104 3.468657065303701 3.2316264715552045 2.9988881081093339 2.7716368238615958 2.5490625420341351 2.3319878570353092 2.121127254782893 1.9170918136006205 1.7203945545434254 1.5314562379441135 1.3506116152863765 1.178115889681246 1.0156956247585953 0.86186283125966712 0.71669589208234807 0.58015682578795191 0.45219525699231811 0.3327207167971859 0.22160924330184262 0.11870912685579182 0.023846411236874508 -0.063169959088816535 -0.14254331976510962 -0.21448481713886097 -0.27919591545397254 -0.33690668440472693 -0.387828589814878 -0.43216669586840062 -0.47011705443909185 -0.50186447313749283 -0.5275777942342994 -0.54741885411530067 -0.5615096830158095 -0.56991110361797925 -0.57273116722683637 -0.57006611824831943 -0.56198775316829608 -0.54855572111273654 -0.52981537924048239 -0.50579937013534237 -0.47652963119375003 -0.44264295810195087 -0.4035803474614218 -0.35934642944243839 -0.30994796607217578 -0.25539831138245106 -0.19658093369460092 -0.13271248977062153 -0.063838425477804675 0.0089730745265101004 0.086549229039086767 0.16768853311086493 0.25316038899971149 0.34165476432079112 0.43630470385693093 0.53434312991460164 0.63508463781714053 0.57461429378804596 0.51447979454279946 0.44245214290330726 0.35574127507651809 0.26011597136505293 0.14935007416792209 0.042647989862312156 0.0051652711420378684
        </DataArray>
      </CellData>
      <Points>
        <DataArray type="Float32" NumberOfComponents="3" format="ascii">
          6.6131428919484136 10.221999538404724 0
          6.6208432869058722 10.223646465144963 0
          6.6285530301414157 10.225249057978425 0
          6.6362762925193497 10.226785174812635 0
          6.6440156745014507 10.228237894318863 0
          6.6517727182583215 10.229593139413483 0
          6.6595481269715906 10.230838701627613 0
          6.6673418896647378 10.231963715802431 0
          6.675153362619664 10.232958336916232 0
          6.6829813263850264 10.233813527171254 0
          6.6908240270884631 10.234520915347616 0
          6.6986792086051468 10.235072694264957 0
          6.7065441379819184 10.235461546083624 0
          6.714415625904258 10.235680588931119 0
          6.7222900436522091 10.235723341619174 0
          6.7301633379599712 10.23558370344613 0
          6.738031044831672 10.235255940432445 0
          6.7458883024040572 10.234734672944105 0
          6.7537298633141809 10.234014871950055 0
          6.7615501071221642 10.233091860278106 0
          6.769343052512335 10.231961313186583 0
          6.7771023698909287 10.230619263589643 0
          6.7848213947614573 10.229062110787876 0
          6.7924931414824758 10.227286628827237 0
          6.8001103172008017 10.225289974204358 0
          6.807665337597915 10.22306969911733 0
          6.8151503417391508 10.220623758808422 0
          6.8225572085380346 10.217950523186525 0
          6.829877575851536 10.215048793120355 0
          6.8371028591580556 10.211917811873784 0
          6.8442242611036788 10.208557255219395 0
          6.851232799080849 10.204967263140171 0
          6.8581193258776878 10.20114844996832 0
          6.864874550875748 10.19710191381675 0
          6.8714890613589494 10.192829244695877 0
          6.8779533446527976 10.188332532668657 0
          6.8842578103059537 10.183614374763293 0
          6.8903928162366581 10.178677885783008 0
          6.8963486893568957 10.17352670018985 0
          6.9021157467642542 10.168164974785824 0
          6.9076843231033465 10.162597397465023 0
          6.9130447964502943 10.156829192299528 0
          6.9181876132369347 10.150866122368537 0
          6.9235082578815161 10.145061218516391 0
          6.9289948910526622 10.13941299595627 0
          6.9346357735120145 10.133918872120924 0
          6.9404166326313996 10.128572285084406 0
          6.9455333168514537 10.122586987861663 0
          6.9499125148533203 10.11604277080553 0
          6.9534904586400472 10.109028330068329 0
          6.9562140614229886 10.101640099287534 0
          6.9580419094109951 10.093980932182818 0
          6.9589451366775812 10.086158659496142 0
          6.960141960326558 10.078375904480387 0
          6.9616282088731918 10.070643206347992 0
          6.9633990928260703 10.062970695848355 0
          6.9654102617260705 10.055357655438463 0
          6.9676576858866204 10.047810999279813 0
          6.9701346457679483 10.040336552280561 0
          6.9728341709431092 10.03293959275112 0
          6.9757504441318412 10.025625389757979 0
          6.9788774766669164 10.018398795755862 0
          6.9822078125798663 10.011263626437437 0
          6.9857339119290351 10.004223158091126 0
          6.9894495831430676 9.9972808844282497 0
          6.9933472753484915 9.99043916052592 0
          6.9974194312680797 9.9836998310881171 0
          7.0016599718266832 9.9770651743428385 0
          7.0060628813683303 9.9705371504324773 0
          7.0106222288730393 9.9641174208006476 0
          7.0153321867755531 9.9578073684954163 0
          7.0201870474717785 9.9516081191418682 0
          7.0251812376628475 9.9455205624021463 0
          7.0303093305928543 9.9395453736885013 0
          7.0355660563465152 9.9336830359961823 0
          7.0409450783106156 9.9279327090367424 0
          7.0464415124009063 9.9222945057175007 0
          7.0520506259920541 9.9167683882071387 0
          7.0577678946590545 9.9113542406624617 0
          7.063588976681852 9.9060518635889299 0
          7.0695097146311268 9.9008609942858445 0
          7.0755261354020353 9.8957813263506313 0
          7.0816344492973533 9.890812528722515 0
          7.0878310482009734 9.8859542642052727 0
          7.094112502955876 9.8812062075126068 0
          7.1004755600103362 9.8765680628437504 0
          7.1069171373935038 9.8720395810134409 0
          7.1134343004531377 9.8676205472259539 0
          7.1200242968389995 9.8633108546501038 0
          7.1266845301427892 9.8591104921740929 0
          7.1334125535976929 9.8550195601358297 0
          7.140206063255758 9.8510382858318355 0
          7.1470628906323839 9.847167038855293 0
          7.1539809783939932 9.8434063161286716 0
          7.1609584059983051 9.8397568176239911 0
          7.1679941202809081 9.8362209390185154 0
          7.1750863620247598 9.8327997959101303 0
          7.1822334610207026 9.8294947222427052 0
          7.1894338110894989 9.8263072560133242 0
          7.1966858855336451 9.8232392162874049 0
          7.203988209104125 9.8202926903513692 0
          7.2113393431440755 9.8174700514946931 0
          7.2187378692872564 9.8147739776249878 0
          7.2261823714625963 9.8122074708069231 0
          7.2336708947429251 9.8097722724343175 0
          7.2412020236254788 9.8074720771066506 0
          7.2487742805356952 9.8053109704505133 0
          7.2563860982711024 9.8032934543841286 0
          7.2640357888857734 9.8014244745112791 0
          7.2717211287852965 9.7997077460585178 0
          7.279440147905337 9.7981491781423475 0
          7.2871906440374428 9.7967552574453745 0
          7.2949698372527552 9.7955312396440046 0
          7.3027749611411341 9.7944848160646156 0
          7.3106026220051143 9.7936224755612358 0
          7.3184492194499127 9.7929533012931227 0
          7.3263104473272955 9.7924853111864358 0
          7.3341816494585546 9.7922340734701123 0
          7.3420568959566967 9.7922119462438122 0
          7.3499291587908004 9.7924323028135767 0
          7.3578036567758955 9.7925667910290972 0
          7.3656795233873629 9.7926112127168938 0
          7.3735555169424991 9.7925297565657203 0
          7.3814281482612358 9.7922690993803716 0
          7.3892900963807104 9.7917726291619029 0
          7.3971229632006477 9.790925917237228 0
          7.4048830209945544 9.7895664566457565 0
          7.4125885205202611 9.7879279322748225 0
        </DataArray>
      </Points>
      <Cells>
        <DataArray type="Int32" Name="connectivity" format="ascii">
          0 1 1 2 2 3 3 4 4 5 5 6 6 7 7 8 8 9 9 10 10 11 11 12 12 13 13 14 14 15 15 16 16 17 17 18 18 19 19 20 20 21 21 22 22 23 23 24 24 25 25 26 26 27 27 28 28 29 29 30 30 31 31 32 32 33 33 34 34 35 35 36 36 37 37 38 38 39 39 40 40 41 41 42 42 43 43 44 44 45 45 46 46 47 47 48 48 49 49 50 50 51 51 52 52 53 53 54 54 55 55 56 56 57 57 58 58 59 59 60 60 61 61 62 62 63 63 64 64 65 65 66 66 67 67 68 68 69 69 70 70 71 71 72 72 73 73 74 74 75 75 76 76 77 77 78 78 79 79 80 80 81 81 82 82 83 83 84 84 85 85 86 86 87 87 88 88 89 89 90 90 91 91 92 92 93 93 94 94 95 95 96 96 97 97 98 98 99 99 100 100 101 101 102 102 103 103 104 104 105 105 106 106 107 107 108 108 109 109 110 110 111 111 112 112 113 113 114 114 115 115 116 116 117 117 118 118 119 119 120 120 121 121 122 122 123 123 124 124 125 125 126 126 127 
        </DataArray>
        <DataArray type="Int32" Name="offsets" format="ascii">
          2 4 6 8 10 12 14 16 18 20 22 24 26 28 30 32 34 36 38 40 42 44 46 48 50 52 54 56 58 60 62 64 66 68 70 72 74 76 78 80 82 84 86 88 90 92 94 96 98 100 102 104 106 108 110 112 114 116 118 120 122 124 126 128 130 132 134 136 138 140 142 144 146 148 150 152 154 156 158 160 162 164 166 168 170 172 174 176 178 180 182 184 186 188 190 192 194 196 198 200 202 204 206 208 210 212 214 216 218 220 222 224 226 228 230 232 234 236 238 240 242 244 246 248 250 252 254 
        </DataArray>
        <DataArray type="Int32" Name="types" format="ascii">
          3 3 3 3 3 3 3 3 3 3 3 3 3 3 3 3 3 3 3 3 3 3 3 3 3 3 3 3 3 3 3 3 3 3 3 3 3 3 3 3 3 3 3 3 3 3 3 3 3 3 3 3 3 3 3 3 3 3 3 3 3 3 3 3 3 3 3 3 3 3 3 3 3 3 3 3 3 3 3 3 3 3 3 3 3 3 3 3 3 3 3 3 3 3 3 3 3 3 3 3 3 3 3 3 3 3 3 3 3 3 3 3 3 3 3 3 3 3 3 3 3 3 3 3 3 3 3         </DataArray>
      </Cells>
    </Piece>
  </UnstructuredGrid>
</VTKFile>
