<?xml version="1.0"?>
<VTKFile type="UnstructuredGrid" version="0.1" byte_order="LittleEndian">
  <UnstructuredGrid>
    <Piece NumberOfPoints="128" NumberOfCells="127">
      <PointData Scalars="W">
        <DataArray type="Float32" Name="W" NumberOfComponents="2">
          0 0 -0.55805185903711052 0.064727989005177886 -0.92224520869850313 0.10149259049564925 -1.2030192049956536 0.12215632881533352 -1.4395113530104813 0.13098496342816573 -1.6476300196304676 0.12967936437028571 -1.8354280087663302 0.11909511483610023 -2.0076072152805144 0.099740175965054939 -2.1671297887238525 0.071951518652922875 -2.3160180197926521 0.035975854397224789 -2.4556294667463141 -0.0079952630111599487 -2.5869409984307716 -0.059800919970611738 -2.7106447097423878 -0.11929970860016494 -2.8272723795085679 -0.18636517222413243 -2.9372238655951119 -0.26088444845851655 -3.0407503118136563 -0.34275183017072341 -3.137931418955981 -0.43185515186152779 -3.2288531491548311 -0.5280899979264928 -3.3134969798709752 -0.63134537845145344 -3.3917596191091142 -0.74149779966988805 -3.4635098531480781 -0.85841691455082625 -3.5285939161759026 -0.98196648004330755 -3.5868096750187859 -1.1119958304051853 -3.637901859311047 -1.2483324616235025 -3.6816218802340352 -1.3907978186798096 -3.7176244437047674 -1.5391664918717687 -3.7456043155444303 -1.6932109938170055 -3.7652884065129433 -1.8527079033687219 -3.7763121843504734 -2.0173790741448903 -3.7780111726271133 -2.1867439771963557 -3.7703124207217606 -2.3606118751337473 -3.7528175622465505 -2.5386070808717047 -3.7251369334630757 -2.7203265383901911 -3.6868524018970339 -2.9053091293708699 -3.6375739788006247 -3.0930706340037868 -3.5769070655446726 -3.2830765590334314 -3.5045255037586887 -3.4748072449885039 -3.4200099295483253 -3.6676005280548356 -3.3229607157429055 -3.8607282740179385 -3.2131019446218638 -4.053519208073693 -3.0901617994169901 -4.2452401516536487 -2.9538728846560662 -4.4350763349266007 2.3241911663428279 3.522870458557144 2.3864452736743931 3.3707024402438943 2.4372508455859068 3.2178729531203332 2.4840482024248161 3.0738087989917937 2.5138971795071758 2.9222655251013068 2.5415452584296134 2.7810607238504326 2.560583086139427 2.6420103375593875 2.5633880022076059 2.4979511965004062 2.5666226328480675 2.3654667484631022 2.563074694762228 2.236677573061995 2.5533284919717576 2.1119098137016641 2.5469979010634396 1.9983267796577757 2.5269267577366552 1.8818695482961432 2.502247029066599 1.7699786916574496 2.4830967706884186 1.6690485281841916 2.4421596409745829 1.5605585336447991 2.3975737674115285 1.4573004976174442 2.349844717570639 1.3592500062890733 2.3101631328213887 1.2721047107918582 2.2581527699490391 1.1840266286249703 2.2043523039279589 1.100903057909008 2.1493079442792888 1.0226741887794391 2.0805400165744956 0.94349393352288535 2.0361257129486043 0.88017706921794858 1.9922368484699926 0.82079293024453737 1.9488224825253861 0.76503542522394996 1.9063096873446961 0.71280691593396228 1.8649383648580917 0.66393230566042161 1.8114456792215672 0.61377946802544237 1.7728860920373788 0.57148236111890616 1.7361070102523972 0.53199822873439373 1.7012846298943463 0.49515236094459492 1.6685901407050054 0.46077394691334633 1.638360223596514 0.42873888900648688 1.5959087699443757 0.39529816320236688 1.5703922074300205 0.3676718480984737 1.5475747470662331 0.34183756565757084 1.5275735263263059 0.31763458780177689 1.5106923179623271 0.29494048888186414 1.4966602123335748 0.27352177384114151 1.4857702827339929 0.25326252228293877 1.4781228433075404 0.2340062666022818 1.4738124665110925 0.21559534175652473 1.4729394513660035 0.19787157382841777 1.4757957066795531 0.18069628477375299 1.4820678850270999 0.16385196771097904 1.4920535336148415 0.14719684012676831 1.5058405633196525 0.13055352248635202 1.5235197137076435 0.11373711825022399 1.5451789502360904 0.096553063949176191 1.5709157186734797 0.078796122455483467 1.6010289680962679 0.060253794128287207 1.635192410450149 0.040673416233157678 1.673706083793767 0.019815013629040441 1.7166703916446857 -0.0025932195711490078 1.7641767996473805 -0.026846255287386298 1.8163167716649773 -0.053264903714873343 1.8734073565256553 -0.082210820753819899 1.9499515751620136 -0.11504177590304562 2.0165360598173141 -0.15067599441459531 2.0881097816875926 -0.19012104010534944 2.1647609018003537 -0.23389169938950594 2.2320338398216677 -0.28059806007085419 2.319117980802631 -0.3342470570034507 2.4114896111098427 -0.39408450683051766 2.509416695750569 -0.46092809672791746 2.5974345872146558 -0.53231637199866255 2.705990986780491 -0.61508370370978982 2.8201559418219531 -0.70774648159541265 2.9241233293823807 -0.80699313554629837 3.0488484112800487 -0.92231947623010535 3.1634249267650136 -1.0463035793339976 3.2986302880902718 -1.1904781814285716 3.4232061636914177 -1.3460644478811885 3.552510516073935 -1.5202084481085005 3.7025333459347376 -1.7234140956408319 3.8409885048550989 -1.944707685918027 3.9829893507036318 -2.1942513109193085 4.1874099282711157 -2.5139202172261319 0.43358576208955046 -0.27300293707081225 -0.088015985361170404 0.055616175066301912 -0.53873902491870862 0.33822883603724324 -1.2515386660312935 0.7713370992316565 -3.5645125362249432 2.0897640230323815 -4.6918697605807305 2.5207350901606436 0 0
        </DataArray>
        <DataArray type="Float32" Name="u" NumberOfComponents="1">
          0 0.007874015748031496 0.015748031496062992 0.023622047244094488 0.031496062992125984 0.03937007874015748 0.047244094488188976 0.055118110236220472 0.062992125984251968 0.070866141732283464 0.07874015748031496 0.086614173228346455 0.094488188976377951 0.10236220472440945 0.11023622047244094 0.11811023622047244 0.12598425196850394 0.13385826771653545 0.14173228346456693 0.14960629921259844 0.15748031496062992 0.16535433070866143 0.17322834645669291 0.18110236220472442 0.1889763779527559 0.19685039370078741 0.20472440944881889 0.2125984251968504 0.22047244094488189 0.2283464566929134 0.23622047244094488 0.24409448818897639 0.25196850393700787 0.25984251968503935 0.26771653543307089 0.27559055118110237 0.28346456692913385 0.29133858267716534 0.29921259842519687 0.30708661417322836 0.31496062992125984 0.32283464566929132 0.33070866141732286 0.33858267716535434 0.34645669291338582 0.3543307086614173 0.36220472440944884 0.37007874015748032 0.37795275590551181 0.38582677165354329 0.39370078740157483 0.40157480314960631 0.40944881889763779 0.41732283464566927 0.42519685039370081 0.43307086614173229 0.44094488188976377 0.44881889763779526 0.45669291338582679 0.46456692913385828 0.47244094488188976 0.48031496062992124 0.48818897637795278 0.49606299212598426 0.50393700787401574 0.51181102362204722 0.51968503937007871 0.52755905511811019 0.53543307086614178 0.54330708661417326 0.55118110236220474 0.55905511811023623 0.56692913385826771 0.57480314960629919 0.58267716535433067 0.59055118110236215 0.59842519685039375 0.60629921259842523 0.61417322834645671 0.62204724409448819 0.62992125984251968 0.63779527559055116 0.64566929133858264 0.65354330708661412 0.66141732283464572 0.6692913385826772 0.67716535433070868 0.68503937007874016 0.69291338582677164 0.70078740157480313 0.70866141732283461 0.71653543307086609 0.72440944881889768 0.73228346456692917 0.74015748031496065 0.74803149606299213 0.75590551181102361 0.76377952755905509 0.77165354330708658 0.77952755905511806 0.78740157480314965 0.79527559055118113 0.80314960629921262 0.8110236220472441 0.81889763779527558 0.82677165354330706 0.83464566929133854 0.84251968503937003 0.85039370078740162 0.8582677165354331 0.86614173228346458 0.87401574803149606 0.88188976377952755 0.88976377952755903 0.89763779527559051 0.90551181102362199 0.91338582677165359 0.92125984251968507 0.92913385826771655 0.93700787401574803 0.94488188976377951 0.952755905511811 0.96062992125984248 0.96850393700787396 0.97637795275590555 0.98425196850393704 0.99212598425196852 1
        </DataArray>
      </PointData>
      <CellData Scalars="P">
        <DataArray type="Float32" Name="P" NumberOfComponents="1">
          -0.011144383559488085 -0.032018469347589638 -0.049751236715685224 -0.063340555958136965 -0.072065046459071358 -0.07536154454651206 -0.072770981712503791 -0.063907501483115844 -0.048439266382988733 -0.02607444131334154 0.0034473956659184304 0.040362595282911168 0.084888590046413942 0.13722897776644757 0.19757741542196319 0.26611945724092317 0.34303209757521169 0.42848744313047954 0.52265244663938659 0.62568832379805606 0.73775128931938194 0.85899318266559765 0.9895607553638911 1.1295942473479448 1.2792281393474727 1.4385869631389172 1.6077868728449352 1.7869371736252613 1.9761353967310158 2.1754490793839021 2.3849470323783395 2.6046807119475308 2.8346829475763395 3.0749639067359182 3.3255103317519943 3.5862822734787798 3.8572151737286187 4.1382088240095047 4.429123461978441 4.7297852630155894 5.039981744486532 5.359455895154694 5.0716651294801842 4.7752495650444713 4.4726581312190739 4.1653433299054825 3.8562444504190885 3.5464085237294398 3.2375837191047276 2.932312348204805 2.6310715761570251 2.3351216303311544 2.0455718678631585 1.7624049469582537 1.4874281159888609 1.2213497184580999 0.9637835785548361 0.71705541479346058 0.48152000322226285 0.25742216091466086 0.043949506088334568 -0.15789521539051973 -0.34813763913330326 -0.52688943873215921 -0.69334743855528147 -0.84965292805033532 -0.99604473906828184 -1.1327707303608099 -1.2601171936153248 -1.3783904254061603 -1.4871701457604933 -1.5875781070165189 -1.6799508987559109 -1.7646248588763114 -1.8419323820322602 -1.9122046649345628 -1.9752716838032931 -2.0319654085675576 -2.0825697615064307 -2.1273497217620001 -2.1665530289480088 -2.2003973795586966 -2.2290811316884604 -2.2527781222446346 -2.2716369904349021 -2.2857808476179131 -2.2953067123073101 -2.3002862546782796 -2.3007664056448869 -2.2967698053948404 -2.2882957948943283 -2.2753217359549605 -2.2578044082095445 -2.2356772440214079 -2.2088659323657209 -2.1772779533878008 -2.140809119194421 -2.0993468021062012 -2.0527732723451706 -2.0009612950930706 -1.9432454137938993 -1.8800430751358244 -1.8112570287966032 -1.7368063221671244 -1.6572551796254795 -1.571967758382312 -1.4809471083100949 -1.3842284850937907 -1.2826048948534854 -1.1755491651606469 -1.0632711344726071 -0.94678288060447258 -0.82576558481101869 -0.70139834215167507 -0.57357996785792742 -0.44371393203989062 -0.31264732459102551 -0.18071990856899986 -0.049767498153137635 0.07881901257476967 0.20549097081972567 0.20124416224083913 0.18123519650679756 0.15156487755910203 0.11203191905816029 0.050302540454383787 0.0052027900011728688
        </DataArray>
      </CellData>
      <Points>
        <DataArray type="Float32" NumberOfComponents="3" format="ascii">
          4.1108582192453023 6.8697410716749836 0
          4.1117827682296415 6.877560897721076 0
          4.1126727155622183 6.8853847377129531 0
          4.1135054796500103 6.8932148715611135 0
          4.1142636512426192 6.9010525807339977 0
          4.1149325667384282 6.9088984127999673 0
          4.1154993217988167 6.9167522869071227 0
          4.1159522720418105 6.92461354684258 0
          4.1162807415069436 6.9324809925337778 0
          4.1164748389921133 6.9403529009457241 0
          4.1165253326659306 6.948227041380731 0
          4.1164235658965227 6.9561006873575799 0
          4.1161613966848254 6.9639706265905579 0
          4.1157311547551751 6.9718331697589511 0
          4.1151256085862231 6.9796841583495146 0
          4.1143379406215335 6.9875189716561517 0
          4.1133617317010804 6.9953325333360921 0
          4.1121909561229479 7.0031193183667808 0
          4.1108199763166731 7.0108733595225035 0
          4.1092435439949897 7.0185882542589679 0
          4.1074568065614807 7.0262571723735245 0
          4.1054553152492783 7.0338728640906609 0
          4.1032350346578088 7.041427668513446 0
          4.1007923552882222 7.0489135229695918 0
          4.0981241093731775 7.056321973711948 0
          4.0952275862919132 7.0636441869944955 0
          4.0921005539810045 7.0708709630538564 0
          4.088741277860664 7.0779927502198925 0
          4.0851485377673278 7.0849996587743851 0
          4.0813216505554912 7.0918814782031019 0
          4.0772605112967311 7.0986277069965924 0
          4.0729655978007369 7.1052275644826235 0
          4.0684379953128396 7.1116700141262754 0
          4.0636794206711748 7.1179437885269223 0
          4.0586922482282235 7.1240374180150772 0
          4.0534795340265344 7.1299392606813168 0
          4.0480450402594794 7.1356375355219415 0
          4.0423932554876734 7.1411203546643431 0
          4.0365294206337889 7.1463757644275896 0
          4.0304595537529222 7.1513917904726734 0
          4.0241904671318487 7.1561564794263894 0
          4.017729784133504 7.1606579443425336 0
          4.0110859557668865 7.1648844152210325 0
          4.0045862442950453 7.169329310145879 0
          3.9982345091576028 7.1739831932433722 0
          3.9920338998950942 7.1788365876981022 0
          3.9859873173611331 7.1838805603480038 0
          3.9800966116473719 7.1891057142907258 0
          3.9743634962384955 7.1945032938255657 0
          3.9687891507492483 7.2000646769200971 0
          3.9633737484018505 7.2057809309778476 0
          3.9581174889521935 7.2116438412522781 0
          3.9530201516264052 7.2176454222016453 0
          3.9480811313548232 7.2237779377084035 0
          3.9433000347847744 7.2300343453046363 0
          3.938675616724804 7.2364074243046961 0
          3.9342063462650834 7.2428902372248922 0
          3.9298910353001828 7.249476526317177 0
          3.9257271450468934 7.256159565030071 0
          3.9217119105127538 7.2629329512817522 0
          3.9178423718453042 7.2697906059451194 0
          3.914116068127818 7.2767271261711821 0
          3.9105297741187131 7.2837370512818822 0
          3.907080153615702 7.290815227859869 0
          3.9037637933226992 7.2979568060395046 0
          3.9005764291282641 7.3051568769981161 0
          3.8975153068399506 7.3124115156248148 0
          3.8945777048858963 7.3197170406902732 0
          3.891760931156627 7.3270699958644112 0
          3.8890623494829297 7.3344671436600519 0
          3.8864793945092857 7.3419054545736984 0
          3.8840087493942876 7.349381819894778 0
          3.8816480231872528 7.3568936180189235 0
          3.8793949353701556 7.3644384017800046 0
          3.8772473267812342 7.3720138876155632 0
          3.8752031702283203 7.3796179449741439 0
          3.8732605913630009 7.3872485886182853 0
          3.8714169581198701 7.3949037462498142 0
          3.869670688453962 7.4025817060423513 0
          3.86802036770555 7.4102808672964384 0
          3.8664647558632899 7.41799973047255 0
          3.8650028063995223 7.4257368895974869 0
          3.8636336494743593 7.4334910177884677 0
          3.8623566101083036 7.4412608600631867 0
          3.861171214403833 7.4490452236370661 0
          3.8600771954114368 7.4568429681462574 0
          3.8590744993511867 7.4646529958389491 0
          3.858163303715294 7.4724742429729734 0
          3.8573439978432229 7.4803056663328098 0
          3.8566172013748941 7.4881462344346348 0
          3.8559837697063086 7.4959949165263122 0
          3.8554447996211629 7.5038506711210209 0
          3.8550016347510758 7.5117124339312493 0
          3.8546558716242836 7.5195791051404761 0
          3.8544093782091693 7.5274495362205514 0
          3.8542642736907631 7.5353225142690397 0
          3.8542229470831812 7.5431967471222503 0
          3.8542880634644852 7.5510708464971579 0
          3.8544625696580774 7.5589433096962759 0
          3.8547496999147279 7.5668124997095321 0
          3.8551529955828854 7.5746766227773685 0
          3.8556772043912368 7.5825336438562134 0
          3.8563264566571926 7.5903813543486418 0
          3.8571051922275612 7.5982173092951397 0
          3.8580181659591464 7.6060387954410293 0
          3.8590695514035431 7.6138429177936704 0
          3.8602647507464591 7.6216263503957027 0
          3.8616094942590133 7.6293853834340331 0
          3.8631098569294147 7.6371158725079056 0
          3.8647712995883534 7.6448133917020984 0
          3.8666005568675597 7.6524728088760661 0
          3.8686047114617534 7.6600883780494851 0
          3.8707902140942307 7.6676539452338446 0
          3.8731648029270458 7.6751623585586968 0
          3.8757355872385517 7.6826059294761082 0
          3.8785109557802748 7.6899757164947085 0
          3.8814986386499273 7.6972620705894395 0
          3.8847066595854116 7.704454191455528 0
          3.8881443273651293 7.7115394754045861 0
          3.8918202340094998 7.7185041969923036 0
          3.8957431918744425 7.7253328781394695 0
          3.8999258836044457 7.7320056885824222 0
          3.9041355987963811 7.7386617746560242 0
          3.9083400202867633 7.7453215727328422 0
          3.9125112260228385 7.7520026769545449 0
          3.9166050428610175 7.7587320511076765 0
          3.9204780542344024 7.7655917272325867 0
          3.9240603241148375 7.7726086837296897 0
        </DataArray>
      </Points>
      <Cells>
        <DataArray type="Int32" Name="connectivity" format="ascii">
          0 1 1 2 2 3 3 4 4 5 5 6 6 7 7 8 8 9 9 10 10 11 11 12 12 13 13 14 14 15 15 16 16 17 17 18 18 19 19 20 20 21 21 22 22 23 23 24 24 25 25 26 26 27 27 28 28 29 29 30 30 31 31 32 32 33 33 34 34 35 35 36 36 37 37 38 38 39 39 40 40 41 41 42 42 43 43 44 44 45 45 46 46 47 47 48 48 49 49 50 50 51 51 52 52 53 53 54 54 55 55 56 56 57 57 58 58 59 59 60 60 61 61 62 62 63 63 64 64 65 65 66 66 67 67 68 68 69 69 70 70 71 71 72 72 73 73 74 74 75 75 76 76 77 77 78 78 79 79 80 80 81 81 82 82 83 83 84 84 85 85 86 86 87 87 88 88 89 89 90 90 91 91 92 92 93 93 94 94 95 95 96 96 97 97 98 98 99 99 100 100 101 101 102 102 103 103 104 104 105 105 106 106 107 107 108 108 109 109 110 110 111 111 112 112 113 113 114 114 115 115 116 116 117 117 118 118 119 119 120 120 121 121 122 122 123 123 124 124 125 125 126 126 127 
        </DataArray>
        <DataArray type="Int32" Name="offsets" format="ascii">
          2 4 6 8 10 12 14 16 18 20 22 24 26 28 30 32 34 36 38 40 42 44 46 48 50 52 54 56 58 60 62 64 66 68 70 72 74 76 78 80 82 84 86 88 90 92 94 96 98 100 102 104 106 108 110 112 114 116 118 120 122 124 126 128 130 132 134 136 138 140 142 144 146 148 150 152 154 156 158 160 162 164 166 168 170 172 174 176 178 180 182 184 186 188 190 192 194 196 198 200 202 204 206 208 210 212 214 216 218 220 222 224 226 228 230 232 234 236 238 240 242 244 246 248 250 252 254 
        </DataArray>
        <DataArray type="Int32" Name="types" format="ascii">
          3 3 3 3 3 3 3 3 3 3 3 3 3 3 3 3 3 3 3 3 3 3 3 3 3 3 3 3 3 3 3 3 3 3 3 3 3 3 3 3 3 3 3 3 3 3 3 3 3 3 3 3 3 3 3 3 3 3 3 3 3 3 3 3 3 3 3 3 3 3 3 3 3 3 3 3 3 3 3 3 3 3 3 3 3 3 3 3 3 3 3 3 3 3 3 3 3 3 3 3 3 3 3 3 3 3 3 3 3 3 3 3 3 3 3 3 3 3 3 3 3 3 3 3 3 3 3         </DataArray>
      </Cells>
    </Piece>
  </UnstructuredGrid>
</VTKFile>
