<?xml version="1.0"?>
<VTKFile type="UnstructuredGrid" version="0.1" byte_order="LittleEndian">
  <UnstructuredGrid>
    <Piece NumberOfPoints="128" NumberOfCells="127">
      <PointData Scalars="W">
        <DataArray type="Float32" Name="W" NumberOfComponents="2">
          0 0 -0.034399200823436615 0.15345382856144732 -0.058577407013205338 0.25928735688438148 -0.072701528313632788 0.31834970513361432 -0.081171714996221722 0.35106189659360193 -0.085713274842524098 0.36586868742052259 -0.087137953243478686 0.36704582518589091 -0.085875587501243592 0.35706741189011104 -0.082187547277498885 0.33755178837277794 -0.076271105762299202 0.30971462811582934 -0.06827675573149708 0.27444943147245465 -0.058339257468645392 0.23246173209893717 -0.046588914272722527 0.18431901300085893 -0.033179441575976236 0.13056425183141734 -0.0182900358665967 0.071726034792285134 -0.0021093711789696248 0.0082608762204766529 0.015179387322288239 -0.059498314633297855 0.03336157308066931 -0.13119084702526693 0.05220501722417268 -0.20647580808103194 0.071478133429458759 -0.28509571582969601 0.090933166657401893 -0.36680373423210239 0.11030135523402364 -0.45133544589939467 0.12931321971131962 -0.53848194927804549 0.14769394427616517 -0.62806545245478085 0.16513932304671758 -0.71982751142235091 0.18136776502096619 -0.81364108157598625 0.1960770639172045 -0.90932022215429464 0.20894789771844977 -1.006614792625278 0.21967366687273476 -1.1053343524737185 0.22801935697009471 -1.2056716045886868 0.23360530059284343 -1.3070860641388564 0.23613006148170701 -1.4093832821851735 0.23529867767113172 -1.5123674228987753 0.23082390628758995 -1.6158385256311312 0.22242384652106256 -1.7195598986742213 0.20983189128113994 -1.8233107689065373 0.1927834948701119 -1.9267460891158967 0.17104877115018657 -2.0296567751464862 0.14441024913417561 -2.1317962770977537 0.11266187236810862 -2.2327607499169702 0.075630590330288752 -2.3321631781472236 0.033176024339205391 -2.4296107783812002 -0.0013762605886458818 -1.3040196550323411 -0.016332966696834855 -1.3965635191916017 -0.043538931436340626 -1.7939205541473797 -0.087863289668697123 -2.1958801629476077 -0.13163413654832573 -2.2808760385490183 -0.20780255474824083 -2.684510843812423 -0.31094525350316682 -3.0955104796727761 -0.3973567596301566 -3.1640728042592015 -0.54600525243799747 -3.5711109470657729 -0.73173338658417431 -3.9786366930171253 -0.95960824395473943 -4.3839539514962391 -1.3428178909134907 -5.168260642908348 -4.2886634478642929 -12.61419401225006 -5.6324789256933583 -12.181377859241117 -1.0175389735004394 -1.8874928084766343 -0.93459407571151532 -1.6692119124357243 -0.98722316913477293 -1.7016669975526848 -0.89932077757811768 -1.4991704730192839 -0.94863886076631077 -1.5323932303152887 -0.99952407201114224 -1.5637906212656669 -1.2075646727921934 -1.8245730823375748 -1.2690276429876537 -1.8466317414583138 -1.498257353543486 -2.0939810739064604 -1.5730774257268965 -2.1059794823422373 -1.6491968006620892 -2.1141888548761059 -1.7243983208258185 -2.1160214968384525 -1.8024852266455389 -2.1163626820762875 -1.8812831692455834 -2.1125204916494917 -1.9606140714932918 -2.10443888721547 -2.040270423626827 -2.092050090217807 -1.913915576793767 -1.8777479745778178 -1.9821489970264698 -1.8636134272632034 -2.0525199624493795 -1.8479327566162997 -2.1224972166661802 -1.8283536810679648 -2.1918687344081373 -1.8048683177137534 -2.2604555013045387 -1.7775130373733736 -2.3279803248698938 -1.746263939959664 -2.3942674263811456 -1.7111959340298715 -2.459112094258157 -1.6723737619330077 -2.2859294400038284 -1.4807000476604009 -2.3404284585959205 -1.4453508218030391 -2.393238348299692 -1.4069512738816965 -2.4440982875379205 -1.3655441057811886 -2.4928653214613679 -1.3212561259227231 -2.5393680285032385 -1.2742062994436356 -2.3410310785805599 -1.112642198439048 -2.3776362809921396 -1.0709246423382937 -2.4118327388114071 -1.0271278274563111 -2.4435044478145018 -0.98139698484560733 -2.2300699347723212 -0.84489539845024852 -2.2557586593326331 -0.80640810544808339 -2.2755617835342221 -0.76533481205452825 -2.2924821328651475 -0.72304593657003435 -2.0663383711406462 -0.61116333875461959 -2.0745201334236749 -0.57550304955748166 -2.0796249063777177 -0.53915950335950114 -2.0813589881000052 -0.5022507199763443 -2.0795582440766376 -0.46494380376442956 -1.8372830815188692 -0.38044191554484336 -1.8262872219663697 -0.35023137994221964 -1.8113207410734757 -0.32008380804304659 -1.7919743859456434 -0.2901382430099656 -1.7679566773880606 -0.26057237253242371 -1.7389029591395808 -0.23156613010839791 -1.7044616509496959 -0.20331522992727399 -1.6640914485366933 -0.17600706664191645 -1.6139596219493282 -0.14956459219262619 -1.560327275661421 -0.12487421728744669 -1.4955589349316647 -0.10154805417373114 -1.6669351136420243 -0.092310265313031978 -1.5884513484812646 -0.067530887410490112 -1.7454295068772976 -0.051249323801669862 -1.6416964805725924 -0.026292965968812851 -1.787038179642356 -0.0044932404150819383 -1.6565258377646852 0.018294694566909114 -1.7769200855811764 0.043656501903625008 -1.6169687773717734 0.061364727680060203 -1.7082365811260989 0.087259261222641674 -1.8010027855806201 0.1170078666065406 -0.79132800665310676 0.059546308250171973 -0.68063943935172166 0.055197865111701203 -0.48571971027052396 0.041644224895248522 -0.49948631282868944 0.04478447228590967 -0.52509089541228049 0.049225310611787296 -1.3986308055042795 0.14186446668737612 0 0
        </DataArray>
        <DataArray type="Float32" Name="u" NumberOfComponents="1">
          0 0.007874015748031496 0.015748031496062992 0.023622047244094488 0.031496062992125984 0.03937007874015748 0.047244094488188976 0.055118110236220472 0.062992125984251968 0.070866141732283464 0.07874015748031496 0.086614173228346455 0.094488188976377951 0.10236220472440945 0.11023622047244094 0.11811023622047244 0.12598425196850394 0.13385826771653545 0.14173228346456693 0.14960629921259844 0.15748031496062992 0.16535433070866143 0.17322834645669291 0.18110236220472442 0.1889763779527559 0.19685039370078741 0.20472440944881889 0.2125984251968504 0.22047244094488189 0.2283464566929134 0.23622047244094488 0.24409448818897639 0.25196850393700787 0.25984251968503935 0.26771653543307089 0.27559055118110237 0.28346456692913385 0.29133858267716534 0.29921259842519687 0.30708661417322836 0.31496062992125984 0.32283464566929132 0.33070866141732286 0.33858267716535434 0.34645669291338582 0.3543307086614173 0.36220472440944884 0.37007874015748032 0.37795275590551181 0.38582677165354329 0.39370078740157483 0.40157480314960631 0.40944881889763779 0.41732283464566927 0.42519685039370081 0.43307086614173229 0.44094488188976377 0.44881889763779526 0.45669291338582679 0.46456692913385828 0.47244094488188976 0.48031496062992124 0.48818897637795278 0.49606299212598426 0.50393700787401574 0.51181102362204722 0.51968503937007871 0.52755905511811019 0.53543307086614178 0.54330708661417326 0.55118110236220474 0.55905511811023623 0.56692913385826771 0.57480314960629919 0.58267716535433067 0.59055118110236215 0.59842519685039375 0.60629921259842523 0.61417322834645671 0.62204724409448819 0.62992125984251968 0.63779527559055116 0.64566929133858264 0.65354330708661412 0.66141732283464572 0.6692913385826772 0.67716535433070868 0.68503937007874016 0.69291338582677164 0.70078740157480313 0.70866141732283461 0.71653543307086609 0.72440944881889768 0.73228346456692917 0.74015748031496065 0.74803149606299213 0.75590551181102361 0.76377952755905509 0.77165354330708658 0.77952755905511806 0.78740157480314965 0.79527559055118113 0.80314960629921262 0.8110236220472441 0.81889763779527558 0.82677165354330706 0.83464566929133854 0.84251968503937003 0.85039370078740162 0.8582677165354331 0.86614173228346458 0.87401574803149606 0.88188976377952755 0.88976377952755903 0.89763779527559051 0.90551181102362199 0.91338582677165359 0.92125984251968507 0.92913385826771655 0.93700787401574803 0.94488188976377951 0.952755905511811 0.96062992125984248 0.96850393700787396 0.97637795275590555 0.98425196850393704 0.99212598425196852 1
        </DataArray>
      </PointData>
      <CellData Scalars="P">
        <DataArray type="Float32" Name="P" NumberOfComponents="1">
          -0.031468600157140446 -0.094203315040331026 -0.15663552152971724 -0.21889760985227091 -0.2811893705118737 -0.34372195411283868 -0.40668826216880821 -0.4702438153021215 -0.53449336677810122 -0.59948179115629741 -0.66518792753314393 -0.73152085114104681 -0.79831805084055574 -0.86534623839269509 -0.93230429408211135 -0.99882692428793174 -1.0644878925329722 -1.1288066132494752 -1.1912549933612189 -1.2512630007560976 -1.3082262356131864 -1.3615150511705103 -1.4104815209271258 -1.4544670048688086 -1.4928147793385562 -1.5248735433699103 -1.5500091158305751 -1.5676173973456076 -1.5771309441503774 -1.578004671582806 -1.5697680137712822 -1.5520145916322703 -1.5244111155471645 -1.4867062597159357 -1.4387416743613415 -1.3804591018133341 -1.3119176810092965 -1.2332915913708757 -1.1448799881325173 -1.0471262691368954 -0.94062353912564722 -0.82612110913618875 -0.77752524078138463 -0.72267863003254373 -0.63787848960131377 -0.52446064653294633 -0.40883361743115115 -0.26795882701165075 -0.10344697206966777 0.058372144807370158 0.24013039284457091 0.44009158319529706 0.65678509768731919 0.91303701028803208 1.5762939067067661 2.2237565050025712 2.278902098430355 2.3223420344868844 2.3696530186319955 2.4047170504478586 2.4426995389183821 2.4830716421375176 2.5409831062436785 2.5999153665782133 2.6746559871605684 2.7490667032609974 2.8226278577111983 2.8946783997136438 2.9649079839698596 3.0328630806603392 3.0981230282622141 3.1603017232623145 3.2071013780764277 3.2505966447140362 3.2905426253207177 3.3265857018775744 3.3584061149456583 3.3857221678819092 3.4082887124595422 3.4259039055729987 3.4384099399473236 3.4389733413083259 3.4348571383896993 3.4259047541873091 3.4119954619265034 3.3930491176744169 3.3690268889731358 3.3366158650102204 3.299711914506255 3.2582688531579671 3.2122767854792578 3.1603894052094033 3.1045277157389015 3.0446531006877158 2.9807799805018349 2.9132825355485044 2.8423364426820057 2.7679520052949682 2.6901723866042042 2.6090748334179548 2.5269565207719262 2.4421407655018159 2.3547164973740671 2.2648097767812256 2.1725838838626523 2.0782411369817315 1.98202308381737 1.8842137018102616 1.7852048107248004 1.6852961670025466 1.5849700062328014 1.4790701288279529 1.3734365789599849 1.2627122567633009 1.1535280533314496 1.0401353386404539 0.92986338188476148 0.81704797008151409 0.70912023514971256 0.60075143637508954 0.49291487224853897 0.4081611727330472 0.32732508184393488 0.25144394867304415 0.17735347478506536 0.10542976039915074 0.032632667561548978
        </DataArray>
      </CellData>
      <Points>
        <DataArray type="Float32" NumberOfComponents="3" format="ascii">
          6.060366242554994 10.374239727314892 0
          6.0680526873675946 10.375957771643536 0
          6.0757369296631794 10.377685319717129 0
          6.0834174354155905 10.379428928438166 0
          6.0910933065861386 10.38119225564237 0
          6.0987640034637467 10.382977325990085 0
          6.1064292355785668 10.384785054526089 0
          6.1140889101643374 10.386615511807195 0
          6.1217431047049677 10.388468077339562 0
          6.1293920501424406 10.390341539957795 0
          6.137036118189144 10.392234173230955 0
          6.1446758116274545 10.394143790879568 0
          6.1523117556469762 10.396067790522904 0
          6.15994468950566 10.398003188850215 0
          6.1675754567774073 10.399946655255977 0
          6.1752049940517537 10.401894544565812 0
          6.182834319073546 10.403842925276999 0
          6.1904645192483247 10.405787600119796 0
          6.1980967382158338 10.40772412832742 0
          6.2057321613573864 10.40964784666701 0
          6.21337200135617 10.411553885286501 0
          6.2210174827699731 10.413437182891606 0
          6.2286698253145474 10.415292503004229 0
          6.236330227113716 10.417114446771556 0
          6.2439998476281149 10.418897463840024 0
          6.2516797887694491 10.420635868224595 0
          6.2593710774230544 10.422323846026707 0
          6.2670746466967691 10.423955466800136 0
          6.2747913161114628 10.425524698894845 0
          6.2825217725816298 10.427025421097028 0
          6.2902665558353723 10.428451410506966 0
          6.2980260348629065 10.429796375880333 0
          6.3058003892133021 10.431053969511156 0
          6.3135895906886885 10.432217799199346 0
          6.3213933855122573 10.433281440472504 0
          6.3292112768214874 10.434238451084422 0
          6.3370425081029316 10.435082384524405 0
          6.3448860467468213 10.435806811234558 0
          6.3527405697429558 10.436405331390315 0
          6.3606044501377372 10.436871590001523 0
          6.3684757441892819 10.43719930177102 0
          6.376352180559973 10.437382274907375 0
          6.3842311515256442 10.437414435293062 0
          6.3921098563643426 10.437365645205832 0
          6.3999873735672193 10.437230165468671 0
          6.4078619994966397 10.436983337815505 0
          6.4157309689731905 10.43660022206652 0
          6.4235915741832157 10.436075552847853 0
          6.4314390753474635 10.435384291534614 0
          6.4392670599395689 10.434500946813445 0
          6.4470701770930097 10.433421278708261 0
          6.4548391934438989 10.43212004759704 0
          6.4625625773859161 10.430571988262459 0
          6.470226185482594 10.428751977277683 0
          6.4778062208891116 10.426611389494351 0
          6.4851205536303409 10.423688061997613 0
          6.4920857910008491 10.420008713998943 0
          6.498987819272565 10.416212281555625 0
          6.5058318042696976 10.412312302523379 0
          6.5126144837413937 10.408306764176965 0
          6.5193413288795776 10.40420822367563 0
          6.5260092820826241 10.400014619884686 0
          6.5326151884462353 10.395724004930216 0
          6.5391461286392882 10.391320207447521 0
          6.5455982920284956 10.386801859790896 0
          6.551957445873489 10.382153625713714 0
          6.5582189514849034 10.377374762783942 0
          6.5643780895060511 10.372464763691973 0
          6.5704301976062878 10.367423516691767 0
          6.5763704342419205 10.362251002733952 0
          6.5821939137138292 10.356947462380953 0
          6.5878957172229908 10.351513399293264 0
          6.5934709057560568 10.345949584442376 0
          6.5989273310658101 10.340269304360845 0
          6.6042607617543858 10.334473437720851 0
          6.6094668336681872 10.328562959399592 0
          6.6145412070767335 10.322539086298463 0
          6.6194795798476225 10.316403277838415 0
          6.6242776985743257 10.310157233709463 0
          6.6289313758001995 10.303802895351414 0
          6.6334365009485889 10.297342441306817 0
          6.6377890530504526 10.290778283199423 0
          6.6419997837488118 10.284122303134653 0
          6.6460653130124019 10.277376697284279 0
          6.6499823657576416 10.270543851269091 0
          6.6537477880610982 10.263626337490864 0
          6.657358556056705 10.256626907247201 0
          6.6608117865989165 10.249548483325704 0
          6.6641197887504839 10.242401080828627 0
          6.6672802927818218 10.23518729190403 0
          6.6702911786742636 10.227909837820125 0
          6.6731504833387945 10.220571559916728 0
          6.675871450518124 10.213180919337347 0
          6.6784524878511071 10.205740308367448 0
          6.6808923684320396 10.19825227959155 0
          6.6831900445148156 10.190719460969177 0
          6.6853595466694218 10.183148787197053 0
          6.6874003689035248 10.175542475069385 0
          6.6893121964032209 10.167902783625792 0
          6.6910949237426767 10.160232006752683 0
          6.6927486650486649 10.152532462740476 0
          6.6942884498315953 10.144809388172057 0
          6.6957149621770506 10.137064660826208 0
          6.6970291326580984 10.129300154129641 0
          6.6982321636785205 10.121517728438848 0
          6.6993255475024815 10.113719219927523 0
          6.7003110888139696 10.10590642933129 0
          6.7011909264569987 10.098081109714082 0
          6.7019675669335115 10.090244954746245 0
          6.702644121993008 10.082399603308021 0
          6.7032239202948052 10.074546584596797 0
          6.703710980794706 10.066687341928544 0
          6.7040946800632968 10.058822447785372 0
          6.7043798873773399 10.050953431806613 0
          6.7045568723210565 10.04308129788922 0
          6.7046320689526766 10.035207581987933 0
          6.7045964677495746 10.027333623899173 0
          6.7044581616195735 10.019460819841827 0
          6.7042096861668767 10.011590723241495 0
          6.7038609572888754 10.003724409545223 0
          6.7034063137354378 9.9958634572296656 0
          6.7028399992672334 9.9880096781522436 0
          6.7022246121731026 9.9801594897266614 0
          6.7015670110331564 9.9723125900666165 0
          6.7008792771015973 9.9644681038433109 0
          6.7001605504351014 9.9566261798307814 0
          6.6994092351098287 9.9487870373700868 0
          6.6985711391101725 9.9409563172388591 0
        </DataArray>
      </Points>
      <Cells>
        <DataArray type="Int32" Name="connectivity" format="ascii">
          0 1 1 2 2 3 3 4 4 5 5 6 6 7 7 8 8 9 9 10 10 11 11 12 12 13 13 14 14 15 15 16 16 17 17 18 18 19 19 20 20 21 21 22 22 23 23 24 24 25 25 26 26 27 27 28 28 29 29 30 30 31 31 32 32 33 33 34 34 35 35 36 36 37 37 38 38 39 39 40 40 41 41 42 42 43 43 44 44 45 45 46 46 47 47 48 48 49 49 50 50 51 51 52 52 53 53 54 54 55 55 56 56 57 57 58 58 59 59 60 60 61 61 62 62 63 63 64 64 65 65 66 66 67 67 68 68 69 69 70 70 71 71 72 72 73 73 74 74 75 75 76 76 77 77 78 78 79 79 80 80 81 81 82 82 83 83 84 84 85 85 86 86 87 87 88 88 89 89 90 90 91 91 92 92 93 93 94 94 95 95 96 96 97 97 98 98 99 99 100 100 101 101 102 102 103 103 104 104 105 105 106 106 107 107 108 108 109 109 110 110 111 111 112 112 113 113 114 114 115 115 116 116 117 117 118 118 119 119 120 120 121 121 122 122 123 123 124 124 125 125 126 126 127 
        </DataArray>
        <DataArray type="Int32" Name="offsets" format="ascii">
          2 4 6 8 10 12 14 16 18 20 22 24 26 28 30 32 34 36 38 40 42 44 46 48 50 52 54 56 58 60 62 64 66 68 70 72 74 76 78 80 82 84 86 88 90 92 94 96 98 100 102 104 106 108 110 112 114 116 118 120 122 124 126 128 130 132 134 136 138 140 142 144 146 148 150 152 154 156 158 160 162 164 166 168 170 172 174 176 178 180 182 184 186 188 190 192 194 196 198 200 202 204 206 208 210 212 214 216 218 220 222 224 226 228 230 232 234 236 238 240 242 244 246 248 250 252 254 
        </DataArray>
        <DataArray type="Int32" Name="types" format="ascii">
          3 3 3 3 3 3 3 3 3 3 3 3 3 3 3 3 3 3 3 3 3 3 3 3 3 3 3 3 3 3 3 3 3 3 3 3 3 3 3 3 3 3 3 3 3 3 3 3 3 3 3 3 3 3 3 3 3 3 3 3 3 3 3 3 3 3 3 3 3 3 3 3 3 3 3 3 3 3 3 3 3 3 3 3 3 3 3 3 3 3 3 3 3 3 3 3 3 3 3 3 3 3 3 3 3 3 3 3 3 3 3 3 3 3 3 3 3 3 3 3 3 3 3 3 3 3 3         </DataArray>
      </Cells>
    </Piece>
  </UnstructuredGrid>
</VTKFile>
