<?xml version="1.0"?>
<VTKFile type="UnstructuredGrid" version="0.1" byte_order="LittleEndian">
  <UnstructuredGrid>
    <Piece NumberOfPoints="128" NumberOfCells="127">
      <PointData Scalars="W">
        <DataArray type="Float32" Name="W" NumberOfComponents="2">
          0 0 0.29437666524040262 0.45444507564392317 0.48278201602851423 0.75462097351915847 0.62056679654858071 0.98755981861741071 0.72920700700721885 1.186828087854596 0.81734695026861437 1.3660154720214024 0.88928411436453414 1.5319228035480066 0.94743970052687687 1.6883924541592534 0.99331710667133988 1.837798330810722 1.027940845647223 1.9817413306617537 1.0520113331841743 2.1212824846539862 1.0660317642452117 2.2571432071422848 1.0703710695385 2.3898012951527314 1.0653370034300673 2.5196298988142556 1.0511898320532411 2.6469313744339993 1.0281268617269586 2.771897647802803 0.99627590149038525 2.8945676857856526 0.95575809988733007 3.0149791340430174 0.90666906975507833 3.1331224164419185 0.84906877703186545 3.2488911383221533 0.7830073986330347 3.3621476530972858 0.70853207492460768 3.4727523028994716 0.62567159014450247 3.5804896303532514 0.53444917338973863 3.685091025481162 0.43489964007850163 3.7863418741283397 0.32704237636645156 3.8838760876464415 0.21091346978217257 3.9773610008825782 0.086557078227138401 4.0665015143426011 -0.045980841338358988 4.1509057835760022 -0.1866169324117713 4.2297670129100284 -0.33525505420760293 4.3029935930168248 -0.49179025053739983 4.3701050945960125 -0.65608905197734591 4.430581251307891 -0.8279849520325776 4.4838761649263086 -1.0072795364778266 4.5294440029394147 -1.1937282075267239 4.5666873804488759 -1.3870717966716388 4.5950947757712708 -1.5869635151117658 4.6139842550060761 -1.7930000139386917 4.6226901193391079 -2.0047691021838632 4.6206686974401983 -2.2217961736337144 4.6073338168406224 -2.4435430131737061 4.582084616688598 2.0997746998161961 -3.9094082462573581 1.9262830136991027 -3.9048654488303511 1.7603217401579612 -3.8967895878317438 1.5959778755916751 -3.8719267189806073 1.4400439823360394 -3.8454307657942226 1.2872223402570795 -3.8033929553040742 1.1432849864170078 -3.7617723343728051 1.0055717433031905 -3.7138504904672325 0.87427909932339887 -3.6603775920887522 0.74952655133048318 -3.6020822478677075 0.6313632114494403 -3.539661134310685 0.51977675420456748 -3.4737800794662457 0.41470004624375129 -3.4050666147570845 0.3166721087924565 -3.3421290761908446 0.22382812901398377 -3.2696881576876984 0.13678868973918062 -3.1878564957886559 0.056187265638363251 -3.1050340417695148 -0.018377764396002482 -3.0303715357985892 -0.087274335751856308 -2.9471912686616819 -0.15052744955472608 -2.8642785845431771 -0.20922499362810967 -2.7912416678728245 -0.26251469231952296 -2.7102588922488606 -0.30979577744370779 -2.6206255785747588 -0.35494693409365918 -2.5519522595567432 -0.396608867521408 -2.4851985263042771 -0.43316109352138693 -2.4104418549407631 -0.46837466013203466 -2.348245967786267 -0.50097067118167038 -2.2883328924920834 -0.53125317181611931 -2.2309455780189476 -0.55949923113670408 -2.176185045383185 -0.58601719933354246 -2.1242679467431578 -0.60791392913129316 -2.0648356831521264 -0.63132103512586846 -2.0185309138983771 -0.65375204347761628 -1.9751290975233917 -0.67545266835646678 -1.9346659456134212 -0.69671146313847299 -1.8972963424911884 -0.71767210928611003 -1.8627825422710835 -0.73861105466582466 -1.8312675517966026 -0.759755487076891 -1.802753451616804 -0.77682698781137527 -1.7672015449324161 -0.79874908000078904 -1.7448063485558152 -0.8216109950224596 -1.7255137941893492 -0.84551278417102027 -1.7090452418962054 -0.87073187566338284 -1.6954995194473308 -0.89748981809250883 -1.6848409529770405 -0.92600985821841708 -1.6770254163194003 -0.95652185658878031 -1.6720067471359141 -0.98925776803683785 -1.6697256712105628 -1.0245334492556377 -1.6702392247742104 -1.0624457251153032 -1.6732235430924085 -1.1094364338614389 -1.6878605744196309 -1.1538402602589366 -1.6955729579075194 -1.2017567341520967 -1.705577275181015 -1.2534775779876568 -1.7177466834401731 -1.3093092707438612 -1.7319372196836604 -1.3696670251789675 -1.748101239822216 -1.4347118469301563 -1.7658191198755901 -1.5048931108329187 -1.7849992580267533 -1.5805941206376237 -1.8054030447233071 -1.6622207308334105 -1.8267579097855644 -1.75031707729535 -1.8488707665929212 -1.8451329887786856 -1.8711625998401826 -1.9472631852767466 -1.8933497211010017 -2.0572377608972299 -1.9149827429202599 -2.1757400509851621 -1.9356502503529114 -2.3031353681939328 -1.9545479265471439 -2.4315501146595415 -1.9643140430100037 -2.578743021137444 -1.9783360692398082 -2.727622193840844 -1.9817677716091415 -2.8973461822251609 -1.9873604613583724 -3.0800184462708557 -1.9870358417341831 -3.2661755535255859 -1.9733717733045166 -3.4664428869300452 -1.9517461133209517 -3.6929563170393558 -1.9260403796480883 -3.9256894382632246 -1.8827325046602741 -4.1766137945178601 -1.8257004219928268 -4.4603304559017518 -1.7570851773413216 -4.7540730799889808 -1.663292620027325 -5.1222122784835564 -1.5600288624191434 -2.1031910275627066 -0.57295295458499496 -1.9604293295647142 -0.49936156761511258 -1.6926672524383652 -0.40454277646072057 -1.2289997844235967 -0.27841859466401347 0.14875858482440965 0.0330182928794608 1.2396767441172518 0.2824609116976215 0 0
        </DataArray>
        <DataArray type="Float32" Name="u" NumberOfComponents="1">
          0 0.007874015748031496 0.015748031496062992 0.023622047244094488 0.031496062992125984 0.03937007874015748 0.047244094488188976 0.055118110236220472 0.062992125984251968 0.070866141732283464 0.07874015748031496 0.086614173228346455 0.094488188976377951 0.10236220472440945 0.11023622047244094 0.11811023622047244 0.12598425196850394 0.13385826771653545 0.14173228346456693 0.14960629921259844 0.15748031496062992 0.16535433070866143 0.17322834645669291 0.18110236220472442 0.1889763779527559 0.19685039370078741 0.20472440944881889 0.2125984251968504 0.22047244094488189 0.2283464566929134 0.23622047244094488 0.24409448818897639 0.25196850393700787 0.25984251968503935 0.26771653543307089 0.27559055118110237 0.28346456692913385 0.29133858267716534 0.29921259842519687 0.30708661417322836 0.31496062992125984 0.32283464566929132 0.33070866141732286 0.33858267716535434 0.34645669291338582 0.3543307086614173 0.36220472440944884 0.37007874015748032 0.37795275590551181 0.38582677165354329 0.39370078740157483 0.40157480314960631 0.40944881889763779 0.41732283464566927 0.42519685039370081 0.43307086614173229 0.44094488188976377 0.44881889763779526 0.45669291338582679 0.46456692913385828 0.47244094488188976 0.48031496062992124 0.48818897637795278 0.49606299212598426 0.50393700787401574 0.51181102362204722 0.51968503937007871 0.52755905511811019 0.53543307086614178 0.54330708661417326 0.55118110236220474 0.55905511811023623 0.56692913385826771 0.57480314960629919 0.58267716535433067 0.59055118110236215 0.59842519685039375 0.60629921259842523 0.61417322834645671 0.62204724409448819 0.62992125984251968 0.63779527559055116 0.64566929133858264 0.65354330708661412 0.66141732283464572 0.6692913385826772 0.67716535433070868 0.68503937007874016 0.69291338582677164 0.70078740157480313 0.70866141732283461 0.71653543307086609 0.72440944881889768 0.73228346456692917 0.74015748031496065 0.74803149606299213 0.75590551181102361 0.76377952755905509 0.77165354330708658 0.77952755905511806 0.78740157480314965 0.79527559055118113 0.80314960629921262 0.8110236220472441 0.81889763779527558 0.82677165354330706 0.83464566929133854 0.84251968503937003 0.85039370078740162 0.8582677165354331 0.86614173228346458 0.87401574803149606 0.88188976377952755 0.88976377952755903 0.89763779527559051 0.90551181102362199 0.91338582677165359 0.92125984251968507 0.92913385826771655 0.93700787401574803 0.94488188976377951 0.952755905511811 0.96062992125984248 0.96850393700787396 0.97637795275590555 0.98425196850393704 0.99212598425196852 1
        </DataArray>
      </PointData>
      <CellData Scalars="P">
        <DataArray type="Float32" Name="P" NumberOfComponents="1">
          -0.010735771099913194 -0.030823432300647644 -0.04784110750328522 -0.060838198850829132 -0.069144293361734374 -0.072245042401680851 -0.069728746650560558 -0.061257646173263007 -0.046549591764858643 -0.025364302200773011 0.0025054093614830003 0.037240466220486816 0.07900055339975548 0.12792995558632039 0.18416273490039467 0.2478255241310042 0.31903771039582113 0.39791518591431402 0.48457220989833427 0.57912099404201334 0.68167289742143111 0.79234037153293446 0.91123593206047049 1.0384715097597679 1.1741617736339596 1.3184191035298038 1.4713556026075276 1.6330854053425126 1.8037210770415271 1.9833546433638727 2.172089928775585 2.3700250163180585 2.5772498610424011 2.7938442606024601 3.0198768704318417 3.2554012139540496 3.5004588613687937 3.7550681369699892 4.0192223064482882 4.2928940557433686 4.576030167934606 4.8685471997927889 4.5827035709015433 4.2871987751787399 3.9838534326722153 3.6754245205758793 3.3634156507236139 3.0503530733253914 2.7373884115653193 2.4261250593190016 2.1180177486042076 1.8143737542937586 1.5163561950834252 1.2249883031420432 0.94115920263853348 0.66497919972211361 0.39773343106904119 0.14060203451937589 -0.10599046375661825 -0.34238639736803395 -0.56770662783414982 -0.78181347574986759 -0.98530287706600139 -1.1775407368722528 -1.3579496792473451 -1.5279531436799139 -1.6876976648072688 -1.8367732736734887 -1.9760232972794605 -2.1056762451295263 -2.2259854013405245 -2.337216482883425 -2.4396487702171097 -2.5331398215103698 -2.6184206319395043 -2.6957657763628 -2.7654427785394948 -2.8277128529638476 -2.8828175043027113 -2.9309879499577325 -2.972439198965219 -3.0072361693811471 -3.0357317945785405 -3.0580859891714471 -3.0744362157828422 -3.0849005051266416 -3.0895761096058116 -3.0885397260644565 -3.0818479363507523 -3.0695379812246322 -3.0516264482893218 -3.028117031587656 -2.998761120099398 -2.9637327910265783 -2.9229934760017313 -2.8764953437561327 -2.8241839984929968 -2.7659966272137333 -2.7018795693141491 -2.6317781527340829 -2.5556452454123781 -2.473445795448145 -2.3851551020425621 -2.2907831738221547 -2.1903620123813896 -2.0839577157909632 -1.9716705056968336 -1.8536633780259806 -1.7306423281889303 -1.6023891857074226 -1.4697697098862081 -1.3327135839293376 -1.1917456210877633 -1.0480129401088263 -0.90226402756849067 -0.75488880401552216 -0.60740589873459416 -0.46100057128152222 -0.31657620852984719 -0.17618852876272495 -0.040159254150041214 -0.0018472093306939265 0.026181163898699972 0.042036352574944265 0.044421292593241624 0.027309881581015886 0.0061404649231248032
        </DataArray>
      </CellData>
      <Points>
        <DataArray type="Float32" NumberOfComponents="3" format="ascii">
          5.8937549995289595 10.447376011638706 0
          5.9003547579048101 10.443080874077642 0
          5.9069727687826585 10.438813914601981 0
          5.9136207141223593 10.434593745686872 0
          5.9203071371563682 10.430434810760854 0
          5.9270387740011374 10.426349465500014 0
          5.9338210896437005 10.422348820457708 0
          5.9406585444055748 10.418443162749744 0
          5.9475547440683618 10.414642194299461 0
          5.9545125330915099 10.410955179030177 0
          5.9615340581372367 10.407391042126866 0
          5.9686208115001786 10.403958435823217 0
          5.9757736623086446 10.400665784130654 0
          5.9829928794011114 10.397521312461805 0
          5.9902781504097353 10.394533070765318 0
          5.9976285978996131 10.391708952271085 0
          6.0050427916045059 10.389056705388263 0
          6.0125187563536624 10.386583936119175 0
          6.0200539795859491 10.384298110391359 0
          6.0276454172809206 10.382206553461762 0
          6.0352894976799076 10.380316443317865 0
          6.0429821244004422 10.378634802141253 0
          6.0507186793626682 10.377168487646669 0
          6.0584940245778904 10.375924179721416 0
          6.066302503592941 10.374908363769359 0
          6.0741379436531959 10.37412731740323 0
          6.0819936569091606 10.373587087745241 0
          6.0898624426588093 10.373293470800505 0
          6.0977365900905012 10.373251993160128 0
          6.105607881137586 10.373467887706191 0
          6.1134675956520317 10.373946043588697 0
          6.1213065173707735 10.374691000547422 0
          6.1291149404286509 10.375706919125951 0
          6.1368826776392069 10.37699754841629 0
          6.1445990708237845 10.378566192214834 0
          6.1522530031188207 10.380415675183063 0
          6.1598329141464099 10.382548305812449 0
          6.1673268160879617 10.384965844713797 0
          6.1747223151901647 10.387669462341114 0
          6.1820066367773423 10.390659697722731 0
          6.1891666508114476 10.39393642475906 0
          6.1961889013213307 10.397498815885649 0
          6.2030596397751765 10.401345304825972 0
          6.2100605609947621 10.404949396365344 0
          6.2171809076983093 10.408311373079899 0
          6.2244103896799787 10.411431736635564 0
          6.2317388170161223 10.414312029472981 0
          6.2391565213864633 10.416953895299727 0
          6.2466540274344018 10.419359941388342 0
          6.2542224108066824 10.421532749140237 0
          6.2618531331278309 10.42347529060045 0
          6.2695380541781836 10.425190881941878 0
          6.2772694392982045 10.426683138286906 0
          6.2850399624287245 10.427955930509489 0
          6.2928427053419522 10.429013343950485 0
          6.3006711534743713 10.429859639507983 0
          6.3085192293943573 10.430498719915947 0
          6.3163811770654075 10.430935077060921 0
          6.3242516003323717 10.431173785003098 0
          6.3321255022500749 10.431219979177632 0
          6.3399982602179694 10.431078289042169 0
          6.3478656030797289 10.430753872101311 0
          6.3557236096167848 10.430251869211643 0
          6.3635686411215771 10.429576808868724 0
          6.371397394176328 10.428733712156548 0
          6.3792069379178482 10.427728136437004 0
          6.3869944736073405 10.426564339484978 0
          6.394757418851869 10.425246460003121 0
          6.4024935080753504 10.423779132820288 0
          6.4102005587166078 10.422166213938063 0
          6.4178765505096695 10.420411417769071 0
          6.4255196066308979 10.418518302075388 0
          6.4331279765187181 10.41649026170642 0
          6.4407000167535342 10.414330515167611 0
          6.4482343704756202 10.412042746844564 0
          6.4557295871485367 10.409629827173154 0
          6.4631842767491738 10.407094446556645 0
          6.4705970945316142 10.404439113151962 0
          6.477966723133977 10.401666143267267 0
          6.4852918636697972 10.39877767610175 0
          6.4925712185853266 10.39577566487908 0
          6.4998034775715468 10.392661876717876 0
          6.5069875829269463 10.389438514999501 0
          6.5141221761034425 10.386106967359765 0
          6.5212058402587862 10.382668429017517 0
          6.528237094052816 10.379123920047897 0
          6.5352143744417326 10.37547427925352 0
          6.5421360229378402 10.371720166374123 0
          6.5490002717635329 10.367862064819999 0
          6.5558052295946139 10.363900284531455 0
          6.562548867173243 10.359834965650952 0
          6.5692289977160039 10.355666074984606 0
          6.5758432709078631 10.351393426077102 0
          6.5823887733093605 10.347016109997854 0
          6.588862751961412 10.342533647007672 0
          6.5952622360292485 10.337945415184665 0
          6.6015840187046066 10.333250658285058 0
          6.6078246381918317 10.328448494665551 0
          6.6139803519480989 10.323537920235367 0
          6.6200471266920911 10.318517834467777 0
          6.6260206105233026 10.313387046078093 0
          6.6318961091389497 10.308144287815644 0
          6.6376685606508632 10.30278823336211 0
          6.6433325018229388 10.297317509304737 0
          6.6488820525647077 10.291730731033342 0
          6.6543108790281247 10.286026520333426 0
          6.6596121607119505 10.280203533253209 0
          6.6647785480580888 10.274260485621083 0
          6.6698021397750518 10.268196202919452 0
          6.6746749712669224 10.262010076550538 0
          6.6793879129287523 10.25570123416102 0
          6.6839317304426809 10.249269459769927 0
          6.6882958962269683 10.242714403599852 0
          6.6924690792893129 10.23603608279706 0
          6.6964397322674669 10.229235341391405 0
          6.7001954322283863 10.222313517126082 0
          6.703722127782922 10.215272201167267 0
          6.7070053814046631 10.208114076008814 0
          6.7100296267151798 10.200842675395794 0
          6.7127772626860001 10.193462252102664 0
          6.7152300659114594 10.185978620203073 0
          6.7173651974841144 10.17839818349376 0
          6.7193699335356474 10.170782021538377 0
          6.7212531272683815 10.163134663486591 0
          6.7230313876638572 10.155461943809758 0
          6.7247334814831046 10.147771620980292 0
          6.7264449067039145 10.140082886510651 0
          6.728233392152287 10.132411074662807 0
        </DataArray>
      </Points>
      <Cells>
        <DataArray type="Int32" Name="connectivity" format="ascii">
          0 1 1 2 2 3 3 4 4 5 5 6 6 7 7 8 8 9 9 10 10 11 11 12 12 13 13 14 14 15 15 16 16 17 17 18 18 19 19 20 20 21 21 22 22 23 23 24 24 25 25 26 26 27 27 28 28 29 29 30 30 31 31 32 32 33 33 34 34 35 35 36 36 37 37 38 38 39 39 40 40 41 41 42 42 43 43 44 44 45 45 46 46 47 47 48 48 49 49 50 50 51 51 52 52 53 53 54 54 55 55 56 56 57 57 58 58 59 59 60 60 61 61 62 62 63 63 64 64 65 65 66 66 67 67 68 68 69 69 70 70 71 71 72 72 73 73 74 74 75 75 76 76 77 77 78 78 79 79 80 80 81 81 82 82 83 83 84 84 85 85 86 86 87 87 88 88 89 89 90 90 91 91 92 92 93 93 94 94 95 95 96 96 97 97 98 98 99 99 100 100 101 101 102 102 103 103 104 104 105 105 106 106 107 107 108 108 109 109 110 110 111 111 112 112 113 113 114 114 115 115 116 116 117 117 118 118 119 119 120 120 121 121 122 122 123 123 124 124 125 125 126 126 127 
        </DataArray>
        <DataArray type="Int32" Name="offsets" format="ascii">
          2 4 6 8 10 12 14 16 18 20 22 24 26 28 30 32 34 36 38 40 42 44 46 48 50 52 54 56 58 60 62 64 66 68 70 72 74 76 78 80 82 84 86 88 90 92 94 96 98 100 102 104 106 108 110 112 114 116 118 120 122 124 126 128 130 132 134 136 138 140 142 144 146 148 150 152 154 156 158 160 162 164 166 168 170 172 174 176 178 180 182 184 186 188 190 192 194 196 198 200 202 204 206 208 210 212 214 216 218 220 222 224 226 228 230 232 234 236 238 240 242 244 246 248 250 252 254 
        </DataArray>
        <DataArray type="Int32" Name="types" format="ascii">
          3 3 3 3 3 3 3 3 3 3 3 3 3 3 3 3 3 3 3 3 3 3 3 3 3 3 3 3 3 3 3 3 3 3 3 3 3 3 3 3 3 3 3 3 3 3 3 3 3 3 3 3 3 3 3 3 3 3 3 3 3 3 3 3 3 3 3 3 3 3 3 3 3 3 3 3 3 3 3 3 3 3 3 3 3 3 3 3 3 3 3 3 3 3 3 3 3 3 3 3 3 3 3 3 3 3 3 3 3 3 3 3 3 3 3 3 3 3 3 3 3 3 3 3 3 3 3         </DataArray>
      </Cells>
    </Piece>
  </UnstructuredGrid>
</VTKFile>
