<?xml version="1.0"?>
<VTKFile type="UnstructuredGrid" version="0.1" byte_order="LittleEndian">
  <UnstructuredGrid>
    <Piece NumberOfPoints="128" NumberOfCells="127">
      <PointData Scalars="W">
        <DataArray type="Float32" Name="W" NumberOfComponents="2">
          0 0 -0.26810605419812461 0.47699716056182095 -0.43914332479794299 0.77106569286675408 -0.57268866284933462 0.98712952672130394 -0.68883142185522028 1.1609339232028115 -0.79573774592306934 1.307098408943264 -0.89755819638911094 1.4331021348024755 -0.9967268948812279 1.5433518607000838 -1.0947932298928946 1.6406581323733338 -1.192842466306266 1.7269699592497658 -1.2916243359461077 1.8036198239206842 -1.3917078091279522 1.8715874332384235 -1.493529228280589 1.931589090625343 -1.5974610916950351 1.9841843377965467 -1.7038265658710501 2.0298004890123549 -1.8128842675496846 2.0687226265898038 -1.9248039272376827 2.1010814919114593 -2.0397787718112945 2.1269900029481268 -2.1579558584391703 2.146465360177924 -2.2794280801790952 2.1594322323634736 -2.4042770244302285 2.1657729422027772 -2.5325750589847291 2.1653294773706193 -2.6643620352739532 2.1578847766471623 -2.7996346774706389 2.1431604565087237 -2.9383979187399887 2.120860537319599 -3.0805557506887422 2.0905934756326623 -3.2260296079094681 2.0519662753560639 -3.3747553007444311 2.0045728430006 -3.5265622791993199 1.9479204208774932 -3.6809399516383663 1.8813348596611326 -3.8379141893061641 1.8044307362833396 -3.9971531392710258 1.7166053621976689 -4.1582754019800641 1.6172310155300802 -4.3208049972671319 1.5056418285242019 -4.4842063606826441 1.3811553973695996 -4.6478450859768019 1.2430650029090928 -4.8110730259759009 1.0906675400442676 -4.9730063735211507 0.92321512005693884 -5.1326228941414778 0.73996895683821184 -5.2889266256046668 0.54023019028536845 -5.440757607084449 0.32330725327577864 -5.5867718134248614 0.088537606193426335 -0.75912351245016063 -0.0069612557136350291 -1.0598841302839255 -0.017319875063243347 -1.3687332966148851 -0.035477112456414356 -1.6877809349845312 -0.064109792593740333 -2.0106532866334237 -0.10577225660480745 -2.3392598266321465 -0.16338861362879445 -2.6757372773982082 -0.24028273473361189 -3.012932274593239 -0.33915355884160225 -3.3523796729185955 -0.4634570848899513 -3.6923952714190991 -0.61658652216196685 -4.270543569964917 -0.85399863382591001 -4.8564840245589487 -1.1586552261322769 2.5125436901162654 0.62464916785567559 2.3958280188315952 0.54530103122719353 -0.34988833050343932 -0.076598593131779649 -0.57236928208684335 -0.12753869560499576 -0.79011739065612641 -0.18062847500702536 -0.90931156801359292 -0.21446493829570956 -1.1225671903300596 -0.27453817827060567 -1.3341154643436044 -0.34041675844811481 -1.5408216008550137 -0.41243371250875133 -1.639615268255556 -0.46179143889435059 -1.9470461392255625 -0.57942934988673067 -2.0312155042146975 -0.64090654916157086 -2.1081517527095137 -0.70515164858532997 -2.1775337909049064 -0.77186095961879542 -2.239074218375174 -0.84067319898736981 -2.4030560779349512 -0.95641355362585045 -2.4464463772875158 -1.0326940944602021 -2.4811192526736972 -1.1097727319703543 -2.5093502477512155 -1.1882230301425394 -2.5263671326092174 -1.2652591660637553 -2.5345731511716267 -1.341281302581425 -2.534043119006447 -1.4156342631548391 -2.5249366921424139 -1.4876678733381341 -2.5073926243536211 -1.5566825981661203 -2.4816851569774268 -1.6220275538090361 -2.4481168154460407 -1.6830494076411864 -2.4070413780612352 -1.7391137674428225 -2.3608494973535152 -1.7911583735116798 -2.3059374356463578 -1.8356092706037319 -2.2448438943721469 -1.8733779481057136 -2.1780826283120693 -1.9039701197123142 -2.1061914135537516 -1.9269389454056955 -2.0297243782868297 -1.9418880121227513 -1.9509482514475027 -1.9502143111604251 -1.8669472832176486 -1.9482220120043798 -1.7800556227460798 -1.9373391653014114 -1.690816168925751 -1.9173863251132448 -1.5997485825612088 -1.8882369672312185 -1.5088107549837315 -1.8516532721989318 -1.4154478020694803 -1.8039834378405235 -1.3216041482454903 -1.7470241728135985 -1.227633712445543 -1.6808317492839671 -1.1351303116392271 -1.6073664407871662 -1.0416761017022935 -1.5230518924303944 -0.94879167306599532 -1.4298625027148282 -0.85656698651545382 -1.3279673082694021 -0.76615756797085877 -1.2193947660498112 -0.67516673074307454 -1.100675782382309 -0.6475679508625749 -1.0798629312042476 -0.55548217757458174 -0.94609281663211997 -0.46370202442169783 -0.80439765588325896 -0.37181247277052887 -0.65497835936181992 -0.27933753365151887 -0.49810724270190304 -0.24739374927083141 -0.44557936407303217 -0.15139710099741832 -0.27477549998634437 -0.053211618826672927 -0.09695837206624161 -0.014295145313437674 -0.0260817409869455 0.090632289709495356 0.16511544956903881 0.13423315122183643 0.24348715257582063 0.24979878585639656 0.44978753153475592 0.3016018045592026 0.53741265037943231 0.43033240327662309 0.7563847787305058 0.4935068981370877 0.85286519736805166 0.84054133562777134 1.4184522387307448 1.0291442948547564 1.6815934583989793 1.1470859790583015 1.8078776018492113 1.3741413177480968 2.0807784668319678 1.539714763340114 2.2306895618865274 1.822288213534295 2.5148396683892145 2.0781011030759342 2.7179760206227739 2.2855183305461084 2.8231166224321358 2.6361925575862171 3.062202275068922 2.5893790861435435 2.825642421262772 0 0
        </DataArray>
        <DataArray type="Float32" Name="u" NumberOfComponents="1">
          0 0.007874015748031496 0.015748031496062992 0.023622047244094488 0.031496062992125984 0.03937007874015748 0.047244094488188976 0.055118110236220472 0.062992125984251968 0.070866141732283464 0.07874015748031496 0.086614173228346455 0.094488188976377951 0.10236220472440945 0.11023622047244094 0.11811023622047244 0.12598425196850394 0.13385826771653545 0.14173228346456693 0.14960629921259844 0.15748031496062992 0.16535433070866143 0.17322834645669291 0.18110236220472442 0.1889763779527559 0.19685039370078741 0.20472440944881889 0.2125984251968504 0.22047244094488189 0.2283464566929134 0.23622047244094488 0.24409448818897639 0.25196850393700787 0.25984251968503935 0.26771653543307089 0.27559055118110237 0.28346456692913385 0.29133858267716534 0.29921259842519687 0.30708661417322836 0.31496062992125984 0.32283464566929132 0.33070866141732286 0.33858267716535434 0.34645669291338582 0.3543307086614173 0.36220472440944884 0.37007874015748032 0.37795275590551181 0.38582677165354329 0.39370078740157483 0.40157480314960631 0.40944881889763779 0.41732283464566927 0.42519685039370081 0.43307086614173229 0.44094488188976377 0.44881889763779526 0.45669291338582679 0.46456692913385828 0.47244094488188976 0.48031496062992124 0.48818897637795278 0.49606299212598426 0.50393700787401574 0.51181102362204722 0.51968503937007871 0.52755905511811019 0.53543307086614178 0.54330708661417326 0.55118110236220474 0.55905511811023623 0.56692913385826771 0.57480314960629919 0.58267716535433067 0.59055118110236215 0.59842519685039375 0.60629921259842523 0.61417322834645671 0.62204724409448819 0.62992125984251968 0.63779527559055116 0.64566929133858264 0.65354330708661412 0.66141732283464572 0.6692913385826772 0.67716535433070868 0.68503937007874016 0.69291338582677164 0.70078740157480313 0.70866141732283461 0.71653543307086609 0.72440944881889768 0.73228346456692917 0.74015748031496065 0.74803149606299213 0.75590551181102361 0.76377952755905509 0.77165354330708658 0.77952755905511806 0.78740157480314965 0.79527559055118113 0.80314960629921262 0.8110236220472441 0.81889763779527558 0.82677165354330706 0.83464566929133854 0.84251968503937003 0.85039370078740162 0.8582677165354331 0.86614173228346458 0.87401574803149606 0.88188976377952755 0.88976377952755903 0.89763779527559051 0.90551181102362199 0.91338582677165359 0.92125984251968507 0.92913385826771655 0.93700787401574803 0.94488188976377951 0.952755905511811 0.96062992125984248 0.96850393700787396 0.97637795275590555 0.98425196850393704 0.99212598425196852 1
        </DataArray>
      </PointData>
      <CellData Scalars="P">
        <DataArray type="Float32" Name="P" NumberOfComponents="1">
          -0.046718117847327559 -0.13892109932949651 -0.22855781734534508 -0.31498473993299703 -0.39778392568742243 -0.47663520888322425 -0.55126131008183188 -0.62139844215840867 -0.68677930461149883 -0.74712146539230118 -0.8021210759605707 -0.85144764208268076 -0.89474058280146318 -0.93160563722116296 -0.96161197930163533 -0.98429075589233084 -0.99913537407550568 -1.0055977971470693 -1.0030877138218126 -0.99097234607010021 -0.96857448508772115 -0.93517031112807913 -0.88998824573224022 -0.83220837261221869 -0.76095906452680917 -0.67531952025786046 -0.57431580287986339 -0.45691652707521346 -0.32203573451579848 -0.16855205699223108 0.0047293075310925669 0.1990570416457898 0.4157335648329254 0.65611133455889892 0.92159125459028157 1.2136175875828357 1.5336793193027967 1.8832923115537954 2.2639874269747873 2.6773125030544658 3.1248164723352514 3.6080291986979209 3.6164278864477106 3.6627638254150039 3.7495124116746843 3.8789485164870374 4.052188031584687 4.2702618144890847 4.5342594053094603 4.8442545692004373 5.2005185314702951 5.6032374864898715 6.0838761050179722 6.6446498353690622 6.230527689609076 5.8287636765324784 5.7958548767383755 5.7916461212442929 5.8144383180408257 5.8501514418896043 5.909380897083099 5.9898798783480265 6.0887758892666879 6.1914333571896485 6.3186469666066989 6.4436826448616031 6.5642590088390866 6.6781532833990349 6.7832283250703247 6.8859651468137901 6.9750516334144343 7.0487948390131505 7.1058243303281738 7.1446951438939958 7.1643349755060877 7.1639025006176151 7.1427955646683019 7.1006534210859114 7.0373603475957722 6.953042791873739 6.8480642743815521 6.7229824788395627 6.5786243921326735 6.4160070846133044 6.2363358075406659 6.0409856601591745 5.8314814446418906 5.6093578811139277 5.3764783825716753 5.1346854418650807 4.885879339067559 4.6319941897882257 4.3748123143303443 4.1164198625834265 3.8587160798734796 3.6035445373294595 3.3524948057808577 3.1074180156969105 2.8698830376494993 2.6413356461919832 2.4229069053644339 2.2159411903487078 2.0112565699951079 1.819980245995507 1.6428635315204347 1.4804726108607764 1.3331790490215356 1.1913496336770106 1.0650583413817283 0.95413777893165508 0.84913651417537295 0.75891876985443663 0.67399228712683201 0.60268079398329477 0.5356082032231515 0.4800136691888599 0.42695567262650841 0.39968736577641045 0.37851232018277708 0.35498213253936772 0.33306810520335339 0.3059555325263385 0.27549421870201662 0.2369312225157745 0.18654816120801351 0.12462322843371181 0.046208104310644475
        </DataArray>
      </CellData>
      <Points>
        <DataArray type="Float32" NumberOfComponents="3" format="ascii">
          4.0615553297899485 7.7078594196366863 0
          4.0684289751711278 7.7117034274138385 0
          4.0752860243977453 7.7155770387370071 0
          4.0821158856661803 7.7194985032599197 0
          4.0889102876774714 7.7234812309189911 0
          4.0956620357887381 7.7275360101878761 0
          4.1023645063495557 7.7316719152892333 0
          4.1090113896613554 7.7358967702917489 0
          4.1155965392049518 7.7402174225405833 0
          4.122113875644323 7.744639917029855 0
          4.1285573195611258 7.7491696173077624 0
          4.1349207449668306 7.7538112881211871 0
          4.1411979440049009 7.7585691561653727 0
          4.1473825998651161 7.7634469544852545 0
          4.1534682636478557 7.7684479571456304 0
          4.1594483342811364 7.7735750056932051 0
          4.1653160424368965 7.7788305267899842 0
          4.171064439958549 7.7842165402661498 0
          4.1766863878279024 7.789734666063004 0
          4.1821745469948475 7.7953861252326595 0
          4.187521372566942 7.8011717351915237 0
          4.1927191086999107 7.807091902341428 0
          4.1977597840598797 7.8131466121831012 0
          4.2026352093034491 7.8193354157601576 0
          4.2073369772347595 7.8256574122919034 0
          4.2118564624533628 7.8321112307085947 0
          4.216184827268564 7.8386950052488134 0
          4.2203130265321684 7.8454063509602729 0
          4.2242318115794122 7.8522423383811386 0
          4.2279317407739567 7.8591994628339688 0
          4.2314032111686126 7.8662736024485787 0
          4.2346364568595813 7.8734599941035048 0
          4.2376215695529158 7.8807531958688735 0
          4.2403485222104518 7.8881470478847389 0
          4.2428071985725682 7.8956346308595862 0
          4.2449874263853919 7.9032082235299654 0
          4.2468790167715396 7.9108592585970374 0
          4.2484718044593954 7.9185782788736772 0
          4.2497557026569019 7.9263548906344976 0
          4.250720766533477 7.9341777175143697 0
          4.2513572550796965 7.9420343568693914 0
          4.2516557031662501 7.9499113365714011 0
          4.2516070050524943 7.95779407358489 0
          4.2515111387849842 7.965676132813269 0
          4.2513494219152621 7.9735568563841417 0
          4.2511026729979635 7.9814351025669916 0
          4.2507510809226332 7.9893090793083523 0
          4.250274601261208 7.9971761862713997 0
          4.2496528379816558 8.0050328331895333 0
          4.2488649111022792 8.0128742334887058 0
          4.2478899012645206 8.0206942376604378 0
          4.2467067546360067 8.0284851189153716 0
          4.2452943876829288 8.0362373631359034 0
          4.2436169418844694 8.0439362075919725 0
          4.2416380870535155 8.0515627208843235 0
          4.239815169306401 8.0592281907235179 0
          4.2381409529345042 8.0669276951326214 0
          4.2364450193277188 8.0746224181505948 0
          4.2347135582742137 8.0823091874756585 0
          4.2329330539275629 8.0899846973179326 0
          4.2310961078867706 8.0976468444370724 0
          4.2291894845148832 8.1052918889845813 0
          4.2272000551788516 8.1129157305139241 0
          4.2251149929766623 8.1205138876220957 0
          4.2229281690425395 8.1280832934839857 0
          4.2206205085571762 8.1356166267049002 0
          4.2181867928655929 8.1431100689290279 0
          4.2156222529547609 8.1505596302106635 0
          4.2129225893600921 8.1579611679334878 0
          4.2100839899707188 8.1653104093057998 0
          4.2070962882302529 8.1726001615744135 0
          4.2039568004300101 8.1798256898956314 0
          4.2006633843949972 8.1869822105134595 0
          4.1972142982536393 8.1940648550715007 0
          4.1936084963694054 8.2010688438814903 0
          4.189845480146575 8.2079894609676334 0
          4.1859252932692499 8.2148220947622441 0
          4.1818485116681021 8.2215622784767568 0
          4.1776162347742023 8.2282057335264973 0
          4.1732300683629786 8.2347484099165058 0
          4.1686921056391633 8.2411865267651603 0
          4.1640049051405361 8.247516611636307 0
          4.1591713423608558 8.2537354422206004 0
          4.1541948330194627 8.2598402682228809 0
          4.149079175497878 8.265828754622115 0
          4.1438285188371902 8.2716990122489289 0
          4.1384473292556825 8.2774496254070993 0
          4.1329403556644637 8.2830796763560954 0
          4.1273124890474415 8.2885886584864039 0
          4.1215689430791596 8.2939767055763305 0
          4.1157151093509912 8.2992445030125346 0
          4.1097565236468512 8.3043932987957341 0
          4.1036988336779521 8.3094249112664791 0
          4.0975476777006898 8.314341619674444 0
          4.0913088428372424 8.3191463906197693 0
          4.0849881445649476 8.3238427664836969 0
          4.0785914047982406 8.3284348618554827 0
          4.0721243531392943 8.3329272418957796 0
          4.065592776779833 8.337325144092361 0
          4.0590024263252902 8.3416343557718324 0
          4.0523590102984679 8.3458612036079458 0
          4.0456681235996435 8.3500124278594381 0
          4.0389353961732937 8.3540953975114522 0
          4.0321625267914962 8.358111411027684 0
          4.0253552110137898 8.3620687703737921 0
          4.0185191247828378 8.3659762686689252 0
          4.0116599503039154 8.3698431778571081 0
          4.0047834057143454 8.3736792319743891 0
          3.9978914541225565 8.3774876966280232 0
          3.9909900309630122 8.3812791705161267 0
          3.9840852075379116 8.3850646877600816 0
          3.9771793774809416 8.3888486536245672 0
          3.9702790301504725 8.3926429337332085 0
          3.9633868488563229 8.3964524003347858 0
          3.9565099836008057 8.4002898582879055 0
          3.9496516264223782 8.4041607566729972 0
          3.9428197458167533 8.4080786898804565 0
          3.9360182402454118 8.4120496600839836 0
          3.9292686397746568 8.4161087577118892 0
          3.9225826382310038 8.4202723238219654 0
          3.9159675417648403 8.4245482165491765 0
          3.9094374372470808 8.4289533881098535 0
          3.903002594026876 8.4334971673935257 0
          3.8966805544008198 8.4381972101654643 0
          3.890487201056934 8.4430661511521592 0
          3.8844354119883575 8.448110550870858 0
          3.8785469723621415 8.4533452782546963 0
          3.8728189620530893 8.4587557115095713 0
        </DataArray>
      </Points>
      <Cells>
        <DataArray type="Int32" Name="connectivity" format="ascii">
          0 1 1 2 2 3 3 4 4 5 5 6 6 7 7 8 8 9 9 10 10 11 11 12 12 13 13 14 14 15 15 16 16 17 17 18 18 19 19 20 20 21 21 22 22 23 23 24 24 25 25 26 26 27 27 28 28 29 29 30 30 31 31 32 32 33 33 34 34 35 35 36 36 37 37 38 38 39 39 40 40 41 41 42 42 43 43 44 44 45 45 46 46 47 47 48 48 49 49 50 50 51 51 52 52 53 53 54 54 55 55 56 56 57 57 58 58 59 59 60 60 61 61 62 62 63 63 64 64 65 65 66 66 67 67 68 68 69 69 70 70 71 71 72 72 73 73 74 74 75 75 76 76 77 77 78 78 79 79 80 80 81 81 82 82 83 83 84 84 85 85 86 86 87 87 88 88 89 89 90 90 91 91 92 92 93 93 94 94 95 95 96 96 97 97 98 98 99 99 100 100 101 101 102 102 103 103 104 104 105 105 106 106 107 107 108 108 109 109 110 110 111 111 112 112 113 113 114 114 115 115 116 116 117 117 118 118 119 119 120 120 121 121 122 122 123 123 124 124 125 125 126 126 127 
        </DataArray>
        <DataArray type="Int32" Name="offsets" format="ascii">
          2 4 6 8 10 12 14 16 18 20 22 24 26 28 30 32 34 36 38 40 42 44 46 48 50 52 54 56 58 60 62 64 66 68 70 72 74 76 78 80 82 84 86 88 90 92 94 96 98 100 102 104 106 108 110 112 114 116 118 120 122 124 126 128 130 132 134 136 138 140 142 144 146 148 150 152 154 156 158 160 162 164 166 168 170 172 174 176 178 180 182 184 186 188 190 192 194 196 198 200 202 204 206 208 210 212 214 216 218 220 222 224 226 228 230 232 234 236 238 240 242 244 246 248 250 252 254 
        </DataArray>
        <DataArray type="Int32" Name="types" format="ascii">
          3 3 3 3 3 3 3 3 3 3 3 3 3 3 3 3 3 3 3 3 3 3 3 3 3 3 3 3 3 3 3 3 3 3 3 3 3 3 3 3 3 3 3 3 3 3 3 3 3 3 3 3 3 3 3 3 3 3 3 3 3 3 3 3 3 3 3 3 3 3 3 3 3 3 3 3 3 3 3 3 3 3 3 3 3 3 3 3 3 3 3 3 3 3 3 3 3 3 3 3 3 3 3 3 3 3 3 3 3 3 3 3 3 3 3 3 3 3 3 3 3 3 3 3 3 3 3         </DataArray>
      </Cells>
    </Piece>
  </UnstructuredGrid>
</VTKFile>
