<?xml version="1.0"?>
<VTKFile type="UnstructuredGrid" version="0.1" byte_order="LittleEndian">
  <UnstructuredGrid>
    <Piece NumberOfPoints="128" NumberOfCells="127">
      <PointData Scalars="W">
        <DataArray type="Float32" Name="W" NumberOfComponents="2">
          0 0 0.419746834497778 0.44187470438563414 0.64383008586643475 0.6696008344061305 0.81598098463541713 0.83474081207613759 0.96250673845616119 0.96520564749133742 1.0940773168041704 1.0724111691405454 1.2163470016074123 1.1624383284483735 1.3326939650269596 1.238919108245047 1.4453340310699929 1.3042107502969027 1.5557564989025447 1.3598690296121658 1.6650627866670422 1.4069994680848026 1.7740271395479048 1.4463405708079053 1.8832359999090518 1.4784080101772588 1.993121433730608 1.5035388846527551 2.1039836031630652 1.5219256891007398 2.2160389504690587 1.5336658126543954 2.3294903143593175 1.5388165087634262 2.4444227545396644 1.5373285808109036 2.5609043481329814 1.5291230469146582 2.6789842306475835 1.514089421047488 2.7986522426850295 1.4920647507257361 2.9198372099184509 1.4628405495094909 3.0424605156437252 1.4261951994228246 3.1663876246760769 1.3818712897678718 3.2914541598990197 1.3295927028154413 3.4175091113169547 1.269081694501593 3.5443157091725892 1.2000199366742239 3.6715469231521336 1.1220594038551059 3.7989163395511754 1.0348688545912348 3.9263789140506118 0.93816504068390483 4.0531860293498312 0.83147970028500284 4.1788968578119423 0.71445209082419814 4.3030219996818522 0.58671748590506634 4.4250120754880777 0.44790915763012051 4.5442688913569196 0.29766387074172518 4.6600888472043556 0.13562344385744371 4.7716400560715018 -0.038550248790306614 4.878156761374254 -0.22516785250472449 4.9788132942494441 -0.4245241301383903 5.0725836119498577 -0.63687464187895804 5.1583871434219875 -0.86242545529415049 5.2350903758807013 -1.1013303491495543 -0.087462227030794593 0.020301681510147045 0.17017985506811034 -0.039562075863811677 0.43406811951483687 -0.1020282819648579 0.70602696334514981 -0.16939687661040473 0.8119778173659028 -0.20011181140824041 1.0866434995660277 -0.2767107421864447 1.3609271198443167 -0.36103526715017864 1.6398555246996938 -0.45661111661442294 1.7335770535417874 -0.5086319495000482 2.1933665959925182 -0.68223312702144157 2.4680552244212985 -0.82022226023078548 15.270505386951649 -6.3907269362980781 -2.8941407114862616 1.3942970450994829 0.48414809462896791 -0.22698481662847517 0.56908473288725492 -0.26999746152751131 0.64931236229540357 -0.31230299346253682 0.84379837748108766 -0.41266057796246824 0.91747461938933861 -0.45752337485579647 0.98748541056498673 -0.50284158874571838 1.0535366595017222 -0.54852961902395303 1.2314054431311774 -0.65715121193325776 1.2872134758196658 -0.70570154836104304 1.4541486812080968 -0.8207553066429667 1.4980406436384484 -0.87220880726890637 1.5364201655894334 -0.92335868371979635 1.5714572409422118 -0.97536649068571235 1.5984857710465279 -1.0251363775984847 1.619784867444892 -1.0737290019132189 1.6353546616031123 -1.1208243012101717 1.6452284692415389 -1.166092289208071 1.6494732955070492 -1.2091972341175776 1.6481897897107609 -1.2498019416371906 1.6415087088822082 -1.2875697256638101 1.6295908357811761 -1.3221690724813939 1.61262422183107 -1.3532765087734009 1.5908232139297152 -1.3805810384846025 1.5644239140142329 -1.4037856830157416 1.5355756671473588 -1.424396681385578 1.5007070868304817 -1.4386470226964281 1.3658421287603881 -1.3512791661792947 1.3266970783793874 -1.3525940606062155 1.2843603184476424 -1.3487752896764769 1.2390668637258553 -1.3396254938874992 1.1927908829559359 -1.3269311940790163 1.1423707641104055 -1.3068231722639108 1.0897719070197125 -1.2810368304104378 1.0352256580184778 -1.249497106183153 0.89665845485947537 -1.1090822113189553 0.84264132760550947 -1.0659655279930647 0.78557985378722872 -1.0153177672416782 0.72709338751137353 -0.95898465257493581 0.66725383166972796 -0.89697163075597597 0.60748146251793456 -0.83120453323023569 0.54497555385810448 -0.75790569662771368 0.4811562097219404 -0.67906134739849056 0.34310680237639446 -0.49005810156071505 0.27727896888256687 -0.39965819145947123 0.21074794309629361 -0.30596467193882582 0.1406745577598468 -0.20530349803232387 0.068047227229841439 -0.099620109760639716 -0.0075032567581829017 0.010994626733098268 -0.086408404387189455 0.12643738985328623 -0.1691672199870283 0.24659092434846311 -0.18378970437193218 0.26650253299905724 -0.27513326248708986 0.39625726643592019 -0.37182938649916231 0.53046788789142219 -0.47463845197776644 0.66888010417188126 -0.58439133799399356 0.81116792959030137 -0.62364527587577245 0.85104889162298847 -0.74941289054258231 1.0034222854555921 -0.80005893753202972 1.0489072171395333 -0.94343628728483742 1.2084814352287339 -1.0967212892865104 1.3679483231923735 -1.1735176769260556 1.4219758262260773 -1.5807567590798848 1.8509920202496548 -1.3659762584869228 1.5432951009723272 -1.5902439749780555 1.734925627821662 -1.7191739890542574 1.8051612808118096 -1.5121086095410869 1.5306683434802855 -1.6528210303383801 1.615310715171653 -1.9384144515278754 1.8216093337261441 -2.1534088049200899 1.9366918992967677 -3.4224589436576274 2.9025513426429872 -3.719061388718262 2.9287308598428741 -3.5668523356217565 2.6062460437657435 0 0
        </DataArray>
        <DataArray type="Float32" Name="u" NumberOfComponents="1">
          0 0.007874015748031496 0.015748031496062992 0.023622047244094488 0.031496062992125984 0.03937007874015748 0.047244094488188976 0.055118110236220472 0.062992125984251968 0.070866141732283464 0.07874015748031496 0.086614173228346455 0.094488188976377951 0.10236220472440945 0.11023622047244094 0.11811023622047244 0.12598425196850394 0.13385826771653545 0.14173228346456693 0.14960629921259844 0.15748031496062992 0.16535433070866143 0.17322834645669291 0.18110236220472442 0.1889763779527559 0.19685039370078741 0.20472440944881889 0.2125984251968504 0.22047244094488189 0.2283464566929134 0.23622047244094488 0.24409448818897639 0.25196850393700787 0.25984251968503935 0.26771653543307089 0.27559055118110237 0.28346456692913385 0.29133858267716534 0.29921259842519687 0.30708661417322836 0.31496062992125984 0.32283464566929132 0.33070866141732286 0.33858267716535434 0.34645669291338582 0.3543307086614173 0.36220472440944884 0.37007874015748032 0.37795275590551181 0.38582677165354329 0.39370078740157483 0.40157480314960631 0.40944881889763779 0.41732283464566927 0.42519685039370081 0.43307086614173229 0.44094488188976377 0.44881889763779526 0.45669291338582679 0.46456692913385828 0.47244094488188976 0.48031496062992124 0.48818897637795278 0.49606299212598426 0.50393700787401574 0.51181102362204722 0.51968503937007871 0.52755905511811019 0.53543307086614178 0.54330708661417326 0.55118110236220474 0.55905511811023623 0.56692913385826771 0.57480314960629919 0.58267716535433067 0.59055118110236215 0.59842519685039375 0.60629921259842523 0.61417322834645671 0.62204724409448819 0.62992125984251968 0.63779527559055116 0.64566929133858264 0.65354330708661412 0.66141732283464572 0.6692913385826772 0.67716535433070868 0.68503937007874016 0.69291338582677164 0.70078740157480313 0.70866141732283461 0.71653543307086609 0.72440944881889768 0.73228346456692917 0.74015748031496065 0.74803149606299213 0.75590551181102361 0.76377952755905509 0.77165354330708658 0.77952755905511806 0.78740157480314965 0.79527559055118113 0.80314960629921262 0.8110236220472441 0.81889763779527558 0.82677165354330706 0.83464566929133854 0.84251968503937003 0.85039370078740162 0.8582677165354331 0.86614173228346458 0.87401574803149606 0.88188976377952755 0.88976377952755903 0.89763779527559051 0.90551181102362199 0.91338582677165359 0.92125984251968507 0.92913385826771655 0.93700787401574803 0.94488188976377951 0.952755905511811 0.96062992125984248 0.96850393700787396 0.97637795275590555 0.98425196850393704 0.99212598425196852 1
        </DataArray>
      </PointData>
      <CellData Scalars="P">
        <DataArray type="Float32" Name="P" NumberOfComponents="1">
          -0.043366335950811047 -0.12877407319593873 -0.21165587763106899 -0.29141742571138463 -0.36766438438201343 -0.44009303925401239 -0.50844040417056147 -0.57245853206886865 -0.63189934730273878 -0.68650636457899894 -0.73600816902710176 -0.78011551099845611 -0.81851854283766456 -0.85088526459447389 -0.87686087523977141 -0.89606683226233119 -0.90809832694067461 -0.91252534373887795 -0.90889093280275179 -0.89670952858720565 -0.87546676677560464 -0.84461960304891137 -0.80359441894471273 -0.7517870423590467 -0.68856176034257044 -0.6132482337271481 -0.52514282993130468 -0.42351062566513387 -0.30758097893113873 -0.17653120431377109 -0.02952150068958213 0.13432338813331288 0.31591396016765821 0.51619486327044828 0.73614425615638723 0.97676902590835857 1.2390973218851209 1.5241842561601595 1.8331090135812387 2.1669599693079915 2.5268292689701672 2.913806718671875 2.8363330260521575 2.784592824551503 2.7605549796521647 2.7658500100087875 2.7831290992746647 2.8300546652034986 2.9061240211480523 3.0110598816068705 3.1242597466851549 3.2832248373903545 3.4671663373066246 4.8930225974765058 4.5210319661322549 4.4987055771815845 4.4844001018455115 4.4770864137161803 4.4874015976171862 4.5023895530535185 4.5208585052319847 4.5415519944728517 4.5731579297782847 4.6037731096312546 4.6410293762398345 4.6739781339647424 4.7013744427918081 4.7221909529676793 4.7351964478953006 4.7394211911209672 4.7340123466444695 4.7182433662510963 4.6915215009547069 4.6533933517189832 4.6035483531451851 4.5418203330593263 4.4681871098525523 4.3827682112508253 4.2858207725989139 4.1776998373362657 4.0589391202728509 3.9332757631760358 3.7989934057974288 3.656830779788379 3.5076102735078631 3.3521227840173351 3.1914115805107888 3.0264787082659259 2.8583617861311694 2.6951993721226017 2.531219439511093 2.3675423885361422 2.2051548779402297 2.0450276818235062 1.8879524527886349 1.734991483158878 1.5870099064510035 1.4536536350097187 1.326942280240766 1.2073578318961546 1.0956415085048752 0.99230818648862329 0.89780043408771937 0.81248350882107834 0.73664049019676214 0.66158703249444129 0.59642465367134045 0.54116377976530872 0.49569204108412124 0.45976413858436677 0.42478844298875823 0.3988534584070777 0.37326686584251145 0.35544963993798662 0.34412355375027998 0.33123786724853549 0.33784307198327646 0.34657218552146918 0.3549029501403892 0.3553898579545956 0.33410442350765179 0.3053438688671008 0.27122376547845189 0.22763861084360187 0.17997598947578014 0.118909425422713 0.043332624909536835
        </DataArray>
      </CellData>
      <Points>
        <DataArray type="Float32" NumberOfComponents="3" format="ascii">
          4.1555186647831679 5.6613909235184314 0
          4.1497958860695094 5.6668010542149352 0
          4.1440991140971679 5.6722386146315955 0
          4.1384422336458488 5.6777177419250791 0
          4.1328359127634098 5.6832486890745502 0
          4.1272892326211243 5.6888395575230941 0
          4.1218103486120388 5.6944970057869737 0
          4.1164068407257215 5.7002266268714346 0
          4.1110859229108918 5.7060331736606091 0
          4.1058545804265636 5.7119207051756895 0
          4.100719662176485 5.7178926830838677 0
          4.0956879490122775 5.7239520402561972 0
          4.0907662017593118 5.7301012265442841 0
          4.085961197603253 5.7363422407233626 0
          4.0812797569060288 5.7426766513494085 0
          4.0767287618417916 5.7491056086387964 0
          4.0723151698395608 5.7556298504419532 0
          4.0680460261811842 5.7622497057222244 0
          4.0639284692898432 5.7689650914259429 0
          4.059969734961844 5.7757755075005424 0
          4.0561771594195726 5.7826800299547685 0
          4.0525581786810818 5.7896773006604478 0
          4.0491203241387117 5.7967655143260721 0
          4.0458712176707907 5.8039424046533128 0
          4.0428185632777573 5.8112052282704454 0
          4.0399701368606413 5.818550747503342 0
          4.0373337768238526 5.825975213044658 0
          4.034917369349647 5.8334743441033714 0
          4.0327288280639273 5.8410433067106835 0
          4.030776076217597 5.8486766930678327 0
          4.0290670438483343 5.8563685038742932 0
          4.0276096212589447 5.8641121191706276 0
          4.0264116315971998 5.8719002758568557 0
          4.0254808004156111 5.8797250449647303 0
          4.024824721503089 5.8875778088070625 0
          4.0244508196820403 5.8954492383451162 0
          4.0243663070569209 5.903329270871124 0
          4.0245781312929205 5.9112070889371502 0
          4.0250929279987986 5.9190711009911814 0
          4.0259169693877741 5.9269089229996874 0
          4.0270561004924437 5.9347073625042466 0
          4.0285156719911939 5.9424524057506147 0
          4.030300469745046 5.9501292080629984 0
          4.0320797795347803 5.957807034144647 0
          4.0338696017040236 5.9654821534546203 0
          4.0356863220339489 5.9731506751446659 0
          4.0375468246799411 5.980808405056683 0
          4.0394576854599533 5.9884534410296562 0
          4.0414359518273573 5.9960810182984048 0
          4.0434986443420762 6.0036858942837004 0
          4.0456630685114039 6.0112621294227546 0
          4.0479350329496224 6.0188065041840479 0
          4.0503430606471404 6.0263082252573925 0
          4.0529041833881978 6.0337587273735895 0
          4.0564131970858872 6.0408126661578985 0
          4.0597426142776625 6.0479532534924481 0
          4.0631020187360054 6.0550796135101477 0
          4.0664966809417793 6.0621890779276333 0
          4.0699315787021844 6.0692790227895514 0
          4.0734187767705743 6.0763432135344981 0
          4.0769628450140329 6.0833788685888859 0
          4.0805681254183686 6.0903831784010896 0
          4.084238713877661 6.0973533107540412 0
          4.0879856407402313 6.1042825212249889 0
          4.0918123651505285 6.1111678012541057 0
          4.0957292373587944 6.1180020092881549 0
          4.0997389762029481 6.1247819580471345 0
          4.1038439583901622 6.1315044794438105 0
          4.1080463531151326 6.1381663523901011 0
          4.1123478327866874 6.1447644951201035 0
          4.1167497144268959 6.1512958992328404 0
          4.1212529597477277 6.1577576495311348 0
          4.1258581772853704 6.1641469444719021 0
          4.1305656266228672 6.1704611169685775 0
          4.1353752246975706 6.1766976552800239 0
          4.140286553973521 6.1828542238639841 0
          4.1452988724730551 6.1889286839059858 0
          4.1504111254961478 6.1949191133462529 0
          4.1556219589666705 6.2008238261299082 0
          4.1609297341236537 6.2066413905856006 0
          4.1663326607996067 6.212370535914479 0
          4.1718285760974041 6.2180103858982623 0
          4.1774091195424417 6.2235663685955904 0
          4.1830718642048366 6.2290384092104469 0
          4.1888141858104699 6.2344267512593508 0
          4.1946332773409685 6.2397319687805908 0
          4.2005262714285996 6.2449548554976202 0
          4.2064900444205717 6.250096664793122 0
          4.2125213382244802 6.2551590020398926 0
          4.2186167746720162 6.2601438292439484 0
          4.224767768019885 6.2650598597929337 0
          4.2309709739268149 6.2699097727862725 0
          4.2372228599905251 6.2746967142476997 0
          4.2435198061512036 6.2794241826899588 0
          4.2498581091779561 6.2840960288142531 0
          4.2562340707577855 6.2887163361578358 0
          4.262643823898177 6.2932896553819484 0
          4.2690834210071387 6.2978208811989669 0
          4.2755443123054082 6.3023217380584997 0
          4.2820224268719747 6.3067978376218621 0
          4.288513651157607 6.3112549963996756 0
          4.295013652983255 6.315699463698083 0
          4.3015179429070702 6.3201378012174283 0
          4.3080218514070037 6.3245768776651987 0
          4.3145205022006081 6.3290238626408097 0
          4.3210087813758751 6.3334862197072725 0
          4.3274858049302987 6.3379652006462228 0
          4.3339459304832779 6.342468869430717 0
          4.3403831852991948 6.3470055695766225 0
          4.3467912191206626 6.3515839090038719 0
          4.3531632525664889 6.3562127405429019 0
          4.3594968862293149 6.3608945736456688 0
          4.3657843513322687 6.3656388981409275 0
          4.3720225474708547 6.3704485840034355 0
          4.378202616319423 6.3753335830139681 0
          4.3843150844083931 6.380303849670959 0
          4.3903552323477086 6.3853628103185081 0
          4.3962977963086631 6.3905371567801978 0
          4.4021550044476632 6.3958068246696493 0
          4.4079130101897821 6.4011837280012189 0
          4.4135638868281823 6.4066722466794666 0
          4.4191205652254881 6.4122553824748776 0
          4.4245743639792288 6.417938400022356 0
          4.4299076042171048 6.4237341004831174 0
          4.4351069909241838 6.4296496267452721 0
          4.4400943633654819 6.4357455330113664 0
          4.444851290322787 6.4420234803754708 0
          4.4493871768298261 6.4484634909981731 0
        </DataArray>
      </Points>
      <Cells>
        <DataArray type="Int32" Name="connectivity" format="ascii">
          0 1 1 2 2 3 3 4 4 5 5 6 6 7 7 8 8 9 9 10 10 11 11 12 12 13 13 14 14 15 15 16 16 17 17 18 18 19 19 20 20 21 21 22 22 23 23 24 24 25 25 26 26 27 27 28 28 29 29 30 30 31 31 32 32 33 33 34 34 35 35 36 36 37 37 38 38 39 39 40 40 41 41 42 42 43 43 44 44 45 45 46 46 47 47 48 48 49 49 50 50 51 51 52 52 53 53 54 54 55 55 56 56 57 57 58 58 59 59 60 60 61 61 62 62 63 63 64 64 65 65 66 66 67 67 68 68 69 69 70 70 71 71 72 72 73 73 74 74 75 75 76 76 77 77 78 78 79 79 80 80 81 81 82 82 83 83 84 84 85 85 86 86 87 87 88 88 89 89 90 90 91 91 92 92 93 93 94 94 95 95 96 96 97 97 98 98 99 99 100 100 101 101 102 102 103 103 104 104 105 105 106 106 107 107 108 108 109 109 110 110 111 111 112 112 113 113 114 114 115 115 116 116 117 117 118 118 119 119 120 120 121 121 122 122 123 123 124 124 125 125 126 126 127 
        </DataArray>
        <DataArray type="Int32" Name="offsets" format="ascii">
          2 4 6 8 10 12 14 16 18 20 22 24 26 28 30 32 34 36 38 40 42 44 46 48 50 52 54 56 58 60 62 64 66 68 70 72 74 76 78 80 82 84 86 88 90 92 94 96 98 100 102 104 106 108 110 112 114 116 118 120 122 124 126 128 130 132 134 136 138 140 142 144 146 148 150 152 154 156 158 160 162 164 166 168 170 172 174 176 178 180 182 184 186 188 190 192 194 196 198 200 202 204 206 208 210 212 214 216 218 220 222 224 226 228 230 232 234 236 238 240 242 244 246 248 250 252 254 
        </DataArray>
        <DataArray type="Int32" Name="types" format="ascii">
          3 3 3 3 3 3 3 3 3 3 3 3 3 3 3 3 3 3 3 3 3 3 3 3 3 3 3 3 3 3 3 3 3 3 3 3 3 3 3 3 3 3 3 3 3 3 3 3 3 3 3 3 3 3 3 3 3 3 3 3 3 3 3 3 3 3 3 3 3 3 3 3 3 3 3 3 3 3 3 3 3 3 3 3 3 3 3 3 3 3 3 3 3 3 3 3 3 3 3 3 3 3 3 3 3 3 3 3 3 3 3 3 3 3 3 3 3 3 3 3 3 3 3 3 3 3 3         </DataArray>
      </Cells>
    </Piece>
  </UnstructuredGrid>
</VTKFile>
