<?xml version="1.0"?>
<VTKFile type="UnstructuredGrid" version="0.1" byte_order="LittleEndian">
  <UnstructuredGrid>
    <Piece NumberOfPoints="128" NumberOfCells="127">
      <PointData Scalars="W">
        <DataArray type="Float32" Name="W" NumberOfComponents="2">
          0 0 0.018011548004737744 -0.039692184136850474 0.00032161751812248546 -0.00070908005213108304 -0.019058456059594685 0.04199883474633534 -0.040251434158394502 0.088568555486157372 -0.063282370447918276 0.13888247920408062 -0.088079340235687462 0.19257041911852513 -0.11458274789503381 0.24925338627038937 -0.14275320669568459 0.30856426279594734 -0.17260518423011903 0.37022320827927802 -0.20415623009222961 0.43392957423205009 -0.23746057652596145 0.49943642030269547 -0.27259437452953411 0.56651949226713449 -0.30967340797022613 0.63501379093091337 -0.34884175984866622 0.70478723731280812 -0.39024763222299563 0.7756900129212525 -0.43401891082634719 0.8475085020219606 -0.48033351342020536 0.92010568771818269 -0.52936679673858067 0.993314618137214 -0.58128396343956712 1.0669270938037476 -0.63626651132692069 1.1407452149978992 -0.69451167340965536 1.2145783498525513 -0.7562161365311677 1.2882133235346063 -0.82156877588387212 1.3614042319192368 -0.89078382898156172 1.4339287252862951 -0.96402996649901607 1.5054728862153917 -1.0415074190257134 1.5757602515474387 -1.1234467636405103 1.6445415850321154 -1.2100310731783424 1.7114779102717228 -1.301240331048708 1.7759459920448692 -1.3974308253167325 1.8378462210276989 -1.4987489206946643 1.8967620257320126 -1.605334245500565 1.9522630129640266 -1.7172905206130904 2.0038717167541735 -1.8347105344341568 2.0510989817708056 -1.9576507889306323 2.09341749669426 -2.0861939677582728 2.1303308309831945 -2.2202935575948017 2.161213920306678 -2.3598394627705908 2.1854040480832673 -2.5047814669498814 2.2023182123631369 -2.6549967540758992 2.2113221904574978 -2.8102727136855585 2.2117302489515085 -1.6004557851522749 1.2035771656035301 -1.944469243767859 1.4101324652758656 -2.3092555191755837 1.6033536454200525 -2.7008480061161637 1.7814193489960946 -3.1134791354783244 1.934224231478781 -3.5524737344353445 2.0589785563714837 -4.0236509136495302 2.1519926770535669 -4.5190337358795496 2.2016400943578991 -5.0427664826483634 2.202967566548335 -5.5939586634868617 2.1477773687685047 -6.5590212057882171 2.1431111575751007 -7.5946111850423117 2.0015610668688719 4.6338292909063385 -1.1613654695493949 4.4682559316666248 -1.2979926467245588 0.086654397985245685 -0.02693789488638177 -0.18848278757466286 0.05850608343806854 -0.46135970019934258 0.14185488638819516 -0.58052730529800955 0.17577302155802074 -0.85972938185037806 0.25476301555878067 -1.1452795469964931 0.32915660438086619 -1.433473713802526 0.3956588870747007 -1.5537764689965716 0.4085546411284115 -2.0340811796805083 0.50325360701278543 -2.1549201736392782 0.49451699042252073 -2.2739750787141668 0.47924763307051721 -2.3908567452057508 0.45725683615977103 -2.5051507530813293 0.42840113088774989 -2.8120876321156532 0.41970784779192477 -2.921285304895282 0.36813771620779895 -3.0262189133139175 0.30906378214273389 -3.1307323544854357 0.2428730817278407 -3.2257328823667684 0.16894592334413031 -3.314979817779335 0.087992374503914547 -3.3979599976423778 0.00029687534671089138 -3.4742193751169324 -0.093794767137653418 -3.5431665693931103 -0.19387005380977687 -3.6043794904467434 -0.29945414087777339 -3.657412599326392 -0.41001118437200595 -3.7018522152072935 -0.52494551472705564 -3.7414224935709308 -0.64437350054083853 -3.7675561041413133 -0.76630008262429472 -3.7841018490728109 -0.89049156928271755 -3.790838357883878 -1.0161465692700056 -3.7876056424083027 -1.14242481078793 -3.7743087558748161 -1.268453133219489 -3.7546803734455194 -1.3947963703354116 -3.7211632717209988 -1.5178491343370586 -3.6777112138070942 -1.6379028196856582 -3.6245195139775053 -1.7540240272260412 -3.5618571250042685 -1.8652837274848981 -3.4934286431520567 -1.9727350358088787 -3.4127941743439432 -2.0717523880946636 -3.3239060377652216 -2.1632140230871193 -3.2273006999157725 -2.2462801866736748 -3.1265597026978815 -2.3224431735234421 -3.016201073779432 -2.3865397299763194 -2.9000223120824691 -2.4399577903425205 -2.7787286029326199 -2.4820322454918604 -2.6556186878483428 -2.5146564092314994 -2.526134810133394 -2.5323902279751613 -2.5317514856281624 -2.6876911838479245 -2.3888563589393024 -2.6864540753813233 -2.2445201577105154 -2.6705773255149232 -2.0994761079070821 -2.6396353631929044 -1.9544962724027115 -2.5933505341030818 -1.9308292235534261 -2.7048078239866999 -1.779527627060596 -2.6328699845484449 -1.6304276800155124 -2.5439885356771144 -1.5934849716733139 -2.6227339288484961 -1.4421904379750599 -2.5042923424322248 -1.4009618048496151 -2.5668380556308197 -1.2481107752643199 -2.4127065737533409 -1.2029812366229453 -2.4530218999929274 -1.0528316179280837 -2.2635588163029978 -1.0059794072775288 -2.2788027092185899 -0.61431611799763586 -1.4542141848315757 -0.46643275499462056 -1.1391324006915775 -0.42119934315519941 -1.056653689069917 -0.26980388620439044 -0.69169160319085743 -0.20552868819147169 -0.5350804471065177 -0.03957806168871196 -0.10387414639083213 0.076909857571647589 0.20160326753440652 0.13020506723684927 0.33898360557166723 0.29910455914312706 0.76796222527361624 0.085131262147513348 0.21591819160158673 0 0
        </DataArray>
        <DataArray type="Float32" Name="u" NumberOfComponents="1">
          0 0.007874015748031496 0.015748031496062992 0.023622047244094488 0.031496062992125984 0.03937007874015748 0.047244094488188976 0.055118110236220472 0.062992125984251968 0.070866141732283464 0.07874015748031496 0.086614173228346455 0.094488188976377951 0.10236220472440945 0.11023622047244094 0.11811023622047244 0.12598425196850394 0.13385826771653545 0.14173228346456693 0.14960629921259844 0.15748031496062992 0.16535433070866143 0.17322834645669291 0.18110236220472442 0.1889763779527559 0.19685039370078741 0.20472440944881889 0.2125984251968504 0.22047244094488189 0.2283464566929134 0.23622047244094488 0.24409448818897639 0.25196850393700787 0.25984251968503935 0.26771653543307089 0.27559055118110237 0.28346456692913385 0.29133858267716534 0.29921259842519687 0.30708661417322836 0.31496062992125984 0.32283464566929132 0.33070866141732286 0.33858267716535434 0.34645669291338582 0.3543307086614173 0.36220472440944884 0.37007874015748032 0.37795275590551181 0.38582677165354329 0.39370078740157483 0.40157480314960631 0.40944881889763779 0.41732283464566927 0.42519685039370081 0.43307086614173229 0.44094488188976377 0.44881889763779526 0.45669291338582679 0.46456692913385828 0.47244094488188976 0.48031496062992124 0.48818897637795278 0.49606299212598426 0.50393700787401574 0.51181102362204722 0.51968503937007871 0.52755905511811019 0.53543307086614178 0.54330708661417326 0.55118110236220474 0.55905511811023623 0.56692913385826771 0.57480314960629919 0.58267716535433067 0.59055118110236215 0.59842519685039375 0.60629921259842523 0.61417322834645671 0.62204724409448819 0.62992125984251968 0.63779527559055116 0.64566929133858264 0.65354330708661412 0.66141732283464572 0.6692913385826772 0.67716535433070868 0.68503937007874016 0.69291338582677164 0.70078740157480313 0.70866141732283461 0.71653543307086609 0.72440944881889768 0.73228346456692917 0.74015748031496065 0.74803149606299213 0.75590551181102361 0.76377952755905509 0.77165354330708658 0.77952755905511806 0.78740157480314965 0.79527559055118113 0.80314960629921262 0.8110236220472441 0.81889763779527558 0.82677165354330706 0.83464566929133854 0.84251968503937003 0.85039370078740162 0.8582677165354331 0.86614173228346458 0.87401574803149606 0.88188976377952755 0.88976377952755903 0.89763779527559051 0.90551181102362199 0.91338582677165359 0.92125984251968507 0.92913385826771655 0.93700787401574803 0.94488188976377951 0.952755905511811 0.96062992125984248 0.96850393700787396 0.97637795275590555 0.98425196850393704 0.99212598425196852 1
        </DataArray>
      </PointData>
      <CellData Scalars="P">
        <DataArray type="Float32" Name="P" NumberOfComponents="1">
          -0.03985268489782523 -0.11957651125592672 -0.19932554456708279 -0.2790789327357775 -0.35878204110458667 -0.43834160791153159 -0.51762314313624991 -0.59644952940838181 -0.67460069755260599 -0.75181346424065687 -0.82778268646207953 -0.90216222069705954 -0.97456635742555942 -1.0445706853052465 -1.11171305522677 -1.1754955027793357 -1.2353877859332747 -1.2908276021733638 -1.3412232711661991 -1.3859572653005101 -1.4243882593278054 -1.4558530402191503 -1.4796695713806469 -1.4951408259269876 -1.501555890022187 -1.4981973011564707 -1.4843417363978844 -1.4592603242920528 -1.4222265778441574 -1.37254139477232 -1.3094976731963099 -1.2324055116603405 -1.1405967334667051 -1.033432740196832 -0.91030967526795759 -0.77066656072577988 -0.61398621060852265 -0.43981451004309469 -0.24777215276474757 -0.037551645543163516 0.19106975547932953 0.43821496687943323 0.56652937613249144 0.73863823575167875 0.95598383412634813 1.2204314836970533 1.5329272654170081 1.8950517246925218 2.3092200874797113 2.7771885135540386 3.3017487611491214 3.8863220583567801 4.5799816389170394 5.3918059310993725 4.7530963988625921 4.1053975558086613 4.0137396235365692 3.9574600333962997 3.9366744653418309 3.9309195099684642 3.9608352759847958 4.0261758040090045 4.1257354294183513 4.2365320875966486 4.4014606253977595 4.5738122354830839 4.7520355406828436 4.9345093531081128 5.119555058238161 5.3256338817865743 5.529904380459528 5.7306309681519831 5.9264806422966041 6.1153581676332642 6.2956171019611196 6.4656654067568828 6.6239820541765679 6.7691190878338983 6.8997250597237469 7.0145532890071252 7.1124732590660429 7.1926557169089218 7.2540318587111452 7.2958833971576746 7.3176457616689126 7.3189144928279415 7.2994502207918588 7.2592177114830827 7.1982551655333911 7.1168366470582489 7.0154054790741878 6.8945708109216053 6.7550395139033164 6.5977764109004395 6.4238543087663889 6.2344808930336084 6.0308631513616771 5.8145489071189189 5.5870789306206303 5.3500743279776817 5.1050561401197019 4.8539105096684638 4.5880797136972582 4.3191873069991766 4.0492530928444825 3.7802650953269965 3.5141508112261639 3.2406631641787857 2.9735695694787188 2.7147432877842697 2.4535907573606184 2.2041278338511621 1.955372970499655 1.721742683899117 1.492091810411025 1.2802854871808078 1.0754836429581527 0.9187364548030964 0.78175317452053317 0.65311546914515484 0.5423788876188439 0.44015318700185158 0.35227837811965629 0.27209493227037784 0.19400998669668737 0.1198483613074664 0.039836904233908996
        </DataArray>
      </CellData>
      <Points>
        <DataArray type="Float32" NumberOfComponents="3" format="ascii">
          3.904880849960465 7.6468089055445247 0
          3.9120511069002175 7.6500641139590506 0
          3.9192224480320297 7.6533168462837802 0
          3.9263937617226605 7.6565695131478968 0
          3.9335638383927924 7.6598247591615669 0
          3.9407313604654384 7.6630854702620228 0
          3.9478948996841359 7.6663547658896487 0
          3.9550529208854086 7.6696359757211443 0
          3.9622037852087768 7.6729326159658591 0
          3.9693457521647448 7.6762483664641383 0
          3.9764769784327623 7.6795870532421642 0
          3.983595516515166 7.6829526298098694 0
          3.9906993111509705 7.6863491618145927 0
          3.9977861943968573 7.6897808131217964 0
          4.004853878271641 7.6932518355862234 0
          4.0118999456629627 7.6967665608777631 0
          4.0189218409923289 7.7003293912188173 0
          4.0259168621510737 7.7039447861756356 0
          4.0328821493435623 7.7076172542066068 0
          4.0398146740966441 7.711351342361036 0
          4.046711228904571 7.7151516234256938 0
          4.0535684158680292 7.7190226837141154 0
          4.0603826343605451 7.7229691113098342 0
          4.0671500687304141 7.7269954829143925 0
          4.0738666764874303 7.7311063486676836 0
          4.080528174915977 7.735306218430102 0
          4.0871300305116494 7.7395995423869994 0
          4.0936674464574052 7.7439906939756513 0
          4.1001353482127012 7.7484839545007151 0
          4.1065283720423347 7.7530834921835776 0
          4.1128408661350946 7.7577933235780669 0
          4.1190668683733067 7.7626173074620137 0
          4.1252000971116018 7.7675591190678217 0
          4.131233942361332 7.7726222234525375 0
          4.1371614591886807 7.7778098459438452 0
          4.1429753617753846 7.7831249418561121 0
          4.1486680197132131 7.7885701638333851 0
          4.1542314526536854 7.7941478311022721 0
          4.1596573329529427 7.7998598907344618 0
          4.1649369922395527 7.8057078765614216 0
          4.1700614242396892 7.8116928730247155 0
          4.1750212920784726 7.8178154758335729 0
          4.1798069411234469 7.824075749408026 0
          4.1844930799829383 7.8304105753647182 0
          4.1890583508047463 7.8368327609786768 0
          4.1934801105738257 7.8433542838575603 0
          4.1977340569065476 7.8499861786314469 0
          4.201794587107571 7.8567379104016464 0
          4.2056344679963802 7.863617201658764 0
          4.2092244752110926 7.8706298034564091 0
          4.2125338893177036 7.877778775106667 0
          4.2155302389771032 7.8850641774182133 0
          4.2181793567345185 7.8924825651107184 0
          4.2204213979927792 7.900033607428063 0
          4.2221921617255589 7.9077084840078919 0
          4.2242505016093324 7.9153116417324787 0
          4.2265861898565111 7.922834617963753 0
          4.2289272904537976 7.9303560362447669 0
          4.2312567289086598 7.9378811940851346 0
          4.2335575696642591 7.9454152589649079 0
          4.2358224176306027 7.9529603405443599 0
          4.2380339424196816 7.9605213351474919 0
          4.2401744183940835 7.9681028531191318 0
          4.2422259547700847 7.9757090144968377 0
          4.2441810827177306 7.9833406232407222 0
          4.2460099834867604 7.9910035354360707 0
          4.2477051540034099 7.9986972113044992 0
          4.2492592013935733 8.0064207052150742 0
          4.2506648671624099 8.0141726539076963 0
          4.2519150529534429 8.0219512675222386 0
          4.252990700734891 8.0297559931519107 0
          4.2538850282866623 8.037583629555245 0
          4.254591517843223 8.0454305090481455 0
          4.2551036775586049 8.0532925211613087 0
          4.2554156060710886 8.0611650747511963 0
          4.255521759223547 8.0690431417348485 0
          4.2554169820330854 8.076921274723535 0
          4.2550965369987859 8.0847936284751079 0
          4.2545561409400703 8.092653985512408 0
          4.2537919913296678 8.1004957856171451 0
          4.2528007940831607 8.1083121591317013 0
          4.2515797893688694 8.1160959639932102 0
          4.2501265206040335 8.1238397782763023 0
          4.2484393663210351 8.131536024756949 0
          4.2465173013787894 8.1391769852208924 0
          4.2443599107930803 8.1467548503411606 0
          4.2419673997374669 8.1542617719842028 0
          4.2393405994843745 8.1616899175702766 0
          4.2364807358276204 8.1690314348990221 0
          4.2333898980090057 8.1762786767047722 0
          4.2300707933288928 8.1834241824520717 0
          4.2265267349552822 8.1904607364499586 0
          4.2227616251302624 8.1973814256874693 0
          4.218779725236308 8.2041795743855186 0
          4.2145860551027381 8.2108490317497829 0
          4.210186147607172 8.2173841173163673 0
          4.2055860151603941 8.2237796731671899 0
          4.2007919273402772 8.2300309711832007 0
          4.1958107505644744 8.2361340339492894 0
          4.19064971226409 8.2420855483858482 0
          4.1853163568345728 8.2478829069849748 0
          4.1798183408041742 8.2535240900975744 0
          4.1741637150655651 8.2590080037279741 0
          4.1683521555389023 8.2643250120926428 0
          4.1623925430507276 8.2694752029325471 0
          4.156293845798527 8.2744595733857373 0
          4.1500650736232121 8.279280056119946 0
          4.1437152299124875 8.2839395362621637 0
          4.1372457984016631 8.2884311095349688 0
          4.1306661691949911 8.2927592549729852 0
          4.123985592703753 8.2969295023685241 0
          4.1172063669995245 8.3009369812762426 0
          4.1103378717829182 8.3047890556322201 0
          4.1033826637351529 8.3084818618635232 0
          4.0963502114996215 8.3120249767636771 0
          4.0892433055240671 8.315415916233361 0
          4.0820712392676741 8.3186664462084075 0
          4.0748369014588173 8.3217756368483791 0
          4.0675645465915551 8.3247946328177722 0
          4.0602633216874073 8.3277429811856383 0
          4.0529360089976647 8.330625805922109 0
          4.0455919697574059 8.33346574513366 0
          4.0382351622417136 8.3362725189167577 0
          4.0308758485934177 8.3390728723040848 0
          4.0235212230637245 8.341885756222478 0
          4.016174557501289 8.3447197019044363 0
          4.0088462943733854 8.3476013218390168 0
          4.0015231062072276 8.3504964110294342 0
        </DataArray>
      </Points>
      <Cells>
        <DataArray type="Int32" Name="connectivity" format="ascii">
          0 1 1 2 2 3 3 4 4 5 5 6 6 7 7 8 8 9 9 10 10 11 11 12 12 13 13 14 14 15 15 16 16 17 17 18 18 19 19 20 20 21 21 22 22 23 23 24 24 25 25 26 26 27 27 28 28 29 29 30 30 31 31 32 32 33 33 34 34 35 35 36 36 37 37 38 38 39 39 40 40 41 41 42 42 43 43 44 44 45 45 46 46 47 47 48 48 49 49 50 50 51 51 52 52 53 53 54 54 55 55 56 56 57 57 58 58 59 59 60 60 61 61 62 62 63 63 64 64 65 65 66 66 67 67 68 68 69 69 70 70 71 71 72 72 73 73 74 74 75 75 76 76 77 77 78 78 79 79 80 80 81 81 82 82 83 83 84 84 85 85 86 86 87 87 88 88 89 89 90 90 91 91 92 92 93 93 94 94 95 95 96 96 97 97 98 98 99 99 100 100 101 101 102 102 103 103 104 104 105 105 106 106 107 107 108 108 109 109 110 110 111 111 112 112 113 113 114 114 115 115 116 116 117 117 118 118 119 119 120 120 121 121 122 122 123 123 124 124 125 125 126 126 127 
        </DataArray>
        <DataArray type="Int32" Name="offsets" format="ascii">
          2 4 6 8 10 12 14 16 18 20 22 24 26 28 30 32 34 36 38 40 42 44 46 48 50 52 54 56 58 60 62 64 66 68 70 72 74 76 78 80 82 84 86 88 90 92 94 96 98 100 102 104 106 108 110 112 114 116 118 120 122 124 126 128 130 132 134 136 138 140 142 144 146 148 150 152 154 156 158 160 162 164 166 168 170 172 174 176 178 180 182 184 186 188 190 192 194 196 198 200 202 204 206 208 210 212 214 216 218 220 222 224 226 228 230 232 234 236 238 240 242 244 246 248 250 252 254 
        </DataArray>
        <DataArray type="Int32" Name="types" format="ascii">
          3 3 3 3 3 3 3 3 3 3 3 3 3 3 3 3 3 3 3 3 3 3 3 3 3 3 3 3 3 3 3 3 3 3 3 3 3 3 3 3 3 3 3 3 3 3 3 3 3 3 3 3 3 3 3 3 3 3 3 3 3 3 3 3 3 3 3 3 3 3 3 3 3 3 3 3 3 3 3 3 3 3 3 3 3 3 3 3 3 3 3 3 3 3 3 3 3 3 3 3 3 3 3 3 3 3 3 3 3 3 3 3 3 3 3 3 3 3 3 3 3 3 3 3 3 3 3         </DataArray>
      </Cells>
    </Piece>
  </UnstructuredGrid>
</VTKFile>
