<?xml version="1.0"?>
<VTKFile type="UnstructuredGrid" version="0.1" byte_order="LittleEndian">
  <UnstructuredGrid>
    <Piece NumberOfPoints="128" NumberOfCells="127">
      <PointData Scalars="W">
        <DataArray type="Float32" Name="W" NumberOfComponents="2">
          0 0 0.59952868239150203 0.44171913375288663 0.90549341540243244 0.65695280168195502 1.1451369211386218 0.81357689740780015 1.3499450976327378 0.93492294460230729 1.5326712700864922 1.0306116147845295 1.700009546110459 1.1058508468490595 1.8558802897955271 1.1638402442910512 2.0027522310790351 1.2067355300173328 2.1421687004688623 1.2360443577438696 2.2751595089453582 1.2529196049849607 2.4023554206075071 1.2582537326233902 2.5241209014013659 1.2527768087744195 2.6405781413703946 1.2370900117437256 2.7516935604064163 1.2117278510146432 2.8573490899806826 1.1772018620281679 2.9574232588889915 1.1340367602066475 3.0516611871544335 1.0827205875429942 3.1397979550081692 1.0237616344855029 3.2215768979054529 0.95769222950245358 3.2967226555389253 0.88505841105664118 3.3649380736164569 0.80642134207456762 3.425950171069938 0.72236979754281416 3.4795251484791216 0.63351888589066574 3.5254007004937078 0.54049486922587986 3.5634416370313375 0.44395875094402032 3.5934842519622561 0.34457364239443344 3.6153430781095119 0.24301237954461483 3.6289504392105632 0.13996727217174454 3.6346209598620907 0.036131551035986489 3.6320456570565529 -0.067830081397338593 3.6213144342447663 -0.17123427233183722 3.6025384381834753 -0.27341037596266804 3.5759153512317385 -0.37370884286516687 3.5416678816157199 -0.47150413194017793 3.5000751904089631 -0.56620187032901703 3.4513649988159067 -0.65722404650165978 3.3959506390017062 -0.74405339538919957 3.3342989135387042 -0.82622894236147348 3.2667560646776335 -0.90330323921551425 3.193727594593335 -0.97487811536692581 3.1156768633497345 -1.0406138623277443 -6.1037672035390722 1.9554773938931109 -6.2387159018475939 1.6555548197438816 -6.3784536955366171 1.3482205877362077 -6.4904546921357218 1.0258745732728538 -6.6057956903158788 0.69440182476200607 -6.6900483915710156 0.34956412629879302 -6.7756677546688975 -0.0057837587780031341 -6.8266368005606521 -0.37210104888373713 -6.8584973232120223 -0.74735572954455642 -6.8882942270971013 -1.1342195641712731 -6.8781914834530609 -1.5267427778528531 -6.8253582524077459 -1.9190603749620987 11.819108218797878 3.0672265922952153 11.959736613909174 1.906919781551849 11.977331936244699 0.75724034218271341 11.884788895202146 -0.36818860026163852 11.685167049497956 -1.4587139947046861 11.386391435278449 -2.504435884550666 10.996771109752858 -3.4969188604552519 2.4716544227733102 -0.94094588249732725 1.7673253660477266 -0.70931209002697393 1.0209013538118126 -0.42385276328583488 0.26620950100112928 -0.11224098480040209 0.1771650797540178 -0.075093278569149005 0.088986020215837014 -0.03783721890908251 0.001786449619796005 -0.00076042508737439777 -0.43969007533108517 0.18618802879564761 -0.52576960814063822 0.22008591396953842 -0.6245866016433933 0.25785768106993634 -0.70872769634868327 0.28790056093461713 -0.79182046568393183 0.31579520529358307 -1.2461625884204675 0.4845877892717142 -1.3296888655659147 0.50051649670006071 -1.4120823664189717 0.51305592670285505 -1.5068181094132069 0.52675808155640724 -1.5866405823851994 0.53184351941381469 -2.0588691245118333 0.65573489019568532 -2.1392782829058645 0.64080186932899663 -2.2177057884943459 0.62135791447315558 -2.2939357930949487 0.59742234743286793 -2.3813047623633978 0.57215829227706028 -2.4525910115416987 0.53885601524961424 -2.9403889788815758 0.5794938946605761 -3.0089990532520958 0.51888847503790358 -3.0737565566526928 0.45359123965368631 -3.1477798002760711 0.38528480475412996 -3.2041248476116309 0.31059215759225084 -3.2558503485846209 0.2319071509837963 -3.7436656211747126 0.16296364543817568 -3.798815874262103 0.052394580581434133 -3.834643172817036 -0.062381322794563709 -3.8639347934784807 -0.18017356664688244 -3.8865268818050813 -0.30053263415450182 -4.3673409839586173 -0.48156123167158615 -4.3716041018756702 -0.63619091025897623 -4.3672612540150233 -0.79192243535219597 -4.3542751836741544 -0.94814517607209881 -4.799089901303109 -1.2328661367319338 -4.7584328869224315 -1.422683487381319 -4.7072744876709471 -1.610601171275162 -4.645958271044254 -1.7959393330712821 -5.0178027771872991 -2.1810155158898099 -4.9291812557532424 -2.4002416391141161 -4.8178861718667232 -2.6089759022946333 -5.1218240971885134 -3.0800192735429563 -4.9633329932694092 -3.3120203974604929 -4.7920426431410386 -3.5335651806664412 -5.005256783453075 -4.0828843307279241 -4.7687221257468675 -4.3107177351145882 -4.5288486688784468 -4.5300373249798787 -4.6284390273595948 -5.1428439932673369 -4.3161637320677615 -5.3540390676966156 -4.3141701274217814 -6.0142693851850684 -3.9311491968828314 -6.212641510542932 -3.8102130807328263 -6.9061463348197876 -2.5751133555566805 -5.3339048143119179 -2.4794456688468696 -5.8404073088426678 -2.103036294513088 -5.7167287320060476 -1.944025463512326 -6.2214151811743559 -1.5439969590844391 -5.9744695865593647 -1.2971709216813399 -6.2922253200633111 -1.0091027542238655 -6.5999235166587145 -0.58853291350798198 -5.7012281775942819 -0.28133469410088802 -4.489231816053576 -0.10491692850489534 -3.2836245057767863 0 0
        </DataArray>
        <DataArray type="Float32" Name="u" NumberOfComponents="1">
          0 0.007874015748031496 0.015748031496062992 0.023622047244094488 0.031496062992125984 0.03937007874015748 0.047244094488188976 0.055118110236220472 0.062992125984251968 0.070866141732283464 0.07874015748031496 0.086614173228346455 0.094488188976377951 0.10236220472440945 0.11023622047244094 0.11811023622047244 0.12598425196850394 0.13385826771653545 0.14173228346456693 0.14960629921259844 0.15748031496062992 0.16535433070866143 0.17322834645669291 0.18110236220472442 0.1889763779527559 0.19685039370078741 0.20472440944881889 0.2125984251968504 0.22047244094488189 0.2283464566929134 0.23622047244094488 0.24409448818897639 0.25196850393700787 0.25984251968503935 0.26771653543307089 0.27559055118110237 0.28346456692913385 0.29133858267716534 0.29921259842519687 0.30708661417322836 0.31496062992125984 0.32283464566929132 0.33070866141732286 0.33858267716535434 0.34645669291338582 0.3543307086614173 0.36220472440944884 0.37007874015748032 0.37795275590551181 0.38582677165354329 0.39370078740157483 0.40157480314960631 0.40944881889763779 0.41732283464566927 0.42519685039370081 0.43307086614173229 0.44094488188976377 0.44881889763779526 0.45669291338582679 0.46456692913385828 0.47244094488188976 0.48031496062992124 0.48818897637795278 0.49606299212598426 0.50393700787401574 0.51181102362204722 0.51968503937007871 0.52755905511811019 0.53543307086614178 0.54330708661417326 0.55118110236220474 0.55905511811023623 0.56692913385826771 0.57480314960629919 0.58267716535433067 0.59055118110236215 0.59842519685039375 0.60629921259842523 0.61417322834645671 0.62204724409448819 0.62992125984251968 0.63779527559055116 0.64566929133858264 0.65354330708661412 0.66141732283464572 0.6692913385826772 0.67716535433070868 0.68503937007874016 0.69291338582677164 0.70078740157480313 0.70866141732283461 0.71653543307086609 0.72440944881889768 0.73228346456692917 0.74015748031496065 0.74803149606299213 0.75590551181102361 0.76377952755905509 0.77165354330708658 0.77952755905511806 0.78740157480314965 0.79527559055118113 0.80314960629921262 0.8110236220472441 0.81889763779527558 0.82677165354330706 0.83464566929133854 0.84251968503937003 0.85039370078740162 0.8582677165354331 0.86614173228346458 0.87401574803149606 0.88188976377952755 0.88976377952755903 0.89763779527559051 0.90551181102362199 0.91338582677165359 0.92125984251968507 0.92913385826771655 0.93700787401574803 0.94488188976377951 0.952755905511811 0.96062992125984248 0.96850393700787396 0.97637795275590555 0.98425196850393704 0.99212598425196852 1
        </DataArray>
      </PointData>
      <CellData Scalars="P">
        <DataArray type="Float32" Name="P" NumberOfComponents="1">
          0.0017610102664591531 0.0071813007569106104 0.016272965395468499 0.030013329239373499 0.049019069071357391 0.073663520963353726 0.10413332253259346 0.14046013609400096 0.18254117367736938 0.2301521139523699 0.28295828093162223 0.34052262148945955 0.40231305577429349 0.46770830001158525 0.53600453391355196 0.60642329224677971 0.67812111928035201 0.75019630154168215 0.82169873768518598 0.89164045253581525 0.95900578748373178 1.0227619142257907 1.0818705364537327 1.135299911817087 1.1820359554825561 1.2210954238849896 1.2515366939304551 1.2724710459227042 1.2830746726543309 1.2825988288217178 1.2703780711555279 1.2458407015905821 1.20851669776018 1.1580440285053835 1.0941741056676855 1.0167755575930406 0.92583911407070207 0.82147574080605013 0.70391465352549454 0.57350601741552687 0.43071757678804773 0.27612907577681167 0.58591429262725825 0.92195872280298852 1.2847933723049427 1.672848606705182 2.0862468326917769 2.5226660166696706 2.981718427219195 3.4602452162198127 3.9558866306725822 4.4673238039835477 4.9900392342131594 5.5189137038882041 4.551528828278359 3.5218352320263517 2.4431756502607995 1.3287669367458523 0.19246527904146182 -0.95178720097673575 -2.0901224225774042 -2.334309225692957 -2.5050992877198488 -2.5961899514819038 -2.6061161715775598 -2.6072669658364376 -2.5998627705630666 -2.5842213553807385 -2.5239478089636962 -2.45696841704931 -2.38254826334573 -2.3027395133008755 -2.2182341371459651 -2.0960015664011231 -1.971533384613974 -1.8456177319298086 -1.7179355038500932 -1.5903886585960261 -1.4347494414627242 -1.2819509020178632 -1.1327036417289189 -0.98766981232312911 -0.8466610431656284 -0.71107653546828919 -0.5597302164021547 -0.41614125798138552 -0.28069163654110135 -0.15313778694981087 -0.034314109994086371 0.075611677281088835 0.19052149030404275 0.29539510696887433 0.38987819784447098 0.47410062234451866 0.54825640744547022 0.62084000752250812 0.68263260050066488 0.73404949781566808 0.77555594856956578 0.81161973846907953 0.83771157938460372 0.85448797117625752 0.86263155548034243 0.86324068429213596 0.85575374320855513 0.84097343061472118 0.81805927685175972 0.78879735784053029 0.75409858935251117 0.71165304385336636 0.66514284671048407 0.61546220244617889 0.55936109843939419 0.5017739395520201 0.43906124244527273 0.37675811002449244 0.31123662693793119 0.26294562737469207 0.21409771770910635 0.17022638799245771 0.12756152296683596 0.09140196722820694 0.05917737730498239 0.034327909682315721 0.017770958425756319 0.0079125212733002232 0.0020583111387306517
        </DataArray>
      </CellData>
      <Points>
        <DataArray type="Float32" NumberOfComponents="3" format="ascii">
          3.906803848586311 8.2601540535673053 0
          3.9021145901280532 8.2664796865139785 0
          3.8974625009027992 8.2728327116846856 0
          3.8928665501394195 8.2792264764408934 0
          3.8883415956180496 8.2856706935724045 0
          3.8839003356547765 8.2921728882034866 0
          3.8795540997526068 8.2987389943945473 0
          3.8753132636057717 8.3053736780800875 0
          3.8711874921394949 8.3120805354581595 0
          3.8671858925496068 8.3188622266442298 0
          3.8633171099654366 8.3257205691373954 0
          3.8595893912716464 8.332656609287719 0
          3.8560106241854504 8.3396706776177698 0
          3.8525883598198059 8.3467624340777586 0
          3.8493298202220543 8.3539309053127546 0
          3.8462418962521054 8.3611745178009578 0
          3.8433311402206858 8.3684911295728917 0
          3.8406037583161217 8.3758780627540705 0
          3.8380655947596511 8.3833321338401561 0
          3.8357221153398471 8.3908496852342545 0
          3.8335783914616814 8.3984266182812206 0
          3.83163908304026 8.4060584271583583 0
          3.8299084200482421 8.4137402337096301 0
          3.8283901855681433 8.421466823997255 0
          3.8270877012810796 8.4292326864904545 0
          3.8260038111957524 8.4370320509491084 0
          3.8251408732675802 8.4448589294637095 0
          3.8245007492584131 8.4527071576269819 0
          3.8240847932559134 8.4605704363079433 0
          3.8238938475053796 8.4684423746318949 0
          3.8239282619541779 8.4763165330144457 0
          3.824187875137965 8.4841864644223612 0
          3.8246720198067776 8.492045756785366 0
          3.8253795298744873 8.4998880746134358 0
          3.8263087527387629 8.5077071992988333 0
          3.8274575631564276 8.5154970679215811 0
          3.8288233806213241 8.5232518101140027 0
          3.8304031835536558 8.5309657839021362 0
          3.8321935349968617 8.5386336077723914 0
          3.8341906116274527 8.5462501892399132 0
          3.8363902252864155 8.5538107525706693 0
          3.8387878481799453 8.5613108634413315 0
          3.8413786416613922 8.5687464499685806 0
          3.8435910000812994 8.5763032744024095 0
          3.8454165582371349 8.583962747711217 0
          3.8468466528196412 8.5917058222836751 0
          3.8478743388128995 8.5995125207295615 0
          3.8484924624556922 8.6073623005250024 0
          3.8486957955881254 8.6152337913322707 0
          3.8484790231169415 8.623104971549397 0
          3.8478389758553186 8.6309531400100852 0
          3.8467736665988528 8.6387550415866041 0
          3.8452812330229822 8.6464867008491257 0
          3.843362283310062 8.6541237912582378 0
          3.8410200713341607 8.6616419986374726 0
          3.8394107361367049 8.6693505223180924 0
          3.8385430311149866 8.6771774331360358 0
          3.8384180865102757 8.6850514569305872 0
          3.8390302087505503 8.6929028184243649 0
          3.8403670697564536 8.7006639005688822 0
          3.8424101977411986 8.7082698573144182 0
          3.8451354916115013 8.7156591355961943 0
          3.8480140443388273 8.7229899134727358 0
          3.8510021565829264 8.7302765490425855 0
          3.854053522103206 8.73753673817885 0
          3.8571213277428034 8.7447897998268083 0
          3.8602000576432611 8.7520380557830997 0
          3.8632842497426187 8.7592838330137432 0
          3.8663685027485317 8.7665294459166461 0
          3.8694254426087835 8.7737864917550503 0
          3.8724497389462478 8.7810570864140853 0
          3.8754352710714 8.7883435844646343 0
          3.8783768280444835 8.7956478604163948 0
          3.8812692634534103 8.8029716544749128 0
          3.8840844095445535 8.8103254363951322 0
          3.8868170931883692 8.8177102036878097 0
          3.889462210783019 8.8251267427178348 0
          3.8920138927621619 8.8325759108461259 0
          3.8944671936081452 8.8400580304042311 0
          3.8967928371495208 8.8475807867872653 0
          3.8989858408758185 8.8551432606037004 0
          3.9010413444168188 8.8627442518194925 0
          3.9029546230022394 8.8703822809729154 0
          3.9047202606862577 8.8780557853292557 0
          3.9063338381813 8.8857627029093091 0
          3.9077651122397983 8.8935055567634294 0
          3.9090098287691797 8.9012805914079376 0
          3.9100639722098354 8.9090837595455348 0
          3.9109229523164255 8.9169108265458785 0
          3.9115832747872448 8.9247571609778085 0
          3.912041731736827 8.9326178831905985 0
          3.9122680773262979 8.9404887209751092 0
          3.9122588911564682 8.9483628173170739 0
          3.9120119510824924 8.9562330536983144 0
          3.9115254404721784 8.9640921241657416 0
          3.91079795841708 8.971932563359255 0
          3.9097996930992438 8.9797431492171409 0
          3.9085303802941436 8.9875142913678516 0
          3.9069902897927737 8.9952363311254562 0
          3.9051802276833825 9.0028995795273765 0
          3.9030726145731007 9.0104863856702373 0
          3.9006699724682581 9.0179849779716914 0
          3.8979754747855404 9.0253837030709967 0
          3.8949929249296971 9.0326710681196687 0
          3.8916992680619384 9.0398232007145296 0
          3.8881000004353137 9.0468265076067009 0
          3.8842020240724979 9.0536680466196398 0
          3.8799864941694917 9.0603186156868336 0
          3.8754632385711933 9.0667638305554146 0
          3.8706428783973652 9.0729899558385529 0
          3.8655121933500864 9.0789629362462172 0
          3.8600858492699985 9.0846686465670068 0
          3.8543787186066343 9.0900934898006724 0
          3.8483846255376402 9.0951994737035573 0
          3.8421229312036882 9.0999735046552637 0
          3.8355937581752717 9.1043746493587925 0
          3.8288208537517794 9.1083906088991569 0
          3.8218117149010178 9.1119783865022477 0
          3.8146429205084922 9.115235460243678 0
          3.8073204006994175 9.1181304276919626 0
          3.7998674926443394 9.1206709571100326 0
          3.7922940543850299 9.1228257580859804 0
          3.7846248870663786 9.1246101413607263 0
          3.7768752905998153 9.1260044063857055 0
          3.7690630973661623 9.1269894778998317 0
          3.7612142436463931 9.1276210789984731 0
          3.7533476613247911 9.1279743400947879 0
          3.7454742284971041 9.1281239925900284 0
        </DataArray>
      </Points>
      <Cells>
        <DataArray type="Int32" Name="connectivity" format="ascii">
          0 1 1 2 2 3 3 4 4 5 5 6 6 7 7 8 8 9 9 10 10 11 11 12 12 13 13 14 14 15 15 16 16 17 17 18 18 19 19 20 20 21 21 22 22 23 23 24 24 25 25 26 26 27 27 28 28 29 29 30 30 31 31 32 32 33 33 34 34 35 35 36 36 37 37 38 38 39 39 40 40 41 41 42 42 43 43 44 44 45 45 46 46 47 47 48 48 49 49 50 50 51 51 52 52 53 53 54 54 55 55 56 56 57 57 58 58 59 59 60 60 61 61 62 62 63 63 64 64 65 65 66 66 67 67 68 68 69 69 70 70 71 71 72 72 73 73 74 74 75 75 76 76 77 77 78 78 79 79 80 80 81 81 82 82 83 83 84 84 85 85 86 86 87 87 88 88 89 89 90 90 91 91 92 92 93 93 94 94 95 95 96 96 97 97 98 98 99 99 100 100 101 101 102 102 103 103 104 104 105 105 106 106 107 107 108 108 109 109 110 110 111 111 112 112 113 113 114 114 115 115 116 116 117 117 118 118 119 119 120 120 121 121 122 122 123 123 124 124 125 125 126 126 127 
        </DataArray>
        <DataArray type="Int32" Name="offsets" format="ascii">
          2 4 6 8 10 12 14 16 18 20 22 24 26 28 30 32 34 36 38 40 42 44 46 48 50 52 54 56 58 60 62 64 66 68 70 72 74 76 78 80 82 84 86 88 90 92 94 96 98 100 102 104 106 108 110 112 114 116 118 120 122 124 126 128 130 132 134 136 138 140 142 144 146 148 150 152 154 156 158 160 162 164 166 168 170 172 174 176 178 180 182 184 186 188 190 192 194 196 198 200 202 204 206 208 210 212 214 216 218 220 222 224 226 228 230 232 234 236 238 240 242 244 246 248 250 252 254 
        </DataArray>
        <DataArray type="Int32" Name="types" format="ascii">
          3 3 3 3 3 3 3 3 3 3 3 3 3 3 3 3 3 3 3 3 3 3 3 3 3 3 3 3 3 3 3 3 3 3 3 3 3 3 3 3 3 3 3 3 3 3 3 3 3 3 3 3 3 3 3 3 3 3 3 3 3 3 3 3 3 3 3 3 3 3 3 3 3 3 3 3 3 3 3 3 3 3 3 3 3 3 3 3 3 3 3 3 3 3 3 3 3 3 3 3 3 3 3 3 3 3 3 3 3 3 3 3 3 3 3 3 3 3 3 3 3 3 3 3 3 3 3         </DataArray>
      </Cells>
    </Piece>
  </UnstructuredGrid>
</VTKFile>
