<?xml version="1.0"?>
<VTKFile type="UnstructuredGrid" version="0.1" byte_order="LittleEndian">
  <UnstructuredGrid>
    <Piece NumberOfPoints="128" NumberOfCells="127">
      <PointData Scalars="W">
        <DataArray type="Float32" Name="W" NumberOfComponents="2">
          0 0 -0.031810868646990634 0.020718274933352456 -0.061209512497530746 0.039827392123931563 -0.068119285178956254 0.044264524392734934 -0.061898096136212062 0.040168222975753912 -0.046429764484603543 0.03009665089404135 -0.023615620194641224 0.015297071280033105 0.0054793423293575958 -0.0035485946001328704 0.04015972376208015 -0.026020908291506287 0.079831917166667946 -0.051789774268608375 0.1240634373226806 -0.080653166604424273 0.17248487513444086 -0.11247396361895351 0.22475672750366313 -0.14715862964199694 0.28050863288779432 -0.18461720046556282 0.33934152594460565 -0.22476323032409473 0.40088861863427389 -0.26755238849792906 0.46485716024314871 -0.3130099434199658 0.53090957173309616 -0.36115092886007899 0.59869639020254817 -0.4119998358542501 0.66791938360165692 -0.46563265746253829 0.73825000839725718 -0.52212024287755587 0.80933662733389644 -0.58153045012972715 0.88084920793720101 -0.64395792386157036 0.95247228311778842 -0.70951894956627615 1.0238279955866585 -0.77829254513066692 1.0946181048907995 -0.85042481283582794 1.1644844520498359 -0.92602386881648358 1.2330000442920286 -1.0051452632901106 1.2997928678823072 -1.0878867446040392 1.3647583196596014 -1.1745792340254022 1.4272315269178675 -1.2650841800087522 1.4868222733184704 -1.3594800386985186 1.5431234088093526 -1.4578242262107095 1.5957266056666353 -1.5601649533798019 1.6441974481772641 -1.6665145915755426 1.6881060280070839 -1.7768758182261284 1.7269482972495174 -1.8911536443464616 1.7603226732694526 -2.0093389695027493 1.787799338408177 -2.1313762765124964 1.8088473519355335 -2.2570618786509558 1.8229662705102991 -2.386181151529104 1.8296814811310953 -2.5185045938887884 0.77897821536278733 -1.1129545574555935 0.98463301842521533 -1.4440808371402265 1.0234502825900607 -1.5477655260267622 1.2113370821488456 -1.8979512027970613 1.2284076541837365 -2.0038955200975348 1.3938520782922623 -2.3799768192608304 1.389608231566219 -2.497854333605058 1.5187006314014266 -2.8919906537426123 1.4850451549419883 -3.0167187398809236 1.5721110256281734 -3.4340199269469895 1.5036259656814361 -3.5642305134464927 1.6609568845939466 -4.3378023558243219 1.8673891998088334 -5.5548444534513512 3.4575315259002175 -13.824864571460264 -1.1386890407329235 5.3321694884962589 0.34670454553110636 -1.509496337719892 0.34475715286444475 -1.5920973487823353 0.34047413389022152 -1.678860433851133 0.33170236754511206 -1.7599621982996845 0.3193802263919151 -1.8398539188073924 0.33907287812232967 -2.1569745586363016 0.31137608402725919 -2.2348709614316906 0.30642625543185142 -2.5538120047098318 0.26072199316530342 -2.6280333272602929 0.21047541018836829 -2.699205913164052 0.15577794248621082 -2.7669177240691689 0.096769062679202072 -2.8309516019863468 0.033610808451104923 -2.8910359753357513 -0.033619330715421746 -2.9518359793308893 -0.10470956056841718 -3.0032530425534287 -0.17930086436975234 -3.0499713955877379 -0.25712257672341154 -3.0917772647078734 -0.33788056288339713 -3.1284737536713298 -0.42125921943883859 -3.1598858574344137 -0.50692362680726266 -3.1858618967008034 -0.54607742052344399 -2.9612584539144606 -0.62299120459614776 -2.9783275565283227 -0.70101981560258653 -2.9901848181977129 -0.78106546473391969 -3.0013429551127646 -0.8604780401379406 -3.0024965581288567 -0.9398926664737739 -2.9982016182744893 -1.0189629373648059 -2.9885744090109796 -1.0972858502326635 -2.9735788877355636 -1.1744734195676729 -2.9532674397619489 -1.1545898648282473 -2.7109526246661582 -1.2178472765354416 -2.6848323223625701 -1.2789788099757442 -2.6540624105132986 -1.3376804323378824 -2.6188464136222414 -1.3935755084052956 -2.579244664059853 -1.448567266251418 -2.5392356650734129 -1.4979900296318041 -2.4911897615978926 -1.4166412104862476 -2.2431897713699893 -1.4495742585500218 -2.1929471489098367 -1.4808349886417005 -2.1428950222171643 -1.5052861660509409 -2.0860340320142967 -1.5249527196898118 -2.0261197893356515 -1.539527931326419 -1.9633002202555545 -1.5487081983948701 -1.8977260275118268 -1.5549152422811585 -1.8326959228881128 -1.5524836464162239 -1.7619178719616098 -1.5437892613454143 -1.6888674940132273 -1.5284978076991689 -1.6136312096932428 -1.5063512679484705 -1.5363655225775086 -1.4769658139665462 -1.4570814552883153 -1.4400670018207604 -1.3758858416072381 -1.3953286727895877 -1.2928086140095836 -1.3424051571962987 -1.2078348618536894 -1.4576768644206759 -1.2732023916744748 -1.3881661525831586 -1.1767649592298699 -1.3118809354972376 -1.0812131190577947 -1.4146100596663034 -1.1333951253478896 -1.317638530177804 -1.0263553128388352 -1.4121382357078323 -1.0695396189951631 -1.2947718785864966 -0.95380600575787655 -0.6424477399316556 -0.46396266616243664 -0.45757422420704957 -0.32675164307803234 -0.46632723992503738 -0.32986993906520334 -0.2577633929510213 -0.18099033624878874 -0.027999674979550322 -0.01960275584451536 -0.0020807586462525712 -0.0014563045737441152 0.3124004300739926 0.21934185934036987 0.46390596776100013 0.32831413696010625 0.71236116197324706 0.51025599146767953 0.90379636792855489 0.65817822764980083 0.30228200768486979 0.22286537189788824 0 0
        </DataArray>
        <DataArray type="Float32" Name="u" NumberOfComponents="1">
          0 0.007874015748031496 0.015748031496062992 0.023622047244094488 0.031496062992125984 0.03937007874015748 0.047244094488188976 0.055118110236220472 0.062992125984251968 0.070866141732283464 0.07874015748031496 0.086614173228346455 0.094488188976377951 0.10236220472440945 0.11023622047244094 0.11811023622047244 0.12598425196850394 0.13385826771653545 0.14173228346456693 0.14960629921259844 0.15748031496062992 0.16535433070866143 0.17322834645669291 0.18110236220472442 0.1889763779527559 0.19685039370078741 0.20472440944881889 0.2125984251968504 0.22047244094488189 0.2283464566929134 0.23622047244094488 0.24409448818897639 0.25196850393700787 0.25984251968503935 0.26771653543307089 0.27559055118110237 0.28346456692913385 0.29133858267716534 0.29921259842519687 0.30708661417322836 0.31496062992125984 0.32283464566929132 0.33070866141732286 0.33858267716535434 0.34645669291338582 0.3543307086614173 0.36220472440944884 0.37007874015748032 0.37795275590551181 0.38582677165354329 0.39370078740157483 0.40157480314960631 0.40944881889763779 0.41732283464566927 0.42519685039370081 0.43307086614173229 0.44094488188976377 0.44881889763779526 0.45669291338582679 0.46456692913385828 0.47244094488188976 0.48031496062992124 0.48818897637795278 0.49606299212598426 0.50393700787401574 0.51181102362204722 0.51968503937007871 0.52755905511811019 0.53543307086614178 0.54330708661417326 0.55118110236220474 0.55905511811023623 0.56692913385826771 0.57480314960629919 0.58267716535433067 0.59055118110236215 0.59842519685039375 0.60629921259842523 0.61417322834645671 0.62204724409448819 0.62992125984251968 0.63779527559055116 0.64566929133858264 0.65354330708661412 0.66141732283464572 0.6692913385826772 0.67716535433070868 0.68503937007874016 0.69291338582677164 0.70078740157480313 0.70866141732283461 0.71653543307086609 0.72440944881889768 0.73228346456692917 0.74015748031496065 0.74803149606299213 0.75590551181102361 0.76377952755905509 0.77165354330708658 0.77952755905511806 0.78740157480314965 0.79527559055118113 0.80314960629921262 0.8110236220472441 0.81889763779527558 0.82677165354330706 0.83464566929133854 0.84251968503937003 0.85039370078740162 0.8582677165354331 0.86614173228346458 0.87401574803149606 0.88188976377952755 0.88976377952755903 0.89763779527559051 0.90551181102362199 0.91338582677165359 0.92125984251968507 0.92913385826771655 0.93700787401574803 0.94488188976377951 0.952755905511811 0.96062992125984248 0.96850393700787396 0.97637795275590555 0.98425196850393704 0.99212598425196852 1
        </DataArray>
      </PointData>
      <CellData Scalars="P">
        <DataArray type="Float32" Name="P" NumberOfComponents="1">
          -0.034249366802876192 -0.10270653207503971 -0.17112833971002411 -0.23957851251519874 -0.30812061325446677 -0.37679625554170754 -0.44561251199169577 -0.51453314144677531 -0.58347224359333449 -0.65229046527571233 -0.72079217972954035 -0.78872411020324307 -0.85577518965481669 -0.92157834811377393 -0.98571372400088297 -1.0477117250768033 -1.1070551597413818 -1.1631844557780666 -1.2155029437846496 -1.2633802679909691 -1.3061586135424497 -1.3431593852402182 -1.3736882281651959 -1.3970400902081181 -1.4125086397896112 -1.4193879334395789 -1.416981879906309 -1.404615714462627 -1.3816394134030179 -1.3474119376451443 -1.3013516758093846 -1.2429232497929783 -1.1716459732259727 -1.0871010667760717 -0.98894159122027947 -0.87689957837334087 -0.7508026024487916 -0.61057025910814899 -0.45622485705261862 -0.28791330340588206 -0.10591350998672462 0.089359083968181638 0.15407690514976627 0.25574361221123426 0.36730615490242507 0.51506765364368523 0.67021303931808307 0.86042980450912299 1.0562215545559632 1.2844961194683577 1.5160924253293508 1.7781252957253038 2.0416585733656447 2.3637928078112496 2.7782533336508242 3.7997055268572937 3.2903970090781498 3.3471147246079651 3.409083302302526 3.4759749090774181 3.5466157497770179 3.6201684056343817 3.713815646895346 3.8080157626846431 3.9190471023123497 4.0280707853166291 4.1342026007757138 4.2365745580787344 4.3343545011798508 4.4267483266492285 4.5132667894316585 4.5929317373770262 4.6651007859524158 4.7291921650461308 4.7846889677550495 4.831143040882603 4.8681783209353524 4.8881348459780893 4.8991013938514989 4.9007893014579897 4.8930685165482979 4.8756719671010691 4.8485144607607573 4.8115824998525252 4.7649317341060415 4.7086879288788737 4.6428760234951536 4.5687077141203636 4.4863527238133134 4.3960372147842897 4.2980434111320482 4.1926515457534146 4.0802960515540105 3.9654957084373526 3.8452375498186782 3.7198098336517051 3.5897188060537832 3.4554284711760577 3.3174396396758907 3.1762873731941323 3.0324106717836461 2.8865268813509299 2.7392554458134906 2.5912375372074448 2.4431276444445658 2.2955946689217299 2.149310603230933 2.0049466749726101 1.8631672032162887 1.715755596611549 1.572401628185375 1.4336744572109743 1.2912515231700803 1.1551016196364923 1.0168527483737511 0.88641592630120158 0.78509638550906591 0.69232161040165119 0.60054755211699906 0.51693998669309937 0.4409699001923732 0.36606609222933101 0.29842444517318617 0.23281217258866146 0.1693755876569415 0.10543681584945783 0.035252573296289308
        </DataArray>
      </CellData>
      <Points>
        <DataArray type="Float32" NumberOfComponents="3" format="ascii">
          5.3346455395488066 9.9525686422669484 0
          5.3389444445843983 9.9591670301021917 0
          5.3432413479246721 9.9657666586107752 0
          5.34753441252212 9.972368691566194 0
          5.3518232015574787 9.9789733911033363 0
          5.3561080959649354 9.9855804953456548 0
          5.3603900525959718 9.9921893757124298 0
          5.364670485724564 9.9987991134979932 0
          5.3689512006041937 10.005408541643808 0
          5.3732343500521837 10.012016270365649 0
          5.3775223974180646 10.018620707317877 0
          5.3818180895955177 10.025220069865174 0
          5.3861244339866463 10.031812393362747 0
          5.3904446773544397 10.038395536757255 0
          5.3947822827907785 10.044967187983271 0
          5.3991409049298209 10.051524869154388 0
          5.4035243671843984 10.058065939153099 0
          5.4079366435915484 10.064587591913559 0
          5.4123818378948911 10.071086855345524 0
          5.4168641619042166 10.077560589677304 0
          5.4213879170432548 10.084005482609941 0
          5.4259574740280581 10.090418044793676 0
          5.4305772511216803 10.0967946054925 0
          5.4352516937347479 10.103131306589633 0
          5.4399852549340082 10.109424095252058 0
          5.4447823720858342 10.11566871890591 0
          5.4496474484385038 10.121860716051541 0
          5.454584830990135 10.127995409432131 0
          5.4595987840876647 10.134067902459606 0
          5.4646934664333191 10.140073073020714 0
          5.4698729246735143 10.146005552817419 0
          5.4751410522385688 10.151859735816666 0
          5.4805015652104876 10.15762977323674 0
          5.4859579771354134 10.163309569831249 0
          5.4915135737572767 10.16889278073571 0
          5.4971713861265457 10.174372810527817 0
          5.5029341639812133 10.179742812878489 0
          5.5088043445194339 10.184995696250962 0
          5.5147840275204167 10.190124124258185 0
          5.5208749487044626 10.195120518885028 0
          5.5270784468065841 10.199977072889844 0
          5.5333954325295815 10.204685762869383 0
          5.5398263590866543 10.209238363229561 0
          5.5463054947110315 10.213721763910312 0
          5.5528455906083352 10.218115406185852 0
          5.5594490579650095 10.222412864659455 0
          5.566127543312188 10.226592402800589 0
          5.5728821078132427 10.230647458405667 0
          5.5797230030882901 10.234554693005546 0
          5.5866499667913017 10.23830680680569 0
          5.5936709935033972 10.241879346939792 0
          5.6007839957100352 10.245264591721595 0
          5.6079943593468409 10.248436656961013 0
          5.6152978362867447 10.251387483995256 0
          5.6227041530678656 10.254069083439875 0
          5.6302260608278107 10.256405958139599 0
          5.6379628470597423 10.257885187078097 0
          5.6456293604552448 10.259695353615621 0
          5.653317369233636 10.261411848704764 0
          5.6610267545540278 10.263029547927383 0
          5.6687572522425205 10.264543068465629 0
          5.6765083197519992 10.265947378774889 0
          5.6842791940848096 10.267237522304034 0
          5.6920710841950184 10.268393820141325 0
          5.6998822726842135 10.269411440197034 0
          5.7077124388480103 10.270270592070316 0
          5.7155587475662557 10.270966672660567 0
          5.7234180816865212 10.271495268037921 0
          5.7312870477006461 10.271852179026807 0
          5.7391619843924691 10.272033434698818 0
          5.7470389728915787 10.272035309244771 0
          5.7549138411991807 10.271854032553023 0
          5.7627821779072015 10.271486416821048 0
          5.7706393541953442 10.270929565928119 0
          5.7784805406368873 10.27018088872679 0
          5.7863007254645895 10.269238111287303 0
          5.794094734172595 10.268099287783219 0
          5.8018572503209693 10.266762809928526 0
          5.8095858564817702 10.265242613448191 0
          5.8172757785233964 10.263537642089521 0
          5.8249221730406902 10.261647163294501 0
          5.8325200711711664 10.259570488319083 0
          5.8400645435576326 10.257307549444059 0
          5.8475506607367684 10.254858617376382 0
          5.8549735146728095 10.252224294041657 0
          5.8623282438147433 10.249405514816461 0
          5.8696100572203749 10.24640354526762 0
          5.8768201970179081 10.243233418564094 0
          5.8839547361662943 10.239896760421885 0
          5.8910098797531116 10.236395485368995 0
          5.8979819839040548 10.232731784085781 0
          5.9048675792027927 10.228908119614887 0
          5.9116632525035184 10.224926980622353 0
          5.9183659367718002 10.220791354405289 0
          5.9249806858126863 10.216516625408694 0
          5.9315054554579794 10.212105916673636 0
          5.9379383056242583 10.207562339568851 0
          5.9442777193041261 10.202889427635279 0
          5.9505224768214022 10.198090903638176 0
          5.9566716748693 10.193170670286202 0
          5.9627247453468328 10.188132800772641 0
          5.9686813050525505 10.182981334176686 0
          5.9745415072851742 10.177720665370542 0
          5.9803058943402281 10.172355329440212 0
          5.9859754182159657 10.166889996202661 0
          5.9915514565796055 10.161329460380879 0
          5.9970358365329304 10.155678640800353 0
          6.0024308515857783 10.149942573652771 0
          6.0077392818348825 10.144126410534344 0
          6.0129644153516155 10.138235419273782 0
          6.0180991090201825 10.13226554753119 0
          6.0231476814387737 10.126222770364059 0
          6.0281148714837061 10.120113006238366 0
          6.03299431776869 10.113933013896334 0
          6.0377920434695449 10.107689419539968 0
          6.0425022002063074 10.101379534090849 0
          6.0471320770513488 10.095010517658014 0
          6.0517221292438546 10.088612725390464 0
          6.0562838293967234 10.082194649379215 0
          6.0608166470458853 10.075756078116806 0
          6.0653335256237337 10.069306224050706 0
          6.0698487239394456 10.062855074816015 0
          6.0743638658153518 10.056403731583201 0
          6.0788984658279643 10.049965865344969 0
          6.0834619381799468 10.043548208906641 0
          6.0880697107432802 10.037162021493698 0
          6.0927336815526374 10.030816449637273 0
          6.097416599944828 10.024484429534814 0
        </DataArray>
      </Points>
      <Cells>
        <DataArray type="Int32" Name="connectivity" format="ascii">
          0 1 1 2 2 3 3 4 4 5 5 6 6 7 7 8 8 9 9 10 10 11 11 12 12 13 13 14 14 15 15 16 16 17 17 18 18 19 19 20 20 21 21 22 22 23 23 24 24 25 25 26 26 27 27 28 28 29 29 30 30 31 31 32 32 33 33 34 34 35 35 36 36 37 37 38 38 39 39 40 40 41 41 42 42 43 43 44 44 45 45 46 46 47 47 48 48 49 49 50 50 51 51 52 52 53 53 54 54 55 55 56 56 57 57 58 58 59 59 60 60 61 61 62 62 63 63 64 64 65 65 66 66 67 67 68 68 69 69 70 70 71 71 72 72 73 73 74 74 75 75 76 76 77 77 78 78 79 79 80 80 81 81 82 82 83 83 84 84 85 85 86 86 87 87 88 88 89 89 90 90 91 91 92 92 93 93 94 94 95 95 96 96 97 97 98 98 99 99 100 100 101 101 102 102 103 103 104 104 105 105 106 106 107 107 108 108 109 109 110 110 111 111 112 112 113 113 114 114 115 115 116 116 117 117 118 118 119 119 120 120 121 121 122 122 123 123 124 124 125 125 126 126 127 
        </DataArray>
        <DataArray type="Int32" Name="offsets" format="ascii">
          2 4 6 8 10 12 14 16 18 20 22 24 26 28 30 32 34 36 38 40 42 44 46 48 50 52 54 56 58 60 62 64 66 68 70 72 74 76 78 80 82 84 86 88 90 92 94 96 98 100 102 104 106 108 110 112 114 116 118 120 122 124 126 128 130 132 134 136 138 140 142 144 146 148 150 152 154 156 158 160 162 164 166 168 170 172 174 176 178 180 182 184 186 188 190 192 194 196 198 200 202 204 206 208 210 212 214 216 218 220 222 224 226 228 230 232 234 236 238 240 242 244 246 248 250 252 254 
        </DataArray>
        <DataArray type="Int32" Name="types" format="ascii">
          3 3 3 3 3 3 3 3 3 3 3 3 3 3 3 3 3 3 3 3 3 3 3 3 3 3 3 3 3 3 3 3 3 3 3 3 3 3 3 3 3 3 3 3 3 3 3 3 3 3 3 3 3 3 3 3 3 3 3 3 3 3 3 3 3 3 3 3 3 3 3 3 3 3 3 3 3 3 3 3 3 3 3 3 3 3 3 3 3 3 3 3 3 3 3 3 3 3 3 3 3 3 3 3 3 3 3 3 3 3 3 3 3 3 3 3 3 3 3 3 3 3 3 3 3 3 3         </DataArray>
      </Cells>
    </Piece>
  </UnstructuredGrid>
</VTKFile>
