<?xml version="1.0"?>
<VTKFile type="UnstructuredGrid" version="0.1" byte_order="LittleEndian">
  <UnstructuredGrid>
    <Piece NumberOfPoints="128" NumberOfCells="127">
      <PointData Scalars="W">
        <DataArray type="Float32" Name="W" NumberOfComponents="2">
          0 0 -0.16102978573454371 -0.10276173348108117 -0.19975617095130421 -0.1270021667257783 -0.21494836981521917 -0.13607817896968458 -0.21491154327239648 -0.13545293689196999 -0.20327045465725957 -0.12756407757098148 -0.18230277180088034 -0.11395094716994729 -0.15364697924205495 -0.095706389595316452 -0.1185383803657544 -0.073629813545469117 -0.0778621778653278 -0.048265745019355759 -0.032381587455553897 -0.020050040322682566 0.017265486776849595 0.010688776932081374 0.070541368915852082 0.043710685614064895 0.12702710804898243 0.078872875073098245 0.18640817150740688 0.11611908860858827 0.2483819668906089 0.15542105247610571 0.31260477839472495 0.19674368552663074 0.37880219502921014 0.24011257861608656 0.44672754958922195 0.28558750041157799 0.51609059009593539 0.33321586756586741 0.5866351869009927 0.38308077755473607 0.65812743722698275 0.43529332244795588 0.73030578106179356 0.48995920043925956 0.80288199358067569 0.54717701595265 0.87562274753813718 0.60709249651652319 0.9481974504772781 0.66979326867309086 1.0203194303845982 0.73540293844284432 1.0917536374751824 0.80408944130546445 1.1621865669635587 0.875970751685475 1.2309973394216485 0.95092743539640534 1.2981317757521313 1.0292651774467394 1.3632221323174833 1.1110568500400906 1.4258924895955725 1.1963622832209082 1.4857424482898396 1.2852111067877048 1.5423700832856644 1.3776176549218402 1.5953503613655504 1.4735579802316325 1.6443157662790819 1.5730410674562982 1.688770724363146 1.6759303311483795 1.7282337961522092 1.7820606945304522 1.7623225577622472 1.8913271802265199 1.7906185931001566 2.0035499016519331 1.8126785879273395 2.1184712979587106 0.73583953774842425 0.88750289233774815 0.96098378401538609 1.1842589063174433 1.1834496841301863 1.4994362752872459 1.2103719878815746 1.5829952114029606 1.4147393540478248 1.9179090324593306 1.6022898069428166 2.2672059191795442 1.7755418144517656 2.6417992564291963 1.9239470227078155 3.0345019436407301 2.0487173298762911 3.4561827220041752 2.3120691816598615 4.2294370418236511 5.6400798470245315 12.372457182875012 4.3089755595169406 12.994417287247524 2.8983255778230221 13.468912269376821 -1.0654626349953327 -5.8227354367176813 0.28747299083358308 1.4287213406901351 0.26127126046791244 1.3786523514600704 0.25790117016405006 1.4505170426435332 0.25216049286282516 1.5230288193055279 0.24388472079267579 1.596004935696766 0.23288500179406002 1.6690145154813048 0.21850273467615047 1.737444909731038 0.20174763704350165 1.8094942645080039 0.20345796419808593 2.1249551286686983 0.17242968058119004 2.1955967744905216 0.13776615152688418 2.2644643493731893 0.099459164701080321 2.3312563135071485 0.0575280878339543 2.3956742399014859 0.012020363316219541 2.4574282964423864 -0.036986473974443178 2.5161495013165762 -0.089390126786596927 2.5717423513744255 -0.14506161382096486 2.6238596426440419 -0.20384416504829314 2.6722550994578285 -0.2655554525292958 2.7166975234673498 -0.32998879438882006 2.7569725686884428 -0.35927841424626039 2.546029024247098 -0.41853871537564685 2.5833137482599184 -0.47902203231065715 2.6118888760785457 -0.54104522839037128 2.636006235236517 -0.6043099399076437 2.6554454702060366 -0.66855656625977389 2.6702569699939649 -0.73345904987135457 2.6802664547470822 -0.79869423142508267 2.6854045336596344 -0.86392988393253445 2.6856309976972743 -0.92882634288932631 2.6809314531850372 -0.90810084396477153 2.4498343354615861 -0.96170539008939615 2.4389729086093643 -1.0140292646550972 2.4236416973255084 -1.0647455554213614 2.4038752076008514 -1.1135285025567361 2.3797337323810996 -1.1600185537732011 2.3512283937835492 -1.0944571164309185 2.1124591560509849 -1.1294627413394589 2.0836799195820759 -1.1596019678561509 2.0474561326786929 -1.1864188744345929 2.0075210656698954 -1.209699725669046 1.9641076492409131 -1.1057906769925496 1.7282573835484025 -1.1147340622434543 1.6822347733948648 -1.1195348879268066 1.6330566336054071 -1.1198676530671468 1.5807032078638312 -1.1155349274043478 1.5253334582947835 -1.1062100617746797 1.4669132977656649 -1.0916080287564285 1.4054614089253545 -1.0714400206634198 1.3409790872219685 -1.0454152483741412 1.2734490274372312 -1.0132352161094229 1.2028242658556376 -0.97459357835629346 1.1290239572923135 -0.9291720037598924 1.051923644991493 -0.87383276667216758 0.96827074175075334 -0.96752072597859273 1.049176211498124 -0.90271616511513642 0.9579313665986986 -0.98880994480446893 1.0268540790844942 -0.90933297067843666 0.92428612817363653 -0.81669621778826862 0.81426542293004045 -0.89002572483655729 0.87077403474125803 -0.38381540311602313 0.37028910820139488 -0.21669856489270006 0.20769313649765142 -0.049629198280106333 0.047428669311955128 0.14099813726248833 -0.13488076355343312 0.15040330112104563 -0.14433625954218715 0.35901464843357156 -0.3464584858830822 0.4324162581064272 -0.42093305065594061 0.56980153735074535 -0.56083353621309218 0.75802780632195688 -0.75717208165417249 0.90920724765010652 -0.92528198187544952 0.413564857996156 -0.42719643601962037 0 0
        </DataArray>
        <DataArray type="Float32" Name="u" NumberOfComponents="1">
          0 0.007874015748031496 0.015748031496062992 0.023622047244094488 0.031496062992125984 0.03937007874015748 0.047244094488188976 0.055118110236220472 0.062992125984251968 0.070866141732283464 0.07874015748031496 0.086614173228346455 0.094488188976377951 0.10236220472440945 0.11023622047244094 0.11811023622047244 0.12598425196850394 0.13385826771653545 0.14173228346456693 0.14960629921259844 0.15748031496062992 0.16535433070866143 0.17322834645669291 0.18110236220472442 0.1889763779527559 0.19685039370078741 0.20472440944881889 0.2125984251968504 0.22047244094488189 0.2283464566929134 0.23622047244094488 0.24409448818897639 0.25196850393700787 0.25984251968503935 0.26771653543307089 0.27559055118110237 0.28346456692913385 0.29133858267716534 0.29921259842519687 0.30708661417322836 0.31496062992125984 0.32283464566929132 0.33070866141732286 0.33858267716535434 0.34645669291338582 0.3543307086614173 0.36220472440944884 0.37007874015748032 0.37795275590551181 0.38582677165354329 0.39370078740157483 0.40157480314960631 0.40944881889763779 0.41732283464566927 0.42519685039370081 0.43307086614173229 0.44094488188976377 0.44881889763779526 0.45669291338582679 0.46456692913385828 0.47244094488188976 0.48031496062992124 0.48818897637795278 0.49606299212598426 0.50393700787401574 0.51181102362204722 0.51968503937007871 0.52755905511811019 0.53543307086614178 0.54330708661417326 0.55118110236220474 0.55905511811023623 0.56692913385826771 0.57480314960629919 0.58267716535433067 0.59055118110236215 0.59842519685039375 0.60629921259842523 0.61417322834645671 0.62204724409448819 0.62992125984251968 0.63779527559055116 0.64566929133858264 0.65354330708661412 0.66141732283464572 0.6692913385826772 0.67716535433070868 0.68503937007874016 0.69291338582677164 0.70078740157480313 0.70866141732283461 0.71653543307086609 0.72440944881889768 0.73228346456692917 0.74015748031496065 0.74803149606299213 0.75590551181102361 0.76377952755905509 0.77165354330708658 0.77952755905511806 0.78740157480314965 0.79527559055118113 0.80314960629921262 0.8110236220472441 0.81889763779527558 0.82677165354330706 0.83464566929133854 0.84251968503937003 0.85039370078740162 0.8582677165354331 0.86614173228346458 0.87401574803149606 0.88188976377952755 0.88976377952755903 0.89763779527559051 0.90551181102362199 0.91338582677165359 0.92125984251968507 0.92913385826771655 0.93700787401574803 0.94488188976377951 0.952755905511811 0.96062992125984248 0.96850393700787396 0.97637795275590555 0.98425196850393704 0.99212598425196852 1
        </DataArray>
      </PointData>
      <CellData Scalars="P">
        <DataArray type="Float32" Name="P" NumberOfComponents="1">
          -0.03331709033165204 -0.099872674409401577 -0.16640638454384013 -0.2330314245079444 -0.29986098404245021 -0.36698337507037465 -0.43444750100124008 -0.50225446175841959 -0.57035304351480587 -0.63863715162940093 -0.70694572548605261 -0.77506389513337748 -0.84272508254624667 -0.90961307943974445 -0.97536402113068854 -1.0395699292629552 -1.1017841450447623 -1.1615246520424194 -1.2182781182174134 -1.2715064004115988 -1.3206509281076382 -1.3651372012826739 -1.4043813526289202 -1.4377972226371147 -1.4647995344717284 -1.4848148847797917 -1.4972858168783503 -1.5016735018953749 -1.4974683649519305 -1.4842189815942222 -1.4614995754020013 -1.4289374633238192 -1.3862206928481471 -1.3331072156110406 -1.2694323629474924 -1.1951184015640808 -1.1101764298590309 -1.0147263898564143 -0.90900442997843034 -0.79336059125868463 -0.66827008576894442 -0.53434409894807877 -0.50394034692467926 -0.44484790025629839 -0.35713875838666564 -0.26553644779404351 -0.14757473775198954 -0.0048447955354315063 0.16183246707225005 0.35090500092114058 0.56180571718790517 0.81836616533659645 1.5903811780533268 2.3544733324965819 3.1236488318609239 2.6650106158932982 2.7001861336084581 2.7334426488727779 2.7729322693556218 2.8182045174814374 2.8687457995614172 2.9239657135609263 2.9829027683411145 3.0451537947485421 3.126921094632225 3.2100625723662031 3.2937551415453212 3.3771662507044686 3.4594621407253241 3.5398163587830807 3.6174130528090909 3.6914703914358 3.7612328540514963 3.8259840458785224 3.8850538509752277 3.9378251409599567 3.9738093468813864 4.0034610503298564 4.026074671210667 4.041183951135344 4.0483841592593564 4.0473434567546134 4.0377989828294734 4.0195623528839723 3.9925219958492306 3.9566446813051601 3.9101720765226164 3.8558176174960663 3.7936455769186277 3.7237881562214863 3.6464450134679041 3.5618826533809407 3.4726129314998708 3.3774171856465061 3.2766452688069316 3.1706636168300952 3.0598854464352678 2.9494280809080622 2.835583087028601 2.7187676906874461 2.5994365186195845 2.4780729012459686 2.3551910014287802 2.2313300178912976 2.107049823226868 1.9829259656611014 1.859544379560329 1.7374954939624252 1.6173678979142827 1.4998864721905583 1.3775724795639968 1.2589015858075507 1.136539042508387 1.0191211739893087 0.90736973578380753 0.79383414341115199 0.70388728654305455 0.62159841688210649 0.54619905803969582 0.47762198845918841 0.40907623740407734 0.34606391924168561 0.28382432154599085 0.22302513056541481 0.16321807564029278 0.10214780737994425 0.034448683954099647
        </DataArray>
      </CellData>
      <Points>
        <DataArray type="Float32" NumberOfComponents="3" format="ascii">
          5.8678109189898953 10.246843185100413 0
          5.8720524383755812 10.24020764723333 0
          5.8762839412554104 10.233565782065384 0
          5.8805030119093615 10.226916108689657 0
          5.8847086998713802 10.220258078219326 0
          5.8889010026626041 10.213591738119652 0
          5.8930806399679838 10.206917582391307 0
          5.8972489117609808 10.20023645687677 0
          5.9014075962633763 10.193549492000574 0
          5.9055588730239101 10.186858053574813 0
          5.90970526778543 10.180163709334586 0
          5.9138496049741835 10.1734682021648 0
          5.9179949680049102 10.166773429951061 0
          5.9221446658377079 10.160081430896046 0
          5.9263022069271454 10.153394374846725 0
          5.9304712796714254 10.146714559975102 0
          5.9346557336239032 10.140044411183355 0
          5.9388595581740597 10.133386478078179 0
          5.9430868655419191 10.126743436699522 0
          5.9473418755066634 10.120118093362104 0
          5.95162889744498 10.113513387725812 0
          5.9559523144950957 10.106932398073855 0
          5.9603165691072517 10.100378348323011 0
          5.9647261468862336 10.093854614696564 0
          5.9691855587858242 10.087364731955395 0
          5.9736993267110723 10.080912402549465 0
          5.978271963092272 10.074501502166198 0
          5.9829079531835054 10.068136087509803 0
          5.9876117405627545 10.061820406830481 0
          5.9923877077666896 10.05555890735747 0
          5.9972401378608406 10.049356228010978 0
          6.002173211150807 10.043217218480512 0
          6.0071909824450582 10.037146943869669 0
          6.0122973578061334 10.031150688536306 0
          6.0174960697781126 10.025233958064353 0
          6.0227906525131765 10.0194024802923 0
          6.0281844154579041 10.013662203972666 0
          6.0336804206007271 10.008019299481308 0
          6.0392814517664144 10.002480150502119 0
          6.044989984777609 9.9970513439499591 0
          6.0508081637513449 9.9917396636302538 0
          6.0567377751533389 9.9865520792586899 0
          6.0627802202972294 9.9814957306684953 0
          6.0688681947274121 9.9764945984076103 0
          6.0750156590037374 9.9715671077724846 0
          6.0812364054821924 9.9667328242380169 0
          6.0875321052897258 9.9619969213244328 0
          6.0939154253484498 9.9573801838649647 0
          6.1003979875941097 9.952904284818505 0
          6.1069905248999659 9.9485924624408337 0
          6.1137022274068658 9.9444690733095591 0
          6.1205408176676075 9.9405602665742094 0
          6.1275225979756271 9.9369140064351829 0
          6.1348546154806955 9.9340352316648346 0
          6.1424543471722446 9.9319626284658362 0
          6.1502343192475886 9.9307257518351335 0
          6.1579485636575573 9.9291274379471357 0
          6.1656805680991136 9.9276178119422518 0
          6.1734287150528866 9.9261937620020166 0
          6.1811927958677524 9.9248597455431522 0
          6.1889724548041523 9.9236202599764098 0
          6.196767178798539 9.9224798313737779 0
          6.2045762857367341 9.9214429877330854 0
          6.212398883845264 9.9205139727075444 0
          6.2202339337962886 9.919697254436608 0
          6.2280815268461822 9.9190124068343852 0
          6.2359397380949027 9.9184638092003894 0
          6.243806417054242 9.9180557305894474 0
          6.2516791871422219 9.9177923111024437 0
          6.2595554468910644 9.9176775433697433 0
          6.2674323728991297 9.9177152545676321 0
          6.2753069246570821 9.9179090835238579 0
          6.2831758508971438 9.9182624747916162 0
          6.2910356976154098 9.9187786571063601 0
          6.2988828178150955 9.919460628105794 0
          6.3067133828374136 9.9203111399863246 0
          6.3145233952053106 9.9213326862064513 0
          6.3223110508068778 9.9225121768120985 0
          6.3300726724456222 9.9238519205241413 0
          6.3378045073390501 9.9253536855526328 0
          6.3455027072495271 9.9270189633538077 0
          6.3531633470256201 9.9288489549677585 0
          6.3607824407276334 9.9308445741525802 0
          6.3683559618894892 9.9330064365876058 0
          6.3758798635973353 9.9353348555872341 0
          6.3833500991307428 9.9378298396297282 0
          6.3907626430651296 9.94049109149252 0
          6.3981187908467829 9.943304274876688 0
          6.4054152171986392 9.9462687110081411 0
          6.4126486765548805 9.9493834437666759 0
          6.4198160233691146 9.9526472418678118 0
          6.4269142323489463 9.9560586026499163 0
          6.433940420786608 9.9596157528190545 0
          6.4408986634296479 9.9633038828139053 0
          6.4477867895560248 9.9671212030352727 0
          6.4546029307826736 9.9710654623679318 0
          6.4613454251787648 9.9751341797165605 0
          6.468012830532432 9.9793246585203672 0
          6.4746115983499424 9.9836222726977883 0
          6.4811411754674451 9.9880241648539396 0
          6.4876012660390501 9.9925272822917499 0
          6.4939918517314208 9.9971283758666036 0
          6.5003132039679814 10.001824009921837 0
          6.506565904188033 10.006610560257716 0
          6.5127508615199474 10.011484215371437 0
          6.5188693306865151 10.016440976617783 0
          6.5249229300315603 10.021476657213741 0
          6.5309136600240638 10.02658687940016 0
          6.5368439222498127 10.031767069496935 0
          6.5427165391485991 10.037012450246747 0
          6.5485349485863402 10.042317839224541 0
          6.5542933481800301 10.047688256948286 0
          6.559995764596839 10.053118053210705 0
          6.5656368692910787 10.058611509484658 0
          6.5712216006268731 10.064162277033903 0
          6.5767557134085868 10.069763546408762 0
          6.5822346745081575 10.075418836073915 0
          6.5876898785422258 10.081097125956502 0
          6.5931316988773272 10.08678834788733 0
          6.5985705070087919 10.092482578622121 0
          6.6040181360828552 10.098168527759221 0
          6.6094751880006575 10.103845627657762 0
          6.6149546149660026 10.109501360182676 0
          6.6204609911080707 10.115131126833777 0
          6.6260028600777563 10.12072627111349 0
          6.6315919210875602 10.126274635017472 0
          6.6372375828891137 10.13176581330014 0
          6.6429091731649832 10.137230759227306 0
        </DataArray>
      </Points>
      <Cells>
        <DataArray type="Int32" Name="connectivity" format="ascii">
          0 1 1 2 2 3 3 4 4 5 5 6 6 7 7 8 8 9 9 10 10 11 11 12 12 13 13 14 14 15 15 16 16 17 17 18 18 19 19 20 20 21 21 22 22 23 23 24 24 25 25 26 26 27 27 28 28 29 29 30 30 31 31 32 32 33 33 34 34 35 35 36 36 37 37 38 38 39 39 40 40 41 41 42 42 43 43 44 44 45 45 46 46 47 47 48 48 49 49 50 50 51 51 52 52 53 53 54 54 55 55 56 56 57 57 58 58 59 59 60 60 61 61 62 62 63 63 64 64 65 65 66 66 67 67 68 68 69 69 70 70 71 71 72 72 73 73 74 74 75 75 76 76 77 77 78 78 79 79 80 80 81 81 82 82 83 83 84 84 85 85 86 86 87 87 88 88 89 89 90 90 91 91 92 92 93 93 94 94 95 95 96 96 97 97 98 98 99 99 100 100 101 101 102 102 103 103 104 104 105 105 106 106 107 107 108 108 109 109 110 110 111 111 112 112 113 113 114 114 115 115 116 116 117 117 118 118 119 119 120 120 121 121 122 122 123 123 124 124 125 125 126 126 127 
        </DataArray>
        <DataArray type="Int32" Name="offsets" format="ascii">
          2 4 6 8 10 12 14 16 18 20 22 24 26 28 30 32 34 36 38 40 42 44 46 48 50 52 54 56 58 60 62 64 66 68 70 72 74 76 78 80 82 84 86 88 90 92 94 96 98 100 102 104 106 108 110 112 114 116 118 120 122 124 126 128 130 132 134 136 138 140 142 144 146 148 150 152 154 156 158 160 162 164 166 168 170 172 174 176 178 180 182 184 186 188 190 192 194 196 198 200 202 204 206 208 210 212 214 216 218 220 222 224 226 228 230 232 234 236 238 240 242 244 246 248 250 252 254 
        </DataArray>
        <DataArray type="Int32" Name="types" format="ascii">
          3 3 3 3 3 3 3 3 3 3 3 3 3 3 3 3 3 3 3 3 3 3 3 3 3 3 3 3 3 3 3 3 3 3 3 3 3 3 3 3 3 3 3 3 3 3 3 3 3 3 3 3 3 3 3 3 3 3 3 3 3 3 3 3 3 3 3 3 3 3 3 3 3 3 3 3 3 3 3 3 3 3 3 3 3 3 3 3 3 3 3 3 3 3 3 3 3 3 3 3 3 3 3 3 3 3 3 3 3 3 3 3 3 3 3 3 3 3 3 3 3 3 3 3 3 3 3         </DataArray>
      </Cells>
    </Piece>
  </UnstructuredGrid>
</VTKFile>
