<?xml version="1.0"?>
<VTKFile type="UnstructuredGrid" version="0.1" byte_order="LittleEndian">
  <UnstructuredGrid>
    <Piece NumberOfPoints="128" NumberOfCells="127">
      <PointData Scalars="W">
        <DataArray type="Float32" Name="W" NumberOfComponents="2">
          0 0 -0.1989704173640327 0.06366406440624936 -0.36158761686993457 0.11477377326512264 -0.48796964247640073 0.15300786548926354 -0.59458043945395644 0.18352616328305144 -0.68812451017950604 0.20842650985395336 -0.77193418657608137 0.22876387979171076 -0.84797059697812294 0.24517972340370384 -0.91747760108095544 0.25810614478943328 -0.98138475262304969 0.26788679342937677 -1.0403469529350382 0.2747892695678093 -1.0949073309392328 0.27905099176812537 -1.145505265082519 0.28088047713994124 -1.1925215028956486 0.28046848788798073 -1.2363121921869369 0.27799493578689399 -1.2771990431711744 0.27362502995123605 -1.3153990264981699 0.26749484708522342 -1.3511792597133832 0.25974503521265979 -1.3847528154488151 0.25049751771018253 -1.4162897181354905 0.23985954386175015 -1.4459712399409415 0.22793382287625047 -1.4739897748933548 0.21481681074091213 -1.5005102717050278 0.20059218763266196 -1.5257154346200346 0.18533738381918977 -1.5497775072229627 0.16911879029486407 -1.572813325989461 0.15198795302049345 -1.5950020479146658 0.13399447658401092 -1.616559652311135 0.11517926072073392 -1.6376158735754347 0.095564835286262723 -1.6580103624710389 0.075153748719757288 -1.6782609076918211 0.053976025880833223 -1.6985117722380805 0.032022233894108153 -1.7188953901608166 0.0092721230067600389 -1.7395594124214129 -0.014305235682494507 -1.7606510409014096 -0.038752711886174823 -1.7823471453332718 -0.064126924486407749 -1.8048852413765759 -0.090503184638786344 -1.8283659594502668 -0.1179674138625917 -1.8528751100020842 -0.14661577878182283 -1.878627948812057 -0.17656883798266515 -1.9058010414215187 -0.20796467676603633 -1.9345378626482712 -0.24095767035070934 -3.9459362409889751 -0.58548801894772962 -3.4114470581802356 -0.6090047333358255 -3.1446455034988978 -0.64709713188292217 -2.8725858465614791 -0.66410460788283876 -2.5956902400038704 -0.66099442876636783 -2.3142014082537283 -0.63885474558463962 -2.0281196421826388 -0.59887975277033556 -2.0693930687149051 -0.64920438768514466 -2.1302446959596515 -0.70918590071424781 -2.1852011520768073 -0.77135228250446897 -2.2288060872820541 -0.83340465838509559 -2.2759648886072545 -0.90070036128522579 -2.3193981043201366 -0.97071198205064901 -2.3626892785264637 -1.0450365199207974 -1.7420734970453706 -0.80776197771631353 -1.0893152965663577 -0.52148567129700674 -0.41017739860500435 -0.19967673679669209 0.31617748827851655 0.15407793146175955 1.0857633621486209 0.52090122456777244 1.9372439382274997 0.89826044893839263 2.3569561595835249 1.0401880634501921 3.3209460958533294 1.3702362016895364 4.3836080311720744 1.6436839974576398 4.3348021640762004 1.4475582823580022 4.9067387736283079 1.4330539858890088 4.8614810840030565 1.2117410728046196 5.4530684878704578 1.1201563896040354 5.3764879496611471 0.86328807849220479 5.3074547407625801 0.62220165061755495 5.2288976252391093 0.39283435462757521 5.1413731435601786 0.17519479342415556 5.0265935793645991 -0.030187201269569607 4.9261429415637021 -0.22296929750293887 4.8210792376174165 -0.40453186013249393 4.712516119870453 -0.57525717630493178 4.6014667094689869 -0.73560727569521045 4.4685377039632526 -0.88172043442541159 4.3555592224199504 -1.0215394629055492 4.2426493338049447 -1.1527799266623284 4.1304586259437936 -1.2761022283494432 4.0195549674948303 -1.3921926056332823 3.8909060625278067 -1.493889335657675 3.7845227014658542 -1.5963974662909874 3.6806979508807007 -1.6938681153774009 3.5797083146423394 -1.7870301669753748 3.4817558234153805 -1.8766090468540213 3.3869799807039254 -1.9633274167479604 3.2950787671453119 -2.0476579435898339 3.1885263731453102 -2.1182012897679496 3.1043261372703994 -2.1995155326410276 3.0233185115300434 -2.2808419451681865 2.9453618605940304 -2.3628685215220253 2.8702601424856899 -2.4462758112683209 2.7977684435364374 -2.5317430424380465 2.7275646880119782 -2.6199241293964692 2.6434294989059128 -2.6948256533834711 2.5776635335506599 -2.7894794482418779 2.5129435830321323 -2.8888341757854636 2.4487040961981306 -2.9935231008742571 2.3843006598718328 -3.1041682971679032 2.3054086057537244 -3.2018615297617212 2.2396404699518091 -3.3253840213243731 2.1712937401526706 -3.4566591813058491 2.0995546873976161 -3.5966208235890345 2.0227891895259535 -3.7449889895708202 1.9293716490590291 -3.8803774674748066 1.8405596708012484 -4.0468544059720717 1.7428617665231556 -4.2236902284768858 1.6257155741469906 -4.3861756316032334 1.5061108689086224 -4.5825984059446823 1.3714331941797606 -4.788525939109177 1.2137603542615829 -4.9782543643280643 1.0441807946104591 -5.2023921416379064 0.84834196582515642 -5.4065871155985299 0.63320949542000549 -5.6436295325147912 0.38851299427751396 -5.8538031106393982 0.11700171273455309 -6.0640965901973098 0.00063795967959693397 1.0043492445692646 -0.016389415645148342 1.661826749381845 -0.062743948219684043 2.4190028603754414 -0.15168984101612129 3.1626727240879258 -0.30312907299640435 3.9759745995956028 -0.67606915712002913 5.8531510848915831 -1.0275590292516719 6.2436125160042124 -0.76976813399171529 3.7385364155192575 0 0
        </DataArray>
        <DataArray type="Float32" Name="u" NumberOfComponents="1">
          0 0.007874015748031496 0.015748031496062992 0.023622047244094488 0.031496062992125984 0.03937007874015748 0.047244094488188976 0.055118110236220472 0.062992125984251968 0.070866141732283464 0.07874015748031496 0.086614173228346455 0.094488188976377951 0.10236220472440945 0.11023622047244094 0.11811023622047244 0.12598425196850394 0.13385826771653545 0.14173228346456693 0.14960629921259844 0.15748031496062992 0.16535433070866143 0.17322834645669291 0.18110236220472442 0.1889763779527559 0.19685039370078741 0.20472440944881889 0.2125984251968504 0.22047244094488189 0.2283464566929134 0.23622047244094488 0.24409448818897639 0.25196850393700787 0.25984251968503935 0.26771653543307089 0.27559055118110237 0.28346456692913385 0.29133858267716534 0.29921259842519687 0.30708661417322836 0.31496062992125984 0.32283464566929132 0.33070866141732286 0.33858267716535434 0.34645669291338582 0.3543307086614173 0.36220472440944884 0.37007874015748032 0.37795275590551181 0.38582677165354329 0.39370078740157483 0.40157480314960631 0.40944881889763779 0.41732283464566927 0.42519685039370081 0.43307086614173229 0.44094488188976377 0.44881889763779526 0.45669291338582679 0.46456692913385828 0.47244094488188976 0.48031496062992124 0.48818897637795278 0.49606299212598426 0.50393700787401574 0.51181102362204722 0.51968503937007871 0.52755905511811019 0.53543307086614178 0.54330708661417326 0.55118110236220474 0.55905511811023623 0.56692913385826771 0.57480314960629919 0.58267716535433067 0.59055118110236215 0.59842519685039375 0.60629921259842523 0.61417322834645671 0.62204724409448819 0.62992125984251968 0.63779527559055116 0.64566929133858264 0.65354330708661412 0.66141732283464572 0.6692913385826772 0.67716535433070868 0.68503937007874016 0.69291338582677164 0.70078740157480313 0.70866141732283461 0.71653543307086609 0.72440944881889768 0.73228346456692917 0.74015748031496065 0.74803149606299213 0.75590551181102361 0.76377952755905509 0.77165354330708658 0.77952755905511806 0.78740157480314965 0.79527559055118113 0.80314960629921262 0.8110236220472441 0.81889763779527558 0.82677165354330706 0.83464566929133854 0.84251968503937003 0.85039370078740162 0.8582677165354331 0.86614173228346458 0.87401574803149606 0.88188976377952755 0.88976377952755903 0.89763779527559051 0.90551181102362199 0.91338582677165359 0.92125984251968507 0.92913385826771655 0.93700787401574803 0.94488188976377951 0.952755905511811 0.96062992125984248 0.96850393700787396 0.97637795275590555 0.98425196850393704 0.99212598425196852 1
        </DataArray>
      </PointData>
      <CellData Scalars="P">
        <DataArray type="Float32" Name="P" NumberOfComponents="1">
          0.011715819702381343 0.035395344074404492 0.059702408276672496 0.084857827133810626 0.11100818857698515 0.13824987077889608 0.16664008708530509 0.19620437256982379 0.22694213826015541 0.2588320533226241 0.29183611177684121 0.32590391474930497 0.36097633127786982 0.39698901331338848 0.43387581584205109 0.47157175752670227 0.51001488579232135 0.54914947445141982 0.58892788065780766 0.62931227352707608 0.67027677377480677 0.71180944054493012 0.75391367446227775 0.79661002212379062 0.83993756312735157 0.88395467528467186 0.9287411749973713 0.97440019277077261 1.021058514869627 1.068864035483198 1.1179963437870948 1.1686635512884174 1.2211039235597969 1.2755881030290497 1.332421346722322 1.3919466026180163 1.4545487185113857 1.520655225860597 1.59073941369994 1.665327297602829 1.7450017238065023 1.8304069151536928 1.9773356567755831 2.1151813707797835 2.2519818508659388 2.3864063398381936 2.5169226635513549 2.6417987955911135 2.7591016778541992 2.8852359309647979 3.0217729145364407 3.1688240286885225 3.3259957397024684 3.4937351804416554 3.6718965658616454 3.8604685768475946 4.0061553439661566 4.1022105837609129 4.142497301003182 4.1192801814554487 4.0253554764517059 3.8502636580474006 3.6318795379661593 3.3178464305866959 2.8973882349662632 2.4777398883620738 1.9998609280657749 1.5250476221461691 1.0564380035753995 0.5989306174034168 0.15334065559635221 -0.27805896804091784 -0.69324823000866176 -1.088754805676061 -1.4650755028648843 -1.8211174003215955 -2.1560353165061881 -2.4692070384708149 -2.7586606735688188 -3.0257947345671905 -3.2705169000837602 -3.4928669810444823 -3.6929967936253538 -3.8700388842824909 -4.025544612488333 -4.1598901876177594 -4.2734972022005016 -4.3668190097140398 -4.4403291066201325 -4.4945003423224748 -4.5294181546032126 -4.5461022886657645 -4.5450120446452882 -4.5265908458464583 -4.4912633993929703 -4.4394343095303856 -4.3714883594828668 -4.2881065288660603 -4.1894376081307954 -4.0758116905806148 -3.9475560089211492 -3.8050038451539323 -3.64926439875775 -3.4800438253875323 -3.2977529250090178 -3.102848843785321 -2.8959099188621784 -2.6786800008992313 -2.4509421018068895 -2.2136387658223398 -1.9691406339977815 -1.7176774051213677 -1.4609653719448827 -1.2022312212398281 -0.94267143147117238 -0.68632015561972426 -0.43534606591368163 -0.19479330066934594 0.030996045849198333 0.031696814075451933 0.021617925914873694 0.0039619923822379575 -0.015389503628556803 -0.032155858565385852 -0.050840856579552132 -0.047767946454492657 -0.019334467175490332
        </DataArray>
      </CellData>
      <Points>
        <DataArray type="Float32" NumberOfComponents="3" format="ascii">
          4.2275188682748803 6.4243000661554692 0
          4.229924627610246 6.4317975770874378 0
          4.2323180503346576 6.4392990340323655 0
          4.2346890539568953 6.4468076052345964 0
          4.2370298026766173 6.4543256609051127 0
          4.2393336865915803 6.4618550930718994 0
          4.2415949060044964 6.4693974456263668 0
          4.2438082648082789 6.4769539797246614 0
          4.2459690488869271 6.4845257135560344 0
          4.2480729489870983 6.492113449134485 0
          4.250116003076271 6.4997177936076103 0
          4.2520945557288412 6.5073391758510306 0
          4.2540052244415296 6.5149778611917588 0
          4.2558448723807549 6.5226339643395557 0
          4.2576105847645858 6.5303074612171921 0
          4.2592996467693682 6.5379982001175474 0
          4.2609095235710388 6.5457059119486232 0
          4.262437846879906 6.5534302186717346 0
          4.2638823983659488 6.5611706420225033 0
          4.265241096434595 6.5689266110702667 0
          4.2665119856712463 6.5766974688670059 0
          4.2676932255881912 6.5844824788141176 0
          4.2687830786817091 6.5922808306408411 0
          4.2697799001905743 6.6000916455899112 0
          4.270682126753429 6.607913981215102 0
          4.2714882657144289 6.6157468354937086 0
          4.2721968878640064 6.6235891500180095 0
          4.272806616315207 6.6314398130657732 0
          4.273316113096346 6.6392976621304571 0
          4.2737240710906406 6.6471614853118295 0
          4.2740292239624074 6.6550300214669749 0
          4.274230314034007 6.6629019620643604 0
          4.274326083322312 6.6707759505905564 0
          4.2743152653076519 6.6786505812853774 0
          4.2741965757580402 6.6865243972138444 0
          4.2739687035799054 6.6943958875965386 0
          4.2736302998275306 6.7022634842860063 0
          4.2731799629497056 6.710125557082371 0
          4.2726162325230268 6.7179804083890104 0
          4.27193758390254 6.725826267230584 0
          4.2711424148425374 6.7336612817556016 0
          4.270229034514136 6.741483510648778 0
          4.2691956545725382 6.7492909135292534 0
          4.2679175699032736 6.7570618047643425 0
          4.2664279478002376 6.764794725347417 0
          4.264743348068369 6.77248732562078 0
          4.2628806530001162 6.7801385656819768 0
          4.2608570410550177 6.7877486553326829 0
          4.258689971719444 6.7953189865782555 0
          4.2563971854612337 6.8028520596091333 0
          4.2539761206431503 6.8103447824892438 0
          4.251423000262057 6.8177934637009017 0
          4.2487344115045946 6.8251942749045069 0
          4.2459076439840278 6.8325433934369091 0
          4.2429397655412489 6.8398366701740478 0
          4.2398280735876934 6.8470697860986673 0
          4.2365698729386461 6.8542381531784011 0
          4.2332036264917292 6.8613565102467842 0
          4.2297697864943329 6.8684426421917975 0
          4.2263104381445729 6.8755165469600321 0
          4.2228705931191701 6.8826002163860203 0
          4.2194979453527379 6.8897164691447301 0
          4.2162452727929729 6.8968887993278916 0
          4.213138593096927 6.9041261013449038 0
          4.2102376900421747 6.9114489825799712 0
          4.2076084992659997 6.9188745754213432 0
          4.2052480469173261 6.9263908245934651 0
          4.2031918918040603 6.9339969942999486 0
          4.2014373183058105 6.9416794829815229 0
          4.2000214476940902 6.9494310832574637 0
          4.1989394642885705 6.9572358560210272 0
          4.1981870256984415 6.9650788488087203 0
          4.1977592033226818 6.9729458410340133 0
          4.1976505169864007 6.9808233435900497 0
          4.1978537998819139 6.9886986296327223 0
          4.1983627794082032 6.9965597578894059 0
          4.19917090133064 7.0043954849023189 0
          4.2002713986548592 7.0121952407504047 0
          4.2016573542214974 7.0199490999009821 0
          4.2033204969970983 7.0276480193017026 0
          4.2052537974524098 7.0352833475188792 0
          4.2074502335001345 7.0428469650047472 0
          4.2099028305485291 7.0503312429075855 0
          4.2126046964311028 7.0577290003301441 0
          4.2155478403044517 7.0650339475891935 0
          4.2187256547623697 7.0722397447337162 0
          4.2221316928973858 7.0793403633584377 0
          4.2257596852208028 7.0863300413620411 0
          4.2296035519829731 7.0932032379424355 0
          4.2336574116350656 7.0999545887821878 0
          4.2379155619215041 7.1065788767404241 0
          4.242371392561556 7.1130717382737503 0
          4.2470196805289158 7.1194281416761092 0
          4.2518554014095828 7.1256430536956321 0
          4.2568737205142364 7.1317113969174857 0
          4.2620699806305549 7.1376280076112986 0
          4.2674396867576352 7.143387593662295 0
          4.2729784860666031 7.1489846940721531 0
          4.278681161831849 7.1544146703853526 0
          4.2845436368670313 7.1596716592301304 0
          4.2905618990007222 7.1647495052750596 0
          4.2967319659744172 7.1696417220063742 0
          4.3030498454569415 7.1743414531971377 0
          4.309510646581864 7.1788426451267817 0
          4.3161102925464041 7.1831376424732447 0
          4.3228445466986392 7.1872183089207304 0
          4.3297089620757072 7.1910759692940118 0
          4.3366987800657331 7.1947014269389795 0
          4.3438082093968768 7.1980862896314193 0
          4.3510317445697755 7.2012202375328203 0
          4.3583633291328452 7.2040923083481623 0
          4.3657957006310895 7.2066924292849839 0
          4.3733214443532713 7.2090084233250629 0
          4.3809322110239828 7.2110275239975996 0
          4.3886182255048487 7.212737969021509 0
          4.3963689745670651 7.2141258626376308 0
          4.4041723167781397 7.215178545415097 0
          4.4120149146047911 7.2158813212821755 0
          4.4198815974585068 7.2162211599254666 0
          4.4277555322844906 7.2161850234928213 0
          4.4356295143478555 7.2162111569253868 0
          4.4435025365896212 7.2163403253686731 0
          4.4513717898308478 7.216619480260003 0
          4.4592318419259032 7.2170947454777119 0
          4.4670734069291091 7.217816579475401 0
          4.4748735216401005 7.2189014514040482 0
          4.4826097525055433 7.2203735105805089 0
          4.4902980361062035 7.2220773700180372 0
        </DataArray>
      </Points>
      <Cells>
        <DataArray type="Int32" Name="connectivity" format="ascii">
          0 1 1 2 2 3 3 4 4 5 5 6 6 7 7 8 8 9 9 10 10 11 11 12 12 13 13 14 14 15 15 16 16 17 17 18 18 19 19 20 20 21 21 22 22 23 23 24 24 25 25 26 26 27 27 28 28 29 29 30 30 31 31 32 32 33 33 34 34 35 35 36 36 37 37 38 38 39 39 40 40 41 41 42 42 43 43 44 44 45 45 46 46 47 47 48 48 49 49 50 50 51 51 52 52 53 53 54 54 55 55 56 56 57 57 58 58 59 59 60 60 61 61 62 62 63 63 64 64 65 65 66 66 67 67 68 68 69 69 70 70 71 71 72 72 73 73 74 74 75 75 76 76 77 77 78 78 79 79 80 80 81 81 82 82 83 83 84 84 85 85 86 86 87 87 88 88 89 89 90 90 91 91 92 92 93 93 94 94 95 95 96 96 97 97 98 98 99 99 100 100 101 101 102 102 103 103 104 104 105 105 106 106 107 107 108 108 109 109 110 110 111 111 112 112 113 113 114 114 115 115 116 116 117 117 118 118 119 119 120 120 121 121 122 122 123 123 124 124 125 125 126 126 127 
        </DataArray>
        <DataArray type="Int32" Name="offsets" format="ascii">
          2 4 6 8 10 12 14 16 18 20 22 24 26 28 30 32 34 36 38 40 42 44 46 48 50 52 54 56 58 60 62 64 66 68 70 72 74 76 78 80 82 84 86 88 90 92 94 96 98 100 102 104 106 108 110 112 114 116 118 120 122 124 126 128 130 132 134 136 138 140 142 144 146 148 150 152 154 156 158 160 162 164 166 168 170 172 174 176 178 180 182 184 186 188 190 192 194 196 198 200 202 204 206 208 210 212 214 216 218 220 222 224 226 228 230 232 234 236 238 240 242 244 246 248 250 252 254 
        </DataArray>
        <DataArray type="Int32" Name="types" format="ascii">
          3 3 3 3 3 3 3 3 3 3 3 3 3 3 3 3 3 3 3 3 3 3 3 3 3 3 3 3 3 3 3 3 3 3 3 3 3 3 3 3 3 3 3 3 3 3 3 3 3 3 3 3 3 3 3 3 3 3 3 3 3 3 3 3 3 3 3 3 3 3 3 3 3 3 3 3 3 3 3 3 3 3 3 3 3 3 3 3 3 3 3 3 3 3 3 3 3 3 3 3 3 3 3 3 3 3 3 3 3 3 3 3 3 3 3 3 3 3 3 3 3 3 3 3 3 3 3         </DataArray>
      </Cells>
    </Piece>
  </UnstructuredGrid>
</VTKFile>
