<?xml version="1.0"?>
<VTKFile type="UnstructuredGrid" version="0.1" byte_order="LittleEndian">
  <UnstructuredGrid>
    <Piece NumberOfPoints="128" NumberOfCells="127">
      <PointData Scalars="W">
        <DataArray type="Float32" Name="W" NumberOfComponents="2">
          0 0 0.032038860246019062 -0.57796055162512283 0.042831815818778922 -0.86101594344685628 0.045603373042032561 -1.084160356460885 0.041756041046329566 -1.2747308832261337 0.031827128073235539 -1.4440127536262601 0.01607549583914672 -1.5981943054144585 -0.0053789426524962674 -1.741148509347715 -0.032502974650092581 -1.8754387497002316 -0.065319510374103704 -2.0027631916084045 -0.10389084404376082 -2.1243424056555313 -0.14830781024734216 -2.2410288643460343 -0.19868295590034013 -2.3534275600991204 -0.25513670216324552 -2.4618801164196595 -0.31778569960278735 -2.5665208834338853 -0.38674234632738552 -2.6673837094167197 -0.46212322642993758 -2.7644862548456652 -0.54402623310707099 -2.8576990119132186 -0.6325337614372023 -2.9468288645415881 -0.7277182116831078 -3.0316632131216075 -0.82963006113213766 -3.1119258225128963 -0.93828569872872913 -3.1872604445958017 -1.0536835783446787 -3.2573118624339639 -1.1757996149049017 -3.3217080825482546 -1.304547537042906 -3.3799647514376829 -1.4398455664188972 -3.4316861970031813 -1.5815536305243378 -3.4763932483738076 -1.7294589930705115 -3.5135290334908325 -1.8833282790050214 -3.5425884393633096 -2.0430739202107855 -3.5633814915556452 -2.2082192782857208 -3.5750676826245722 -2.3783934583107094 -3.5771336051608928 -2.5531835367268458 -3.5690817181824981 -2.7321281482271158 -3.5504235800972022 -2.9147009008932012 -3.520665433130735 -3.1003443917362823 -3.479357611373441 -3.2883767267939232 -3.425995393249226 -3.4781713511773291 -3.3602240114889477 -3.6690434484288561 -3.281697181987536 -3.8601589297839141 -3.190015035964552 -4.0506586846720074 -3.0848586643975824 -4.2396483732286558 -2.9659761432065777 3.499113251047222 2.4291921804904453 3.3471543722688204 2.4923431053809981 3.1796760848062635 2.531975940136995 3.0137893138140686 2.5594276028087712 2.8658342662509879 2.5897106996989501 2.7051727918320987 2.5959521635441285 2.5634611611693883 2.6077213038901981 2.4251902346683609 2.6115770100033284 2.2909340092815134 2.6083026204366324 2.1607026674322292 2.5981310697634701 2.0349392539280329 2.5818372043862512 1.9137091866878335 2.5598100947799489 1.7974698937779199 2.5330221177069632 1.6982544873251719 2.5202453866103496 1.5682054914546659 2.4490941407039233 1.4561303357872533 2.3907021859692605 1.349915051415558 2.328141375421787 1.2496403124579485 2.2622113914112068 1.1549007581294297 2.1928679232690844 1.065721124573292 2.1208332847081497 0.98209943473551253 2.046862643628752 0.89164690908332711 1.9441709490001877 0.80648237429704195 1.8370129196191958 0.75097863202404114 1.7853850427086588 0.69899117679198175 1.734053544677707 0.65051805450236844 1.6836433536373223 0.59456202629148502 1.6045429830531854 0.55340194382533536 1.5564087362684764 0.51521990789430017 1.5099043068854998 0.47998469020639295 1.4656343774076754 0.43745664614451502 1.3911251474091639 0.40794352947166845 1.3503870120315478 0.38086851894245077 1.3124315763241021 0.3558271640580607 1.2765311653941693 0.33281599230528724 1.2432744694516229 0.30328679122169488 1.1794051300266573 0.28466971782473194 1.1521180761599097 0.26754698843064689 1.1274261175676468 0.25191498702491183 1.1058988352349493 0.23765429161193974 1.0876487383948361 0.22474994877838003 1.0732831144479045 0.20602912613522806 1.0270225275689313 0.19577408331821061 1.019223544425873 0.18643136760401197 1.0151767824441427 0.17789348140819911 1.0150145631528222 0.17012719013925279 1.0193461778508635 0.16284578203880606 1.0272987590595788 0.15601857764859647 1.0395079448110287 0.14450183316097986 1.0196178615456164 0.13879893872193996 1.0406368914710449 0.13321757600816958 1.0668231954395409 0.12747048076514395 1.0973095289050738 0.12145587613420732 1.1327567996480468 0.11498329291267503 1.1733186097440957 0.10784328271176119 1.2191796908629577 0.097041476431529841 1.2330673791822255 0.088601522564027951 1.289979290471019 0.078752374357837412 1.3527501187250801 0.067166096194569952 1.4215758403444037 0.05348920910422935 1.4972160293456984 0.036566888817152192 1.539425521054933 0.018356679401103391 1.6277013043555815 -0.0033055711489370374 1.7235117709352896 -0.029024977754727004 1.8259724466143716 -0.057916668099605932 1.8951968918387019 -0.092588539583992033 2.0134793834814557 -0.13350223440065209 2.139175830370037 -0.17798651180581532 2.2317905894414265 -0.23293915169656029 2.3743970172400917 -0.29738641194261395 2.5258031530450658 -0.3664347545931968 2.6438104450443616 -0.45251192397412238 2.8137710595220891 -0.54433757868145538 2.9496834275277188 -0.65917549240739703 3.1398671988058529 -0.78152278172599732 3.29473179034111 -0.92116921712863553 3.4582269433859389 -1.080380941205856 3.6293001846620148 -1.3398034295168071 4.0299622072712733 1.8285301583622433 -5.6229584945703053 1.5560872542854165 -5.6671354693679383 1.2340990713561208 -5.4459296768556307 0.92978358594580424 -5.0962635525562465 0.67082557689669531 -4.7156628968906018 0.39402827832361642 -3.6279934094078321 -0.16728844776406238 1.6608291606288654 0 0
        </DataArray>
        <DataArray type="Float32" Name="u" NumberOfComponents="1">
          0 0.007874015748031496 0.015748031496062992 0.023622047244094488 0.031496062992125984 0.03937007874015748 0.047244094488188976 0.055118110236220472 0.062992125984251968 0.070866141732283464 0.07874015748031496 0.086614173228346455 0.094488188976377951 0.10236220472440945 0.11023622047244094 0.11811023622047244 0.12598425196850394 0.13385826771653545 0.14173228346456693 0.14960629921259844 0.15748031496062992 0.16535433070866143 0.17322834645669291 0.18110236220472442 0.1889763779527559 0.19685039370078741 0.20472440944881889 0.2125984251968504 0.22047244094488189 0.2283464566929134 0.23622047244094488 0.24409448818897639 0.25196850393700787 0.25984251968503935 0.26771653543307089 0.27559055118110237 0.28346456692913385 0.29133858267716534 0.29921259842519687 0.30708661417322836 0.31496062992125984 0.32283464566929132 0.33070866141732286 0.33858267716535434 0.34645669291338582 0.3543307086614173 0.36220472440944884 0.37007874015748032 0.37795275590551181 0.38582677165354329 0.39370078740157483 0.40157480314960631 0.40944881889763779 0.41732283464566927 0.42519685039370081 0.43307086614173229 0.44094488188976377 0.44881889763779526 0.45669291338582679 0.46456692913385828 0.47244094488188976 0.48031496062992124 0.48818897637795278 0.49606299212598426 0.50393700787401574 0.51181102362204722 0.51968503937007871 0.52755905511811019 0.53543307086614178 0.54330708661417326 0.55118110236220474 0.55905511811023623 0.56692913385826771 0.57480314960629919 0.58267716535433067 0.59055118110236215 0.59842519685039375 0.60629921259842523 0.61417322834645671 0.62204724409448819 0.62992125984251968 0.63779527559055116 0.64566929133858264 0.65354330708661412 0.66141732283464572 0.6692913385826772 0.67716535433070868 0.68503937007874016 0.69291338582677164 0.70078740157480313 0.70866141732283461 0.71653543307086609 0.72440944881889768 0.73228346456692917 0.74015748031496065 0.74803149606299213 0.75590551181102361 0.76377952755905509 0.77165354330708658 0.77952755905511806 0.78740157480314965 0.79527559055118113 0.80314960629921262 0.8110236220472441 0.81889763779527558 0.82677165354330706 0.83464566929133854 0.84251968503937003 0.85039370078740162 0.8582677165354331 0.86614173228346458 0.87401574803149606 0.88188976377952755 0.88976377952755903 0.89763779527559051 0.90551181102362199 0.91338582677165359 0.92125984251968507 0.92913385826771655 0.93700787401574803 0.94488188976377951 0.952755905511811 0.96062992125984248 0.96850393700787396 0.97637795275590555 0.98425196850393704 0.99212598425196852 1
        </DataArray>
      </PointData>
      <CellData Scalars="P">
        <DataArray type="Float32" Name="P" NumberOfComponents="1">
          -0.0077099434940946787 -0.022055874734196939 -0.034276050402345409 -0.043648990110292031 -0.049573287116774382 -0.051512192430650361 -0.048966113696510431 -0.041456619214293215 -0.028517102835333933 -0.0096882071857725179 0.015485964250474512 0.047459491155013474 0.086685630234162508 0.13361512949236284 0.18869354653707909 0.25235968841384843 0.32504578866724243 0.40717322949518975 0.49914977691972878 0.60136790475805391 0.71420120311455737 0.83799942470971756 0.97308634035875829 1.1197568155500093 1.2782688604853718 1.4488450052845727 1.631665182884416 1.8268587732426416 2.034503491449827 2.2546422332831351 2.4872386661724875 2.7321923111566382 2.9893352886668025 3.258428533069722 3.539156628796317 3.8311264040168731 4.1338567849072776 4.4467864208820354 4.7692698189082172 5.1005661655970469 5.4398404944521888 5.7861639684288511 5.4783239437697855 5.1635855113734355 4.8456613215560536 4.5267166354538562 4.2069813616640808 3.8899688314407688 3.5754560790581613 3.2648438347095907 2.9593707304911305 2.6601812858668761 2.3682643267453942 2.0845013234026277 1.8096050672045976 1.5422410260759238 1.2886758375596279 1.0474514781391113 0.81886940710840694 0.60309478754841994 0.40024299435516597 0.21030949991676573 0.033175626653229068 -0.1290980324117412 -0.27670530806755633 -0.41449471209746575 -0.54271120580948873 -0.66165857515041149 -0.76969125015143203 -0.86923107124868249 -0.96064085337783056 -1.0443135039352192 -1.1189536882101068 -1.1866953337226369 -1.2479261273127826 -1.3029835805273295 -1.3522135801423669 -1.3948467393241388 -1.4324361194911579 -1.4652563573314525 -1.4935724270113206 -1.5176224982869584 -1.537623159353583 -1.5533809618783583 -1.5655430088084592 -1.5742242526551065 -1.5795062065316463 -1.581434402223636 -1.5800222678194553 -1.5752489665197109 -1.5675690485592195 -1.5565104203149223 -1.5419414022800195 -1.5237190254246034 -1.5016634648203693 -1.4755692389479678 -1.4452073840922568 -1.4115984636516827 -1.3733049326855331 -1.3300461843125406 -1.2815354965309176 -1.2274624104738125 -1.1692963345326122 -1.1051060143134832 -1.0346115810554619 -0.95761583383773874 -0.87591548709906786 -0.78740526028764624 -0.69204155834482162 -0.59189358022628169 -0.48500304284718976 -0.37157841862017904 -0.25403803854020068 -0.13076770668730534 -0.0044825631724278274 0.12607624579127769 0.2578143867014277 0.38945231490771637 0.51939577529399183 0.65382921926298398 0.47781193089011292 0.32194121269873593 0.19458847679735308 0.097562152933881777 0.029049803985655109 -0.006666575428019789 0.0013095727527852319
        </DataArray>
      </CellData>
      <Points>
        <DataArray type="Float32" NumberOfComponents="3" format="ascii">
          5.7533318095817441 10.575333596907889 0
          5.7611927488891093 10.575787334776665 0
          5.7690556752877882 10.576205238984018 0
          5.7769212583710674 10.576569760030191 0
          5.7847896703515866 10.576867062887914 0
          5.79266067305816 10.577085332095209 0
          5.8005336512616674 10.577214072065908 0
          5.8084076287278155 10.577243723408177 0
          5.8162812756509101 10.577165422796195 0
          5.8241529107100325 10.5769708440366 0
          5.8320204996443668 10.576652092778955 0
          5.8398816513859311 10.576201630837534 0
          5.8477336124223225 10.575612223335686 0
          5.8555732598129602 10.574876901194516 0
          5.8633970937169311 10.573988939951093 0
          5.8712012301545098 10.572941851428311 0
          5.8789813940323121 10.571729381636562 0
          5.8867329119089309 10.570345509679717 0
          5.8944507059195557 10.568784455786348 0
          5.9021292886616532 10.567040693285445 0
          5.9097627587005794 10.565108961790836 0
          5.9173447974347626 10.562984284331776 0
          5.9248686680747822 10.560661989445185 0
          5.9323272157349036 10.558137733204605 0
          5.9397128689225882 10.555407522289963 0
          5.9470176448842453 10.552467744024458 0
          5.9542331546730667 10.549315190913564 0
          5.9613506118319286 10.545947090361588 0
          5.9683608455823842 10.542361139206239 0
          5.975254315294122 10.538555535044363 0
          5.982021115914856 10.534528988018424 0
          5.988651007524405 10.530280772937742 0
          5.9951334383333235 10.525810761118739 0
          6.0014575702883111 10.521119451241262 0
          6.0076123076819883 10.516207999640413 0
          6.013586329795344 10.511078250927627 0
          6.0193681254637035 10.505732765877376 0
          6.0249460353622375 10.5001748527269 0
          6.0303082908608445 10.494408589177526 0
          6.0354430564919079 10.488438843869163 0
          6.0403384816738264 10.482271301176324 0
          6.0449827539861909 10.475912480983425 0
          6.0493641546293997 10.469369754305758 0
          6.0539625114253912 10.46297765070614 0
          6.0587684018015073 10.456740085743345 0
          6.0637714407247376 10.450659516966271 0
          6.0689613418310637 10.444737646578268 0
          6.074328930815728 10.438976352035892 0
          6.0798642453267764 10.433376020324248 0
          6.0855584982239002 10.427937380876617 0
          6.0914031157384594 10.422660672440017 0
          6.0973897730673015 10.417545691647272 0
          6.1035103949995655 10.412591807469243 0
          6.1097571833900961 10.407798009259476 0
          6.1161226212130622 10.403162930883859 0
          6.1225995009293772 10.398684911010315 0
          6.1291816708111773 10.394363156877469 0
          6.1358610666937574 10.390193256821927 0
          6.1426307391154849 10.386171590102013 0
          6.1494841019911046 10.382294277478394 0
          6.1564149376213617 10.378557230798741 0
          6.1634173715576699 10.3749561502582 0
          6.1704858741434769 10.371486569186395 0
          6.1776152603994596 10.368143900871418 0
          6.1847999216391329 10.364921777967769 0
          6.1920345771414791 10.361813556196651 0
          6.1993157858230648 10.358816033995828 0
          6.20664032466936 10.355926028211531 0
          6.2140051886156478 10.353140412842945 0
          6.2214069085066601 10.350454283178081 0
          6.2288429328420492 10.347864654371786 0
          6.2363108948189581 10.345368642660036 0
          6.2438086103967523 10.342963502849086 0
          6.2513334433002861 10.34064461496731 0
          6.2588835644135088 10.338409452840043 0
          6.2664572958404658 10.336255662850245 0
          6.2740530858257104 10.33418101882244 0
          6.2816695085402774 10.332183458520399 0
          6.2893047340782067 10.330259021751196 0
          6.2969576092052266 10.328406016440464 0
          6.3046270733908578 10.326622911438436 0
          6.3123121585842528 10.324908371834084 0
          6.3200119818095146 10.323261265931285 0
          6.3277257442362496 10.321680702902162 0
          6.335452286621309 10.320163814419134 0
          6.3431909745564559 10.318710116838654 0
          6.3509412302498705 10.317319359191883 0
          6.3587025258600107 10.31599153139209 0
          6.3664743814296934 10.314726902016032 0
          6.3742563471152174 10.313525964189179 0
          6.3820480012789575 10.312389475002215 0
          6.3898486319622503 10.311316201339631 0
          6.397657887387231 10.310307446621072 0
          6.4054754233423736 10.309364834719593 0
          6.4133008853796047 10.308490256199454 0
          6.4211339024937661 10.307685909306009 0
          6.4289740753077744 10.306954309502283 0
          6.4368209630796676 10.306298300937078 0
          6.4446738986960241 10.305718745347212 0
          6.45253236090333 10.305219172332299 0
          6.4603957410663586 10.304803474931443 0
          6.4682633228232636 10.304475921795124 0
          6.4761342601427829 10.304241204305679 0
          6.4840075066276688 10.304101941098834 0
          6.4918819351457389 10.304063607492546 0
          6.499756204423222 10.304132146274483 0
          6.5076287215265127 10.304313912885039 0
          6.5154976978008774 10.304613202130778 0
          6.5233609849813865 10.30503735120217 0
          6.5312160475832641 10.305594157397802 0
          6.5390601297557618 10.306289367030999 0
          6.5468898250602567 10.307131826843795 0
          6.5547011379714633 10.308130929720203 0
          6.5624897887222895 10.309293997975981 0
          6.5702504397573298 10.310631576138418 0
          6.5779773981257588 10.312152097964018 0
          6.5856635416857987 10.313867363244039 0
          6.5933012836848226 10.315786982255171 0
          6.6008819640000258 10.317921101197344 0
          6.6083957085316429 10.320280336978303 0
          6.6158264181299673 10.322889543733877 0
          6.6233702425725918 10.32514991399305 0
          6.6310103161290179 10.327058758692177 0
          6.6387266963108891 10.328629836524438 0
          6.6465005387220684 10.329884863600505 0
          6.6543158159207794 10.330847466343897 0
          6.6621553876245025 10.331585103838711 0
          6.6699844497645113 10.332425702071999 0
        </DataArray>
      </Points>
      <Cells>
        <DataArray type="Int32" Name="connectivity" format="ascii">
          0 1 1 2 2 3 3 4 4 5 5 6 6 7 7 8 8 9 9 10 10 11 11 12 12 13 13 14 14 15 15 16 16 17 17 18 18 19 19 20 20 21 21 22 22 23 23 24 24 25 25 26 26 27 27 28 28 29 29 30 30 31 31 32 32 33 33 34 34 35 35 36 36 37 37 38 38 39 39 40 40 41 41 42 42 43 43 44 44 45 45 46 46 47 47 48 48 49 49 50 50 51 51 52 52 53 53 54 54 55 55 56 56 57 57 58 58 59 59 60 60 61 61 62 62 63 63 64 64 65 65 66 66 67 67 68 68 69 69 70 70 71 71 72 72 73 73 74 74 75 75 76 76 77 77 78 78 79 79 80 80 81 81 82 82 83 83 84 84 85 85 86 86 87 87 88 88 89 89 90 90 91 91 92 92 93 93 94 94 95 95 96 96 97 97 98 98 99 99 100 100 101 101 102 102 103 103 104 104 105 105 106 106 107 107 108 108 109 109 110 110 111 111 112 112 113 113 114 114 115 115 116 116 117 117 118 118 119 119 120 120 121 121 122 122 123 123 124 124 125 125 126 126 127 
        </DataArray>
        <DataArray type="Int32" Name="offsets" format="ascii">
          2 4 6 8 10 12 14 16 18 20 22 24 26 28 30 32 34 36 38 40 42 44 46 48 50 52 54 56 58 60 62 64 66 68 70 72 74 76 78 80 82 84 86 88 90 92 94 96 98 100 102 104 106 108 110 112 114 116 118 120 122 124 126 128 130 132 134 136 138 140 142 144 146 148 150 152 154 156 158 160 162 164 166 168 170 172 174 176 178 180 182 184 186 188 190 192 194 196 198 200 202 204 206 208 210 212 214 216 218 220 222 224 226 228 230 232 234 236 238 240 242 244 246 248 250 252 254 
        </DataArray>
        <DataArray type="Int32" Name="types" format="ascii">
          3 3 3 3 3 3 3 3 3 3 3 3 3 3 3 3 3 3 3 3 3 3 3 3 3 3 3 3 3 3 3 3 3 3 3 3 3 3 3 3 3 3 3 3 3 3 3 3 3 3 3 3 3 3 3 3 3 3 3 3 3 3 3 3 3 3 3 3 3 3 3 3 3 3 3 3 3 3 3 3 3 3 3 3 3 3 3 3 3 3 3 3 3 3 3 3 3 3 3 3 3 3 3 3 3 3 3 3 3 3 3 3 3 3 3 3 3 3 3 3 3 3 3 3 3 3 3         </DataArray>
      </Cells>
    </Piece>
  </UnstructuredGrid>
</VTKFile>
