<?xml version="1.0"?>
<VTKFile type="UnstructuredGrid" version="0.1" byte_order="LittleEndian">
  <UnstructuredGrid>
    <Piece NumberOfPoints="128" NumberOfCells="127">
      <PointData Scalars="W">
        <DataArray type="Float32" Name="W" NumberOfComponents="2">
          0 0 0.62374811492980486 -0.052720841648028503 0.92687387969140866 -0.084066833564810275 1.1433089131094285 -0.11314380533650269 1.3104265808682769 -0.14254957841080487 1.4436127099790779 -0.17300166723879742 1.551176298900746 -0.20462169309970468 1.638202236052533 -0.23727008514938153 1.7081009283040014 -0.27068283348674888 1.7632484206971482 -0.30452293831272798 1.805466432885876 -0.33843024094039903 1.8361370269043644 -0.37202554266338683 1.8563500213849429 -0.404923695203669 1.8670092273918566 -0.43674593844102177 1.868847247261648 -0.46711617716257237 1.8624932840852009 -0.49567067592105851 1.8485880207713337 -0.52208724103050108 1.8276331335322547 -0.54604487831541459 1.8001240195467636 -0.56725694540019267 1.766550836777377 -0.58547411997281484 1.7273644419388552 -0.6004745229811711 1.6829632662798546 -0.61205738665602771 1.6337366076948161 -0.62005689154374877 1.5800596980679156 -0.62434120334522114 1.5222814569384679 -0.62480770802274277 1.4607935102467844 -0.62141196750934091 1.395909667973898 -0.6141187780309163 1.3278726441516728 -0.60289945605717121 1.2569999493887516 -0.5877961881031204 1.1838662850200343 -0.56901767093270561 1.1084000166977541 -0.54650689289810406 1.0308555903148364 -0.52039027770228219 0.95147289696985804 -0.49082410253991898 0.87048377987513248 -0.45799639058540259 0.78809500440177227 -0.42211620148999207 0.70449709508938818 -0.38341570628894517 0.61978052344924861 -0.34210112931130215 0.53415729048995952 -0.29847135211371528 0.44785266964400205 -0.25285921168682585 0.36096127039156695 -0.20554611758909186 0.27360796696405826 -0.15684780775969456 0.1859534388837967 -0.10711537418276601 1.2893142422113117 -0.75428370508732479 0.94334600496950172 -0.56489068523395447 0.59454530372987058 -0.36175816086859913 0.50683657130240556 -0.31193218864605604 0.1554947451932599 -0.096357173389916145 0.071487778560150705 -0.044403747940149757 -0.0085895718356809782 0.0053387770122191366 -0.090254426900309812 0.056039586786599406 -0.17074774614331004 0.10573262646887639 -0.25008138116677175 0.15418566419196816 -0.32827112141144887 0.20118406980171785 -0.40533414490015057 0.24653006956496304 -0.21374575713059943 0.12916983058960158 -0.2873765351715028 0.17276358880501583 -0.10029618977276611 0.060052715617079651 -0.16461560442002959 0.0982926638218906 -0.22987224279729751 0.13669454908913925 -0.5562382207247375 0.32806814103556958 -0.89245592603317292 0.51845284415430382 -1.2406187963264668 0.70473593621614372 -1.6028799198390191 0.88352706585187701 -1.9812160094136311 1.0510063815236592 -2.3738194780444424 1.2011439839393634 -2.4514746656226478 1.1759056613541123 -2.873142481751644 1.2973512275898134 -2.9582495352962375 1.2475393388062161 -3.0409035673803566 1.1920149265526048 -3.1163454833879189 1.1293527692023819 -3.1929432755395935 1.0629848513153386 -3.2662103090193289 0.99137596971555542 -3.3357475780512567 0.91469126602598372 -3.4013466115355571 0.83317690020636204 -3.4580923104957559 0.74614158635281402 -3.5150862693893945 0.65600212059127949 -3.9494252984908305 0.61584236605490228 -3.9998045925441867 0.49480091593532716 -4.0441049010136503 0.36994674656975662 -4.0821335945412676 0.24167891530488578 -4.1088795500299433 0.11035633928967639 -4.1339164718092007 -0.023182948217978082 -4.1523085769962949 -0.15888061182116578 -4.1639885853763685 -0.29631159434678522 -4.1689233044731626 -0.43505196611386121 -4.1671769560881335 -0.5746922968585183 -3.7794006206317436 -0.64370864226574698 -3.7691303633020183 -0.75985867595817636 -3.7485395143097548 -0.87464093300216961 -3.7276627369329582 -0.98991218424542826 -3.7016710006710145 -1.1044707747693694 -3.6705424814698375 -1.2179958535583499 -3.2858808092582144 -1.1971771447254347 -3.2530528653024255 -1.2877664696122939 -3.2164865991042104 -1.3769492103907259 -3.1763710126307494 -1.4645715290815353 -3.1326946575790608 -1.550394261649547 -3.0856548721732984 -1.6342745764185607 -2.7189244727212647 -1.5319715642079861 -2.6753634375808732 -1.5951928964240139 -2.6293701235691831 -1.6563986681928722 -2.5810832387797968 -1.7154803192393835 -2.5305686696272063 -1.7722840100308792 -2.4779431223550024 -1.8266875317071474 -2.4188652651536184 -1.8750274564956406 -2.3621171002911665 -1.9237037407507491 -2.5744859039209502 -2.2075011215117919 -2.5015058016354863 -2.2632647555413383 -2.4220408580822705 -2.3108120306083921 -2.3444520275410334 -2.3574918485276726 -2.5166495587713356 -2.6740888788004606 -2.4154607147965215 -2.7192757947693358 -2.3156258731628192 -2.761578683708823 -2.4444526276983294 -3.0977511059801142 -2.321914330378303 -3.1371382445662812 -2.4154347633183364 -3.4924755470643603 -2.4844426823132668 -3.8740777939318503 -2.3069779875581236 -3.8990549799530365 -2.3249876609923668 -4.2838332116889921 -2.4980990497824833 -5.0969589813679548 -2.4170094901674446 -5.5693604708351447 -1.635567603774092 -4.246656397387377 -1.5127763978780282 -4.3963138210451911 -1.3456290565029203 -4.4303679384866745 -1.2646293970673854 -4.810788344917583 -1.1761562759904372 -5.3640850253239796 -0.92713332277993721 -5.3049252509008653 0 0
        </DataArray>
        <DataArray type="Float32" Name="u" NumberOfComponents="1">
          0 0.007874015748031496 0.015748031496062992 0.023622047244094488 0.031496062992125984 0.03937007874015748 0.047244094488188976 0.055118110236220472 0.062992125984251968 0.070866141732283464 0.07874015748031496 0.086614173228346455 0.094488188976377951 0.10236220472440945 0.11023622047244094 0.11811023622047244 0.12598425196850394 0.13385826771653545 0.14173228346456693 0.14960629921259844 0.15748031496062992 0.16535433070866143 0.17322834645669291 0.18110236220472442 0.1889763779527559 0.19685039370078741 0.20472440944881889 0.2125984251968504 0.22047244094488189 0.2283464566929134 0.23622047244094488 0.24409448818897639 0.25196850393700787 0.25984251968503935 0.26771653543307089 0.27559055118110237 0.28346456692913385 0.29133858267716534 0.29921259842519687 0.30708661417322836 0.31496062992125984 0.32283464566929132 0.33070866141732286 0.33858267716535434 0.34645669291338582 0.3543307086614173 0.36220472440944884 0.37007874015748032 0.37795275590551181 0.38582677165354329 0.39370078740157483 0.40157480314960631 0.40944881889763779 0.41732283464566927 0.42519685039370081 0.43307086614173229 0.44094488188976377 0.44881889763779526 0.45669291338582679 0.46456692913385828 0.47244094488188976 0.48031496062992124 0.48818897637795278 0.49606299212598426 0.50393700787401574 0.51181102362204722 0.51968503937007871 0.52755905511811019 0.53543307086614178 0.54330708661417326 0.55118110236220474 0.55905511811023623 0.56692913385826771 0.57480314960629919 0.58267716535433067 0.59055118110236215 0.59842519685039375 0.60629921259842523 0.61417322834645671 0.62204724409448819 0.62992125984251968 0.63779527559055116 0.64566929133858264 0.65354330708661412 0.66141732283464572 0.6692913385826772 0.67716535433070868 0.68503937007874016 0.69291338582677164 0.70078740157480313 0.70866141732283461 0.71653543307086609 0.72440944881889768 0.73228346456692917 0.74015748031496065 0.74803149606299213 0.75590551181102361 0.76377952755905509 0.77165354330708658 0.77952755905511806 0.78740157480314965 0.79527559055118113 0.80314960629921262 0.8110236220472441 0.81889763779527558 0.82677165354330706 0.83464566929133854 0.84251968503937003 0.85039370078740162 0.8582677165354331 0.86614173228346458 0.87401574803149606 0.88188976377952755 0.88976377952755903 0.89763779527559051 0.90551181102362199 0.91338582677165359 0.92125984251968507 0.92913385826771655 0.93700787401574803 0.94488188976377951 0.952755905511811 0.96062992125984248 0.96850393700787396 0.97637795275590555 0.98425196850393704 0.99212598425196852 1
        </DataArray>
      </PointData>
      <CellData Scalars="P">
        <DataArray type="Float32" Name="P" NumberOfComponents="1">
          -0.0025327397548301684 -0.0061957328994435559 -0.0074157100141396901 -0.0059615958603402826 -0.0019672852572430372 0.0042081663388696209 0.012056942264617671 0.02097178880778067 0.030281963600255188 0.039280715407728782 0.047248535984258939 0.053472052482697256 0.057260464568812189 0.057960045454404356 0.054966755045270196 0.047737566950117633 0.035800105821173316 0.018760821692995644 -0.0036882482838048389 -0.031764511105652045 -0.065591098818676585 -0.10519405241456062 -0.15050126798692656 -0.20134279340865027 -0.25745213070724443 -0.31847099453518779 -0.38395190353562786 -0.45336097156218064 -0.52608753692416454 -0.60146632191337901 -0.67875600895485677 -0.75716360255235871 -0.83585516894112122 -0.91396785496799948 -0.99062151120232211 -1.0649313535009715 -1.1360142778685842 -1.2030127003928031 -1.2651115741251444 -1.3215426290573145 -1.3716017488820271 -1.4146672973337695 -1.5426560926057802 -1.6379710831375611 -1.6985824247156673 -1.7511462676116392 -1.7670200681287869 -1.7745842422864513 -1.7742420519740894 -1.7658790075938491 -1.7497458965298549 -1.7261529343208959 -1.695461783869268 -1.6580782051901077 -1.6414337636642382 -1.6185752494910597 -1.6151358750656553 -1.6064423252799367 -1.5927044877711545 -1.5507677350148346 -1.4816807695019758 -1.3866233993689125 -1.2668961939596974 -1.1239254484267012 -0.95952612408730142 -0.79871685017864769 -0.61916969502725872 -0.44511533966143352 -0.27711933195945365 -0.11594466161249285 0.038198849652325326 0.18490412694662808 0.32381310287256548 0.4546262108764858 0.57691547856274306 0.69069068578113191 0.80859128086587173 0.91665632045276835 1.0149085303387484 1.1034340019025031 1.1822691547813757 1.2517408891902662 1.312105577278857 1.3636690632282955 1.4067825506602427 1.4418390447362961 1.465453740388154 1.4826714453974279 1.4938375405044697 1.4993847769620869 1.499710434330833 1.4952156843181308 1.4858278581081241 1.4728994689379002 1.4567289020333372 1.4376013246172239 1.4157874937052939 1.3915423987002311 1.3664583666340273 1.3396735321143636 1.3113166061159698 1.2814949205717503 1.2502953462472106 1.2177848050756943 1.1840491177079691 1.1490878667902293 1.1102020007273401 1.0699145450685019 1.0283254036589029 0.98543962358244452 0.93783304618505969 0.88890438526799975 0.83873708538031222 0.78347504251854272 0.72716222131492159 0.6656925019069222 0.59899673236659512 0.53234556962436053 0.46151772341435843 0.38206269095202405 0.30010004964284354 0.23772513761931952 0.17842559236108338 0.12474756359837706 0.075716294022871555 0.03362281178600076 0.0067046482955090657
        </DataArray>
      </CellData>
      <Points>
        <DataArray type="Float32" NumberOfComponents="3" format="ascii">
          4.0616121484009975 5.9217306418066897 0
          4.0622560864718675 5.9295796527707472 0
          4.0629387094518172 5.9374253831154347 0
          4.0636788167231979 5.9452658813800063 0
          4.0644898307058703 5.9530993378458632 0
          4.0653821147599025 5.9609239229943087 0
          4.0663639274248009 5.9687377428711779 0
          4.0674419377619513 5.9765388315048105 0
          4.0686215407462534 5.9843251595642482 0
          4.06990706881483 5.9920946507549679 0
          4.0713019392728551 5.9998452027510778 0
          4.072808767327655 6.0075747095678613 0
          4.0744294518622937 6.0152810851157401 0
          4.0761652430905171 6.0229622871214525 0
          4.0780167986807534 6.0306163406495497 0
          4.0799842292663113 6.0382413614544337 0
          4.0820671375460629 6.0458355785607241 0
          4.0842646580983093 6.0533973542619561 0
          4.0865754885747938 6.0609252040391759 0
          4.0889979205043785 6.0684178143437393 0
          4.0915298697695173 6.0758740580606609 0
          4.0941689046421956 6.0832930082654881 0
          4.0969122705645846 6.0906739506680898 0
          4.0997569143578279 6.0980163938861844 0
          4.1026995075521686 6.1053200776094814 0
          4.1057364680781889 6.1125849789507392 0
          4.1088639845977983 6.1198113151898257 0
          4.1120780360016997 6.1269995459465116 0
          4.1153744064897149 6.1341503749514743 0
          4.118748705279069 6.1412647474270541 0
          4.1221964022486661 6.1483438371493619 0
          4.1257128235005247 6.1553890499904611 0
          4.1292931671283792 6.1624020160947497 0
          4.1329325180738765 6.1693845802127418 0
          4.1366258624739149 6.1763387900757838 0
          4.1403681004434034 6.1832668834764641 0
          4.1441540578414742 6.1901712739266115 0
          4.1479784918245937 6.1970545379353439 0
          4.1518361039255716 6.2039193965536343 0
          4.1557215539469148 6.2107686948249672 0
          4.1596294657434729 6.21760538443651 0
          4.1635544348728581 6.2244325042534658 0
          4.1674910384577819 6.23125315867249 0
          4.171507557628015 6.2380269583589776 0
          4.175582533327808 6.2447656487640382 0
          4.1796943322331668 6.2514818270931034 0
          4.1838375185154559 6.258178591243051 0
          4.1879903033847414 6.2648693091683345 0
          4.1921474816055913 6.271557209736736 0
          4.196304091598412 6.2782453840965839 0
          4.2004550731952799 6.2849369821058971 0
          4.2045954387513369 6.2916350905472482 0
          4.2087202723876 6.298342718777433 0
          4.2128247289951117 6.3050627854659202 0
          4.2169040331580101 6.3117981063759769 0
          4.2209700699388728 6.3185414131953799 0
          4.2250182758885355 6.3252954119547917 0
          4.2290602552832883 6.3320531212925459 0
          4.2330920215468613 6.3388169146599438 0
          4.2371095298891719 6.3455891753390166 0
          4.2410925432011624 6.3523817670580485 0
          4.2450202137515216 6.359206492150725 0
          4.2488709534826805 6.3660748985844204 0
          4.2526223006125612 6.3729980697933613 0
          4.2562507971738626 6.3799863879084908 0
          4.2597321012047633 6.3870491600352475 0
          4.2630614005279339 6.394184823699911 0
          4.2662125517018339 6.4014009072305553 0
          4.2691802804776344 6.4086943245400638 0
          4.271959464326172 6.4160616351460718 0
          4.2745454275561743 6.423498955845889 0
          4.2769334224993028 6.4310021734372986 0
          4.2791189077397309 6.4385668495827497 0
          4.2810975728871545 6.446188231060459 0
          4.2828653515339044 6.4538612650392526 0
          4.284418726026801 6.4615805562552859 0
          4.2857541631798082 6.4693405168233022 0
          4.2868447339872953 6.4771386560199176 0
          4.2876873153605652 6.4849674700723696 0
          4.2882791609931106 6.4928192186741214 0
          4.288617913328526 6.5006859497435485 0
          4.288701914272167 6.5085595217051821 0
          4.2885296116360259 6.5164316554418784 0
          4.2880998651733098 6.5242939379426046 0
          4.2874119507601174 6.5321378486722486 0
          4.2864655624606405 6.5399547858700746 0
          4.2852608085500643 6.5477360919472831 0
          4.2838217310847142 6.5554774886120324 0
          4.2821489667152921 6.5631717747476914 0
          4.2802437919323166 6.5708118340796418 0
          4.2781075009144232 6.5783905200309771 0
          4.2757417049240836 6.5859007302263368 0
          4.2731483336589084 6.5933354263749511 0
          4.2703512354041822 6.6006959008792094 0
          4.2673524448932065 6.6079765377670334 0
          4.2641542285612655 6.6151718082322351 0
          4.2607590728397566 6.6222762801474495 0
          4.2571696848823644 6.6292846328685187 0
          4.2533889803513052 6.6361916660660718 0
          4.2494396945453587 6.643003725289387 0
          4.24532452707051 6.6497168911586595 0
          4.2410463283714952 6.6563273690404063 0
          4.2366080911750892 6.6628314957568806 0
          4.2320129464514959 6.6692257491082074 0
          4.2272641562278013 6.675506755438315 0
          4.2223653827666379 6.681671516825185 0
          4.2173201441920067 6.6877170141698539 0
          4.2121152762422183 6.6936256463945192 0
          4.2067553045377597 6.6993939544699854 0
          4.2012451570878477 6.7050189887371348 0
          4.1955896460074227 6.7104978531855837 0
          4.1897781001571337 6.7158109127864032 0
          4.1838167957650132 6.7209553646140794 0
          4.1777119253635462 6.7259285847077521 0
          4.1714555077255708 6.7307097261197573 0
          4.1650551429079092 6.735296347127071 0
          4.158505037743824 6.7396664150741863 0
          4.1518009171997781 6.7437962710043866 0
          4.1449537825572111 6.747684370574917 0
          4.1379625146711776 6.7513068614831919 0
          4.130816372309333 6.7546133359418183 0
          4.1235203632296704 6.7575745138359915 0
          4.1161229185994381 6.7602724079399703 0
          4.1086316234477787 6.7626977443361858 0
          4.101056802640743 6.7648484150473331 0
          4.0934034176678171 6.7667008349023741 0
          4.0856768606560854 6.7682206930533448 0
          4.0778929967700037 6.7694115704171036 0
        </DataArray>
      </Points>
      <Cells>
        <DataArray type="Int32" Name="connectivity" format="ascii">
          0 1 1 2 2 3 3 4 4 5 5 6 6 7 7 8 8 9 9 10 10 11 11 12 12 13 13 14 14 15 15 16 16 17 17 18 18 19 19 20 20 21 21 22 22 23 23 24 24 25 25 26 26 27 27 28 28 29 29 30 30 31 31 32 32 33 33 34 34 35 35 36 36 37 37 38 38 39 39 40 40 41 41 42 42 43 43 44 44 45 45 46 46 47 47 48 48 49 49 50 50 51 51 52 52 53 53 54 54 55 55 56 56 57 57 58 58 59 59 60 60 61 61 62 62 63 63 64 64 65 65 66 66 67 67 68 68 69 69 70 70 71 71 72 72 73 73 74 74 75 75 76 76 77 77 78 78 79 79 80 80 81 81 82 82 83 83 84 84 85 85 86 86 87 87 88 88 89 89 90 90 91 91 92 92 93 93 94 94 95 95 96 96 97 97 98 98 99 99 100 100 101 101 102 102 103 103 104 104 105 105 106 106 107 107 108 108 109 109 110 110 111 111 112 112 113 113 114 114 115 115 116 116 117 117 118 118 119 119 120 120 121 121 122 122 123 123 124 124 125 125 126 126 127 
        </DataArray>
        <DataArray type="Int32" Name="offsets" format="ascii">
          2 4 6 8 10 12 14 16 18 20 22 24 26 28 30 32 34 36 38 40 42 44 46 48 50 52 54 56 58 60 62 64 66 68 70 72 74 76 78 80 82 84 86 88 90 92 94 96 98 100 102 104 106 108 110 112 114 116 118 120 122 124 126 128 130 132 134 136 138 140 142 144 146 148 150 152 154 156 158 160 162 164 166 168 170 172 174 176 178 180 182 184 186 188 190 192 194 196 198 200 202 204 206 208 210 212 214 216 218 220 222 224 226 228 230 232 234 236 238 240 242 244 246 248 250 252 254 
        </DataArray>
        <DataArray type="Int32" Name="types" format="ascii">
          3 3 3 3 3 3 3 3 3 3 3 3 3 3 3 3 3 3 3 3 3 3 3 3 3 3 3 3 3 3 3 3 3 3 3 3 3 3 3 3 3 3 3 3 3 3 3 3 3 3 3 3 3 3 3 3 3 3 3 3 3 3 3 3 3 3 3 3 3 3 3 3 3 3 3 3 3 3 3 3 3 3 3 3 3 3 3 3 3 3 3 3 3 3 3 3 3 3 3 3 3 3 3 3 3 3 3 3 3 3 3 3 3 3 3 3 3 3 3 3 3 3 3 3 3 3 3         </DataArray>
      </Cells>
    </Piece>
  </UnstructuredGrid>
</VTKFile>
