<?xml version="1.0"?>
<VTKFile type="UnstructuredGrid" version="0.1" byte_order="LittleEndian">
  <UnstructuredGrid>
    <Piece NumberOfPoints="128" NumberOfCells="127">
      <PointData Scalars="W">
        <DataArray type="Float32" Name="W" NumberOfComponents="2">
          0 0 -0.062355118968510995 -0.47778640757911006 -0.093493789957637408 -0.6913475681559863 -0.11965865294015829 -0.84587545708582845 -0.14356955320267142 -0.96474061748088846 -0.16613100366750019 -1.0577488097303791 -0.18767114076670507 -1.1304408429567974 -0.20826649195641281 -1.1864329887406322 -0.2278598191586278 -1.2282501023779309 -0.24630079936210814 -1.2576503319240442 -0.26340925718716568 -1.2760275038647757 -0.278986198960128 -1.284488087917629 -0.29282387411223587 -1.2839222769531202 -0.30470392415664177 -1.2750184501999691 -0.31439817240435253 -1.2582923152469667 -0.32169512383634952 -1.2342092884464158 -0.3264198120874261 -1.2032522870930156 -0.3284018237094628 -1.1657938314993177 -0.32749068857699082 -1.122160581492843 -0.32357875485512239 -1.0727077312274522 -0.31657748301482291 -1.0177309856608572 -0.30642052372873685 -0.95747990660664517 -0.29308195547945209 -0.89221411305546527 -0.27657889303649719 -0.82220438354707082 -0.25693824273687382 -0.74763188426472416 -0.23425436497154697 -0.66875893378249185 -0.20863970492777584 -0.58578081153225992 -0.18021566130916189 -0.49880662528376452 -0.14916574985049422 -0.40800956676132039 -0.11584040510293657 -0.31390521047705855 -0.080374411050057132 -0.21631555159329921 -0.043059933584337629 -0.11539651853874301 -0.0042245698808767189 -0.011303067572044715 0.035766468806176184 0.095798856593689585 0.07652388796532951 0.20576091602358995 0.11762252183593941 0.31841183911135218 0.15864306333965295 0.43366075607590082 0.19908617418029292 0.55125277517118443 0.23844110126854129 0.67093717938493636 0.27622986831169732 0.79257884313644444 0.31194281617928288 0.91596667366147744 0.34505497946640307 1.0408387024186407 2.9924092449700854 10.732421053595612 2.0573089416400667 11.075359963374146 1.0736174891548156 11.332077289121624 0.050350339352355042 11.48598026626884 0.070793027555182964 -8.1758765090239578 -0.44635470448521164 -8.0591168436243272 -0.9420071066290443 -7.9123651332891924 -1.4149175971659262 -7.7378691202058816 -1.8639796881421218 -7.5378713750674624 -2.2881953377378927 -7.314528367087223 -1.6601557167168803 -4.5155343904855378 -1.7552782407051779 -4.2766650084312374 -1.8697642188060757 -4.1257163695044827 -2.0069038713204073 -4.0393986636014372 -2.054948416851329 -3.7986660164167341 -2.0842934913805302 -3.5642725859878777 -2.0938236718072973 -3.3329659999117713 -2.0828468073886994 -3.1032190949047878 -2.0534924160477361 -2.877824946093408 -2.0082693215284673 -2.659305133488159 -1.9466089653078411 -2.4457560977192778 -1.7847422281692016 -2.1382851136211212 -1.6857459774254764 -1.935276224060678 -1.5732176947846515 -1.7371053050293124 -1.5431691805279106 -1.6431329998515485 -1.5092378075982187 -1.5519812236816239 -1.4716959742181246 -1.4636660578302645 -1.3286037633756786 -1.2811625668914037 -1.2819088867864719 -1.2015119108750831 -1.2326479975478932 -1.1244965761196042 -1.1810658936023872 -1.0500752804077562 -1.1274011637558323 -0.97819644998972277 -0.96259807436922851 -0.81706947249041662 -0.90369141286221533 -0.75226089200559088 -0.84364973326601322 -0.68963381830562842 -0.78258624032083435 -0.62902756919834701 -0.72076724093783706 -0.57040879534307343 -0.6584006722963649 -0.51369677631076149 -0.47604055721166083 -0.36710427159519077 -0.41233523735350647 -0.31508715549013705 -0.3488711554063279 -0.26451530077302415 -0.28585246358364641 -0.21532733464742482 -0.22348158311751795 -0.16746744790406273 -0.16195947943870428 -0.12088681346098226 -0.10153703710409251 -0.075583008230731261 -0.042310851415010349 -0.031449319783105584 0.1405562647293159 0.10457961230707179 0.19646100791337484 0.1466808000401178 0.25036521944564705 0.1877847535545609 0.30205717637581436 0.22784320106225359 0.35127545936465843 0.26675118587859054 0.39790961445632511 0.30449777581574256 0.4441266956645859 0.34281919999105132 0.48483889750417569 0.37783903677279868 0.52228152628915314 0.41126370735402673 0.6820042864204191 0.54375332180153113 0.71094676909788357 0.57505483040202887 0.73585913577993878 0.60420457861083798 0.75651818097547685 0.63088840824680292 0.7727013277767798 0.65475728974663983 0.7841857312467222 0.67542578220201832 0.7884419798848995 0.69043517067357862 0.91390163195341201 0.81486141588592076 0.90791458336200237 0.82539046532823623 0.89624463934157528 0.83070638359367532 1.0033458291257493 0.94927988865215784 0.97477744934685817 0.94236618724531274 0.94199591015605011 0.93010232071803589 0.9023727158753897 0.90944734864501864 0.9768024785192122 1.0054881694219053 0.91956790756264772 0.96721152614071426 0.97675298250910958 1.0500525583255746 0.89967002353060443 0.98860033007869497 0.81076035097720667 0.90911205778488025 0.84412387745678019 0.96549950150135921 0.86039612693636836 1.0047336708527363 0.73258244739607958 0.87246361371994996 0.32134601281356989 0.38777284424221325 0.13647689533685553 0.16564030528589344 0.019441282918370509 0.023642145221063282 -0.15140234902413738 -0.18381073058920769 -0.37203668814514207 -0.44870718329960185 -0.57212369750764869 -0.68193423173925605 -0.79477350041734529 -0.93144427035082034 -0.6864555364405367 -0.79006866062326775 0 0
        </DataArray>
        <DataArray type="Float32" Name="u" NumberOfComponents="1">
          0 0.007874015748031496 0.015748031496062992 0.023622047244094488 0.031496062992125984 0.03937007874015748 0.047244094488188976 0.055118110236220472 0.062992125984251968 0.070866141732283464 0.07874015748031496 0.086614173228346455 0.094488188976377951 0.10236220472440945 0.11023622047244094 0.11811023622047244 0.12598425196850394 0.13385826771653545 0.14173228346456693 0.14960629921259844 0.15748031496062992 0.16535433070866143 0.17322834645669291 0.18110236220472442 0.1889763779527559 0.19685039370078741 0.20472440944881889 0.2125984251968504 0.22047244094488189 0.2283464566929134 0.23622047244094488 0.24409448818897639 0.25196850393700787 0.25984251968503935 0.26771653543307089 0.27559055118110237 0.28346456692913385 0.29133858267716534 0.29921259842519687 0.30708661417322836 0.31496062992125984 0.32283464566929132 0.33070866141732286 0.33858267716535434 0.34645669291338582 0.3543307086614173 0.36220472440944884 0.37007874015748032 0.37795275590551181 0.38582677165354329 0.39370078740157483 0.40157480314960631 0.40944881889763779 0.41732283464566927 0.42519685039370081 0.43307086614173229 0.44094488188976377 0.44881889763779526 0.45669291338582679 0.46456692913385828 0.47244094488188976 0.48031496062992124 0.48818897637795278 0.49606299212598426 0.50393700787401574 0.51181102362204722 0.51968503937007871 0.52755905511811019 0.53543307086614178 0.54330708661417326 0.55118110236220474 0.55905511811023623 0.56692913385826771 0.57480314960629919 0.58267716535433067 0.59055118110236215 0.59842519685039375 0.60629921259842523 0.61417322834645671 0.62204724409448819 0.62992125984251968 0.63779527559055116 0.64566929133858264 0.65354330708661412 0.66141732283464572 0.6692913385826772 0.67716535433070868 0.68503937007874016 0.69291338582677164 0.70078740157480313 0.70866141732283461 0.71653543307086609 0.72440944881889768 0.73228346456692917 0.74015748031496065 0.74803149606299213 0.75590551181102361 0.76377952755905509 0.77165354330708658 0.77952755905511806 0.78740157480314965 0.79527559055118113 0.80314960629921262 0.8110236220472441 0.81889763779527558 0.82677165354330706 0.83464566929133854 0.84251968503937003 0.85039370078740162 0.8582677165354331 0.86614173228346458 0.87401574803149606 0.88188976377952755 0.88976377952755903 0.89763779527559051 0.90551181102362199 0.91338582677165359 0.92125984251968507 0.92913385826771655 0.93700787401574803 0.94488188976377951 0.952755905511811 0.96062992125984248 0.96850393700787396 0.97637795275590555 0.98425196850393704 0.99212598425196852 1
        </DataArray>
      </PointData>
      <CellData Scalars="P">
        <DataArray type="Float32" Name="P" NumberOfComponents="1">
          0.023946710845781229 0.072548779556219314 0.12234539444258488 0.17342964152860521 0.2256857351651419 0.27885511273821822 0.33257958339464022 0.38643395875984277 0.43995220304025195 0.49264911304126924 0.54404003623488573 0.59365805311829356 0.6410692592941114 0.68588656539161608 0.72778259200534223 0.76650135103241046 0.80186782633056353 0.83379680781983745 0.86230029105511152 0.88749222133736039 0.90959275638201398 0.92893123330397387 0.94594629969040223 0.96118378203261245 0.97529625560872901 0.9890349899791796 1.003245270810232 1.018862271344136 1.03689825843301 1.0584088889453807 1.0845196238395722 1.1163925998944253 1.1552098051437483 1.2021538974048755 1.258390003026143 1.3250432954963483 1.4031849569685939 1.493795527835361 1.5977419486647451 1.7157664049412107 1.8484571269550634 1.9962215156967671 3.1771507948333828 4.352372221015905 5.4937993994381591 6.5715114111066475 5.9056517025231363 5.2536500752109285 4.6133039068872934 3.9825193786768791 3.3593405355076507 2.7419818965870451 2.3757496687308164 2.0253904723331608 1.6823361449035628 1.3398134345227357 1.0131850226447805 0.70234011530604257 0.40763816489494242 0.12974240667528786 -0.13086327548566817 -0.37389468069144283 -0.59879729760023903 -0.7930760648785774 -0.9676252974798113 -1.1218303170826818 -1.2676813259726396 -1.4049765645908192 -1.5335474100445019 -1.6405471016003772 -1.7386727312965389 -1.8278487887773398 -1.9080387411242121 -1.9792445670022734 -2.0292324078251296 -2.0705323809556706 -2.1032650708971752 -2.1275809970237001 -2.1436765756295695 -2.1517866492564477 -2.1405919446006623 -2.1222947268060492 -2.0972470745870968 -2.0658374205863326 -2.0284876603605162 -1.9856500054800132 -1.9378075915203581 -1.8854585360480203 -1.8201384861109924 -1.7518363138909903 -1.681122957555701 -1.6085782770079733 -1.5347878174586072 -1.460327611565027 -1.385647850248426 -1.3114296750667385 -1.2382004529404342 -1.1619283088122625 -1.0881953711936723 -1.0174345615942753 -0.95002238940135897 -0.8862701175304466 -0.82641519323464807 -0.7706330962411444 -0.71845627338762019 -0.67095620855050631 -0.62800898267401994 -0.59057266695993116 -0.55762968002446278 -0.52872650544244959 -0.50325963999419221 -0.48368369680650858 -0.46639151344074048 -0.45447037750068814 -0.4430845286677878 -0.43091436728785421 -0.42206918481741956 -0.41544997822734064 -0.40428961310792028 -0.37556501283828103 -0.33878382626731962 -0.29698886228935722 -0.24871089560948223 -0.19376147949392211 -0.13530798521389606 -0.076109561228278819 -0.023705941649130147
        </DataArray>
      </CellData>
      <Points>
        <DataArray type="Float32" NumberOfComponents="3" format="ascii">
          6.4408290669563071 10.288737850357982 0
          6.4486390671091138 10.28773364482154 0
          6.4564451976825055 10.286699814803571 0
          6.4642455255454889 10.285623118939265 0
          6.4720384263513724 10.284493976225741 0
          6.4798224157600055 10.283305016962229 0
          6.4875960933116907 10.282050474750905 0
          6.4953581220688417 10.280725842936254 0
          6.5031072238705621 10.279327650369749 0
          6.5108421828864813 10.277853304843974 0
          6.5185618549443101 10.276300984063484 0
          6.526265178708802 10.274669549203454 0
          6.5339511880270189 10.272958476284503 0
          6.5416190248155521 10.271167800956887 0
          6.5492679526041213 10.269298075797657 0
          6.5568973706863671 10.267350338314266 0
          6.5645068272347515 10.265326082067144 0
          6.5720960301490479 10.263227226708519 0
          6.5796648576210766 10.261056094867813 0
          6.5872133674616551 10.258815391882624 0
          6.5947418037716723 10.256508183763144 0
          6.6022506024273273 10.254137878847949 0
          6.6097403951889628 10.251708212324004 0
          6.6172120113030255 10.249223230126715 0
          6.6246664764356913 10.246687272151959 0
          6.6321050109995916 10.244104961028198 0
          6.6395290242987892 10.241481185861341 0
          6.6469401075530774 10.23882109014043 0
          6.6543400263678887 10.23613006499038 0
          6.661730709353737 10.233413738456006 0
          6.6691142263974044 10.23067794356248 0
          6.6764927803042902 10.227928729382363 0
          6.6838686886836456 10.225172351402939 0
          6.6912443636374217 10.222415261957906 0
          6.6986222891170737 10.219664099981603 0
          6.7060049967869082 10.216925681858479 0
          6.7133950396625321 10.21420699085386 0
          6.7207949661113178 10.211515171532866 0
          6.7282072888887567 10.208857514011788 0
          6.7356344534644474 10.206241438469974 0
          6.7430788083772182 10.20367448683033 0
          6.7505425736219138 10.201164309730204 0
          6.7580278080826011 10.19871865033752 0
          6.7656986872541758 10.196938492278875 0
          6.7734972355570537 10.195845123407681 0
          6.7813624610250258 10.19545448801226 0
          6.7892309139509273 10.195776157464685 0
          6.7971038600446221 10.195590785841215 0
          6.8049492308745156 10.194905594059216 0
          6.8127362888348015 10.193729662570428 0
          6.8204357044271884 10.192073792206555 0
          6.8280196248788956 10.189950365348022 0
          6.8354617360572609 10.187373212435075 0
          6.8428008770368791 10.184515974082982 0
          6.8500311432437764 10.181393468096944 0
          6.8571454329504586 10.178015057663266 0
          6.8641352421021304 10.174386095696013 0
          6.8709975861336705 10.170521516548014 0
          6.8777306406794567 10.166435861957014 0
          6.8843338106165755 10.162143482795328 0
          6.8908077729271122 10.157658633787122 0
          6.8971543447252985 10.152995300125321 0
          6.9033763277374858 10.148167040908012 0
          6.9094775434630353 10.143187107176619 0
          6.9154680247864642 10.138074579095933 0
          6.9213539095103549 10.132842054292643 0
          6.9271421749050086 10.127501830173912 0
          6.9328346867286159 10.122059737602724 0
          6.9384335515083437 10.11652143228198 0
          6.943941099640802 10.11089239375478 0
          6.9493662040602731 10.105183946454529 0
          6.9547117629076007 10.099401031879941 0
          6.9599808333817688 10.093548427819552 0
          6.9651766165554108 10.087630750909419 0
          6.9703024425761884 10.081652459829039 0
          6.9753685307840865 10.075623550890016 0
          6.9803785363891588 10.069548043409634 0
          6.9853361848988467 10.06342982110448 0
          6.9902452651001221 10.057272642056093 0
          6.9951096125529073 10.051080140775976 0
          6.9999330967034741 10.044855833210137 0
          7.0047270253683944 10.038608810903925 0
          7.0094953510457456 10.032342297564432 0
          7.0142420112447388 10.026059426935614 0
          7.0189709158458564 10.019763246605606 0
          7.0236859345703087 10.013456721469968 0
          7.0283908845417029 10.007142736762914 0
          7.033089514754959 10.000824098211769 0
          7.0377855001117853 9.9945035386608367 0
          7.0424901806857436 9.9881894893853307 0
          7.0472070259434334 9.9818845560342009 0
          7.0519393815120521 9.9755912821193213 0
          7.0566904560872885 9.9693121460365148 0
          7.0614633052603244 9.9630495545737805 0
          7.0662608247042211 9.9568058422511765 0
          7.071085884571807 9.9505833789786067 0
          7.0759410140809953 9.9443843297422028 0
          7.0808285401331315 9.9382107604266388 0
          7.0857583725528706 9.9320708776884707 0
          7.0907323127190445 9.9259666149918857 0
          7.095751912679316 9.9198997722941815 0
          7.1008184613289229 9.9138719965937518 0
          7.1059329706217662 9.9078847603138396 0
          7.1110961617573247 9.9019393374252278 0
          7.1163083082846406 9.8960366510604256 0
          7.1215772031384974 9.8901844059198449 0
          7.1269024869221917 9.8843832471132753 0
          7.1322834484518989 9.8786334965911298 0
          7.1377267470628967 9.8729424959183021 0
          7.1432306259285934 9.8673098088676223 0
          7.1487930675119546 9.8617346674810289 0
          7.1544116303801193 9.8562157834852382 0
          7.1600909539589406 9.850759101611871 0
          7.1658275065703245 9.8453622408064856 0
          7.1716248620346246 9.8400303274037224 0
          7.1774782592230357 9.8347595427788388 0
          7.1833822028086329 9.8295449491089606 0
          7.1893387939222402 9.8243900312328325 0
          7.1953490758703982 9.8192972099936817 0
          7.2014051413517972 9.8142582709201616 0
          7.2074814650712655 9.809243142133079 0
          7.2135665867706971 9.8042380271517064 0
          7.2196532632919892 9.7992340939216085 0
          7.2257309069149365 9.7942184448094185 0
          7.2317858343074919 9.7891746110786944 0
          7.2378056425855686 9.784088077711937 0
          7.2437765310027791 9.7789433049581085 0
          7.2497053111829528 9.7737489807746627 0
        </DataArray>
      </Points>
      <Cells>
        <DataArray type="Int32" Name="connectivity" format="ascii">
          0 1 1 2 2 3 3 4 4 5 5 6 6 7 7 8 8 9 9 10 10 11 11 12 12 13 13 14 14 15 15 16 16 17 17 18 18 19 19 20 20 21 21 22 22 23 23 24 24 25 25 26 26 27 27 28 28 29 29 30 30 31 31 32 32 33 33 34 34 35 35 36 36 37 37 38 38 39 39 40 40 41 41 42 42 43 43 44 44 45 45 46 46 47 47 48 48 49 49 50 50 51 51 52 52 53 53 54 54 55 55 56 56 57 57 58 58 59 59 60 60 61 61 62 62 63 63 64 64 65 65 66 66 67 67 68 68 69 69 70 70 71 71 72 72 73 73 74 74 75 75 76 76 77 77 78 78 79 79 80 80 81 81 82 82 83 83 84 84 85 85 86 86 87 87 88 88 89 89 90 90 91 91 92 92 93 93 94 94 95 95 96 96 97 97 98 98 99 99 100 100 101 101 102 102 103 103 104 104 105 105 106 106 107 107 108 108 109 109 110 110 111 111 112 112 113 113 114 114 115 115 116 116 117 117 118 118 119 119 120 120 121 121 122 122 123 123 124 124 125 125 126 126 127 
        </DataArray>
        <DataArray type="Int32" Name="offsets" format="ascii">
          2 4 6 8 10 12 14 16 18 20 22 24 26 28 30 32 34 36 38 40 42 44 46 48 50 52 54 56 58 60 62 64 66 68 70 72 74 76 78 80 82 84 86 88 90 92 94 96 98 100 102 104 106 108 110 112 114 116 118 120 122 124 126 128 130 132 134 136 138 140 142 144 146 148 150 152 154 156 158 160 162 164 166 168 170 172 174 176 178 180 182 184 186 188 190 192 194 196 198 200 202 204 206 208 210 212 214 216 218 220 222 224 226 228 230 232 234 236 238 240 242 244 246 248 250 252 254 
        </DataArray>
        <DataArray type="Int32" Name="types" format="ascii">
          3 3 3 3 3 3 3 3 3 3 3 3 3 3 3 3 3 3 3 3 3 3 3 3 3 3 3 3 3 3 3 3 3 3 3 3 3 3 3 3 3 3 3 3 3 3 3 3 3 3 3 3 3 3 3 3 3 3 3 3 3 3 3 3 3 3 3 3 3 3 3 3 3 3 3 3 3 3 3 3 3 3 3 3 3 3 3 3 3 3 3 3 3 3 3 3 3 3 3 3 3 3 3 3 3 3 3 3 3 3 3 3 3 3 3 3 3 3 3 3 3 3 3 3 3 3 3         </DataArray>
      </Cells>
    </Piece>
  </UnstructuredGrid>
</VTKFile>
