<?xml version="1.0"?>
<VTKFile type="UnstructuredGrid" version="0.1" byte_order="LittleEndian">
  <UnstructuredGrid>
    <Piece NumberOfPoints="128" NumberOfCells="127">
      <PointData Scalars="W">
        <DataArray type="Float32" Name="W" NumberOfComponents="2">
          0 0 0.69544768684059255 0.026421624523936881 1.0485345932214043 0.032623626044648191 1.3159318931737913 0.028679690381380817 1.5369061131396569 0.016225419125837224 1.7275066977435882 -0.0039671049221045246 1.896283718089369 -0.031415443907835933 2.0483637850995224 -0.065778540000720476 2.1870820151662942 -0.10679742899228065 2.31465838029618 -0.15426221668808124 2.4326901269155039 -0.20799904792390334 2.5422955595805616 -0.26785579183299535 2.6442587005094751 -0.33369240555031643 2.7391355435758737 -0.40537575664197406 2.8272857419399879 -0.4827701271510253 2.9089374964351258 -0.56573463629081455 2.9843074225381208 -0.6541404565132074 3.0534507601995098 -0.74783749593415882 3.1163909872717528 -0.84667189044937941 3.1731421690773036 -0.95049199943233065 3.2236669170881855 -1.059136180467017 3.2678666562567891 -1.1724234287323172 3.3056287462945795 -1.2901636908328111 3.3368300748364534 -1.4121584369031928 3.3613083858132238 -1.5381863615177926 3.3789568754999948 -1.6680444896632085 3.3895975972705377 -1.8014915945616341 3.3929939128798123 -1.9382399783407582 3.3889868900812865 -2.0780265939546316 3.3776792943360925 -2.2207567680787594 3.3585735768313492 -2.3659515323620228 3.3315014118384214 -2.5132992432415255 3.2962916493362591 -2.6624702844503809 3.2527908930615537 -2.8131324174196797 3.2008401411654277 -2.964932225184421 3.1402871380423494 -3.1175029107343293 3.070908680719092 -3.2703776195781131 2.9926075196909285 -3.4231830035385218 2.9053056454772066 -3.5755560977927194 2.8088412094267237 -3.7270105230825843 2.7030953912245903 -3.8770673475789708 2.5879897490755064 -4.0252634987298652 -2.3508158017225269 3.669927264693686 -2.4235263795909412 3.5146291873832909 -2.5035069921673658 3.3831854982573897 -2.5553810923045939 3.226536856299707 -2.6177445100719869 3.0952912943984199 -2.6506526820274812 2.9408103803925423 -2.6737283153736882 2.788717368767657 -2.7124470409777319 2.663363389556725 -2.7198003640221557 2.5170959086520526 -2.7190414800305227 2.3747317785621349 -2.7107622699237539 2.2366363629068244 -2.6641997208820674 2.079309358878707 11.732492992209158 -10.092060272802227 10.454246948739618 -11.489389553309016 9.0025441623054459 -12.726857827986159 -1.8818709087458896 2.9488662823844001 -1.9347228287592351 2.8562798313861664 -1.9993900634523665 2.7861526473986546 -2.0436911084709513 2.6924669161231884 -2.0832957586828202 2.5990869438478232 -2.118432556271916 2.506331885249335 -2.1493450566551418 2.4144874452660869 -2.1567982953302991 2.3035070647097142 -2.1788229636098135 2.2149570276182775 -2.1976861078345684 2.1282340792645522 -2.213195506109443 2.0430394185816052 -2.2258484364136031 1.9597417461534947 -2.2359137871370462 1.8784483189734795 -2.2436676063546073 1.7992510203692087 -2.2493734786134141 1.7222121645798012 -2.2532932965229535 1.6473764885666202 -2.2789337186004737 1.5906262868547161 -2.2807138984724458 1.5192519215745852 -2.2814181279183261 1.4501116276131123 -2.2815720004613351 1.3833537063951353 -2.2808383972905149 1.318590308971302 -2.2797243503499374 1.2559575299353269 -2.2784483154014188 1.1953966558592548 -2.277217568172885 1.1368361198010803 -2.3009469743725095 1.0916209026223429 -2.3008697354508199 1.0358388963661154 -2.3014004855172434 0.98179150855042319 -2.3027257455734218 0.9293712076463625 -2.3050259535556368 0.87846183407204936 -2.3081587458901485 0.82882836129025306 -2.3379407356581861 0.78874386675016717 -2.3444970937966172 0.74063241829292903 -2.3526753581898565 0.69347960408615694 -2.3626295384445259 0.64712357004653143 -2.3992459009941469 0.60740215313571522 -2.4131283850507237 0.56108809059050158 -2.4295323526379002 0.51510177299156934 -2.4482927800706373 0.46915487944294948 -2.4938552453925791 0.42694167983055242 -2.5179251328155181 0.3794310176474664 -2.5447664690045269 0.33123953955299251 -2.5742089956718388 0.28206363946371021 -2.630758923044902 0.23354591132225141 -2.6668740958464152 0.18060976473721457 -2.7063265396630594 0.12574223219666772 -2.7492688724659295 0.068564324863011283 -2.7958569853643014 0.0086610685756849017 -2.8462459811933298 -0.054423745419925486 -2.9006106388582391 -0.12119436175361038 -2.959431095242838 -0.1922346220692967 -3.0222608985633275 -0.26813633112240404 -3.0896001966692381 -0.34960999532259485 -3.1616645595772717 -0.43744942095447964 -3.2389930548352974 -0.53261334053496956 -3.3211888450526161 -0.63603955520461775 -3.385693596697847 -0.74354498592268248 -3.4798118436533567 -0.8661521403809227 -3.5562843927385761 -0.99423090057232621 -3.6639008991221451 -1.142463610744658 -0.14532332443288759 -0.047832399441854183 -0.18859487657568583 -0.062364540469063014 -0.099323282848001029 -0.032975854478992817 0.09644221462779308 0.032020603063257436 0.043566971515791711 0.014436950269810985 0.35706395671005142 0.11766367216818886 0.6653134864279201 0.21612190837945536 0.96045459447048021 0.30487246564416937 1.7142577650498729 0.52340987348043144 3.5220128570550382 0.99320820979074942 5.6721016594288223 1.3727686697179406 0 0
        </DataArray>
        <DataArray type="Float32" Name="u" NumberOfComponents="1">
          0 0.007874015748031496 0.015748031496062992 0.023622047244094488 0.031496062992125984 0.03937007874015748 0.047244094488188976 0.055118110236220472 0.062992125984251968 0.070866141732283464 0.07874015748031496 0.086614173228346455 0.094488188976377951 0.10236220472440945 0.11023622047244094 0.11811023622047244 0.12598425196850394 0.13385826771653545 0.14173228346456693 0.14960629921259844 0.15748031496062992 0.16535433070866143 0.17322834645669291 0.18110236220472442 0.1889763779527559 0.19685039370078741 0.20472440944881889 0.2125984251968504 0.22047244094488189 0.2283464566929134 0.23622047244094488 0.24409448818897639 0.25196850393700787 0.25984251968503935 0.26771653543307089 0.27559055118110237 0.28346456692913385 0.29133858267716534 0.29921259842519687 0.30708661417322836 0.31496062992125984 0.32283464566929132 0.33070866141732286 0.33858267716535434 0.34645669291338582 0.3543307086614173 0.36220472440944884 0.37007874015748032 0.37795275590551181 0.38582677165354329 0.39370078740157483 0.40157480314960631 0.40944881889763779 0.41732283464566927 0.42519685039370081 0.43307086614173229 0.44094488188976377 0.44881889763779526 0.45669291338582679 0.46456692913385828 0.47244094488188976 0.48031496062992124 0.48818897637795278 0.49606299212598426 0.50393700787401574 0.51181102362204722 0.51968503937007871 0.52755905511811019 0.53543307086614178 0.54330708661417326 0.55118110236220474 0.55905511811023623 0.56692913385826771 0.57480314960629919 0.58267716535433067 0.59055118110236215 0.59842519685039375 0.60629921259842523 0.61417322834645671 0.62204724409448819 0.62992125984251968 0.63779527559055116 0.64566929133858264 0.65354330708661412 0.66141732283464572 0.6692913385826772 0.67716535433070868 0.68503937007874016 0.69291338582677164 0.70078740157480313 0.70866141732283461 0.71653543307086609 0.72440944881889768 0.73228346456692917 0.74015748031496065 0.74803149606299213 0.75590551181102361 0.76377952755905509 0.77165354330708658 0.77952755905511806 0.78740157480314965 0.79527559055118113 0.80314960629921262 0.8110236220472441 0.81889763779527558 0.82677165354330706 0.83464566929133854 0.84251968503937003 0.85039370078740162 0.8582677165354331 0.86614173228346458 0.87401574803149606 0.88188976377952755 0.88976377952755903 0.89763779527559051 0.90551181102362199 0.91338582677165359 0.92125984251968507 0.92913385826771655 0.93700787401574803 0.94488188976377951 0.952755905511811 0.96062992125984248 0.96850393700787396 0.97637795275590555 0.98425196850393704 0.99212598425196852 1
        </DataArray>
      </PointData>
      <CellData Scalars="P">
        <DataArray type="Float32" Name="P" NumberOfComponents="1">
          -0.011517120529533992 -0.0328046484996318 -0.050748595840631558 -0.064515841972361321 -0.073577886107098062 -0.077582358408778099 -0.076290113595999826 -0.069539614874433303 -0.057224133181356732 -0.039277336191919372 -0.01566178258387196 0.013638509916818657 0.04862356652638021 0.089281930015745178 0.1355935367250844 0.18753233331273411 0.24507075467594447 0.30817959313835797 0.37683031103093712 0.45099757301639232 0.53066019451176372 0.61580127567042864 0.70640937464282905 0.80247956059657977 0.9040132096099871 1.011020961402247 1.1235209847545402 1.2415370758032129 1.3651018852529968 1.4942688141259011 1.6290865595355 1.7696123082873159 1.9159112515312315 2.0680569413755974 2.2261303527902285 2.3902193478391824 2.5604131248146738 2.7368078593894882 2.9195068868881267 3.1086133944878966 3.3042306192698043 3.5064621748826963 3.2819130874174847 3.0514867892497457 2.8157327641785561 2.5783033066960925 2.3392670152276103 2.1021199333442966 1.8684508724612128 1.6376587635681721 1.4129336561498076 1.195370930586779 0.98590543773218731 0.78752058710732198 1.5773007014323581 2.3339177127413699 3.0561712645875665 2.8745110518271351 2.6918010015272373 2.5075634635794279 2.3240834116934908 2.1421837135970483 1.962612873233186 1.78604664124278 1.6145181038890337 1.4471393183979351 1.2843544214543179 1.1265784966570074 0.97415244517858135 0.82736305933288601 0.68644626226171213 0.55159152095149677 0.42294551634458172 0.29949909554245646 0.18249776245517146 0.071989732985701271 -0.032016299972379543 -0.12951311571513993 -0.22052724502990964 -0.30510385418201352 -0.38330374494671487 -0.45582032688967422 -0.52204838476055337 -0.58207618019875496 -0.63599811175900955 -0.68391275987046374 -0.72591747115939509 -0.76234252165242122 -0.79299563634117187 -0.81797385168928149 -0.83737142521947061 -0.85125770836883119 -0.85967672749063606 -0.86270827163721775 -0.86042725525750141 -0.85266775248447235 -0.83967252018784133 -0.82150007768284528 -0.79820917754725629 -0.76943301955350163 -0.73558213080015411 -0.69669992049031104 -0.65282827477880956 -0.60400887693417749 -0.55028486330119242 -0.49170222157465088 -0.42830350913659354 -0.36015538081174797 -0.28732614503720783 -0.20989624051280811 -0.12795167157535242 -0.041616741630668135 0.048227275944782232 0.14216797293926095 0.23923271410833827 0.33998553508990648 0.325455199023228 0.31214750072724323 0.29587978501892803 0.27372812341824138 0.25337811576845504 0.22531178075378236 0.19151864865549986 0.15465013756147078 0.11032126997801972 0.054400009378242721 0.0058597083162670108
        </DataArray>
      </CellData>
      <Points>
        <DataArray type="Float32" NumberOfComponents="3" format="ascii">
          3.9531894880677743 6.7868353007517097 0
          3.9528689732999149 6.794703275150261 0
          3.9525915817395814 6.802572886029127 0
          3.9523792074839816 6.8104445170350889 0
          3.9522484311485155 6.8183179229308202 0
          3.9522129547014502 6.8261923309046271 0
          3.9522845966574258 6.8340664884016853 0
          3.9524738222508855 6.8419386930173305 0
          3.9527900613280806 6.8498068136337009 0
          3.9532419151523603 6.8576683064711457 0
          3.9538372940618398 6.8655202280999053 0
          3.9545835165132623 6.8733592462188966 0
          3.9554873784278297 6.8811816490885747 0
          3.9565552018090657 6.8889833542150134 0
          3.9577928692212883 6.896759916605987 0
          3.9592058460936292 6.9045065371877063 0
          3.9607991948731738 6.9122180715419015 0
          3.9625775884598067 6.9198890378956666 0
          3.9645453136348063 6.9275136264299055 0
          3.9667062725200992 6.9350857088216769 0
          3.9690639834539962 6.94259884764866 0
          3.9716215786765954 6.9500463064137428 0
          3.9743817982213665 6.9574210607700699 0
          3.9773469829347596 6.9647158103070641 0
          3.9805190668466137 6.9719229908618541 0
          3.9838995671135584 6.9790347882427319 0
          3.9874895774008947 6.9860431508158305 0
          3.9912897568533228 6.9929398044633748 0
          3.9953003154266065 6.9997162704231481 0
          3.9995210040375051 7.0063638815991727 0
          4.0039511209403003 7.0128737884321204 0
          4.0085894808809011 7.0192369885976502 0
          4.0134344046644959 7.0254443463293983 0
          4.0184837085480947 7.0314866128560345 0
          4.0237346947338626 7.0373544470005625 0
          4.0291841415148433 7.0430384370924441 0
          4.0348282938389017 7.0485291237089918 0
          4.0406628494735495 7.0538170286203581 0
          4.0466829529802997 7.0588926779364014 0
          4.0528831908818059 7.0637466246094078 0
          4.0592575816304679 7.0683694785886573 0
          4.065799568244759 7.0727519365128542 0
          4.072502013448946 7.0768848104189148 0
          4.0790586839084524 7.081245221230982 0
          4.0854650729346051 7.0858235386849193 0
          4.0917162234464515 7.0906116120198286 0
          4.0978089207018495 7.0955997276594474 0
          4.1037392998993436 7.1007797475330561 0
          4.1095053222031268 7.1061420928748245 0
          4.1151055584058129 7.1116773331724188 0
          4.1205376096085349 7.1173776962026816 0
          4.1258010213236185 7.1232341130141066 0
          4.130895841995768 7.1292377568529712 0
          4.1358225862958999 7.1353800658133366 0
          4.1405841423008072 7.141651285611613 0
          4.1460731185487951 7.1472967900994604 0
          4.1522102625892794 7.1522299446284858 0
          4.15890556769528 7.156374026089142 0
          4.1654841909207176 7.1607009354753339 0
          4.1719428563701619 7.1652049324691047 0
          4.1782775556128087 7.1698816693715477 0
          4.1844855427594423 7.1747253378427036 0
          4.1905643630386029 7.1797301485619025 0
          4.1965118386262779 7.1848903510085167 0
          4.2023260535453293 7.190200251169176 0
          4.2080065462307763 7.1956529686371358 0
          4.2135519516580011 7.2012430137565104 0
          4.2189611007574497 7.2069650101846445 0
          4.224233032334058 7.2128136763616624 0
          4.2293669622377204 7.2187838483656028 0
          4.2343622666940375 7.2248704865584514 0
          4.2392184651912768 7.2310686812794867 0
          4.243935204140131 7.2373736567058158 0
          4.2485122406383793 7.2437807736235733 0
          4.2529479849692446 7.2502865140156079 0
          4.257242326784584 7.2568864532566959 0
          4.2613952224044134 7.2635763052402371 0
          4.2654066622303199 7.2703519315703229 0
          4.2692766916507692 7.2772093175179604 0
          4.2730053796050464 7.2841445804573182 0
          4.2765928050398863 7.2911539662256279 0
          4.2800390440590279 7.2982338446864716 0
          4.2833426250620894 7.3053814128980488 0
          4.2865035525620545 7.3125932129733595 0
          4.2895217933430452 7.3198658945790935 0
          4.292397264895313 7.3271962082698732 0
          4.295129824226998 7.3345809982876666 0
          4.2977192766911614 7.342017187995209 0
          4.3001637751909145 7.3495022925010431 0
          4.3024629127388545 7.3570333295244694 0
          4.3046161817468516 7.3646073762353543 0
          4.3066229644740819 7.3722215592207174 0
          4.3084809899117165 7.3798734160827459 0
          4.3101893966685259 7.387560076020109 0
          4.3117471669610961 7.3952786885674433 0
          4.313153136841593 7.4030264057245478 0
          4.3144044804041535 7.4108006106037907 0
          4.3154997043769194 7.4185983582610255 0
          4.3164371435738245 7.4264166615620866 0
          4.3172149714435148 7.4342524723640011 0
          4.3178296805160317 7.4421027828958408 0
          4.3182790303308662 7.449964311873126 0
          4.3185605733915464 7.4578336582761375 0
          4.3186716456897818 7.4657072778474252 0
          4.3186093570253385 7.4735814573565627 0
          4.3183705813734061 7.4814522863064434 0
          4.3179519460304778 7.4893156256585911 0
          4.3173498018248528 7.4971670716132355 0
          4.3165602507796867 7.5050019189140906 0
          4.3155791150794043 7.5128151167677437 0
          4.314401923680494 7.5206012195997953 0
          4.3130238788628175 7.5283543275704981 0
          4.3114398808109549 7.5360680284063966 0
          4.3096459262899343 7.5437356573900409 0
          4.3076361755143653 7.5513496125324666 0
          4.3054058823900903 7.5589019530111639 0
          4.3029483693407951 7.5663834872418603 0
          4.300481791776158 7.5738622144778622 0
          4.2980034589116309 7.5813372532055325 0
          4.295518897654099 7.5888104526647204 0
          4.2930402382455597 7.5962858786871923 0
          4.2905641922686959 7.6037624686001148 0
          4.2881101913663935 7.6112466749879228 0
          4.2856973440304635 7.6187446633789877 0
          4.2833439489633713 7.6262620068827696 0
          4.2810967629570973 7.6338123750186977 0
          4.2790679559355569 7.6414251351704277 0
          4.277391013089356 7.6491241564195382 0
        </DataArray>
      </Points>
      <Cells>
        <DataArray type="Int32" Name="connectivity" format="ascii">
          0 1 1 2 2 3 3 4 4 5 5 6 6 7 7 8 8 9 9 10 10 11 11 12 12 13 13 14 14 15 15 16 16 17 17 18 18 19 19 20 20 21 21 22 22 23 23 24 24 25 25 26 26 27 27 28 28 29 29 30 30 31 31 32 32 33 33 34 34 35 35 36 36 37 37 38 38 39 39 40 40 41 41 42 42 43 43 44 44 45 45 46 46 47 47 48 48 49 49 50 50 51 51 52 52 53 53 54 54 55 55 56 56 57 57 58 58 59 59 60 60 61 61 62 62 63 63 64 64 65 65 66 66 67 67 68 68 69 69 70 70 71 71 72 72 73 73 74 74 75 75 76 76 77 77 78 78 79 79 80 80 81 81 82 82 83 83 84 84 85 85 86 86 87 87 88 88 89 89 90 90 91 91 92 92 93 93 94 94 95 95 96 96 97 97 98 98 99 99 100 100 101 101 102 102 103 103 104 104 105 105 106 106 107 107 108 108 109 109 110 110 111 111 112 112 113 113 114 114 115 115 116 116 117 117 118 118 119 119 120 120 121 121 122 122 123 123 124 124 125 125 126 126 127 
        </DataArray>
        <DataArray type="Int32" Name="offsets" format="ascii">
          2 4 6 8 10 12 14 16 18 20 22 24 26 28 30 32 34 36 38 40 42 44 46 48 50 52 54 56 58 60 62 64 66 68 70 72 74 76 78 80 82 84 86 88 90 92 94 96 98 100 102 104 106 108 110 112 114 116 118 120 122 124 126 128 130 132 134 136 138 140 142 144 146 148 150 152 154 156 158 160 162 164 166 168 170 172 174 176 178 180 182 184 186 188 190 192 194 196 198 200 202 204 206 208 210 212 214 216 218 220 222 224 226 228 230 232 234 236 238 240 242 244 246 248 250 252 254 
        </DataArray>
        <DataArray type="Int32" Name="types" format="ascii">
          3 3 3 3 3 3 3 3 3 3 3 3 3 3 3 3 3 3 3 3 3 3 3 3 3 3 3 3 3 3 3 3 3 3 3 3 3 3 3 3 3 3 3 3 3 3 3 3 3 3 3 3 3 3 3 3 3 3 3 3 3 3 3 3 3 3 3 3 3 3 3 3 3 3 3 3 3 3 3 3 3 3 3 3 3 3 3 3 3 3 3 3 3 3 3 3 3 3 3 3 3 3 3 3 3 3 3 3 3 3 3 3 3 3 3 3 3 3 3 3 3 3 3 3 3 3 3         </DataArray>
      </Cells>
    </Piece>
  </UnstructuredGrid>
</VTKFile>
