<?xml version="1.0"?>
<VTKFile type="UnstructuredGrid" version="0.1" byte_order="LittleEndian">
  <UnstructuredGrid>
    <Piece NumberOfPoints="128" NumberOfCells="127">
      <PointData Scalars="W">
        <DataArray type="Float32" Name="W" NumberOfComponents="2">
          0 0 -0.68651736831998267 0.012074485247283202 -1.0932726550052625 0.01156478499222644 -1.4007276971175286 0.0010610671212147509 -1.6544622761554593 -0.018650812901365669 -1.8730852348568663 -0.047145886222661894 -2.0660975886747566 -0.084104151069744837 -2.2390859926907787 -0.12924270918620825 -2.3955996263287398 -0.18229181339853356 -2.53807724775249 -0.24299083014615572 -2.6681853898720074 -0.31107733625557055 -2.7871431048727895 -0.38629043215413739 -2.8958616987265979 -0.46837174131467202 -2.9950284673268759 -0.55706572909201035 -3.085175137040939 -0.65212254867100827 -3.166706764958382 -0.75329738639974964 -3.2398414160066111 -0.86032609942288463 -3.3048012964444267 -0.97296265163104045 -3.3617162226940631 -1.0909548819785388 -3.4106251234772862 -1.2140351264544407 -3.4515369359992629 -1.3419327553400329 -3.4844547496324814 -1.4743827932986013 -3.5093412814088834 -1.6111118413803254 -3.5261252380606849 -1.7518357523563848 -3.5347376739357066 -1.8962744903227478 -3.5350263266558253 -2.0441034392520665 -3.5268849726375908 -2.1950165934642674 -3.5102452386847935 -2.3487335494239163 -3.4849502748250023 -2.5049182177236182 -3.4505864270543278 -2.6630185165649323 -3.4073061464901722 -2.8228811434041101 -3.354944004644528 -2.9841331154225403 -3.2933386947716503 -3.1463888625949261 -3.2223223241998067 -3.3092378240364031 -3.141731930185538 -3.472250983062775 -3.051409453281734 -3.6349779306482146 -2.9512743172312867 -3.7970397935862206 -2.8411475218831042 -3.9579170223384104 -2.7208550475285214 -4.1170405080945702 -2.590320702115394 -4.2739343406718335 -2.4494555053442597 -4.4280730029271291 -2.2981687734670238 -4.5788791742580734 1.4316655710622723 2.9060243702477688 1.4496108292246936 2.7654898241148618 1.4570018634705593 2.6237484485856659 1.4549781699314501 2.4829061656062521 1.443218418398255 2.3422477575027729 1.388339548159079 2.1511272370864787 1.3566090073721617 2.0140162659860814 1.27616891903232 1.8216713575506562 1.1361954908298546 1.5666315548630176 -8.5597617714913632 -13.270204688906297 -6.8737336241300904 -14.296401741235014 -5.0550874931038354 -15.10639884065572 1.0814463405690853 3.82123548608774 1.1823375511800378 3.73151127431038 1.2763566863852738 3.6378552918373992 1.1214067996978585 2.9348211448197667 1.1604913348820998 2.8281112833239597 1.2020663262201559 2.7415996806717353 1.2286044963459963 2.6340083674236259 1.2485608101555539 2.5265419248493868 1.2621995367251311 2.4196177524620941 1.2827078647127341 2.3365394661950085 1.2724924311226329 2.2091674645651271 1.2837142614018489 2.1298653508380081 1.2916974091363767 2.0522743967476615 1.2967324446431074 1.9766036316811779 1.2830245232088786 1.8799141168666111 1.2822031939236669 1.8091254531252252 1.2793266018446694 1.7406812203189943 1.2746705854107081 1.6746778020503446 1.2685063043005631 1.6111927826403911 1.2606521356721874 1.5497457623361774 1.2522455821124407 1.4914782578206154 1.2431093732773537 1.4358668891357027 1.2139529329783467 1.3613424144496373 1.2034807718373146 1.3116481394410699 1.1930261953746679 1.2646306775583216 1.1828094436557661 1.2202800233880211 1.1730439278411489 1.1785793141305563 1.1634481558159808 1.1390336282375724 1.1551874417691657 1.102570826576146 1.1479812351633325 1.068673920276189 1.1420198523852327 1.0373062165036784 1.1374894657028209 1.008427499431523 1.1345792550091842 0.9819998093701594 1.1329530387494506 0.95754488592032538 1.1337939406005164 0.9358725677272921 1.1367860713351643 0.91649811964487149 1.1421081196868903 0.89936658671781478 1.1494349046889107 0.88403556712260534 1.1599582786143723 0.87122801392739113 1.1733563232765507 0.86047278769918234 1.1898286632812878 0.85170446197842586 1.2090705886244977 0.84449861737823584 1.2073152125750737 0.82267506383831568 1.2338466045938388 0.81998588447171095 1.2643223807911292 0.81896257479731482 1.2984710778044763 0.81917667120836668 1.3375636771411585 0.82115472229061803 1.3813893808603896 0.82443947939890394 1.4302587404543579 0.82888308909329467 1.4845116467417452 0.83431860538755831 1.5170740943917234 0.8258598755536144 1.5828359260192963 0.8334628313978002 1.6552149908072848 0.84145349964663863 1.7057177221463715 0.83561568382422924 1.7925189410781459 0.8444247270534595 1.8876894049166526 0.85272182670205332 1.961297360583079 0.84713465322378734 2.0751260036174908 0.85414145139243347 2.1683353175193587 0.84719029972071602 2.3049212332901248 0.85086051084065339 2.4557697142720296 0.85139084689108191 2.5874867479167207 0.83678371863840773 2.8625830246802071 0.85519414076695344 3.0704605565204117 0.8366118317984943 3.2705930351754824 0.80114216254702697 -2.5927711934185753 -0.62754127092368728 -2.6897855630047141 -0.71246030592303922 -3.3584551307866399 -0.97907612327959936 -3.8400483115228758 -1.244225326092415 -4.7233799524675977 -1.7190063692396154 -6.5762506218824743 -2.7565893587214321 -7.1634513507564694 -3.5175786513136842 -3.2615208436312546 -1.79263369005915 0 0
        </DataArray>
        <DataArray type="Float32" Name="u" NumberOfComponents="1">
          0 0.007874015748031496 0.015748031496062992 0.023622047244094488 0.031496062992125984 0.03937007874015748 0.047244094488188976 0.055118110236220472 0.062992125984251968 0.070866141732283464 0.07874015748031496 0.086614173228346455 0.094488188976377951 0.10236220472440945 0.11023622047244094 0.11811023622047244 0.12598425196850394 0.13385826771653545 0.14173228346456693 0.14960629921259844 0.15748031496062992 0.16535433070866143 0.17322834645669291 0.18110236220472442 0.1889763779527559 0.19685039370078741 0.20472440944881889 0.2125984251968504 0.22047244094488189 0.2283464566929134 0.23622047244094488 0.24409448818897639 0.25196850393700787 0.25984251968503935 0.26771653543307089 0.27559055118110237 0.28346456692913385 0.29133858267716534 0.29921259842519687 0.30708661417322836 0.31496062992125984 0.32283464566929132 0.33070866141732286 0.33858267716535434 0.34645669291338582 0.3543307086614173 0.36220472440944884 0.37007874015748032 0.37795275590551181 0.38582677165354329 0.39370078740157483 0.40157480314960631 0.40944881889763779 0.41732283464566927 0.42519685039370081 0.43307086614173229 0.44094488188976377 0.44881889763779526 0.45669291338582679 0.46456692913385828 0.47244094488188976 0.48031496062992124 0.48818897637795278 0.49606299212598426 0.50393700787401574 0.51181102362204722 0.51968503937007871 0.52755905511811019 0.53543307086614178 0.54330708661417326 0.55118110236220474 0.55905511811023623 0.56692913385826771 0.57480314960629919 0.58267716535433067 0.59055118110236215 0.59842519685039375 0.60629921259842523 0.61417322834645671 0.62204724409448819 0.62992125984251968 0.63779527559055116 0.64566929133858264 0.65354330708661412 0.66141732283464572 0.6692913385826772 0.67716535433070868 0.68503937007874016 0.69291338582677164 0.70078740157480313 0.70866141732283461 0.71653543307086609 0.72440944881889768 0.73228346456692917 0.74015748031496065 0.74803149606299213 0.75590551181102361 0.76377952755905509 0.77165354330708658 0.77952755905511806 0.78740157480314965 0.79527559055118113 0.80314960629921262 0.8110236220472441 0.81889763779527558 0.82677165354330706 0.83464566929133854 0.84251968503937003 0.85039370078740162 0.8582677165354331 0.86614173228346458 0.87401574803149606 0.88188976377952755 0.88976377952755903 0.89763779527559051 0.90551181102362199 0.91338582677165359 0.92125984251968507 0.92913385826771655 0.93700787401574803 0.94488188976377951 0.952755905511811 0.96062992125984248 0.96850393700787396 0.97637795275590555 0.98425196850393704 0.99212598425196852 1
        </DataArray>
      </PointData>
      <CellData Scalars="P">
        <DataArray type="Float32" Name="P" NumberOfComponents="1">
          -0.015161081998272975 -0.043542418464457326 -0.067936102076402563 -0.087307571265393402 -0.101023102827223 -0.10867604133126085 -0.110007141972826 -0.10485831791050729 -0.093143279397921205 -0.074826296174298382 -0.049908324237404197 -0.018415581814277333 0.019609290706188984 0.064114089682159717 0.1150427521052465 0.17233975061163165 0.23595112585251551 0.30582934232931525 0.38193469001821484 0.46423573060900369 0.55271085965508948 0.64735024354043147 0.74815623845288237 0.85514357402297236 0.96834056302190974 1.087786629049931 1.2135345550457344 1.345652662148449 1.4842213007586316 1.6293197732830014 1.7810529026753923 1.9395361326780607 2.1048949787021627 2.2772636415747267 2.4567839662268049 2.6436041276358582 2.8378824696558698 3.0397789024052684 3.2494518662739571 3.4670631090750712 3.6927739757705909 3.9267415554039502 3.736022092363406 3.5436751326465674 3.3518865131504754 3.1625258870260291 2.9773274609819351 2.8016681553647871 2.6329996100950872 2.4767982631527712 2.339126343420217 3.2518792373214538 4.1205230629990668 4.9444233062698304 4.7091563550417872 4.4664256139502045 4.2182585098063132 4.0073899380212792 3.7976040102295006 3.5887275144680819 3.3833616435165279 3.1825654660852249 2.9872633005326232 2.7965200954361373 2.6144054554974749 2.4379790636381764 2.267658649419646 2.1037786389703048 1.9483115962179955 1.799689241594884 1.6580253518627466 1.5233766201830892 1.3957488291343498 1.2751389343154163 1.1614311984511918 1.0545141384855368 0.95552855232978473 0.86295322577269529 0.77660252451878875 0.69627828633359412 0.62177409614866164 0.55289967153845843 0.48942117855480344 0.4311298237558438 0.37782245949597898 0.32930424544209225 0.28539086340934783 0.245919108268943 0.21072172568267025 0.17965740319860624 0.15260178999091806 0.12944897505294967 0.11010835343579775 0.094510432935755728 0.082604432998632904 0.074352236755255 0.069384028409428491 0.067988212940390813 0.070184719240899057 0.075997190373121901 0.085483837238530105 0.098704980331026898 0.11573094029061347 0.1366399427066147 0.16065936557644622 0.18868621787000037 0.22080886042732034 0.25610954412270548 0.29563830200565877 0.33946639397562339 0.38653841732096306 0.43799036296807103 0.4926896320718302 0.55177784016253451 0.6152409063542974 0.6817885227473176 0.75570526774725144 0.83370416083904153 0.91455080977385106 0.80690838654331154 0.69925693625600782 0.57705787851231283 0.45032016215266779 0.315391126873725 0.16400606833601281 0.048034479082703134 0.0082431999113858484
        </DataArray>
      </CellData>
      <Points>
        <DataArray type="Float32" NumberOfComponents="3" format="ascii">
          4.3498376748209457 7.320379439868999 0
          4.3499974428352086 7.3282526813758837 0
          4.3501146374974766 7.3361266686868598 0
          4.3501640345848571 7.3440013687706616 0
          4.3501265679222128 7.351876129302986 0
          4.3499865028119959 7.3597497271868537 0
          4.3497302820269201 7.3676203948201602 0
          4.3493459366113765 7.3754858398959904 0
          4.3488227394265175 7.3833432629206799 0
          4.3481509850467628 7.3911893739260082 0
          4.347321838517848 7.3990204086217428 0
          4.3463272320035964 7.4068321446625687 0
          4.3451597891828859 7.4146199178227317 0
          4.3438127687313672 7.4223786380156858 0
          4.3422800216951307 7.4301028051385556 0
          4.3405559585120761 7.4377865245645962 0
          4.3386355238887466 7.4454235223240826 0
          4.3365141832732714 7.4530071614842406 0
          4.3341879090717876 7.4605304574066782 0
          4.3316531725943888 7.4679860933848508 0
          4.3289069416373671 7.4753664372431139 0
          4.3259466799254227 7.4826635581198317 0
          4.3227703469166254 7.4898692428999905 0
          4.3193764001110093 7.4969750131702879 0
          4.3157637994682219 7.5039721428408264 0
          4.3119320116795965 7.5108516755119545 0
          4.307881019606727 7.5176044446056087 0
          4.3036113288650615 7.5242210923426667 0
          4.2991239720602907 7.5306920871327439 0
          4.2944205185110835 7.5370077444171093 0
          4.2895030998960308 7.5431582609052619 0
          4.284374400796171 7.5491337240831502 0
          4.2790376689490737 7.5549241353437324 0
          4.2734967252470559 7.5605194338979906 0
          4.2677559741434976 7.5659095222354891 0
          4.2618204137531475 7.5710842927291804 0
          4.2556956456480428 7.5760336555665306 0
          4.2493878798484417 7.5807475622445244 0
          4.2429039459166011 7.5852160377875899 0
          4.236251303741331 7.5894292160382593 0
          4.2294380482560321 7.5933773691682687 0
          4.2224729149494102 7.5970509402652837 0
          4.2153652854814743 7.6004405791313729 0
          4.2083464712935044 7.6040103936482595 0
          4.2014175827435603 7.6077516670394161 0
          4.1945790756450467 7.6116556081034528 0
          4.1878308219176317 7.6157134818246233 0
          4.1811720897128692 7.6199165650201062 0
          4.1745994743943591 7.6242530055151008 0
          4.1681110055659927 7.6287143010716392 0
          4.1617016934259619 7.6332885246873134 0
          4.1553628574987442 7.6379598622076497 0
          4.1484933019015244 7.6418084151161274 0
          4.1411975649572303 7.6447705586705483 0
          4.1335884072005129 7.6467960731765388 0
          4.126046306411471 7.6490585102595432 0
          4.1185775177719064 7.6515523064090436 0
          4.1111878703754217 7.6542716543681601 0
          4.1038677630643789 7.6571729618694153 0
          4.0966196183765105 7.6602496121285553 0
          4.089446013041087 7.6634962408723819 0
          4.0823485916654745 7.6669061768789764 0
          4.0753285907470111 7.6704727567766682 0
          4.0683868550610374 7.674189350924955 0
          4.0615246551390998 7.678050808336077 0
          4.05474135689097 7.6820492317306242 0
          4.0480376550631592 7.6861797044546964 0
          4.0414140436343313 7.6904374160317923 0
          4.0348708338327928 7.69481767511712 0
          4.0284071749104333 7.6993144872329857 0
          4.0220230150364502 7.7039234638917362 0
          4.0157181749920356 7.7086403620256991 0
          4.009492365273152 7.7134610899575309 0
          4.0033452029029464 7.7183817122051988 0
          3.9972762001706501 7.7233984196926952 0
          3.991284835157602 7.7285076005189488 0
          3.9853705407464934 7.7337058075036005 0
          3.9795315085231531 7.7389884209541444 0
          3.9737670885890681 7.7443523606493141 0
          3.968076632176317 7.7497947123597166 0
          3.962459505302161 7.755312727224128 0
          3.9569151020002868 7.7609038207009799 0
          3.9514428268642368 7.7665655418838151 0
          3.9460421673038866 7.7722956310207039 0
          3.9407126761482276 7.7780919874614973 0
          3.9354539834452162 7.783952667381377 0
          3.9302658080049118 7.7898758812863438 0
          3.9251479691293736 7.7958599916589248 0
          3.9201003657642057 7.801903483310987 0
          3.9151230498649237 7.8080050135841725 0
          3.9102162068079984 7.8141633823011745 0
          3.9053801664714802 7.8203775283593728 0
          3.9006153830688297 7.8266465023095382 0
          3.8959225090605556 7.83296951116857 0
          3.8913023751916516 7.8393458892166272 0
          3.8867560028721657 7.8457750939430619 0
          3.8822845852811194 7.8522566797427649 0
          3.8778880134110776 7.8587892951186333 0
          3.8735679325137653 7.8653727745922364 0
          3.8693262324747577 7.8720070560052529 0
          3.8651650309806538 7.8786921539681982 0
          3.8610867523473864 7.8854281924948895 0
          3.8570941144517303 7.8922153766661935 0
          3.8531901479969757 7.8990539834688063 0
          3.8493782175993339 7.9059443514505778 0
          3.8456603426282938 7.9128859583397917 0
          3.8420406015495554 7.919879277262857 0
          3.8385234832859783 7.9269248054688184 0
          3.8351121199798834 7.9340221835762446 0
          3.8318118951666027 7.941171959821741 0
          3.8286287115516497 7.9483746508068069 0
          3.8255671345423456 7.9556299131685213 0
          3.8226342243196374 7.9629381838026942 0
          3.8198357623009223 7.9702990351545431 0
          3.8171802205227205 7.9777126975567665 0
          3.8146769558890261 7.9851792067557756 0
          3.8123341389286609 7.9926976610559217 0
          3.8101688337713431 8.000269202227825 0
          3.808193935551456 8.0078926808712296 0
          3.8064218594585606 8.0155659014480225 0
          3.8044889050449147 8.0232004992144095 0
          3.8023890212513809 8.0307912535511239 0
          3.8000806776576805 8.038321705651013 0
          3.7975339264221519 8.0457754875822953 0
          3.7946938509265453 8.0531232565927855 0
          3.7914452654929822 8.0603008176044249 0
          3.787752196648932 8.0672597655013689 0
          3.7838569656792522 8.0741069994290875 0
        </DataArray>
      </Points>
      <Cells>
        <DataArray type="Int32" Name="connectivity" format="ascii">
          0 1 1 2 2 3 3 4 4 5 5 6 6 7 7 8 8 9 9 10 10 11 11 12 12 13 13 14 14 15 15 16 16 17 17 18 18 19 19 20 20 21 21 22 22 23 23 24 24 25 25 26 26 27 27 28 28 29 29 30 30 31 31 32 32 33 33 34 34 35 35 36 36 37 37 38 38 39 39 40 40 41 41 42 42 43 43 44 44 45 45 46 46 47 47 48 48 49 49 50 50 51 51 52 52 53 53 54 54 55 55 56 56 57 57 58 58 59 59 60 60 61 61 62 62 63 63 64 64 65 65 66 66 67 67 68 68 69 69 70 70 71 71 72 72 73 73 74 74 75 75 76 76 77 77 78 78 79 79 80 80 81 81 82 82 83 83 84 84 85 85 86 86 87 87 88 88 89 89 90 90 91 91 92 92 93 93 94 94 95 95 96 96 97 97 98 98 99 99 100 100 101 101 102 102 103 103 104 104 105 105 106 106 107 107 108 108 109 109 110 110 111 111 112 112 113 113 114 114 115 115 116 116 117 117 118 118 119 119 120 120 121 121 122 122 123 123 124 124 125 125 126 126 127 
        </DataArray>
        <DataArray type="Int32" Name="offsets" format="ascii">
          2 4 6 8 10 12 14 16 18 20 22 24 26 28 30 32 34 36 38 40 42 44 46 48 50 52 54 56 58 60 62 64 66 68 70 72 74 76 78 80 82 84 86 88 90 92 94 96 98 100 102 104 106 108 110 112 114 116 118 120 122 124 126 128 130 132 134 136 138 140 142 144 146 148 150 152 154 156 158 160 162 164 166 168 170 172 174 176 178 180 182 184 186 188 190 192 194 196 198 200 202 204 206 208 210 212 214 216 218 220 222 224 226 228 230 232 234 236 238 240 242 244 246 248 250 252 254 
        </DataArray>
        <DataArray type="Int32" Name="types" format="ascii">
          3 3 3 3 3 3 3 3 3 3 3 3 3 3 3 3 3 3 3 3 3 3 3 3 3 3 3 3 3 3 3 3 3 3 3 3 3 3 3 3 3 3 3 3 3 3 3 3 3 3 3 3 3 3 3 3 3 3 3 3 3 3 3 3 3 3 3 3 3 3 3 3 3 3 3 3 3 3 3 3 3 3 3 3 3 3 3 3 3 3 3 3 3 3 3 3 3 3 3 3 3 3 3 3 3 3 3 3 3 3 3 3 3 3 3 3 3 3 3 3 3 3 3 3 3 3 3         </DataArray>
      </Cells>
    </Piece>
  </UnstructuredGrid>
</VTKFile>
