<?xml version="1.0"?>
<VTKFile type="UnstructuredGrid" version="0.1" byte_order="LittleEndian">
  <UnstructuredGrid>
    <Piece NumberOfPoints="128" NumberOfCells="127">
      <PointData Scalars="W">
        <DataArray type="Float32" Name="W" NumberOfComponents="2">
          0 0 -0.19414988801394842 -0.010972616491299395 -0.35677864027530265 -0.020941548453907281 -0.47236600990346977 -0.029276593779025879 -0.56076547458628967 -0.037050551503040881 -0.6300740424883019 -0.044604841355311571 -0.68435517775362631 -0.052017937401223527 -0.72602694884629271 -0.059254683551091439 -0.75668491112138814 -0.066221668968579256 -0.77752395336322144 -0.072799971876302744 -0.78941840531261642 -0.078852430441575999 -0.79309383494847063 -0.084239973998340198 -0.78915889934821359 -0.088826664517272516 -0.7781660870096212 -0.092487987966507451 -0.76063910406490476 -0.095116340231917035 -0.73702483653688922 -0.096616625668696304 -0.707656740973853 -0.096900712895800573 -0.6729264811780481 -0.095910335144767836 -0.63315677178815544 -0.093601305262349999 -0.58861993406188717 -0.089945167643262852 -0.53959018846771667 -0.084936831562422543 -0.48634577836608978 -0.078595474829824707 -0.42914005273702094 -0.070959934658254148 -0.36819789532265279 -0.06208740106771992 -0.30376540332391727 -0.052061159879996953 -0.23600484726901941 -0.040972012302586451 -0.16513543932411942 -0.028941394914212958 -0.091427801709656975 -0.016120163918977297 -0.015069453767796398 -0.0026635982721012964 0.064084034211507157 0.01131421116900205 0.14550331654178739 0.025563319829915755 0.22901085367545784 0.039881392849543236 0.31441162687487523 0.05405053091483334 0.40154012645565873 0.067847317147326724 0.49019500600315685 0.081033569320131948 0.58018111905590852 0.093365918391144428 0.67120751712561533 0.10458231867198399 0.76311089016902056 0.11444070693370008 0.85573958137712836 0.12270075932788581 0.94878460634085759 0.12910285143999697 1.0419465532209684 0.13339828761806419 1.1349558463091722 0.13535432471728528 -4.6088598233814562 -0.61430467760151075 -4.3506542391234504 -0.73872016282078412 -4.0849434967280738 -0.83650636550317514 -3.8169509807771216 -0.9092429035075027 -3.6993521288713387 -1.0015318729799261 -3.427354078059055 -1.0361519459936188 -3.3114337501245914 -1.1026055371768291 -3.1971986822329943 -1.1618510425507411 -3.082032599762091 -1.2131510553303539 -2.9662806434710265 -1.2566425492893416 -2.853112896692902 -1.2938128578643187 -2.7456657679005949 -1.3265798591368871 -2.6384401108572857 -1.3527447669726924 -2.673796932819084 -1.4517377852511755 -2.2823408280613711 -1.3060149758297988 -2.0376240208886163 -1.2198925261420497 -1.7932516795518192 -1.1170969100435788 -1.5506058171704877 -0.99981231355337596 -1.3111222115020642 -0.87060255102244044 -1.0700685596119175 -0.72808347657465722 -0.83073617215298701 -0.57633969734670187 -0.40965699215079648 -0.28783455250020645 0.029594957148910042 0.020875045385420791 0.095551360672520125 0.067311722129521925 0.36148713785082964 0.2534645395335195 0.42807326163646198 0.29773848551886817 0.49755035663903591 0.34280030860482807 0.56727502461870705 0.38660274707472714 0.84207449611659257 0.56566022572517949 0.91452902914301581 0.6033665802818492 0.98756978857751887 0.63895149388422612 1.0582202072506046 0.67039404109699241 1.1322043149165166 0.70122277912636743 1.4283044276222154 0.86143984552730868 1.5064790760318705 0.88120077009064213 1.5820313851016554 0.8958466285837613 1.660979317612048 0.90876032473092438 1.7400887626096524 0.91795749727629883 2.0549710718119836 1.0402856643646947 2.1381312211251422 1.0333639590845167 2.220918264198481 1.021856851007666 2.3031279348393427 1.0056871102410014 2.3810568148866538 0.98339489988383877 2.4612655075754262 0.95783145124945723 2.8003156323001663 1.019016040366256 2.8777588808448527 0.97064152757898903 2.9564466711321553 0.91830171453164477 3.0323924204817696 0.86070341638646719 3.1052421682659839 0.79795701306189359 3.1705589333451334 0.72932164051670589 3.2357979376756827 0.65689569051256425 3.5783620022354383 0.62525024492026759 3.6365627292639857 0.52810775745987704 3.6847132360617416 0.4261442671127767 3.7306578935404833 0.32085051550962879 3.7697232482907745 0.21201821506335136 3.7972304348118899 0.10012005180079954 4.1163726596214154 -0.019775737365430965 4.1315205654919183 -0.15414175913335831 4.1372792401594838 -0.28967180128981118 4.1289345121091365 -0.42501784140491561 4.1149342590426086 -0.56005198014442736 4.3859866228979891 -0.74901900093383356 4.3467125911878464 -0.89988671042792001 4.2957379298568243 -1.046833749628419 4.5303526024017184 -1.2781277195646212 4.4484667285858501 -1.4343888241257792 4.3490419277194343 -1.5803666476511808 4.5414051349894127 -1.8459554324576963 4.4064493838051106 -1.9912091387467126 4.2629941390812931 -2.1238899969115379 4.3950239006428369 -2.4050425113430287 4.2085738765579963 -2.5213596831423293 4.2980506722398069 -2.8116948322123676 4.3835306123248055 -3.1344746665103944 4.1274680854363135 -3.2206126117584448 4.1443432971522665 -3.5238263230830991 3.0925316721336169 -2.8386254242951305 2.7495816076779316 -2.6892204565298243 2.6359935962831451 -2.7382501797857324 2.4974863201385098 -2.7530811448353476 2.6070813736109781 -3.0560310469067362 2.5249079162822481 -3.1574866297291067 2.579452769587073 -3.4527858892795815 3.3716762642302101 -4.9163146062230894 0 0
        </DataArray>
        <DataArray type="Float32" Name="u" NumberOfComponents="1">
          0 0.007874015748031496 0.015748031496062992 0.023622047244094488 0.031496062992125984 0.03937007874015748 0.047244094488188976 0.055118110236220472 0.062992125984251968 0.070866141732283464 0.07874015748031496 0.086614173228346455 0.094488188976377951 0.10236220472440945 0.11023622047244094 0.11811023622047244 0.12598425196850394 0.13385826771653545 0.14173228346456693 0.14960629921259844 0.15748031496062992 0.16535433070866143 0.17322834645669291 0.18110236220472442 0.1889763779527559 0.19685039370078741 0.20472440944881889 0.2125984251968504 0.22047244094488189 0.2283464566929134 0.23622047244094488 0.24409448818897639 0.25196850393700787 0.25984251968503935 0.26771653543307089 0.27559055118110237 0.28346456692913385 0.29133858267716534 0.29921259842519687 0.30708661417322836 0.31496062992125984 0.32283464566929132 0.33070866141732286 0.33858267716535434 0.34645669291338582 0.3543307086614173 0.36220472440944884 0.37007874015748032 0.37795275590551181 0.38582677165354329 0.39370078740157483 0.40157480314960631 0.40944881889763779 0.41732283464566927 0.42519685039370081 0.43307086614173229 0.44094488188976377 0.44881889763779526 0.45669291338582679 0.46456692913385828 0.47244094488188976 0.48031496062992124 0.48818897637795278 0.49606299212598426 0.50393700787401574 0.51181102362204722 0.51968503937007871 0.52755905511811019 0.53543307086614178 0.54330708661417326 0.55118110236220474 0.55905511811023623 0.56692913385826771 0.57480314960629919 0.58267716535433067 0.59055118110236215 0.59842519685039375 0.60629921259842523 0.61417322834645671 0.62204724409448819 0.62992125984251968 0.63779527559055116 0.64566929133858264 0.65354330708661412 0.66141732283464572 0.6692913385826772 0.67716535433070868 0.68503937007874016 0.69291338582677164 0.70078740157480313 0.70866141732283461 0.71653543307086609 0.72440944881889768 0.73228346456692917 0.74015748031496065 0.74803149606299213 0.75590551181102361 0.76377952755905509 0.77165354330708658 0.77952755905511806 0.78740157480314965 0.79527559055118113 0.80314960629921262 0.8110236220472441 0.81889763779527558 0.82677165354330706 0.83464566929133854 0.84251968503937003 0.85039370078740162 0.8582677165354331 0.86614173228346458 0.87401574803149606 0.88188976377952755 0.88976377952755903 0.89763779527559051 0.90551181102362199 0.91338582677165359 0.92125984251968507 0.92913385826771655 0.93700787401574803 0.94488188976377951 0.952755905511811 0.96062992125984248 0.96850393700787396 0.97637795275590555 0.98425196850393704 0.99212598425196852 1
        </DataArray>
      </PointData>
      <CellData Scalars="P">
        <DataArray type="Float32" Name="P" NumberOfComponents="1">
          0.012113358074647008 0.036570180922200518 0.061552155740112899 0.087110550991257946 0.11317811606917857 0.13961212436185319 0.16621916752366878 0.19277392911130403 0.21903473609705879 0.24475716889527444 0.26970577191096545 0.29366457039713423 0.3164462199092134 0.3378998364698888 0.35791736461324947 0.37643884150920237 0.39345715777080492 0.40902065130058884 0.42323542676921289 0.43626686586576952 0.44833953775731927 0.45973582886790609 0.47079404733330998 0.48190584075721127 0.49351141353942229 0.50609696989801323 0.52018721437487569 0.53633623652450491 0.55512260097695976 0.57715667997613818 0.60304199110935652 0.63337995051342466 0.66875879315099618 0.70974455412072801 0.75686807908056786 0.81061399615693619 0.87140284591313066 0.93958753069946599 1.0154430922389024 1.0991445091205403 1.1907558813371923 1.2902219002751225 0.96561213382572408 0.65364485394309346 0.35582647381307153 0.073306152601632521 -0.20578762055364166 -0.46759944879649962 -0.7249575429494175 -0.97759887301062176 -1.2250314151426145 -1.4667913752891657 -1.7027128684106809 -1.9329457425638392 -2.1571304261090134 -2.3890621816025468 -2.585854537647708 -2.7611091557013041 -2.9140143058606345 -3.0439546062827247 -3.1505449613338712 -3.2330044161520304 -3.2910163031441617 -3.3049048950210733 -3.272579604623882 -3.233727588674451 -3.1674765400110507 -3.0950896743314118 -3.0165067533082786 -2.9319804481436629 -2.8213635001489119 -2.7056224577363972 -2.5851312922064866 -2.4605669657328768 -2.3320815504129837 -2.1803709048028588 -2.0260477387962377 -1.8699088211972976 -1.7122418139157061 -1.5536163969264358 -1.3769037924707344 -1.2009592458573031 -1.026442944698214 -0.85401249322496853 -0.68453717269098835 -0.51843889095676021 -0.34181160413291833 -0.17081593043653664 -0.0059278742183265657 0.15220163430678443 0.30295632808175277 0.44559977780986826 0.57976167460270023 0.71408054981713998 0.83796726134760935 0.95087106410028022 1.0525439579383553 1.1426927773924158 1.221040986053433 1.291321752713231 1.3486343921786628 1.3930149630011852 1.4246010523371175 1.4436954228010679 1.449928021064673 1.4435492350217884 1.4252037758210112 1.3923675175113996 1.3483403184457343 1.2942918332636657 1.2257218275584389 1.1490232273364329 1.065693889618746 0.97005574302544895 0.87099148441149832 0.76212147461980129 0.64416071313217982 0.52883925982740776 0.40934088257331136 0.32271799919706523 0.24854356811527817 0.1813222257468475 0.12369014144209263 0.071102978645212339 0.031447697976687672 0.0053474592199347394 -0.0087447791766969568
        </DataArray>
      </CellData>
      <Points>
        <DataArray type="Float32" NumberOfComponents="3" format="ascii">
          4.0835959452730863 6.7810062852310811 0
          4.0831576387807367 6.7888685434563829 0
          4.0827072939319251 6.7967301154818944 0
          4.0822348268440676 6.80459037957446 0
          4.0817330705732804 6.8124488160610772 0
          4.0811965440730811 6.8203049405006606 0
          4.0806209501235955 6.8281582823980269 0
          4.0800029233628514 6.8360083802855671 0
          4.0793398803404255 6.8438547838781618 0
          4.0786299205699965 6.8516970598542857 0
          4.0778717524241168 6.8595347992266573 0
          4.077064638904349 6.8673676258483685 0
          4.0762083526346844 6.8751952050400416 0
          4.0753031381036502 6.883017252024267 0
          4.0743496773891419 6.8908335396526663 0
          4.0733490576683025 6.8986439050849304 0
          4.0723027434913384 6.9064482556924602 0
          4.0712125560893933 6.9142465745301731 0
          4.0700806490748445 6.9220389239564568 0
          4.0689094884184369 6.9298254483800612 0
          4.0677018355530254 6.9376063760314164 0
          4.0664607303620155 6.9453820192851161 0
          4.0651894739211922 6.9531527734775658 0
          4.0638916127871623 6.9609191145056153 0
          4.0625709250540858 6.968681595287201 0
          4.0612314050988605 6.9764408406039848 0
          4.059877253527536 6.9841975414779549 0
          4.0585128635955146 6.9919524476484893 0
          4.0571428044447249 6.9997063582252155 0
          4.0557718094977204 7.0074601120663305 0
          4.0544047854374359 7.0152145807101345 0
          4.0530467794174951 7.0229706528829636 0
          4.051702968089324 7.030729221957964 0
          4.0503786455502864 7.0384911724475616 0
          4.0490792131260731 7.0462573661521866 0
          4.047810166935669 7.0540286273914035 0
          4.0465770858449792 7.0618057279108317 0
          4.045385613484231 7.069589370628 0
          4.0442414481827988 7.0773801746133334 0
          4.0431503336297787 7.0851786601746873 0
          4.0421180397817391 7.0929852327401326 0
          4.041150344365251 7.1008001674126913 0
          4.040253016229892 7.1086235945081233 0
          4.0390698896192063 7.1164089132101287 0
          4.0376169782168523 7.1241484060307023 0
          4.0359107613128646 7.1318360068304942 0
          4.033967859821062 7.1394672029943864 0
          4.0317955676470341 7.1470362736399125 0
          4.0294107539649229 7.1545410699297571 0
          4.0268206083055818 7.1619774731865427 0
          4.0240322154406289 7.1693418116871586 0
          4.0210527176582413 7.1766309063070111 0
          4.0178892933799855 7.1838420620238903 0
          4.0145489605757101 7.190972975756261 0
          4.0110383822600699 7.19802161750032 0
          4.0073642075561056 7.2049863665328537 0
          4.0035242424880275 7.2118610893464599 0
          3.9995427637939662 7.2186548168774154 0
          3.9954349476106277 7.2253728877957961 0
          3.991215948685126 7.2320216746612775 0
          3.9869008145974498 7.2386084485206448 0
          3.9825043966443734 7.2451412199670555 0
          3.9780416432602044 7.2516288248759162 0
          3.973527395816371 7.2580806712153869 0
          3.9689877666255091 7.2645146437236976 0
          3.9644499938705717 7.2709498801827079 0
          3.9599181648799116 7.2773892628614139 0
          3.9554087681792627 7.2838443338940264 0
          3.9509259297424419 7.2903178413980285 0
          3.9464739549174119 7.2968125821031613 0
          3.9420571645129239 7.3033312744660295 0
          3.9376925954593514 7.3098850210327795 0
          3.9333847376181925 7.3164761623758405 0
          3.9291381173813642 7.323106907375184 0
          3.9249571131209589 7.329779207940005 0
          3.9208463101072857 7.3364949777544419 0
          3.9168240653010771 7.3432641520222983 0
          3.9128952238421952 7.3500879584498531 0
          3.9090644685422204 7.3569673074690005 0
          3.9053366929979507 7.3639030019740384 0
          3.9017168010680918 7.3708956142961153 0
          3.8982243143730781 7.3779527317675937 0
          3.8948643882412246 7.3850739276658217 0
          3.8916421551642761 7.3922584908255917 0
          3.8885627121205566 7.3995054208464488 0
          3.8856308909569983 7.4068133375464402 0
          3.8828516651142553 7.4141806577914906 0
          3.880246055909268 7.4216111797245032 0
          3.8778188659506352 7.4291019062141856 0
          3.8755749752830546 7.4366495941330903 0
          3.8735190942056419 7.4442506741401093 0
          3.8716557413041475 7.4519012575249475 0
          3.8699889683341864 7.4595970902066746 0
          3.8685228224200738 7.4673336829691443 0
          3.8672785456018572 7.4751090803238247 0
          3.8662597495740494 7.4829172608959258 0
          3.8654694231226721 7.4907519041171113 0
          3.864910418480684 7.4986064828359433 0
          3.8645851615484208 7.5064742503367308 0
          3.8644953617550764 7.514348269561717 0
          3.8646608129496602 7.5222211149806109 0
          3.865082459708777 7.5300844568242775 0
          3.8657606647187577 7.5379298929918184 0
          3.8666949164284707 7.5457490325363414 0
          3.867884352937379 7.5535335038627798 0
          3.8693457917762273 7.5612715999869824 0
          3.8710768061665508 7.5689539677181212 0
          3.8730742442874013 7.5765714968473921 0
          3.8753526699283531 7.5841098566459015 0
          3.8779070176776882 7.5915593593012378 0
          3.8807311351538556 7.5989109543134319 0
          3.8838369740666776 7.6061481846886503 0
          3.8872161830100063 7.6132620443375734 0
          3.8908598846840636 7.6202443067468701 0
          3.8947762997490969 7.6270775486704903 0
          3.8989538901214327 7.633754557111895 0
          3.9033982477371194 7.6402573376310619 0
          3.9081147266341616 7.6465658825502185 0
          3.9130874853081692 7.6526748464682575 0
          3.9183176368084767 7.6585654297582195 0
          3.9237399206125803 7.6642801010715509 0
          3.9293330938660866 7.6698281276546547 0
          3.9350901678221835 7.6752064788558565 0
          3.9410026156282569 7.6804142470328216 0
          3.9470773505227683 7.6854326591699298 0
          3.9533093905044878 7.6902554382741242 0
          3.9597022947423395 7.694864285453483 0
          3.9663056295671395 7.6991684040845065 0
        </DataArray>
      </Points>
      <Cells>
        <DataArray type="Int32" Name="connectivity" format="ascii">
          0 1 1 2 2 3 3 4 4 5 5 6 6 7 7 8 8 9 9 10 10 11 11 12 12 13 13 14 14 15 15 16 16 17 17 18 18 19 19 20 20 21 21 22 22 23 23 24 24 25 25 26 26 27 27 28 28 29 29 30 30 31 31 32 32 33 33 34 34 35 35 36 36 37 37 38 38 39 39 40 40 41 41 42 42 43 43 44 44 45 45 46 46 47 47 48 48 49 49 50 50 51 51 52 52 53 53 54 54 55 55 56 56 57 57 58 58 59 59 60 60 61 61 62 62 63 63 64 64 65 65 66 66 67 67 68 68 69 69 70 70 71 71 72 72 73 73 74 74 75 75 76 76 77 77 78 78 79 79 80 80 81 81 82 82 83 83 84 84 85 85 86 86 87 87 88 88 89 89 90 90 91 91 92 92 93 93 94 94 95 95 96 96 97 97 98 98 99 99 100 100 101 101 102 102 103 103 104 104 105 105 106 106 107 107 108 108 109 109 110 110 111 111 112 112 113 113 114 114 115 115 116 116 117 117 118 118 119 119 120 120 121 121 122 122 123 123 124 124 125 125 126 126 127 
        </DataArray>
        <DataArray type="Int32" Name="offsets" format="ascii">
          2 4 6 8 10 12 14 16 18 20 22 24 26 28 30 32 34 36 38 40 42 44 46 48 50 52 54 56 58 60 62 64 66 68 70 72 74 76 78 80 82 84 86 88 90 92 94 96 98 100 102 104 106 108 110 112 114 116 118 120 122 124 126 128 130 132 134 136 138 140 142 144 146 148 150 152 154 156 158 160 162 164 166 168 170 172 174 176 178 180 182 184 186 188 190 192 194 196 198 200 202 204 206 208 210 212 214 216 218 220 222 224 226 228 230 232 234 236 238 240 242 244 246 248 250 252 254 
        </DataArray>
        <DataArray type="Int32" Name="types" format="ascii">
          3 3 3 3 3 3 3 3 3 3 3 3 3 3 3 3 3 3 3 3 3 3 3 3 3 3 3 3 3 3 3 3 3 3 3 3 3 3 3 3 3 3 3 3 3 3 3 3 3 3 3 3 3 3 3 3 3 3 3 3 3 3 3 3 3 3 3 3 3 3 3 3 3 3 3 3 3 3 3 3 3 3 3 3 3 3 3 3 3 3 3 3 3 3 3 3 3 3 3 3 3 3 3 3 3 3 3 3 3 3 3 3 3 3 3 3 3 3 3 3 3 3 3 3 3 3 3         </DataArray>
      </Cells>
    </Piece>
  </UnstructuredGrid>
</VTKFile>
