<?xml version="1.0"?>
<VTKFile type="UnstructuredGrid" version="0.1" byte_order="LittleEndian">
  <UnstructuredGrid>
    <Piece NumberOfPoints="128" NumberOfCells="127">
      <PointData Scalars="W">
        <DataArray type="Float32" Name="W" NumberOfComponents="2">
          0 0 -0.39273497596605211 -0.30935116499922555 -0.61130140703876024 -0.48653152748785111 -0.75635924941222799 -0.61056178970860286 -0.85899303934699034 -0.70513164061513389 -0.93234364334284059 -0.77975458564967315 -0.98349615664137291 -0.83918561757847632 -1.0169363120905925 -0.88616751814889294 -1.0357874634927307 -0.92241659298932344 -1.042424160916388 -0.94911915158397997 -1.0386780794223569 -0.96709111206264731 -1.0260629981082445 -0.97696469246545292 -1.0058584532982546 -0.9792567844764497 -0.97915545578730445 -0.97440420916408554 -0.94691515345322985 -0.9628141599860579 -0.90997813649210357 -0.94486822907350199 -0.86902034481625579 -0.92086810856013546 -0.82468870428164887 -0.89116909558642876 -0.77752882957278691 -0.85610097570810928 -0.72799312865505206 -0.81596821388290353 -0.67648051499635942 -0.77108699692060811 -0.62335421879905839 -0.72180142146999038 -0.56891870642559539 -0.66845268223276399 -0.51342566754225327 -0.61137967888453271 -0.45709916265722295 -0.55094321895900933 -0.40008134908145448 -0.48745500317957308 -0.34252397824801267 -0.42128188108392445 -0.28458770296400826 -0.35284251765937669 -0.2263487675171578 -0.28248644858543831 -0.16766656344346265 -0.21031876794781038 -0.10882293105735734 -0.13699663160425843 -0.049851876842961336 -0.062887912722114511 0.0092184015470164107 0.011635124628350407 0.068371868522131243 0.086209320893768315 0.1275842403563634 0.16046031411240808 0.18682725100094447 0.23401346225550373 0.2459932269712545 0.30640572529814875 0.30505714138544421 0.37729499235651437 0.36399220650312336 0.44635795417766549 0.42265906301157818 0.51316002429230512 0.48091427145021315 0.57729740365257864 0.53860903175218711 0.63840030799065373 1.1026163307540178 1.2808360375903931 1.4177889919473436 1.5976142623245639 1.4919662728171204 1.6243817016718736 1.8373796240321956 1.9250490033720977 1.9223163686316518 1.9303556742685926 2.3004577008826872 2.2049629402562103 2.70921691325715 2.4600996132335986 2.8230054570935059 2.4176048199237505 3.2718543516294747 2.6297670133867759 3.7567442528429789 2.8088873551107802 4.2798625944624504 2.9474384254811561 5.2625577539161323 3.2860922081527923 10.126538053812267 5.3829409418540468 10.628208201756019 4.4683883939077997 11.05447354422151 3.5032011970536554 2.1568789736738938 0.55634235145404609 2.208553911609985 0.52812861877252337 1.9163485243219085 0.42460690063952156 1.9634774015560221 0.4029752279974535 2.0110928196900208 0.37941899411994467 2.0589817540187472 0.35382896889625831 2.1069359911009116 0.32611030088164999 2.5011020800288883 0.34028684903838885 2.5544092567093668 0.29546701941792103 2.6029860550740174 0.24733237410851799 2.6546965623170777 0.19668546701868023 2.7053676006479495 0.14298424443352667 2.7548699264826069 0.086201293064390422 2.8029271952584849 0.026314559584587408 2.8494154652437014 -0.036680347766634758 2.8941676094576056 -0.10278131014054802 2.5887292530440011 -0.14801229694678664 2.6305019254659947 -0.20484040356872987 2.6705325670198388 -0.26436575127600537 2.7045858851791453 -0.32602765572414166 2.7407775441501463 -0.39070017282704483 2.7748119408330534 -0.4579779075820361 2.8065402786606248 -0.52781257185310715 2.8358704895543974 -0.60015904214529181 2.5347909740242125 -0.59409503726140889 2.5622514581175619 -0.65667663799482112 2.5874276123745004 -0.7213371668472971 2.6101807736038176 -0.78800551266028906 2.6303776817040441 -0.85660148225287258 2.6518067341238556 -0.92845587729744383 2.361984758143612 -0.88306873046316892 2.3787472234521214 -0.94399688737018028 2.3929611921760356 -1.0063294376574481 2.4045541326093183 -1.0699762447091934 2.1290038906149822 -0.99785761773173454 2.1440346091458906 -1.0541528294717133 2.1529054946191244 -1.1096441950185261 2.1591450599393744 -1.1658591330428354 1.8982146328679679 -1.0701419835676436 1.9044575008468247 -1.1174491952979566 1.9080986793272885 -1.1649384030544041 1.9123076505725258 -1.2145479851801695 1.6652560853885887 -1.097264503030396 1.6657449849243844 -1.1357111401287336 1.6633674723763312 -1.1733942214824031 1.6579416816531118 -1.2099989809473044 1.6492867253457335 -1.2451752998484591 1.6372711009549081 -1.2785730861844977 1.6216230736929615 -1.3096911973434053 1.5992449979471284 -1.3355704327093578 1.5759711868698778 -1.3606245286648362 1.5486126349500706 -1.3818900563353604 1.51687890760222 -1.3986342556585918 1.4777105841900526 -1.4073692370494 1.4367775150701887 -1.4128183505224856 1.5959576576811025 -1.6232862721386112 1.5347139170126967 -1.617414630188011 1.6746659103891151 -1.8317933112298668 1.5937977878977163 -1.8122710915034408 1.7083021298366436 -2.0223369581968202 1.6088328714309621 -1.9857037161108839 1.6978283090702018 -2.1877646965212478 1.7676044918840428 -2.3871475996679812 1.0053065745081515 -1.4115874795928192 1.0195124189982701 -1.4744247127502625 0.99167612652977732 -1.4781881544956639 0.93156654399666139 -1.4306610328373484 0.73976818878238493 -1.1668973831280085 0.81115688129926988 -1.3126910863256842 1.4792896173451742 -2.4902419909399764 0 0
        </DataArray>
        <DataArray type="Float32" Name="u" NumberOfComponents="1">
          0 0.007874015748031496 0.015748031496062992 0.023622047244094488 0.031496062992125984 0.03937007874015748 0.047244094488188976 0.055118110236220472 0.062992125984251968 0.070866141732283464 0.07874015748031496 0.086614173228346455 0.094488188976377951 0.10236220472440945 0.11023622047244094 0.11811023622047244 0.12598425196850394 0.13385826771653545 0.14173228346456693 0.14960629921259844 0.15748031496062992 0.16535433070866143 0.17322834645669291 0.18110236220472442 0.1889763779527559 0.19685039370078741 0.20472440944881889 0.2125984251968504 0.22047244094488189 0.2283464566929134 0.23622047244094488 0.24409448818897639 0.25196850393700787 0.25984251968503935 0.26771653543307089 0.27559055118110237 0.28346456692913385 0.29133858267716534 0.29921259842519687 0.30708661417322836 0.31496062992125984 0.32283464566929132 0.33070866141732286 0.33858267716535434 0.34645669291338582 0.3543307086614173 0.36220472440944884 0.37007874015748032 0.37795275590551181 0.38582677165354329 0.39370078740157483 0.40157480314960631 0.40944881889763779 0.41732283464566927 0.42519685039370081 0.43307086614173229 0.44094488188976377 0.44881889763779526 0.45669291338582679 0.46456692913385828 0.47244094488188976 0.48031496062992124 0.48818897637795278 0.49606299212598426 0.50393700787401574 0.51181102362204722 0.51968503937007871 0.52755905511811019 0.53543307086614178 0.54330708661417326 0.55118110236220474 0.55905511811023623 0.56692913385826771 0.57480314960629919 0.58267716535433067 0.59055118110236215 0.59842519685039375 0.60629921259842523 0.61417322834645671 0.62204724409448819 0.62992125984251968 0.63779527559055116 0.64566929133858264 0.65354330708661412 0.66141732283464572 0.6692913385826772 0.67716535433070868 0.68503937007874016 0.69291338582677164 0.70078740157480313 0.70866141732283461 0.71653543307086609 0.72440944881889768 0.73228346456692917 0.74015748031496065 0.74803149606299213 0.75590551181102361 0.76377952755905509 0.77165354330708658 0.77952755905511806 0.78740157480314965 0.79527559055118113 0.80314960629921262 0.8110236220472441 0.81889763779527558 0.82677165354330706 0.83464566929133854 0.84251968503937003 0.85039370078740162 0.8582677165354331 0.86614173228346458 0.87401574803149606 0.88188976377952755 0.88976377952755903 0.89763779527559051 0.90551181102362199 0.91338582677165359 0.92125984251968507 0.92913385826771655 0.93700787401574803 0.94488188976377951 0.952755905511811 0.96062992125984248 0.96850393700787396 0.97637795275590555 0.98425196850393704 0.99212598425196852 1
        </DataArray>
      </PointData>
      <CellData Scalars="P">
        <DataArray type="Float32" Name="P" NumberOfComponents="1">
          -0.02444426326517157 -0.072248347695008028 -0.11822398217342016 -0.16247695799435038 -0.2054464503614393 -0.24773450055252455 -0.2900161003014618 -0.33298163398620678 -0.37729718902648379 -0.42357592409456046 -0.47235767501788878 -0.52409421904201103 -0.57913941192716845 -0.63774321926904753 -0.70004918424245666 -0.76609468349821386 -0.8358122615340875 -0.9090346520498902 -0.98550030614332318 -1.064859803684931 -1.1466841606726035 -1.2304748820254932 -1.3156739646548761 -1.4016744533487666 -1.4878326265835131 -1.5734771151190439 -1.6579234061195394 -1.7404893273781925 -1.8205036626639859 -1.8973017063791466 -1.970273639380923 -2.0388589605073277 -2.102558839841703 -2.1609472092395898 -2.2136830319031815 -2.2605213391252863 -2.3013311226770612 -2.3360951787418571 -2.3649170918038855 -2.3880384908885093 -2.4058429551080591 -2.4188579335526907 -2.3548012106572229 -2.2653589105934495 -2.1761422753247603 -2.0647201087914353 -1.9562891839727623 -1.8293874056255939 -1.6858709683680835 -1.549053947885884 -1.3987030457677678 -1.2359811804567207 -1.0614777116071326 -0.85448528507278665 -0.46837747285567533 -0.082795055144127244 0.31152567030903344 0.35204808413668121 0.39728835714731953 0.43118720821244544 0.46869253699838065 0.50948715972785297 0.55324194543365612 0.59961650709268544 0.66483137527528335 0.7322366136700067 0.80134533718050105 0.87206238481211373 0.94411147698519426 1.0172309297179847 1.0911686778760836 1.1656912989423596 1.2405838718403732 1.3002038642046669 1.3600117863531289 1.4197434056586149 1.4789728213755093 1.5376395503304023 1.5955187488319544 1.6524024963306323 1.7081040631919446 1.749903378984774 1.7905400408441912 1.8297771991586613 1.867391491913303 1.9031755619049588 1.9370718841788275 1.9588895153242891 1.978775572065022 1.9964981573705951 2.0118429256003032 2.0166853054342071 2.0193106441689843 2.0193661546095525 2.0166171458092657 2.004937709457042 1.9905176890892864 1.9730984919252967 1.9524975292281974 1.9246232900361233 1.8936066273501038 1.8592067500518681 1.8212084120693213 1.7794271939415551 1.7337151655648442 1.6839655877242103 1.6301196011127916 1.572177718506107 1.5101896376696387 1.4442680465782587 1.374622850620359 1.3014807790495533 1.2219640153316993 1.1393112708714175 1.0499166505495536 0.95841893369719344 0.86081719947278579 0.76287375795684276 0.66051827508152716 0.55506935317538098 0.47078440587842091 0.38725271091874236 0.30632912685329222 0.22952275372301947 0.1598547495741508 0.093184632310972543 0.026947152469903798
        </DataArray>
      </CellData>
      <Points>
        <DataArray type="Float32" NumberOfComponents="3" format="ascii">
          4.3044618440550533 6.4545978893161733 0
          4.2995994191465394 6.4607960230831445 0
          4.2947126677112966 6.4669748997949039 0
          4.2897880522682676 6.4731234927684813 0
          4.2848165913259022 6.479234083996972 0
          4.2797919329333318 6.4853007902368578 0
          4.2747095400999946 6.4913189709699353 0
          4.2695662514756965 6.4972849323608539 0
          4.2643600031101174 6.5031957563875205 0
          4.2590896346494587 6.5090491938253114 0
          4.2537547419511368 6.5148435902107495 0
          4.2483555633658812 6.5205778348474164 0
          4.2428928857440944 6.5262513212526923 0
          4.2373679649852294 6.5318639147940551 0
          4.2317824582988282 6.5374159253225397 0
          4.2261383645408683 6.5429080816716736 0
          4.2204379720491358 6.5483415077710321 0
          4.2146838167115313 6.5537177037411123 0
          4.2088786418542057 6.5590385236895017 0
          4.2030253644318085 6.5643061551153847 0
          4.1971270470153446 6.5695230999100396 0
          4.1911868731127608 6.5746921546563621 0
          4.185208124715933 6.5798163892236596 0
          4.1791941635031495 6.584899125567973 0
          4.1731484153237322 6.5899439166996299 0
          4.1670743564036341 6.5949545243166297 0
          4.1609755046353296 6.5999348995057758 0
          4.1548554102774151 6.6048891600465298 0
          4.1487176461055144 6.6098215645230383 0
          4.1425658027984262 6.6147364907413406 0
          4.1364034977705355 6.6196384293202879 0
          4.130234357812018 6.6245319430702585 0
          4.1240620170940385 6.6294216443218703 0
          4.1178901155328225 6.6343121719951039 0
          4.11172229790595 6.639208169244144 0
          4.1055622124549789 6.6441142604171413 0
          4.0994135092384774 6.6490350280065851 0
          4.0932798335570411 6.6539749841232885 0
          4.0871648244997161 6.6589385494746631 0
          4.0810721133775791 6.6639300335135676 0
          4.0750053151695962 6.668953607687147 0
          4.0689680197081897 6.6740132805955001 0
          4.0629637825240774 6.6791128752601647 0
          4.0570281146526739 6.6842918265954436 0
          4.0511805762939845 6.6895697776593233 0
          4.04542575440811 6.694948389933133 0
          4.0397850808498825 6.7004463036320843 0
          4.0342638078438577 6.7060638477286245 0
          4.0288853925304302 6.7118180430374279 0
          4.0236751870498955 6.7177247005815648 0
          4.018640228141094 6.7237811828308613 0
          4.0138083486371778 6.7300006338182445 0
          4.0092096116676368 6.7363941473151048 0
          4.0048764458079171 6.742970300756304 0
          4.0008697852420569 6.7497500671085122 0
          3.997491021791777 6.7568639992774751 0
          3.9947713412883936 6.7642554628923914 0
          3.9927372766008866 6.771864676689983 0
          3.9908370351548559 6.7795083388080419 0
          3.9890738184664074 6.7871847013971145 0
          3.9874294921139799 6.7948873621094359 0
          3.9859069771986797 6.8026149814486017 0
          3.9845092251269332 6.8103661004880118 0
          3.9832392043968743 6.8181391340817843 0
          3.9820998876820033 6.825932364968363 0
          3.9811157259597523 6.8337466580679518 0
          3.9802900229451246 6.8415792350804336 0
          3.9796257890181415 6.8494271121816608 0
          3.9791262290718246 6.8572871494186938 0
          3.9787944836063445 6.8651560172685766 0
          3.9786336206990143 6.8730301949295889 0
          3.9786466188480096 6.8809059689530345 0
          3.9788363592684157 6.888779432965098 0
          3.9792056155079223 6.8966464877962652 0
          3.9797354411977888 6.9045043437978446 0
          3.980428426254341 6.912349476363258 0
          3.981287052501072 6.920178193407386 0
          3.9823134309739832 6.9279866703185276 0
          3.9835098052416451 6.9357708953890898 0
          3.9848782849546276 6.9435266951461996 0
          3.9864208365911331 6.9512497373551101 0
          3.9881392777203559 6.9589355338275167 0
          3.9900149358016073 6.9665844732215518 0
          3.9920495130274798 6.9741926723242358 0
          3.9942445696760251 6.9817561188044053 0
          3.9966015154834937 6.9892706756429988 0
          3.9991216013534459 6.9967320861312388 0
          4.0018061542420824 7.0041358912002591 0
          4.0046372010140194 7.0114849158296737 0
          4.0076157794203313 7.0187753781568185 0
          4.0107427687876358 7.0260034091346109 0
          4.0140188855020789 7.0331650581613907 0
          4.0174270419192331 7.040264806283945 0
          4.0209681675149769 7.0472991581916284 0
          4.0246428093825806 7.0542646685833761 0
          4.0284513510111468 7.0611578473420913 0
          4.0323776113872558 7.0679846374765178 0
          4.0364219740231313 7.0747421009580789 0
          4.0405846606864522 7.0814272886050968 0
          4.0448659279102985 7.0880371198099832 0
          4.049250455195188 7.094578873743715 0
          4.0537382682734195 7.1010501620678266 0
          4.0583292148268271 7.1074486440944016 0
          4.0630229532634408 7.1137720463790695 0
          4.0678189415685786 7.1200181845065798 0
          4.0727164292318845 7.1261849848719745 0
          4.077714440496762 7.1322705158312525 0
          4.08281158245605 7.1382731713633119 0
          4.0880064068341326 7.1441913972270426 0
          4.0932972124452727 7.1500238748878893 0
          4.0986820273473041 7.1557695670052901 0
          4.1041584193745555 7.1614279338152143 0
          4.1097238477675191 7.1669986401133654 0
          4.1153881768233287 7.1724686352458207 0
          4.1211476092981822 7.1778382893892561 0
          4.1270108210945962 7.1830943143950119 0
          4.1329728027122314 7.1882379303207617 0
          4.1390406583813597 7.1932561215760558 0
          4.1452082317871639 7.1981511723438887 0
          4.1514810543720531 7.2029105680353247 0
          4.1578634724906305 7.2075219628870766 0
          4.1643082432960528 7.212045855225707 0
          4.1708162717574426 7.2164783639024339 0
          4.1773858618701976 7.2208192721675148 0
          4.1840133225753862 7.2250715451221659 0
          4.1906867997911972 7.2292515555855408 0
          4.1974107773107843 7.2333502905950056 0
          4.2042268020543414 7.2372947790658833 0
        </DataArray>
      </Points>
      <Cells>
        <DataArray type="Int32" Name="connectivity" format="ascii">
          0 1 1 2 2 3 3 4 4 5 5 6 6 7 7 8 8 9 9 10 10 11 11 12 12 13 13 14 14 15 15 16 16 17 17 18 18 19 19 20 20 21 21 22 22 23 23 24 24 25 25 26 26 27 27 28 28 29 29 30 30 31 31 32 32 33 33 34 34 35 35 36 36 37 37 38 38 39 39 40 40 41 41 42 42 43 43 44 44 45 45 46 46 47 47 48 48 49 49 50 50 51 51 52 52 53 53 54 54 55 55 56 56 57 57 58 58 59 59 60 60 61 61 62 62 63 63 64 64 65 65 66 66 67 67 68 68 69 69 70 70 71 71 72 72 73 73 74 74 75 75 76 76 77 77 78 78 79 79 80 80 81 81 82 82 83 83 84 84 85 85 86 86 87 87 88 88 89 89 90 90 91 91 92 92 93 93 94 94 95 95 96 96 97 97 98 98 99 99 100 100 101 101 102 102 103 103 104 104 105 105 106 106 107 107 108 108 109 109 110 110 111 111 112 112 113 113 114 114 115 115 116 116 117 117 118 118 119 119 120 120 121 121 122 122 123 123 124 124 125 125 126 126 127 
        </DataArray>
        <DataArray type="Int32" Name="offsets" format="ascii">
          2 4 6 8 10 12 14 16 18 20 22 24 26 28 30 32 34 36 38 40 42 44 46 48 50 52 54 56 58 60 62 64 66 68 70 72 74 76 78 80 82 84 86 88 90 92 94 96 98 100 102 104 106 108 110 112 114 116 118 120 122 124 126 128 130 132 134 136 138 140 142 144 146 148 150 152 154 156 158 160 162 164 166 168 170 172 174 176 178 180 182 184 186 188 190 192 194 196 198 200 202 204 206 208 210 212 214 216 218 220 222 224 226 228 230 232 234 236 238 240 242 244 246 248 250 252 254 
        </DataArray>
        <DataArray type="Int32" Name="types" format="ascii">
          3 3 3 3 3 3 3 3 3 3 3 3 3 3 3 3 3 3 3 3 3 3 3 3 3 3 3 3 3 3 3 3 3 3 3 3 3 3 3 3 3 3 3 3 3 3 3 3 3 3 3 3 3 3 3 3 3 3 3 3 3 3 3 3 3 3 3 3 3 3 3 3 3 3 3 3 3 3 3 3 3 3 3 3 3 3 3 3 3 3 3 3 3 3 3 3 3 3 3 3 3 3 3 3 3 3 3 3 3 3 3 3 3 3 3 3 3 3 3 3 3 3 3 3 3 3 3         </DataArray>
      </Cells>
    </Piece>
  </UnstructuredGrid>
</VTKFile>
