<?xml version="1.0"?>
<VTKFile type="UnstructuredGrid" version="0.1" byte_order="LittleEndian">
  <UnstructuredGrid>
    <Piece NumberOfPoints="128" NumberOfCells="127">
      <PointData Scalars="W">
        <DataArray type="Float32" Name="W" NumberOfComponents="2">
          0 0 0.16827112623979487 0.016242625379482612 0.23018956429654158 0.021853291445475796 0.29220717264039964 0.02713202315907378 0.35561423015224924 0.032101030292166245 0.42094685938903231 0.036696291921549468 0.48866739154084254 0.040830622665691603 0.55912251919603972 0.04438792343375364 0.63256378464210306 0.047223951374941835 0.70906205226305719 0.049160342472904878 0.78868313893882402 0.04999906958339536 0.87143843473717886 0.049518627367161443 0.95728185810823974 0.047474909688386385 1.0460868067452356 0.043602168642587924 1.1376676887249739 0.037617440033985469 1.2318233497670374 0.029225057261260838 1.3284354647824794 0.01811930010996261 1.4272731958764147 0.0039803044611691702 1.5280936110519514 -0.013519471704424545 1.6306848922800006 -0.0347145284531679 1.7347772880816119 -0.059944253423376198 1.8400521334656104 -0.089548076346135666 1.9461985697688777 -0.12386425040863402 2.0529082233613076 -0.16322907876584375 2.1597800731274575 -0.20796656934174187 2.2664810228500807 -0.25839790121281431 2.3725906482276553 -0.31482605025499349 2.4775695973856493 -0.37752041069076864 2.5809213993406486 -0.44673084877634678 2.6824871150751632 -0.52275215884977622 2.7813908173058302 -0.60572857015475479 2.8770658582219655 -0.69581393566123007 2.9688994192731188 -0.79311328677527704 3.0562865850763186 -0.89769061895017033 3.1385672940197211 -1.0095469770427352 3.21508218626346 -1.1286289970450625 3.2850667345044409 -1.2547835592779759 3.3478941874578392 -1.3878376954599541 3.402936610293958 -1.5275555558398808 3.4494067798025161 -1.6735537362036732 3.4865933318536753 -1.8253853902643804 3.5138316386345592 -1.9825289899335479 -3.8109962125100574 2.1435109198611011 -3.7463770789527286 1.9433705994171755 -3.6681960131097 1.7534123752705122 -3.578826116916852 1.5746281808825444 -3.5347207689095859 1.4285970063164439 -3.4275139105852892 1.2693756302415957 -3.370336234694626 1.1404583797277574 -3.3081833909078693 1.0184465383784673 -3.2415878961809805 0.90332059920363073 -3.1710676028956453 0.79503012977492671 -3.097066183975123 0.69348323681429547 -3.0200587499628719 0.59857705484849066 -2.9417800283832496 0.51039021271602802 -2.9217275015454351 0.43679563338847271 -2.7161551991472086 0.3440279029058777 -2.5675521783890418 0.2707031673028798 -2.4146543664718125 0.20656214215266575 -2.2594974349717849 0.15134004403153406 -2.1006699649592089 0.10445259894134082 -1.9402878953325091 0.065524914631707745 -1.7766539630415725 0.033970058898931572 -1.5296234181187915 0.0093294213979263213 -1.2721960822626128 -0.0062749602170837594 -1.1867684566591832 -0.017344972255835332 -1.0124780406928262 -0.023569290322324896 -0.92926411316374458 -0.028744208355762042 -0.847261453551444 -0.032144364037934137 -0.76782333722879526 -0.034025388022182079 -0.59442157262694084 -0.029539862996669285 -0.51661870055013925 -0.027942403791962073 -0.44164152717593369 -0.025561149033105222 -0.36696580466037027 -0.022413554533116876 -0.29397995100736352 -0.018725181257453229 -0.12681835805354047 -0.0082891621912759717 -0.057399148158082787 -0.0037936506555200822 0.010105331357125744 0.00066978012769483694 0.075622486347171641 0.0049865581007015897 0.13770548554274831 0.0089639192344773966 0.29956540683425559 0.01898126543019216 0.35857075447228126 0.021785539063169459 0.41519956453886514 0.023954610344194393 0.46787039450947276 0.025359141967409272 0.51930491506448051 0.026120392538214274 0.56794397757790116 0.02612732231283478 0.71636033056831294 0.029322572362225623 0.75899392705994606 0.026649487977800788 0.79834456756168648 0.023128722679054376 0.83424788143767259 0.0188013375321778 0.86647191375498489 0.013722626880922443 0.89331529343594152 0.0079571086308021372 0.91762592109756969 0.0016308969369862 1.045431806303228 -0.0062218439167543308 1.0608753780903706 -0.015112643963205859 1.0699713817388001 -0.024223168424355911 1.0755615998472408 -0.03344504406615479 1.0758221647611574 -0.042582706526225846 1.0688669142714049 -0.051358832602187404 1.1688873434193632 -0.066505805280254543 1.1512698394972711 -0.076079804330383402 1.1270309912627006 -0.08466326214535301 1.0941555997692662 -0.091853233528635794 1.0556310996537177 -0.097658707337543185 1.1239793354032546 -0.11376361169816103 1.0675089295783791 -0.11741340741730745 1.0040044777173813 -0.1187780050225191 1.047678992924179 -0.13259939551403541 0.96471125445955797 -0.12993890847381803 0.87115967506692948 -0.1238172312932907 0.8862598329334811 -0.13229253691277035 0.76682256735110521 -0.1196306615136348 0.63596812882375287 -0.1028628406001503 0.61429195864790775 -0.10250439151053552 0.45262173641982423 -0.077510706247165009 0.40102810756456814 -0.070084400955376408 0.33375080039983579 -0.059337940206486611 0.11799642517582172 -0.021198754362719327 0.010015096655555876 -0.0018045669896358891 -0.65732411519626466 0.11668339292407631 -1.0192005893195506 0.17388419294308366 -1.2983544700401057 0.20916780527665876 -1.6298411626511664 0.24309283692305683 -1.8662824545072159 0.25187770667107306 -2.2566055712307276 0.26702621892023432 -2.6868845676549427 0.2646953512221884 -2.7491471591393597 0.21127322148241259 0 0
        </DataArray>
        <DataArray type="Float32" Name="u" NumberOfComponents="1">
          0 0.007874015748031496 0.015748031496062992 0.023622047244094488 0.031496062992125984 0.03937007874015748 0.047244094488188976 0.055118110236220472 0.062992125984251968 0.070866141732283464 0.07874015748031496 0.086614173228346455 0.094488188976377951 0.10236220472440945 0.11023622047244094 0.11811023622047244 0.12598425196850394 0.13385826771653545 0.14173228346456693 0.14960629921259844 0.15748031496062992 0.16535433070866143 0.17322834645669291 0.18110236220472442 0.1889763779527559 0.19685039370078741 0.20472440944881889 0.2125984251968504 0.22047244094488189 0.2283464566929134 0.23622047244094488 0.24409448818897639 0.25196850393700787 0.25984251968503935 0.26771653543307089 0.27559055118110237 0.28346456692913385 0.29133858267716534 0.29921259842519687 0.30708661417322836 0.31496062992125984 0.32283464566929132 0.33070866141732286 0.33858267716535434 0.34645669291338582 0.3543307086614173 0.36220472440944884 0.37007874015748032 0.37795275590551181 0.38582677165354329 0.39370078740157483 0.40157480314960631 0.40944881889763779 0.41732283464566927 0.42519685039370081 0.43307086614173229 0.44094488188976377 0.44881889763779526 0.45669291338582679 0.46456692913385828 0.47244094488188976 0.48031496062992124 0.48818897637795278 0.49606299212598426 0.50393700787401574 0.51181102362204722 0.51968503937007871 0.52755905511811019 0.53543307086614178 0.54330708661417326 0.55118110236220474 0.55905511811023623 0.56692913385826771 0.57480314960629919 0.58267716535433067 0.59055118110236215 0.59842519685039375 0.60629921259842523 0.61417322834645671 0.62204724409448819 0.62992125984251968 0.63779527559055116 0.64566929133858264 0.65354330708661412 0.66141732283464572 0.6692913385826772 0.67716535433070868 0.68503937007874016 0.69291338582677164 0.70078740157480313 0.70866141732283461 0.71653543307086609 0.72440944881889768 0.73228346456692917 0.74015748031496065 0.74803149606299213 0.75590551181102361 0.76377952755905509 0.77165354330708658 0.77952755905511806 0.78740157480314965 0.79527559055118113 0.80314960629921262 0.8110236220472441 0.81889763779527558 0.82677165354330706 0.83464566929133854 0.84251968503937003 0.85039370078740162 0.8582677165354331 0.86614173228346458 0.87401574803149606 0.88188976377952755 0.88976377952755903 0.89763779527559051 0.90551181102362199 0.91338582677165359 0.92125984251968507 0.92913385826771655 0.93700787401574803 0.94488188976377951 0.952755905511811 0.96062992125984248 0.96850393700787396 0.97637795275590555 0.98425196850393704 0.99212598425196852 1
        </DataArray>
      </PointData>
      <CellData Scalars="P">
        <DataArray type="Float32" Name="P" NumberOfComponents="1">
          0.0053243190085538452 0.016035900669279603 0.026898021509879681 0.038036898750020726 0.049620213103633508 0.061859151023901333 0.075011016742225239 0.089381576951603467 0.10532696554326716 0.12325386364562856 0.14361996811894054 0.16693326312820417 0.19375017725663304 0.22467206787011459 0.26034059377912189 0.30143279799447853 0.34865817836833979 0.4027502805994293 0.46445963671502333 0.5345476939266034 0.61377723297823072 0.70290197619975225 0.80265783367738253 0.9137538176299429 1.036857838221833 1.1725900237717775 1.3215079195313049 1.4840884656639444 1.6607189254716641 1.8517087935221304 2.0572320019784947 2.2773350024499646 2.5119225895272375 2.7607479553763357 3.023398389979397 3.2992857249169192 3.5876286115356653 3.8874558961874115 4.197600017206792 4.5166772097527854 4.8430893549712568 5.1750252007909694 4.8380126579016931 4.506803345773621 4.1826510948976576 3.8666214096526246 3.5544252956447191 3.2521369309399848 2.9550483775918348 2.6637214187558809 2.378677273295585 2.1003959365668043 1.8293212538276533 1.5658559802181404 1.3102404966227144 1.0570914545617389 0.82404719320444464 0.60578161378494122 0.40274981397174447 0.21519428301466084 0.043461130979908634 -0.1123321377416957 -0.25195061494577031 -0.36802058757458728 -0.45993871108766682 -0.54316437366043324 -0.61009654887609865 -0.66879729637614416 -0.7194889962388169 -0.76252936063938659 -0.79057779347100077 -0.81164951090330462 -0.82619089343335872 -0.83447254886526712 -0.83689007604192589 -0.82719953109351041 -0.81273086320208787 -0.79394301553578905 -0.77130705188231263 -0.74538419972684899 -0.71093006192054664 -0.67438888972382016 -0.63626367733823264 -0.59712331085646553 -0.55739085816952394 -0.51754985875331772 -0.4742413187828653 -0.43209869163429859 -0.39155631215179926 -0.35301892200714968 -0.31685847401885836 -0.28343777447704305 -0.2530097193228007 -0.22443903934830484 -0.19968635343489571 -0.17889333706482968 -0.16211506415678861 -0.14935361973020586 -0.14053247875873812 -0.1364207137130978 -0.13626895564039562 -0.13977253955384533 -0.146515489654716 -0.15605522318234746 -0.17055297433801705 -0.1869451245679532 -0.20455446681778963 -0.22622311396300371 -0.24771828598170353 -0.26810874342646523 -0.29083644113597074 -0.31056562725669412 -0.32631607917624333 -0.34198899452401854 -0.351681659432793 -0.35956937956246116 -0.36484923999305829 -0.36161395707993199 -0.35428358436116075 -0.32299306045648724 -0.28106856314175888 -0.23343696207755943 -0.18111314000082193 -0.12969202822678352 -0.079466794307368943 -0.035211965811136434 -0.0060249137073847079
        </DataArray>
      </CellData>
      <Points>
        <DataArray type="Float32" NumberOfComponents="3" format="ascii">
          3.906333872926357 8.5638883115137183 0
          3.9055720672262564 8.571725950111059 0
          3.9048206969036583 8.5795645847012167 0
          3.90408360196342 8.5874045570362689 0
          3.9033646283064298 8.5952461901118866 0
          3.9026677077993175 8.6030897888299762 0
          3.9019968915413923 8.6109356357285964 0
          3.9013563785443135 8.6187839854114685 0
          3.9007505372369771 8.6266350572442558 0
          3.9001839210688849 8.6344890263367784 0
          3.8996612729102353 8.6423460124275433 0
          3.8991875291397613 8.650206067560525 0
          3.8987678203589082 8.6580691623139074 0
          3.898407468543863 8.6659351706329826 0
          3.8981119792065186 8.6738038533253281 0
          3.8978870298995663 8.6816748404916737 0
          3.8977384577583929 8.6895476131716016 0
          3.8976722521802016 8.6974214843678688 0
          3.8976945405284389 8.7052955791952016 0
          3.8978115730887088 8.7131688145542423 0
          3.8980297099549452 8.7210398783749223 0
          3.8983554043245303 8.7289072085573114 0
          3.8987951827614657 8.7367689719101858 0
          3.8993556259440587 8.7446230431625818 0
          3.9000433495669236 8.7524669840960723 0
          3.9008649794987971 8.760298023439038 0
          3.9018271311514749 8.7681130369357767 0
          3.9029363834338517 8.7759085285435123 0
          3.9041992453316752 8.7836806137106684 0
          3.9056221251448706 8.7914250038649318 0
          3.9072113206506001 8.7991369881147712 0
          3.9089729648113956 8.8068114242849553 0
          3.9109129906568292 8.8144427293543739 0
          3.9130370933005025 8.8220248729197408 0
          3.9153506924447457 8.8295513732025928 0
          3.9178588914637307 8.8370152969584019 0
          3.9205664365274151 8.8444092627583046 0
          3.9234776692021347 8.8517254504552643 0
          3.9265964875905519 8.858955611880484 0
          3.9299263073953159 8.8660910854383346 0
          3.9334700131034603 8.8731228198500371 0
          3.9372299138711018 8.8800414018312619 0
          3.9412077023029357 8.8868370884008563 0
          3.9449491964943695 8.8937656880561171 0
          3.9484584020414091 8.9008147907292745 0
          3.9517401655506661 8.9079726175363039 0
          3.9548000275116206 8.9152280823187162 0
          3.957640722299022 8.9225721306551389 0
          3.9602688965367916 8.9299948892319065 0
          3.9626880952536925 8.9374883647126335 0
          3.9649021719683284 8.9450449919228632 0
          3.9669152556693845 8.9526576326377203 0
          3.9687317187058251 8.9603195724521676 0
          3.9703561492769461 8.9680245150796676 0
          3.9717933219739172 8.9757665759716101 0
          3.9730480902227301 8.9835402872146872 0
          3.9741216972779818 8.9913410868122998 0
          3.9750268891057043 8.9991632204229184 0
          3.9757728795948415 9.00700214032193 0
          3.9763691490355111 9.014853868122314 0
          3.9768253178928745 9.0227149783980405 0
          3.9771512343108277 9.0305825624332172 0
          3.9773568429037929 9.0384542050228038 0
          3.9774522899809135 9.046327948055163 0
          3.9774528929037514 9.0542022606113193 0
          3.9773746137457944 9.0620761719796015 0
          3.9772227497648163 9.069948995788641 0
          3.9770081080989246 9.0778203445656178 0
          3.9767358486715545 9.0856898975196536 0
          3.9764110562567359 9.093557443898387 0
          3.9760386565713937 9.1014228671606343 0
          3.9756294014339395 9.1092864440599826 0
          3.9751881150663109 9.1171482738200993 0
          3.9747194464392441 9.1250085042946036 0
          3.9742280257872573 9.132867330851365 0
          3.9737183785228885 9.1407249824121539 0
          3.9732008692014098 9.1485821051221041 0
          3.9726798019704104 9.1564389781382225 0
          3.9721593622170004 9.1642958786760591 0
          3.9716436120701344 9.1721530749131581 0
          3.9711364006978718 9.1800108140576775 0
          3.9706477635753514 9.187869717002334 0
          3.9701813589457311 9.1957299585214223 0
          3.9697406976817988 9.2035916741007995 0
          3.9693290452416923 9.2114549519367852 0
          3.968949590422755 9.2193198404443919 0
          3.9686053487000139 9.2271863413931214 0
          3.9683055217829399 9.2350546540603471 0
          3.968052752801718 9.2429246145420265 0
          3.9678494813755347 9.2507960065382449 0
          3.9676979334324538 9.2586685639082855 0
          3.9676001068392317 9.2665419741078114 0
          3.9675576659270257 9.2744158821932157 0
          3.967572118072316 9.2822898986534863 0
          3.9676513875017321 9.2901635401032063 0
          3.9677964320691985 9.2980362587207193 0
          3.9680078162029657 9.3059074932732031 0
          3.9682858871067532 9.3137766758613996 0
          3.9686306616849967 9.3216432440408443 0
          3.9690417095995119 9.3295066580002679 0
          3.9695252335463245 9.3373659847212185 0
          3.9700801425801928 9.3452206357586451 0
          3.9707049353904686 9.3530700843326038 0
          3.9713975753330755 9.3609138902824789 0
          3.9721556756481733 9.368751699569339 0
          3.9729834768313115 9.3765825223269648 0
          3.9738774799030394 9.3844061390210705 0
          3.9748337498182633 9.3922224721050185 0
          3.9758549982653513 9.4000306750868496 0
          3.976936083726355 9.4078309209277524 0
          3.9780712083016923 9.4156235974827656 0
          3.9792613127205203 9.4234081917152004 0
          3.9804989938721591 9.4311854979650462 0
          3.9817761402099472 9.4389565655539069 0
          3.9830914120515493 9.4467214313717527 0
          3.9844347859746079 9.4544816559722484 0
          3.9858030665158348 9.4622377163499767 0
          3.9871920853987932 9.4699902967174019 0
          3.9885884623404935 9.4777417753343194 0
          3.9899855025746493 9.485493375008426 0
          3.991341801722692 9.4932524382340322 0
          3.9926349048211693 9.5010225227685492 0
          3.9938474871942158 9.5088058339395847 0
          3.9949589733634538 9.5166044933234755 0
          3.9959546831516235 9.5244190733261149 0
          3.9968103814356533 9.5322505380911853 0
          3.9974993471824671 9.5400987737793876 0
          3.9980176977411181 9.5479605398958061 0
        </DataArray>
      </Points>
      <Cells>
        <DataArray type="Int32" Name="connectivity" format="ascii">
          0 1 1 2 2 3 3 4 4 5 5 6 6 7 7 8 8 9 9 10 10 11 11 12 12 13 13 14 14 15 15 16 16 17 17 18 18 19 19 20 20 21 21 22 22 23 23 24 24 25 25 26 26 27 27 28 28 29 29 30 30 31 31 32 32 33 33 34 34 35 35 36 36 37 37 38 38 39 39 40 40 41 41 42 42 43 43 44 44 45 45 46 46 47 47 48 48 49 49 50 50 51 51 52 52 53 53 54 54 55 55 56 56 57 57 58 58 59 59 60 60 61 61 62 62 63 63 64 64 65 65 66 66 67 67 68 68 69 69 70 70 71 71 72 72 73 73 74 74 75 75 76 76 77 77 78 78 79 79 80 80 81 81 82 82 83 83 84 84 85 85 86 86 87 87 88 88 89 89 90 90 91 91 92 92 93 93 94 94 95 95 96 96 97 97 98 98 99 99 100 100 101 101 102 102 103 103 104 104 105 105 106 106 107 107 108 108 109 109 110 110 111 111 112 112 113 113 114 114 115 115 116 116 117 117 118 118 119 119 120 120 121 121 122 122 123 123 124 124 125 125 126 126 127 
        </DataArray>
        <DataArray type="Int32" Name="offsets" format="ascii">
          2 4 6 8 10 12 14 16 18 20 22 24 26 28 30 32 34 36 38 40 42 44 46 48 50 52 54 56 58 60 62 64 66 68 70 72 74 76 78 80 82 84 86 88 90 92 94 96 98 100 102 104 106 108 110 112 114 116 118 120 122 124 126 128 130 132 134 136 138 140 142 144 146 148 150 152 154 156 158 160 162 164 166 168 170 172 174 176 178 180 182 184 186 188 190 192 194 196 198 200 202 204 206 208 210 212 214 216 218 220 222 224 226 228 230 232 234 236 238 240 242 244 246 248 250 252 254 
        </DataArray>
        <DataArray type="Int32" Name="types" format="ascii">
          3 3 3 3 3 3 3 3 3 3 3 3 3 3 3 3 3 3 3 3 3 3 3 3 3 3 3 3 3 3 3 3 3 3 3 3 3 3 3 3 3 3 3 3 3 3 3 3 3 3 3 3 3 3 3 3 3 3 3 3 3 3 3 3 3 3 3 3 3 3 3 3 3 3 3 3 3 3 3 3 3 3 3 3 3 3 3 3 3 3 3 3 3 3 3 3 3 3 3 3 3 3 3 3 3 3 3 3 3 3 3 3 3 3 3 3 3 3 3 3 3 3 3 3 3 3 3         </DataArray>
      </Cells>
    </Piece>
  </UnstructuredGrid>
</VTKFile>
