<?xml version="1.0"?>
<VTKFile type="UnstructuredGrid" version="0.1" byte_order="LittleEndian">
  <UnstructuredGrid>
    <Piece NumberOfPoints="128" NumberOfCells="127">
      <PointData Scalars="W">
        <DataArray type="Float32" Name="W" NumberOfComponents="2">
          0 0 -0.070913793800831681 -0.34864754152314448 -0.10380635102403835 -0.50158159854610385 -0.12977209865541842 -0.61317746064177214 -0.1519823538876513 -0.69983468067519694 -0.17165748317985238 -0.76846942990946077 -0.18941841464785408 -0.82308744565156244 -0.20561676487224195 -0.86635404690939266 -0.22045224938043434 -0.90015022521109134 -0.23401446448510624 -0.92578874420992041 -0.24634976357676877 -0.94431625496551064 -0.25746872494763406 -0.95655498703099906 -0.26736152547789277 -0.96317468210266888 -0.27598593669462768 -0.96466251702218653 -0.28327059290952733 -0.96135453908841073 -0.28914656360801516 -0.95355581862353755 -0.29356449837132642 -0.94159368484124673 -0.29645682800521345 -0.92569290664201564 -0.29775960886883812 -0.90605303667098147 -0.29742796421870116 -0.8828940034430186 -0.29541508916585119 -0.85639026896078096 -0.2916737950386401 -0.82667893287671323 -0.28617947067674659 -0.79392533249723896 -0.27892513496118976 -0.75830436081726749 -0.26988736723024265 -0.71990797968012643 -0.25909494745211192 -0.67893116827842592 -0.24656801990676147 -0.63550497146940998 -0.23231167024339267 -0.58968609072469491 -0.21637342272556256 -0.54160541576664556 -0.19895962193931266 -0.491747376177055 -0.1800183708448051 -0.43991393758996844 -0.15964491472989953 -0.38624609873282068 -0.13795514430152717 -0.33090067572568788 -0.11508079664387069 -0.27403996249760632 -0.09115768441572647 -0.21580616581420539 -0.066350245283339826 -0.1563825279458908 -0.040794366121637643 -0.095861443534161414 -0.014701249356653774 -0.034492608416392886 0.011713393633790035 0.027480105712609268 0.038284346487288408 0.089941924389594127 0.06481741129334638 0.15271612938299237 0.091102147985198126 0.21558886807045677 -2.1225370018885719 -4.760419092376849 -2.216256397921569 -4.4775993819384663 -2.2813370888277813 -4.1950142256940692 -2.3187211376384096 -3.914197502446946 -2.4518394501926872 -3.8202428021821944 -2.4532210095743525 -3.5443567387250878 -2.5344125671022408 -3.4101052454207537 -2.6080006606443455 -3.2759873728651221 -2.5605154522564297 -3.0128736547866533 -2.6102330842070049 -2.8857980092194642 -2.6532089605132554 -2.7598712920633246 -2.8149424050708785 -2.754353996652279 -2.8526420892463622 -2.6244045967401095 -2.6159563265491053 -2.2706406130911878 -2.3398927985735862 -1.9283373192349296 -2.1841973522196141 -1.7176544233342099 -2.0122131075465286 -1.5155630587342352 -1.6473333721682912 -1.1950583782191835 -1.4359387756578743 -1.0093431357504208 -1.2116740326053468 -0.82893135707621657 -0.76768001987748025 -0.51463860917101301 -0.5085759904905448 -0.33650578667829356 -0.015671120071525439 -0.010313324941577154 0.27229851439755204 0.17967522407421496 0.32141090130534761 0.21337757567111629 0.36673934322654334 0.24519410720368207 0.65896880716555839 0.44522937293697024 0.70130555396543814 0.48048012561677361 0.74599802463493858 0.51872629231692025 1.0378680475376985 0.73497341460891585 1.0735030364098792 0.77680861049089056 1.1110550680744895 0.82216608561273696 1.3971540787954326 1.060822543909385 1.4226502444942988 1.1119552633451495 1.4493983709544516 1.1669522603707405 1.4737152757209218 1.2230805883483333 1.7379203472634308 1.4916281224847883 1.7497038968246155 1.5580571852334735 1.7583517858323157 1.6255603162076706 1.7601585991797695 1.6904957110027299 1.9981134097136262 2.0003302607333535 1.9860596983763279 2.0796185250582884 1.9697995780439559 2.1591919692948189 1.9460680451465295 2.2350766557525232 1.921356553860299 2.314383309382948 2.1049442159148732 2.6697928388501304 2.0540926148980088 2.7546544105182202 2.0012662650373163 2.8420403385077009 1.9433665342756561 2.927772113879441 1.8804393621303059 3.0115153504661158 1.9875052277481919 3.4023700908719441 1.8960070600232364 3.49109173823603 1.7990980214369912 3.576017784163751 1.6947575707851543 3.6517590066626853 1.587959217809231 3.7277142513338006 1.6055144380494979 4.1487765910337515 1.4639639088511847 4.2169547927682185 1.3199172784557132 4.2833285823108769 1.1717060326405773 4.3422477126229433 1.0985889659854675 4.7649311434805677 0.91584495830181156 4.8126083004826494 0.73027511158204395 4.8500000344666336 0.57793629401282909 5.2680933739929587 0.35751924485112119 5.2854527947252885 0.13669740638792507 5.2832315041998879 -0.098580308315690743 5.6858440910271195 -0.35168053397497279 5.6596027747556175 -0.6559065365579958 6.0333833492414755 -0.93843120156850168 5.967644469703643 -1.2119958914426165 5.8764661774559004 -1.5970799829400038 6.1971220038278982 -1.8890665901308019 6.0551732052714708 -2.3334411752795812 6.3158338189248324 -2.8313275690940825 6.5412679051624396 -3.3829674089736135 6.722855936509931 -3.7209975086198708 6.4228722875964888 -3.1725182009605213 4.8717730089586269 -3.5774190874499876 4.966492443573852 -3.601559961608177 4.5352577479768614 -3.8746730182873645 4.4429555220537456 -4.5389658694332038 4.716767627155348 -4.8032849880588087 4.5006834560133404 -5.8593974583072459 4.9038344186366203 -4.7543450668555547 3.5645536950963015 -3.0651118304613609 2.1206656347735624 0 0
        </DataArray>
        <DataArray type="Float32" Name="u" NumberOfComponents="1">
          0 0.007874015748031496 0.015748031496062992 0.023622047244094488 0.031496062992125984 0.03937007874015748 0.047244094488188976 0.055118110236220472 0.062992125984251968 0.070866141732283464 0.07874015748031496 0.086614173228346455 0.094488188976377951 0.10236220472440945 0.11023622047244094 0.11811023622047244 0.12598425196850394 0.13385826771653545 0.14173228346456693 0.14960629921259844 0.15748031496062992 0.16535433070866143 0.17322834645669291 0.18110236220472442 0.1889763779527559 0.19685039370078741 0.20472440944881889 0.2125984251968504 0.22047244094488189 0.2283464566929134 0.23622047244094488 0.24409448818897639 0.25196850393700787 0.25984251968503935 0.26771653543307089 0.27559055118110237 0.28346456692913385 0.29133858267716534 0.29921259842519687 0.30708661417322836 0.31496062992125984 0.32283464566929132 0.33070866141732286 0.33858267716535434 0.34645669291338582 0.3543307086614173 0.36220472440944884 0.37007874015748032 0.37795275590551181 0.38582677165354329 0.39370078740157483 0.40157480314960631 0.40944881889763779 0.41732283464566927 0.42519685039370081 0.43307086614173229 0.44094488188976377 0.44881889763779526 0.45669291338582679 0.46456692913385828 0.47244094488188976 0.48031496062992124 0.48818897637795278 0.49606299212598426 0.50393700787401574 0.51181102362204722 0.51968503937007871 0.52755905511811019 0.53543307086614178 0.54330708661417326 0.55118110236220474 0.55905511811023623 0.56692913385826771 0.57480314960629919 0.58267716535433067 0.59055118110236215 0.59842519685039375 0.60629921259842523 0.61417322834645671 0.62204724409448819 0.62992125984251968 0.63779527559055116 0.64566929133858264 0.65354330708661412 0.66141732283464572 0.6692913385826772 0.67716535433070868 0.68503937007874016 0.69291338582677164 0.70078740157480313 0.70866141732283461 0.71653543307086609 0.72440944881889768 0.73228346456692917 0.74015748031496065 0.74803149606299213 0.75590551181102361 0.76377952755905509 0.77165354330708658 0.77952755905511806 0.78740157480314965 0.79527559055118113 0.80314960629921262 0.8110236220472441 0.81889763779527558 0.82677165354330706 0.83464566929133854 0.84251968503937003 0.85039370078740162 0.8582677165354331 0.86614173228346458 0.87401574803149606 0.88188976377952755 0.88976377952755903 0.89763779527559051 0.90551181102362199 0.91338582677165359 0.92125984251968507 0.92913385826771655 0.93700787401574803 0.94488188976377951 0.952755905511811 0.96062992125984248 0.96850393700787396 0.97637795275590555 0.98425196850393704 0.99212598425196852 1
        </DataArray>
      </PointData>
      <CellData Scalars="P">
        <DataArray type="Float32" Name="P" NumberOfComponents="1">
          0.011791294946573634 0.035737952994001142 0.06029512365154107 0.08552176276056056 0.11138050413667988 0.13776926309622353 0.16454125312470683 0.1915193288463363 0.21850678273517979 0.24529568820853906 0.27167432915549117 0.29743335053957726 0.32237110030638766 0.3462982390167994 0.36904214493239801 0.39045111147825989 0.4103978481299469 0.42878273888684137 0.44553671197770178 0.46062331446776111 0.47404067953553636 0.48582321482883595 0.49604208753484813 0.50480509952363939 0.51225764031631893 0.51857984223147036 0.52398596684997134 0.52872422519347273 0.53307245299038986 0.53732305922932522 0.54179925065933077 0.54684093062014316 0.55279867296648788 0.56002741942491874 0.56888079481354314 0.57970241125340827 0.59282287665384492 0.60854486967441257 0.62713520475994122 0.64882376677880704 0.6737929946168485 0.70216855392289423 0.45364727695006263 0.21238522394366377 -0.02073412935193435 -0.24484127071824444 -0.47168245256726227 -0.68839715940354473 -0.90422683918207103 -1.1189042654135044 -1.3219911368235051 -1.5232766390712067 -1.7225106341832601 -1.9298512226976812 -2.1347196512286191 -2.3157031859376689 -2.4714014316426316 -2.6124904439963044 -2.7383960369531746 -2.8351788751513034 -2.9152339525954916 -2.9779893471565617 -3.0075281746938241 -3.0179688736074444 -2.992246920502676 -2.9456122718403157 -2.8957404466714505 -2.8429857318361509 -2.7693573785487713 -2.693257175919149 -2.6146437413367578 -2.5158436851787926 -2.4154451499186171 -2.3134772327881503 -2.1926067272670955 -2.0712994926299984 -1.9496522881241229 -1.8280046743614753 -1.6903416553355537 -1.5537765906469883 -1.4186848285741691 -1.285659391779852 -1.139764567690511 -0.99696508065148282 -0.85764798054946401 -0.72236743709943307 -0.59125344126978685 -0.4522058942075266 -0.31879468091260926 -0.19116542429575495 -0.069600782292325955 0.04565594728009037 0.16347509616445433 0.27378333538866784 0.37638252620053436 0.47102039992337152 0.55771862765768443 0.64208723065755169 0.71747771571804175 0.78396704171215259 0.84160817295574153 0.89319430037549097 0.9352877484314418 0.96807349986382829 0.99232261577687075 1.0069273052048557 1.0122739755767538 1.0071797297772309 0.99294585205917019 0.96718769950646555 0.93280546855537005 0.8907060225103629 0.83688639882059912 0.77675492283348557 0.70558476143235072 0.62367288858864833 0.53162240772942349 0.43792134085227674 0.36700885037963821 0.29249739493412608 0.2256125524930658 0.16221898315517067 0.09818634839469649 0.044425575226790075 0.00091038297668786486 -0.015098515721154154 -0.0086052924969210586
        </DataArray>
      </CellData>
      <Points>
        <DataArray type="Float32" NumberOfComponents="3" format="ascii">
          6.0448556437112941 10.494743492406025 0
          6.0525740295431874 10.493184853157365 0
          6.0602880170828133 10.491604597068569 0
          6.0679955658462408 10.489993242035576 0
          6.0756950649413408 10.48834386904513 0
          6.0833851363832405 10.486651105369516 0
          6.0910645594136392 10.48491069574847 0
          6.098732232000649 10.4831192540223 0
          6.1063871490428534 10.481274097872383 0
          6.1140283899949894 10.479373132190418 0
          6.1216551133234178 10.477414767677818 0
          6.1292665536441309 10.475397855943489 0
          6.1368620210797795 10.47332163851509 0
          6.1444409018823789 10.471185705303753 0
          6.1520026610656569 10.468989964387196 0
          6.1595468468442611 10.466734621162114 0
          6.1670730949221069 10.464420159416367 0
          6.1745811315668959 10.462047321020352 0
          6.1820707778142365 10.459617091976714 0
          6.1895419534469394 10.457130690033114 0
          6.1969946797920779 10.454589551031535 0
          6.2044290826375637 10.451995318076625 0
          6.2118453951724648 10.449349833020849 0
          6.2192439595274589 10.4466551261995 0
          6.2266252272222236 10.443913405574159 0
          6.2339897606321344 10.441127051019109 0
          6.2413382312186467 10.438298602222142 0
          6.2486714182952676 10.435430750551147 0
          6.2559902087274093 10.432526335532126 0
          6.2632955940013524 10.429588336730022 0
          6.2705886574466581 10.426619843712615 0
          6.2778705774700327 10.423624068330472 0
          6.2851426216667363 10.42060433598011 0
          6.2924061396523676 10.417564075890043 0
          6.2996625549124809 10.414506811070972 0
          6.3069133563998774 10.411436149515358 0
          6.3141600883571174 10.408355772856785 0
          6.3214043419092469 10.405269430666387 0
          6.3286477419863747 10.402180925000232 0
          6.3358919339660575 10.399094095311598 0
          6.343138573445553 10.396012811371939 0
          6.3503893142157084 10.392940962354913 0
          6.3576457952260235 10.38988244362119 0
          6.3647706383605867 10.386528734776133 0
          6.3717580316005575 10.382897376522884 0
          6.3786039389497331 10.379005895044745 0
          6.3853060420133581 10.374871706857194 0
          6.3918560908004753 10.370500637979601 0
          6.3982539993862417 10.365909798729282 0
          6.4044947364114728 10.361107514133353 0
          6.4105737417798805 10.356102100627336 0
          6.4164939596395802 10.350909875977653 0
          6.4222523099054136 10.345538719606127 0
          6.4278461303112966 10.339996439463905 0
          6.4332653972195901 10.334283374054419 0
          6.438507774834151 10.328407580187921 0
          6.4435879360216877 10.322390998851779 0
          6.4485229956131782 10.316254860802626 0
          6.4533226076417831 10.310012232156613 0
          6.4579974361867647 10.303675646198149 0
          6.462570103464591 10.297264982066347 0
          6.467053717379688 10.290791757153531 0
          6.4714621837880451 10.284267159665797 0
          6.4758230302651452 10.277710682302313 0
          6.4801523227680899 10.271133370707361 0
          6.4844806213936144 10.264555453403636 0
          6.4888257817968764 10.257988709073086 0
          6.4931908518976087 10.251435222526723 0
          6.4975786447732924 10.244896961975691 0
          6.5020072799627258 10.238386327947966 0
          6.5064793849078288 10.231905501522204 0
          6.5109977328906661 10.225456849960839 0
          6.5155804213615536 10.219053778135191 0
          6.5202296620938016 10.212698875912171 0
          6.5249477855426825 10.206394952057707 0
          6.5297525319856335 10.200156800328887 0
          6.5346454846265898 10.193987587847829 0
          6.5396283041278505 10.187890721880789 0
          6.5447025002398194 10.181869680370443 0
          6.5498844569737944 10.175941110464672 0
          6.555174907316716 10.170109129282691 0
          6.5605743896255921 10.164377921101725 0
          6.5660830178275651 10.158751511558043 0
          6.571715549894698 10.153249108329183 0
          6.5774712407242673 10.147875627637243 0
          6.5833490840897744 10.142636003908244 0
          6.5893476101196047 10.137534943365642 0
          6.5954652878649496 10.132577364763863 0
          6.6017135060622953 10.127785303145741 0
          6.6080891131089272 10.123164022535571 0
          6.6145888345794281 10.118718943763481 0
          6.621209081033383 10.114455385355626 0
          6.6279459508670326 10.110378542724442 0
          6.6348060894427334 10.10651265061724 0
          6.6417838236853521 10.102863213883612 0
          6.6488731445428542 10.099435502106237 0
          6.6560675816059813 10.096234215399873 0
          6.6633605117737691 10.093264067029407 0
          6.6707530316090677 10.090551166748471 0
          6.6782363631457589 10.088099746346577 0
          6.6858015734226726 10.085913925539669 0
          6.6934394709621365 10.083997361611731 0
          6.7011455313227666 10.082376267041941 0
          6.708908422051719 10.081053602970265 0
          6.7167166352952599 10.080031692586424 0
          6.7245607358984252 10.07933646656276 0
          6.7324270556786781 10.078969007416301 0
          6.7403019011044112 10.07892918342071 0
          6.748170696187425 10.07924196969836 0
          6.7560177466732263 10.079905747584334 0
          6.7638242025608841 10.080943709613821 0
          6.7715725455329654 10.082351791645159 0
          6.7792458127165167 10.084124352703975 0
          6.7868201418707823 10.086281301215079 0
          6.7942774279830056 10.088813854038165 0
          6.8015901322783856 10.091738210601806 0
          6.8087273970621345 10.095068396246759 0
          6.8156550294235663 10.098815730120014 0
          6.8223520636542201 10.10296165778793 0
          6.8288524650454425 10.10740995962521 0
          6.8351311392313523 10.112166574909214 0
          6.8411865871111424 10.117204799237868 0
          6.8470018818520231 10.122518985297978 0
          6.8525358429959846 10.128126255334235 0
          6.8577720769818455 10.134013333073199 0
          6.8626441911288065 10.140204289080906 0
          6.8672208730893436 10.146615962744226 0
          6.8716070261987037 10.153158740296147 0
        </DataArray>
      </Points>
      <Cells>
        <DataArray type="Int32" Name="connectivity" format="ascii">
          0 1 1 2 2 3 3 4 4 5 5 6 6 7 7 8 8 9 9 10 10 11 11 12 12 13 13 14 14 15 15 16 16 17 17 18 18 19 19 20 20 21 21 22 22 23 23 24 24 25 25 26 26 27 27 28 28 29 29 30 30 31 31 32 32 33 33 34 34 35 35 36 36 37 37 38 38 39 39 40 40 41 41 42 42 43 43 44 44 45 45 46 46 47 47 48 48 49 49 50 50 51 51 52 52 53 53 54 54 55 55 56 56 57 57 58 58 59 59 60 60 61 61 62 62 63 63 64 64 65 65 66 66 67 67 68 68 69 69 70 70 71 71 72 72 73 73 74 74 75 75 76 76 77 77 78 78 79 79 80 80 81 81 82 82 83 83 84 84 85 85 86 86 87 87 88 88 89 89 90 90 91 91 92 92 93 93 94 94 95 95 96 96 97 97 98 98 99 99 100 100 101 101 102 102 103 103 104 104 105 105 106 106 107 107 108 108 109 109 110 110 111 111 112 112 113 113 114 114 115 115 116 116 117 117 118 118 119 119 120 120 121 121 122 122 123 123 124 124 125 125 126 126 127 
        </DataArray>
        <DataArray type="Int32" Name="offsets" format="ascii">
          2 4 6 8 10 12 14 16 18 20 22 24 26 28 30 32 34 36 38 40 42 44 46 48 50 52 54 56 58 60 62 64 66 68 70 72 74 76 78 80 82 84 86 88 90 92 94 96 98 100 102 104 106 108 110 112 114 116 118 120 122 124 126 128 130 132 134 136 138 140 142 144 146 148 150 152 154 156 158 160 162 164 166 168 170 172 174 176 178 180 182 184 186 188 190 192 194 196 198 200 202 204 206 208 210 212 214 216 218 220 222 224 226 228 230 232 234 236 238 240 242 244 246 248 250 252 254 
        </DataArray>
        <DataArray type="Int32" Name="types" format="ascii">
          3 3 3 3 3 3 3 3 3 3 3 3 3 3 3 3 3 3 3 3 3 3 3 3 3 3 3 3 3 3 3 3 3 3 3 3 3 3 3 3 3 3 3 3 3 3 3 3 3 3 3 3 3 3 3 3 3 3 3 3 3 3 3 3 3 3 3 3 3 3 3 3 3 3 3 3 3 3 3 3 3 3 3 3 3 3 3 3 3 3 3 3 3 3 3 3 3 3 3 3 3 3 3 3 3 3 3 3 3 3 3 3 3 3 3 3 3 3 3 3 3 3 3 3 3 3 3         </DataArray>
      </Cells>
    </Piece>
  </UnstructuredGrid>
</VTKFile>
