<?xml version="1.0"?>
<VTKFile type="UnstructuredGrid" version="0.1" byte_order="LittleEndian">
  <UnstructuredGrid>
    <Piece NumberOfPoints="128" NumberOfCells="127">
      <PointData Scalars="W">
        <DataArray type="Float32" Name="W" NumberOfComponents="2">
          0 0 0.076217122313211885 -0.041036538871082398 0.067837941979411787 -0.036581448571327523 0.048242296639120483 -0.026046890984607822 0.020062449343432799 -0.010840001224161745 -0.015433093188291417 0.0083391131319198019 -0.057269014685466593 0.030920657222436403 -0.10468297463187393 0.056422469070429727 -0.15706634367859978 0.084419215915669268 -0.21402692913579835 0.11457717042631944 -0.27520730846392899 0.146557269241786 -0.34033103446077151 0.18004113235846028 -0.40919822613117346 0.21472940787966391 -0.48170367743566084 0.25035127590531858 -0.55781099398526313 0.28664992632092851 -0.63750889287352663 0.32335907708533973 -0.72072577751193445 0.36016028412202278 -0.8074799366958042 0.39675999474195689 -0.89779755572629671 0.43284687481478512 -0.9916665010374438 0.46807034825962396 -1.0891109578953504 0.50207776663709436 -1.1901786775171812 0.53450714316443604 -1.2948843050683898 0.56496146320391449 -1.4032064488078546 0.59301038383112903 -1.5151734187048522 0.6182282061009764 -1.6307075247863378 0.64012987003178234 -1.7497628214835539 0.65823196115628613 -1.8723523338336512 0.67205955405467221 -1.9983914521448463 0.68108751797161415 -2.1274024129132156 0.68465814292338667 -2.2595239928171007 0.68232283256258974 -2.3945303811490186 0.6735018044014478 -2.5321634691190456 0.65760965583397413 -2.6720759948109745 0.6340455950068018 -2.8138921221120636 0.60221650618423594 -2.957150418202358 0.56152933056706933 -3.1014132083703032 0.51141840673689676 -3.2460184752442203 0.45130816696077508 -3.3902195138756444 0.38065980820040307 -3.5333655416328025 0.29899652998438031 -3.6746600351409335 0.20587516055479246 -3.8131959943352869 0.10090890401032872 3.6806658931133645 -0.095478439407247803 3.4664879127646535 -0.18772194965550873 3.2470638394287263 -0.26226756315204436 3.0234424655421175 -0.31983425890000011 2.8828532038756953 -0.37340500947117888 2.742694383567879 -0.41782292640011265 2.5151111448401258 -0.4373118332060531 2.3754116000712089 -0.46110467460923005 2.2367509721658605 -0.47736274531422873 2.0994660418587316 -0.4866042689243234 1.963840243892059 -0.48935157052041389 1.8301067211442863 -0.48612609804415291 1.7830624613851647 -0.50189587054548579 1.6520553726277731 -0.49022197056085337 1.6072792706736814 -0.50048683788695336 1.4014338778390822 -0.45557314902018275 1.1963485753814669 -0.40320507308410419 0.99182142606050416 -0.34436009136393347 0.78763368319935567 -0.28003633016741986 0.67499675817924043 -0.24465111399072484 0.47339390523884722 -0.17416274610317478 0.27250948949428327 -0.10122657762494829 -0.030079577951028141 0.011208247512159524 -0.13441884413401192 0.049981373360668449 -0.23561641774182054 0.087193509276064951 -0.44094443442001413 0.16175687083621579 -0.54001766523881811 0.19558641359049511 -0.63732697045374676 0.22728589485783646 -0.73145950245350999 0.25615308243080681 -0.82506178829382004 0.28293855867797352 -1.0262447033994224 0.34312837941922447 -1.1165394135923199 0.36232544182352833 -1.2047634259043363 0.37821955542618507 -1.2893949594734957 0.39027991504981158 -1.3730553050535759 0.39926806041496582 -1.4541974089809049 0.40467177554561956 -1.5326377293182953 0.40644478827821695 -1.7240561684230766 0.43285784630701457 -1.7957810664692562 0.42373392502404844 -1.8655970509536106 0.41118722194667223 -1.9317770462084376 0.39491541043158934 -1.9940778912852788 0.37503204949776409 -2.0521845739072448 0.35167058801199341 -2.1058395064585844 0.3250099178943423 -2.1532225698459766 0.29506008826461533 -2.1971193313857671 0.26250982751232177 -2.2357165167044126 0.22738271952911784 -2.268733505815919 0.1899839163832813 -2.2958953557044612 0.15065011996815175 -2.3169558336160705 0.10974917812636771 -2.3316084126482792 0.067674418799343314 -2.3379999499215147 0.024848356416462856 -2.3391432093883888 -0.018216362674561323 -2.3332083367547312 -0.061112232774584448 -2.3199318198468046 -0.10334809633956851 -2.2991314631751179 -0.14441662726631477 -2.2706357018385988 -0.18379904058252883 -2.2325370010678411 -0.2207805144701773 -2.1880275220605188 -0.25512744500159629 -2.1352492961902874 -0.28617978495968682 -2.0740422033951238 -0.31340377398269709 -2.004161030018917 -0.33626051510014249 -1.9237120872035058 -0.35390451282361057 -1.8359069719108096 -0.36644067330364566 -1.7386999102151037 -0.37310044506116213 -1.6300631761696605 -0.37302295783630562 -1.6327070078324817 -0.39637727192500871 -1.5043415051359927 -0.38555656097703905 -1.4860264351206081 -0.40020360062440374 -1.3339830256706475 -0.37578596343128073 -1.2956921503382997 -0.38011331679803373 -1.1149297186382117 -0.33911361301050652 -1.0512201655224382 -0.33001694057683301 -0.83884846050331952 -0.27055995477032102 -0.74222267411312193 -0.24477196107660737 -0.63093488244560292 -0.21206537916121038 -0.35600971109627855 -0.12128717934865269 -0.20439525330074698 -0.070166839496546771 0.50395328626317593 0.17230022446851337 0.76949667468019411 0.25854653201985495 1.1012120821694129 0.36051453553054003 1.549743852025377 0.4886091199479895 1.9336233523193695 0.57926805943023385 2.4002228822243694 0.67281285708981398 2.5784322032424241 0.66659691047466041 0 0
        </DataArray>
        <DataArray type="Float32" Name="u" NumberOfComponents="1">
          0 0.007874015748031496 0.015748031496062992 0.023622047244094488 0.031496062992125984 0.03937007874015748 0.047244094488188976 0.055118110236220472 0.062992125984251968 0.070866141732283464 0.07874015748031496 0.086614173228346455 0.094488188976377951 0.10236220472440945 0.11023622047244094 0.11811023622047244 0.12598425196850394 0.13385826771653545 0.14173228346456693 0.14960629921259844 0.15748031496062992 0.16535433070866143 0.17322834645669291 0.18110236220472442 0.1889763779527559 0.19685039370078741 0.20472440944881889 0.2125984251968504 0.22047244094488189 0.2283464566929134 0.23622047244094488 0.24409448818897639 0.25196850393700787 0.25984251968503935 0.26771653543307089 0.27559055118110237 0.28346456692913385 0.29133858267716534 0.29921259842519687 0.30708661417322836 0.31496062992125984 0.32283464566929132 0.33070866141732286 0.33858267716535434 0.34645669291338582 0.3543307086614173 0.36220472440944884 0.37007874015748032 0.37795275590551181 0.38582677165354329 0.39370078740157483 0.40157480314960631 0.40944881889763779 0.41732283464566927 0.42519685039370081 0.43307086614173229 0.44094488188976377 0.44881889763779526 0.45669291338582679 0.46456692913385828 0.47244094488188976 0.48031496062992124 0.48818897637795278 0.49606299212598426 0.50393700787401574 0.51181102362204722 0.51968503937007871 0.52755905511811019 0.53543307086614178 0.54330708661417326 0.55118110236220474 0.55905511811023623 0.56692913385826771 0.57480314960629919 0.58267716535433067 0.59055118110236215 0.59842519685039375 0.60629921259842523 0.61417322834645671 0.62204724409448819 0.62992125984251968 0.63779527559055116 0.64566929133858264 0.65354330708661412 0.66141732283464572 0.6692913385826772 0.67716535433070868 0.68503937007874016 0.69291338582677164 0.70078740157480313 0.70866141732283461 0.71653543307086609 0.72440944881889768 0.73228346456692917 0.74015748031496065 0.74803149606299213 0.75590551181102361 0.76377952755905509 0.77165354330708658 0.77952755905511806 0.78740157480314965 0.79527559055118113 0.80314960629921262 0.8110236220472441 0.81889763779527558 0.82677165354330706 0.83464566929133854 0.84251968503937003 0.85039370078740162 0.8582677165354331 0.86614173228346458 0.87401574803149606 0.88188976377952755 0.88976377952755903 0.89763779527559051 0.90551181102362199 0.91338582677165359 0.92125984251968507 0.92913385826771655 0.93700787401574803 0.94488188976377951 0.952755905511811 0.96062992125984248 0.96850393700787396 0.97637795275590555 0.98425196850393704 0.99212598425196852 1
        </DataArray>
      </PointData>
      <CellData Scalars="P">
        <DataArray type="Float32" Name="P" NumberOfComponents="1">
          -0.0020480316913142169 -0.0061473933829397339 -0.010276037893821007 -0.01444518349200115 -0.018636445596342883 -0.022791360967232763 -0.026804028825552155 -0.030515951118419357 -0.033712606359089285 -0.036120406287689741 -0.037405621507646661 -0.037173840186315962 -0.034969936860992493 -0.030277872656741447 -0.022520786827021761 -0.011062089721067231 0.0047904929080064343 0.025784163827068895 0.052718080597970347 0.086438024651584705 0.12783309501490528 0.17783189528774715 0.23739573647631748 0.30751062186284822 0.38918320898815406 0.4834275938237666 0.59125898789763776 0.71368962012826853 0.85171401441746419 1.0062698856672736 1.178273085258051 1.3685811892230562 1.5779799268258146 1.8071642709634794 2.0567241082469878 2.3271245495508515 2.6186962016930266 2.9316017345291296 3.2658148478770945 3.6211179103153666 3.9970761366606977 4.3930153499303684 3.9949919389389734 3.6096820181432827 3.2398565602814866 2.888042667966658 2.5458676173841881 2.2145650043460212 1.906474670995302 1.6117072747025663 1.3311086446517755 1.0653836117546704 0.81510248535475105 0.58070790378067771 0.35120803839187648 0.13827368272687501 -0.069199447765980818 -0.24932695998922619 -0.40197140829054906 -0.52713678277512377 -0.62496840086033234 -0.7076127022195916 -0.76382742768514478 -0.79426938306736772 -0.78706313201545353 -0.76768741730779311 -0.73705795279893083 -0.68369498828780606 -0.6208995998993746 -0.54957974862241254 -0.47082309521057175 -0.38545447830959206 -0.28367039071304989 -0.1776910444196951 -0.068559500317550259 0.042554612647194144 0.15472703796795079 0.26691382705780542 0.37808337719236912 0.49517151882719201 0.60861791225214079 0.71755895415461235 0.82107257509167575 0.91828855599973913 1.0083928994539779 1.0906387805049385 1.1642983251845951 1.228840872718445 1.2837610221114946 1.3286470835105271 1.3631869229280371 1.387173398439449 1.4005078813994933 1.4032001885763328 1.3953926772262646 1.3773321172120858 1.3493831103373348 1.3120273231671715 1.265861285944307 1.2116308563452587 1.1501230855560276 1.082256649516055 1.0090443921464833 0.93158716915221429 0.85112650453449845 0.76884287125948025 0.68603095451685991 0.60410013852387634 0.51872990056642831 0.43671410027190433 0.35344892051176624 0.27620063170341785 0.1999011503898511 0.13232112543742247 0.067994251821776291 0.014717915459214847 -0.033114676911278326 -0.074700599547749214 -0.10281169202676646 -0.12370031981474255 -0.11665632424499005 -0.10229496069868202 -0.081116019040552351 -0.053752759226985643 -0.026875904215329625 -0.0046384561654427212 0.004013054036131683
        </DataArray>
      </CellData>
      <Points>
        <DataArray type="Float32" NumberOfComponents="3" format="ascii">
          3.8081491306748179 8.5510215749348877 0
          3.8118798997001173 8.5579563898553026 0
          3.81561538838849 8.56488864788078 0
          3.8193550735738708 8.5718186187129675 0
          3.8230977376247552 8.5787469510217811 0
          3.826841631278282 8.5856745844056075 0
          3.8305845521459623 8.5926027056421592 0
          3.8343239051150078 8.5995327131680988 0
          3.8380567495746281 8.6064661870587731 0
          3.8417798371253835 8.6134048625670925 0
          3.8454896358747499 8.620350609363939 0
          3.8491823525798372 8.6273054104618598 0
          3.8528539497701679 8.6342713424314841 0
          3.8565001581227811 8.641250556805474 0
          3.8601164829663297 8.6482452632577278 0
          3.8636982065175762 8.6552577136562228 0
          3.8672403885596802 8.6622901855326759 0
          3.8707378708587461 8.6693449623215724 0
          3.8741852760057367 8.6764243151456331 0
          3.8775770057673569 8.6835304835014071 0
          3.8809072418112907 8.6906656535139675 0
          3.8841699441781494 8.6978319360649756 0
          3.8873588482908894 8.7050313443431513 0
          3.8904674640154879 8.7122657692240697 0
          3.8934890769545736 8.7195369525842175 0
          3.8964167466582746 8.7268464609032765 0
          3.8992433114059124 8.7341956551858591 0
          3.9019613910184581 8.7415856609847271 0
          3.9045633860138418 8.7490173389493275 0
          3.9070414828148143 8.7564912522602292 0
          3.9093876833318402 8.7640076258417157 0
          3.9115937963199481 8.7715663185372357 0
          3.9136514513398764 8.779166787148549 0
          3.9155521147218053 8.7868080501233141 0
          3.9172871110571172 8.7944886502850288 0
          3.9188476464626092 8.8022066180349494 0
          3.9202248371531083 8.8099594345533188 0
          3.9214097365427047 8.817743996694734 0
          3.9223933762580727 8.8255565812645074 0
          3.9231668124057695 8.8333928115695244 0
          3.9237211658955142 8.8412476278084284 0
          3.9240476718040549 8.8491152595417955 0
          3.924137735594031 8.8569892016529082 0
          3.9244560268763005 8.8648572263911198 0
          3.9249892651807472 8.8727136120251568 0
          3.92572384451561 8.8805537342022234 0
          3.9266458984282924 8.8883740213810789 0
          3.927746709165516 8.8961711517315898 0
          3.9290175856807741 8.9039423710131285 0
          3.9304444156470435 8.9116864688449891 0
          3.9320185364273605 8.9194019699433742 0
          3.9337313498334532 8.9270878662438093 0
          3.9355743430079011 8.9347435847615149 0
          3.9375391059979843 8.942368955198134 0
          3.9396173462107371 8.9499641776034817 0
          3.9418061469045966 8.9575282759938286 0
          3.9440973846412013 8.9650619742012392 0
          3.9464882834383319 8.9725646374763013 0
          3.9489660789181915 8.9800390490035706 0
          3.9515180537621961 8.9874884541574218 0
          3.9541315252183669 8.9949164998945594 0
          3.9567938315691173 9.002327172868009 0
          3.9594979884844013 9.0097226672058355 0
          3.9622314945964159 9.0171073517786873 0
          3.9649818931576286 9.0244857472471427 0
          3.9677304205842425 9.031864821470954 0
          3.9704706074105838 9.0392469787635132 0
          3.9731961790462615 9.0466345266408918 0
          3.9758944037478878 9.054032086682323 0
          3.9785591388725829 9.0614417566913339 0
          3.9811843512158958 9.0688655023841171 0
          3.9837642046179709 9.0763051138773339 0
          3.9862928958505468 9.0837622521911072 0
          3.9887579509196507 9.0912406479638044 0
          3.9911537719305881 9.0987414918586698 0
          3.9934748894317051 9.1062657697776821 0
          3.9957160567671028 9.1138142299775762 0
          3.9978720875331071 9.121387430262681 0
          3.999937951498187 9.1289857062556852 0
          4.0019087859747762 9.1366091685396995 0
          4.0037727232812053 9.1442594544924276 0
          4.0055253172537686 9.1519359994469323 0
          4.0071622400685305 9.1596380266202786 0
          4.0086793893117836 9.1673645283936391 0
          4.010072903041074 9.1751142733631088 0
          4.0113391793001147 9.1828858146232744 0
          4.0124748920723574 9.1906775008669417 0
          4.0134771041113471 9.1984874770180607 0
          4.0143430942157341 9.206313726931235 0
          4.0150704696351607 9.2141540748645898 0
          4.0156571834500383 9.22200620440303 0
          4.0161015515995038 9.2298676793362144 0
          4.0164022681298075 9.2377359664663405 0
          4.0165584241817811 9.2456084599941253 0
          4.0165696228709518 9.2534825077023246 0
          4.016435792480781 9.2613554427550824 0
          4.0161572999017965 9.269224608953138 0
          4.0157349669598865 9.2770873911811886 0
          4.0151700817060387 9.2849412468578567 0
          4.0144644090506176 9.2927837380963449 0
          4.0136203090403262 9.3006125759945952 0
          4.0126405389380855 9.3084256351605728 0
          4.0115283684342256 9.3162209946139303 0
          4.010287589592 9.3239969708805273 0
          4.0089225320764355 9.3317521514069188 0
          4.0074381806154298 9.3394854469525299 0
          4.0058399758885432 9.3471960851656917 0
          4.0041339414316344 9.3548836582172719 0
          4.0023268094472222 9.3625481761540712 0
          4.0004184105144311 9.3701881996698209 0
          3.9984166997505399 9.3778044057210543 0
          3.9963228064926519 9.3853958960605102 0
          3.9941461539493988 9.3929641916093516 0
          3.9918891094450482 9.4005090354689713 0
          3.9895628773784728 9.408032977802355 0
          3.9871714010430725 9.4155365958015409 0
          3.9847278459762321 9.423023585556594 0
          3.9822381971956138 9.4304955613143839 0
          3.9797093490237119 9.4379545679538666 0
          3.9771583494391511 9.445406247063362 0
          3.9745945958251756 9.4528537887370643 0
          3.9720620368588717 9.4603122271677851 0
          3.9695771451665425 9.4677869312612728 0
          3.9671605022421237 9.475284246196285 0
          3.9648399431278136 9.4828121369601739 0
          3.9626392933118462 9.4903762571437831 0
          3.9605875169274536 9.497982445475122 0
          3.9586956773618396 9.5056303893232421 0
        </DataArray>
      </Points>
      <Cells>
        <DataArray type="Int32" Name="connectivity" format="ascii">
          0 1 1 2 2 3 3 4 4 5 5 6 6 7 7 8 8 9 9 10 10 11 11 12 12 13 13 14 14 15 15 16 16 17 17 18 18 19 19 20 20 21 21 22 22 23 23 24 24 25 25 26 26 27 27 28 28 29 29 30 30 31 31 32 32 33 33 34 34 35 35 36 36 37 37 38 38 39 39 40 40 41 41 42 42 43 43 44 44 45 45 46 46 47 47 48 48 49 49 50 50 51 51 52 52 53 53 54 54 55 55 56 56 57 57 58 58 59 59 60 60 61 61 62 62 63 63 64 64 65 65 66 66 67 67 68 68 69 69 70 70 71 71 72 72 73 73 74 74 75 75 76 76 77 77 78 78 79 79 80 80 81 81 82 82 83 83 84 84 85 85 86 86 87 87 88 88 89 89 90 90 91 91 92 92 93 93 94 94 95 95 96 96 97 97 98 98 99 99 100 100 101 101 102 102 103 103 104 104 105 105 106 106 107 107 108 108 109 109 110 110 111 111 112 112 113 113 114 114 115 115 116 116 117 117 118 118 119 119 120 120 121 121 122 122 123 123 124 124 125 125 126 126 127 
        </DataArray>
        <DataArray type="Int32" Name="offsets" format="ascii">
          2 4 6 8 10 12 14 16 18 20 22 24 26 28 30 32 34 36 38 40 42 44 46 48 50 52 54 56 58 60 62 64 66 68 70 72 74 76 78 80 82 84 86 88 90 92 94 96 98 100 102 104 106 108 110 112 114 116 118 120 122 124 126 128 130 132 134 136 138 140 142 144 146 148 150 152 154 156 158 160 162 164 166 168 170 172 174 176 178 180 182 184 186 188 190 192 194 196 198 200 202 204 206 208 210 212 214 216 218 220 222 224 226 228 230 232 234 236 238 240 242 244 246 248 250 252 254 
        </DataArray>
        <DataArray type="Int32" Name="types" format="ascii">
          3 3 3 3 3 3 3 3 3 3 3 3 3 3 3 3 3 3 3 3 3 3 3 3 3 3 3 3 3 3 3 3 3 3 3 3 3 3 3 3 3 3 3 3 3 3 3 3 3 3 3 3 3 3 3 3 3 3 3 3 3 3 3 3 3 3 3 3 3 3 3 3 3 3 3 3 3 3 3 3 3 3 3 3 3 3 3 3 3 3 3 3 3 3 3 3 3 3 3 3 3 3 3 3 3 3 3 3 3 3 3 3 3 3 3 3 3 3 3 3 3 3 3 3 3 3 3         </DataArray>
      </Cells>
    </Piece>
  </UnstructuredGrid>
</VTKFile>
