<?xml version="1.0"?>
<VTKFile type="UnstructuredGrid" version="0.1" byte_order="LittleEndian">
  <UnstructuredGrid>
    <Piece NumberOfPoints="128" NumberOfCells="127">
      <PointData Scalars="W">
        <DataArray type="Float32" Name="W" NumberOfComponents="2">
          0 0 -0.065095584356550537 -0.13836532048553618 -0.075650213229617819 -0.16025883612274947 -0.077976139181155452 -0.16458251979087879 -0.074370947705531557 -0.15640725300686567 -0.065875906571992104 -0.13808404144210626 -0.053229383998530819 -0.11126370891411907 -0.037019404463832749 -0.077217238930266552 -0.01772389787022401 -0.036922324402271833 0.004284906987345914 0.0089234970689133306 0.028656303436655726 0.059723821445174526 0.055071259914554589 0.11500120011764445 0.083224575077722837 0.17435648817204577 0.11285079916144977 0.23752016630766329 0.1437171130692568 0.30433654129752841 0.17557534467904504 0.37466223584280145 0.20813916819648026 0.44831478085132986 0.24114353581060885 0.52519673005433587 0.27431180375341746 0.6052247497232075 0.30733872549841273 0.6882892048187037 0.33991786957465969 0.77431084423067464 0.37174004720940929 0.86323625856339492 0.40246645071251058 0.95497297740270393 0.4317388134571496 1.0494050733198959 0.45921924722485924 1.1464853586892689 0.48451386020573484 1.2460435332535251 0.50724447002639772 1.3479513470522744 0.52705114950446585 1.4521327476583268 0.54353761413398383 1.5584125378255704 0.55618678264550958 1.6662272104437457 0.56472465550429107 1.7756722995117322 0.56875606092243625 1.8864683960942941 0.56789095379676036 1.9982839988789638 0.56175394863997119 2.110744362500355 0.54999784353684222 2.2234607664910944 0.53229117903043099 2.3359586054560957 0.50835845308184757 2.4478212494009299 0.47792821677753916 2.5584279995771397 0.44078782144922957 2.6671311293875695 0.39680639285887986 2.7733850936666977 0.34590161557607052 2.8765512008148617 0.28805698301502736 2.9759323746415514 -0.51395252184582851 -4.9153321929542964 -0.68081759875404602 -4.7447570340677112 -0.82983992432764309 -4.5688034479932798 -0.96130031288484952 -4.3884573534976594 -1.1007671730250068 -4.2966284573753537 -1.2051315211900078 -4.1113972001508818 -1.3173378867911669 -3.9944071574988684 -1.420893510562832 -3.8759561163393084 -1.4870474478355922 -3.6878166623529935 -1.5692822561295738 -3.5685900204462864 -1.6435135197321489 -3.4489804414442391 -1.7450256091110377 -3.3951739168800268 -1.8077734523869466 -3.2738568893245308 -1.7841458836650903 -3.0237416251198117 -1.7381398587652794 -2.7737295283661165 -1.7186716055847207 -2.595277143814736 -1.6866873388664565 -2.4194883413576154 -1.5863058333448612 -2.1711217112095573 -1.5258627895343824 -2.0009807757936628 -1.4546269888773455 -1.8337487646752333 -1.3040287737436345 -1.5867213808852738 -1.2069093727399609 -1.4231902365368856 -1.0240253440833584 -1.1750393747385171 -0.90357242613514166 -1.0130999970790764 -0.86162631531795153 -0.94610768003514556 -0.81906081745728232 -0.88189223283964924 -0.68574672895496203 -0.72563224694709194 -0.63871804035700663 -0.66570940537402568 -0.58938591405108898 -0.60579567818922031 -0.44636134620210288 -0.45346664367120798 -0.39570867447175828 -0.39823385835931963 -0.34331784296405676 -0.34267328666758501 -0.19368883877553875 -0.19217483983366507 -0.14188007510397005 -0.14024841170696828 -0.088929100318209428 -0.087682118913765178 -0.036363021110700694 -0.03580349640908688 0.11465278245950312 0.11298637669858223 0.16571871074209307 0.16381756936573705 0.21578887191444401 0.21421738975392476 0.26316578133676094 0.26264332930823403 0.41328247230210979 0.41558482256916851 0.45830087372616024 0.46537330994441328 0.50146831964702454 0.51473815030798609 0.54115378331564756 0.56207183769880598 0.58016002556759638 0.61034050227559344 0.71953251558244136 0.76836084308759089 0.75050733331977115 0.81522821195176565 0.78016863602105102 0.86280496501334047 0.80690778016747278 0.90935356611636298 0.83059451363808379 0.95467134775074547 0.95012331948318451 1.1160662696864587 0.96468432392867953 1.1604343290117261 0.97570175470970288 1.202854949482449 0.981643630401839 1.2411463803997314 0.98538574774332199 1.2786277860224664 1.0813076194104481 1.4428354195253084 1.0725107020350033 1.4745039539513405 1.0612730565653503 1.5042022888248414 1.0461390145315408 1.5294989570857902 1.1168014500431993 1.6875188080390651 1.0897440333201853 1.7050585668399325 1.0589079335822023 1.7163827327735197 1.1100930403977916 1.8676000422843935 1.0672419427187467 1.8671551194871316 1.0197797823688617 1.855831125249251 1.0524709497708604 1.9960212494924896 0.99495103158701725 1.9701004551986923 1.0124760272654079 2.0970603715226868 0.94441345357235629 2.0498172717459449 0.87343611467189597 1.9861451436206992 0.87441586965795937 2.0864530697536336 0.79494814944942394 1.9932106160058698 0.78331687973223862 2.0663739700251522 0.7643252026831302 2.128639707000072 0.73807461513824857 2.1777625024744882 0.6401668015110038 2.0024230518093358 0.35977002396534874 1.1784960192412202 0.33001048991124449 1.1187584855267356 0.21953507841033812 0.76602188313293662 0.15689719303112817 0.5588933917418355 0.14873386056913859 0.53910545157895851 0.057555880301847204 0.21114151839780382 0.064819417373187041 0.23952364189466888 0.056224424199654566 0.20928262488588908 0.18578962165768259 0.70195893296915968 0 0
        </DataArray>
        <DataArray type="Float32" Name="u" NumberOfComponents="1">
          0 0.007874015748031496 0.015748031496062992 0.023622047244094488 0.031496062992125984 0.03937007874015748 0.047244094488188976 0.055118110236220472 0.062992125984251968 0.070866141732283464 0.07874015748031496 0.086614173228346455 0.094488188976377951 0.10236220472440945 0.11023622047244094 0.11811023622047244 0.12598425196850394 0.13385826771653545 0.14173228346456693 0.14960629921259844 0.15748031496062992 0.16535433070866143 0.17322834645669291 0.18110236220472442 0.1889763779527559 0.19685039370078741 0.20472440944881889 0.2125984251968504 0.22047244094488189 0.2283464566929134 0.23622047244094488 0.24409448818897639 0.25196850393700787 0.25984251968503935 0.26771653543307089 0.27559055118110237 0.28346456692913385 0.29133858267716534 0.29921259842519687 0.30708661417322836 0.31496062992125984 0.32283464566929132 0.33070866141732286 0.33858267716535434 0.34645669291338582 0.3543307086614173 0.36220472440944884 0.37007874015748032 0.37795275590551181 0.38582677165354329 0.39370078740157483 0.40157480314960631 0.40944881889763779 0.41732283464566927 0.42519685039370081 0.43307086614173229 0.44094488188976377 0.44881889763779526 0.45669291338582679 0.46456692913385828 0.47244094488188976 0.48031496062992124 0.48818897637795278 0.49606299212598426 0.50393700787401574 0.51181102362204722 0.51968503937007871 0.52755905511811019 0.53543307086614178 0.54330708661417326 0.55118110236220474 0.55905511811023623 0.56692913385826771 0.57480314960629919 0.58267716535433067 0.59055118110236215 0.59842519685039375 0.60629921259842523 0.61417322834645671 0.62204724409448819 0.62992125984251968 0.63779527559055116 0.64566929133858264 0.65354330708661412 0.66141732283464572 0.6692913385826772 0.67716535433070868 0.68503937007874016 0.69291338582677164 0.70078740157480313 0.70866141732283461 0.71653543307086609 0.72440944881889768 0.73228346456692917 0.74015748031496065 0.74803149606299213 0.75590551181102361 0.76377952755905509 0.77165354330708658 0.77952755905511806 0.78740157480314965 0.79527559055118113 0.80314960629921262 0.8110236220472441 0.81889763779527558 0.82677165354330706 0.83464566929133854 0.84251968503937003 0.85039370078740162 0.8582677165354331 0.86614173228346458 0.87401574803149606 0.88188976377952755 0.88976377952755903 0.89763779527559051 0.90551181102362199 0.91338582677165359 0.92125984251968507 0.92913385826771655 0.93700787401574803 0.94488188976377951 0.952755905511811 0.96062992125984248 0.96850393700787396 0.97637795275590555 0.98425196850393704 0.99212598425196852 1
        </DataArray>
      </PointData>
      <CellData Scalars="P">
        <DataArray type="Float32" Name="P" NumberOfComponents="1">
          0.015276398094967841 0.045851291280090627 0.076407472121285597 0.10688903838788064 0.13724990886697985 0.16746935050618811 0.19756308278025944 0.22759099607796635 0.25766242616790214 0.28794005161195313 0.31864163008787699 0.350040561777548 0.38246506069067604 0.41629733402233093 0.45197253993306197 0.48997560201031082 0.53083564019428509 0.57512230007029108 0.62344000894057483 0.67642004004680267 0.73471347353607097 0.79898363146422235 0.86989525509554155 0.9481031798056786 1.0342448385645588 1.1289229451345153 1.2326954856856436 1.3460667117815839 1.4694692588795686 1.6032264559597711 1.7475804767392573 1.9026568960610761 2.0684486265396815 2.2448008356577409 2.4313986640955929 2.6277507853800981 2.8331845890814198 3.0468237378634546 3.2675805473056116 3.4941601025226934 3.7250523433683793 3.9585295193339927 3.6500106256763729 3.3510325758803368 3.061446876818954 2.7811794005769879 2.5033202127887098 2.2344866025029066 1.9693375499017516 1.7077359425966439 1.4551006354557796 1.2060049820310645 0.96044875171787636 0.71281617658297369 0.46872046656155814 0.23985478302182103 0.027191985866515875 -0.17491273263282459 -0.36596920261315424 -0.53804829478701544 -0.69774597798562166 -0.8445161757117271 -0.96921908728777029 -1.0794762564862976 -1.1654697273742305 -1.2355220625469145 -1.2993681315861823 -1.3570190365718307 -1.3981049898600166 -1.4329005220414592 -1.461246580895659 -1.4729042419928566 -1.4784344411951951 -1.4777886584183964 -1.4608836097750957 -1.4384152989350787 -1.4104575849819392 -1.3772635383671561 -1.3295016602446852 -1.2773578604450015 -1.2211978366473617 -1.1615546310237155 -1.0897736888305991 -1.01558983263959 -0.93949886522561499 -0.86212929697761176 -0.78388707589288964 -0.69797072354366518 -0.61280487710281606 -0.52885349709580087 -0.44667742387015463 -0.36682372705976207 -0.28471225643721976 -0.20648916599611083 -0.13264956843027362 -0.063698898793932437 2.6367265897031793e-05 0.060768888436163584 0.11503514598283679 0.16264534422955809 0.20346770729326349 0.23777458080653804 0.26470957206383106 0.28443263931777601 0.29581880741832961 0.30008409564118532 0.29779557998884842 0.28646869262209995 0.2694808684513505 0.2436333464452862 0.21367732490135963 0.18091950867124434 0.14109271354774253 0.10096839251586938 0.055868026275436411 0.0068723118490646761 -0.044717085909473979 -0.090132322603057577 -0.1063647230851215 -0.11946638358019336 -0.11962061253387207 -0.11189572833235754 -0.10179361300655276 -0.081889345851800924 -0.060970620954837636 -0.037492264169150684 -0.014787275385391228
        </DataArray>
      </CellData>
      <Points>
        <DataArray type="Float32" NumberOfComponents="3" format="ascii">
          5.9518435948556956 10.531738751558461 0
          5.9589710247842795 10.528390808190109 0
          5.9660944104545646 10.525034288585301 0
          5.9732130927202629 10.521667837399853 0
          5.9803269238378132 10.518291188264692 0
          5.9874361245457113 10.514904849539308 0
          5.9945412193127146 10.511509958595601 0
          6.0016429904553918 10.508108179478517 0
          6.0087424416159703 10.504701624103559 0
          6.01584076808627 10.501292791633519 0
          6.0229393336971562 10.497884525223974 0
          6.03003964904961 10.494479975039074 0
          6.0371433517147555 10.491082568643977 0
          6.044252187295136 10.487695986253959 0
          6.0513679929536393 10.484324144022839 0
          6.0584926829679651 10.480971184391199 0
          6.0656282333350555 10.477641467200497 0
          6.0727766640116618 10.474339558385815 0
          6.0799400224757738 10.471070223942927 0
          6.0871203665704661 10.467838424773044 0
          6.0943197455754996 10.464649309899537 0
          6.1015401812065599 10.46150821157131 0
          6.1087836484443852 10.458420641971147 0
          6.1160520545281312 10.455392287504965 0
          6.1233472167426521 10.452429001639461 0
          6.130670841469394 10.449536802004308 0
          6.1380244997648381 10.446721859863883 0
          6.1454096039124471 10.443990492198552 0
          6.1528273851055175 10.441349157024463 0
          6.1602788688746264 10.438804442568424 0
          6.167764843023984 10.436363032369275 0
          6.1752858406368025 10.434031711241376 0
          6.1828421155654913 10.431817347992713 0
          6.1904336182368347 10.429726874913969 0
          6.1980599723627998 10.427767264586645 0
          6.2057204533951973 10.425945505824339 0
          6.213413967952472 10.424268574288108 0
          6.2211390367118655 10.422743406694799 0
          6.2288937775486177 10.421376862370318 0
          6.2366758923166792 10.420175683123734 0
          6.2444826586954552 10.419146459452994 0
          6.252310925043421 10.418295590970525 0
          6.2601571093286008 10.417629243203143 0
          6.2679714429389817 10.416658109702302 0
          6.2757435777463799 10.415392765455213 0
          6.2834642717961682 10.413844119256032 0
          6.2911253719263307 10.41202335258391 0
          6.2987182305233569 10.409936157849026 0
          6.3062363743656347 10.40759401981666 0
          6.3136728455378552 10.405004191445993 0
          6.3210212224680742 10.402174016330862 0
          6.3282774010382568 10.399115160146884 0
          6.335436281625543 10.395835014884732 0
          6.3424932608350728 10.39234099633649 0
          6.3494420452313909 10.388636439024557 0
          6.3562787433277448 10.384728864553026 0
          6.3630048163033468 10.380633783475375 0
          6.3696231129525982 10.376366700626896 0
          6.3761348383131011 10.371938682755536 0
          6.3825419735677205 10.367360631735561 0
          6.3888507392577685 10.362647951776067 0
          6.3950648814185627 10.357811195189372 0
          6.4011888154006833 10.35286073408535 0
          6.4072318757108899 10.347811890591393 0
          6.4132000828612918 10.342674807664288 0
          6.4191047734296163 10.337464877370888 0
          6.4249534149326122 10.332192143946772 0
          6.4307486090974963 10.326860761936674 0
          6.4364929960371535 10.321474713594899 0
          6.4421948407921095 10.316043690529478 0
          6.4478570602450169 10.31057140853717 0
          6.4534827140301898 10.305061582787593 0
          6.4590806693384915 10.299523660513591 0
          6.4646540677434672 10.293961066242371 0
          6.4702061585290807 10.288377244748725 0
          6.4757462184782657 10.28278152896018 0
          6.4812774608757291 10.277177137846126 0
          6.4868031697887796 10.271567329959195 0
          6.492326605414525 10.265955321096651 0
          6.4978571308027977 10.260350337010898 0
          6.5033979133087989 10.254755528040764 0
          6.5089520585851472 10.249174017658454 0
          6.5145225053652673 10.24360880681847 0
          6.5201185615378439 10.238069377343317 0
          6.5257430199482638 10.232558814140683 0
          6.5313985588004595 10.227080175745453 0
          6.537087640559279 10.221636394653746 0
          6.5428126857254725 10.216230461249808 0
          6.5485823375200356 10.210872170628564 0
          6.5543985191902854 10.205564425824216 0
          6.5602630727914271 10.200310173810985 0
          6.5661776594772236 10.195112297785903 0
          6.5721437514457755 10.189973604619482 0
          6.5781687642232045 10.184904097417537 0
          6.584253605332874 10.179906523942 0
          6.5903989629881252 10.174983511286078 0
          6.5966052111009743 10.170137430641244 0
          6.6028725876352512 10.16537060308308 0
          6.6092070484524665 10.160693205801664 0
          6.6156080556042305 10.156107199683579 0
          6.6220749203321203 10.151614423679714 0
          6.6286067127840349 10.147216444085243 0
          6.635207826913617 10.142923055232279 0
          6.6418765954096575 10.13873534311349 0
          6.6486111171691098 10.134654008695982 0
          6.6554145824239344 10.130688425910131 0
          6.6622843470326396 10.126838566995239 0
          6.669217481285755 10.123103730054989 0
          6.676216033040248 10.119492607362593 0
          6.6832764509527474 10.116003593134876 0
          6.6903998457966845 10.112644561237957 0
          6.6975820143365308 10.109412585038555 0
          6.7048185726090068 10.106303719270359 0
          6.712109609906209 10.103324187860121 0
          6.7194502172451696 10.100468212571933 0
          6.7268397050622131 10.097740335872006 0
          6.7342769300113359 10.095144425965296 0
          6.7417603013299106 10.09268353756252 0
          6.749283770116306 10.09034680136654 0
          6.7568299162313892 10.088083103237883 0
          6.7643969267207371 10.085888736327576 0
          6.7719779598665593 10.083741809608577 0
          6.7795691571364864 10.081629462884509 0
          6.7871700630870651 10.079550459752664 0
          6.7947750499816788 10.077484430416503 0
          6.8023846449612684 10.075433120110576 0
          6.8099984048885229 10.073394629671618 0
          6.8176245571195624 10.071399528462837 0
        </DataArray>
      </Points>
      <Cells>
        <DataArray type="Int32" Name="connectivity" format="ascii">
          0 1 1 2 2 3 3 4 4 5 5 6 6 7 7 8 8 9 9 10 10 11 11 12 12 13 13 14 14 15 15 16 16 17 17 18 18 19 19 20 20 21 21 22 22 23 23 24 24 25 25 26 26 27 27 28 28 29 29 30 30 31 31 32 32 33 33 34 34 35 35 36 36 37 37 38 38 39 39 40 40 41 41 42 42 43 43 44 44 45 45 46 46 47 47 48 48 49 49 50 50 51 51 52 52 53 53 54 54 55 55 56 56 57 57 58 58 59 59 60 60 61 61 62 62 63 63 64 64 65 65 66 66 67 67 68 68 69 69 70 70 71 71 72 72 73 73 74 74 75 75 76 76 77 77 78 78 79 79 80 80 81 81 82 82 83 83 84 84 85 85 86 86 87 87 88 88 89 89 90 90 91 91 92 92 93 93 94 94 95 95 96 96 97 97 98 98 99 99 100 100 101 101 102 102 103 103 104 104 105 105 106 106 107 107 108 108 109 109 110 110 111 111 112 112 113 113 114 114 115 115 116 116 117 117 118 118 119 119 120 120 121 121 122 122 123 123 124 124 125 125 126 126 127 
        </DataArray>
        <DataArray type="Int32" Name="offsets" format="ascii">
          2 4 6 8 10 12 14 16 18 20 22 24 26 28 30 32 34 36 38 40 42 44 46 48 50 52 54 56 58 60 62 64 66 68 70 72 74 76 78 80 82 84 86 88 90 92 94 96 98 100 102 104 106 108 110 112 114 116 118 120 122 124 126 128 130 132 134 136 138 140 142 144 146 148 150 152 154 156 158 160 162 164 166 168 170 172 174 176 178 180 182 184 186 188 190 192 194 196 198 200 202 204 206 208 210 212 214 216 218 220 222 224 226 228 230 232 234 236 238 240 242 244 246 248 250 252 254 
        </DataArray>
        <DataArray type="Int32" Name="types" format="ascii">
          3 3 3 3 3 3 3 3 3 3 3 3 3 3 3 3 3 3 3 3 3 3 3 3 3 3 3 3 3 3 3 3 3 3 3 3 3 3 3 3 3 3 3 3 3 3 3 3 3 3 3 3 3 3 3 3 3 3 3 3 3 3 3 3 3 3 3 3 3 3 3 3 3 3 3 3 3 3 3 3 3 3 3 3 3 3 3 3 3 3 3 3 3 3 3 3 3 3 3 3 3 3 3 3 3 3 3 3 3 3 3 3 3 3 3 3 3 3 3 3 3 3 3 3 3 3 3         </DataArray>
      </Cells>
    </Piece>
  </UnstructuredGrid>
</VTKFile>
