<?xml version="1.0"?>
<VTKFile type="UnstructuredGrid" version="0.1" byte_order="LittleEndian">
  <UnstructuredGrid>
    <Piece NumberOfPoints="128" NumberOfCells="127">
      <PointData Scalars="W">
        <DataArray type="Float32" Name="W" NumberOfComponents="2">
          0 0 0.53170352526717091 -0.31044207926542866 0.80842121114890286 -0.47866850793454963 1.018390860164827 -0.61457852475687913 1.1902441278316505 -0.73493779870877607 1.3357026299835313 -0.84656043088074362 1.4610980872726538 -0.95307813599998148 1.570293734269459 -1.0566654313702046 1.665850231835426 -1.1587311275668701 1.749486941020566 -1.2601826746573008 1.8224690300079802 -1.3616626229712425 1.8857110192097057 -1.4636036591553399 1.9398761889488796 -1.5662832366415391 1.9854102160258642 -1.6698301825363273 2.02262136930019 -1.7742703278816983 2.0517417460462188 -1.8795662506036674 2.0729986659235351 -1.9856782705519389 2.0865044618796271 -2.092458065747246 2.0923586789741058 -2.1997325572073438 2.0906580787768116 -2.3073137750026533 2.0814740820086675 -2.4149727407221326 2.0648521189853608 -2.5224301132088547 2.0408521709655112 -2.6293976135766282 2.0095503808930579 -2.7355818897865554 1.9709986853083841 -2.8406269391479508 1.9253175409005772 -2.9442404076741528 1.8726061650676626 -3.0460718335852155 1.8129427458739023 -3.1456913642358728 1.7464700096287955 -3.2427226911272911 1.6735080169779717 -3.3371044480301766 1.5940753821163127 -3.4281738123148933 1.5083899510455905 -3.5155653068871144 1.416687978089737 -3.5989031701263077 1.3192447966955299 -3.6778542828906282 1.2163512920194435 -3.7520778373821617 1.1083261986988657 -3.821259989378075 0.99548609184523662 -3.8850050928304887 0.87821607373633737 -3.9430901483726206 0.75691705720032698 -3.9953481009261687 0.63197086384759704 -4.0414785708510497 0.50379043800417966 -4.0812443163039562 0.37281043578556572 -4.114474257880298 -0.51571476410096984 5.3887728645492743 -0.73939161832467637 5.3276499013701422 -0.96083745384419683 5.274528248744172 -1.1742040994786482 5.1954731006652644 -1.381116439686106 5.1078437442636915 -1.5872080763256899 5.0297102825662616 -1.78182645304986 4.9261279150964894 -1.9689146909078257 4.8148729730157402 -2.1568953148546477 4.7145620031707214 -2.3199223045640984 4.5708550977692797 -2.4823740078952765 4.4391857880047771 -2.5973048626682482 4.2412136510142222 7.0065840709882039 -12.443927827637259 5.5647472536340414 -13.151048299430888 4.0518668589670224 -13.687787530972875 0.20962718966381738 -0.90379353030838971 0.10479632825022749 -0.46343871675707254 0.0017118277237375703 -0.0076376663229471937 -0.10452993140782975 0.46240235370902033 -0.21953009648106231 0.94605795456187591 -0.34932509654212879 1.4419669325174762 -0.50050280491214094 1.9484306325545127 -0.84180258580713074 3.0215683801912796 -0.90524860671333907 2.9656098291584918 -0.96451760774921091 2.9054101505495811 -1.2358760256397801 3.418657757251033 -1.3156726049550338 3.3391645054703925 -1.3893032803333059 3.2551132924916879 -1.4565988575409305 3.1671726775874784 -1.5173995995099361 3.0758813223937196 -1.5792976450395493 2.9959195771382938 -1.9481778776359056 3.4498745912021005 -2.0194361516013943 3.3310004584519737 -2.0823097158957626 3.2103069937706663 -2.1369620170904309 3.0885239390954493 -2.1837705869339268 2.966534287188614 -2.2228489708680339 2.8447179341927042 -2.2547435981865043 2.7239225642231757 -2.2902493478676607 2.6162170472850224 -2.765518205432111 2.9759976430543595 -2.8078083845119659 2.8356056391728659 -2.8440727489103699 2.6986521521868894 -2.8748486216113989 2.5652846848737609 -2.9011120953091236 2.4359787891193689 -2.9354765662194549 2.3199995101245583 -2.9556811497036573 2.1987080251177171 -2.9737539179040486 2.0818822735809994 -2.9904443673706735 1.9694869242714161 -3.0064982968339349 1.8614345733168798 -3.0351281037381765 1.7646094399084755 -3.0522955200926138 1.6639812079211558 -3.0707630302019173 1.5670248916879117 -3.1037371369939373 1.4792201861930416 -3.1267911083204778 1.3878791382895528 -3.1527562185605924 1.2990815044778266 -3.1820959661813886 1.2123601838768676 -3.2279892787980744 1.1314863909794586 -3.2655916303240411 1.0466790570668634 -3.3077642573543251 0.96230007066112833 -3.3548368960185941 0.87771292025157543 -3.4071453081999206 0.79224403434246771 -3.4775116411724429 0.70753137870739602 -3.5412087773066707 0.61733310965376254 -3.6108501312657162 0.52386299936490632 -3.6866036685994454 0.42620124069941989 -3.7686412285581317 0.32335648651769866 -3.8570408571250012 0.21424502656095828 -3.9388871534721188 0.097570521663002868 -4.0401691226354428 -0.026889645660129902 -4.1478952156347564 -0.16146623435456908 -4.248580077963247 -0.3065282216562536 -4.3688935871282855 -0.46526359760099656 -4.4953675607521975 -0.63932995897276612 -4.6135654468347669 -0.82812509632691633 -4.7509407140289017 -1.0385368642041521 -2.5735408153662855 -0.64290574329106198 -2.5166949161124101 -0.68438272341246431 -2.5472907173731905 -0.74972614388095649 -2.3527378552947749 -0.74434873041613969 -2.4848879784904576 -0.841313065822203 -2.3940544347838379 -0.86525629243664426 -2.1738701208289344 -0.83317988973088608 -1.7497254311383987 -0.70413397180001924 -0.5743923871572677 -0.23776721041272048 0.15438908049242922 0.064232538599868286 0 0
        </DataArray>
        <DataArray type="Float32" Name="u" NumberOfComponents="1">
          0 0.007874015748031496 0.015748031496062992 0.023622047244094488 0.031496062992125984 0.03937007874015748 0.047244094488188976 0.055118110236220472 0.062992125984251968 0.070866141732283464 0.07874015748031496 0.086614173228346455 0.094488188976377951 0.10236220472440945 0.11023622047244094 0.11811023622047244 0.12598425196850394 0.13385826771653545 0.14173228346456693 0.14960629921259844 0.15748031496062992 0.16535433070866143 0.17322834645669291 0.18110236220472442 0.1889763779527559 0.19685039370078741 0.20472440944881889 0.2125984251968504 0.22047244094488189 0.2283464566929134 0.23622047244094488 0.24409448818897639 0.25196850393700787 0.25984251968503935 0.26771653543307089 0.27559055118110237 0.28346456692913385 0.29133858267716534 0.29921259842519687 0.30708661417322836 0.31496062992125984 0.32283464566929132 0.33070866141732286 0.33858267716535434 0.34645669291338582 0.3543307086614173 0.36220472440944884 0.37007874015748032 0.37795275590551181 0.38582677165354329 0.39370078740157483 0.40157480314960631 0.40944881889763779 0.41732283464566927 0.42519685039370081 0.43307086614173229 0.44094488188976377 0.44881889763779526 0.45669291338582679 0.46456692913385828 0.47244094488188976 0.48031496062992124 0.48818897637795278 0.49606299212598426 0.50393700787401574 0.51181102362204722 0.51968503937007871 0.52755905511811019 0.53543307086614178 0.54330708661417326 0.55118110236220474 0.55905511811023623 0.56692913385826771 0.57480314960629919 0.58267716535433067 0.59055118110236215 0.59842519685039375 0.60629921259842523 0.61417322834645671 0.62204724409448819 0.62992125984251968 0.63779527559055116 0.64566929133858264 0.65354330708661412 0.66141732283464572 0.6692913385826772 0.67716535433070868 0.68503937007874016 0.69291338582677164 0.70078740157480313 0.70866141732283461 0.71653543307086609 0.72440944881889768 0.73228346456692917 0.74015748031496065 0.74803149606299213 0.75590551181102361 0.76377952755905509 0.77165354330708658 0.77952755905511806 0.78740157480314965 0.79527559055118113 0.80314960629921262 0.8110236220472441 0.81889763779527558 0.82677165354330706 0.83464566929133854 0.84251968503937003 0.85039370078740162 0.8582677165354331 0.86614173228346458 0.87401574803149606 0.88188976377952755 0.88976377952755903 0.89763779527559051 0.90551181102362199 0.91338582677165359 0.92125984251968507 0.92913385826771655 0.93700787401574803 0.94488188976377951 0.952755905511811 0.96062992125984248 0.96850393700787396 0.97637795275590555 0.98425196850393704 0.99212598425196852 1
        </DataArray>
      </PointData>
      <CellData Scalars="P">
        <DataArray type="Float32" Name="P" NumberOfComponents="1">
          0.0011954749988199605 0.0049774002680517066 0.011533496224688116 0.021673611012247084 0.035962692905993236 0.054811182834726364 0.078520479602947668 0.10730926846275576 0.14133066944426045 0.18068256331956808 0.22541625882922833 0.27554189768013704 0.3310321015094756 0.39182340197691856 0.4578174482115534 0.52888245183162574 0.60485605391675756 0.68554381261523212 0.7707202647708592 0.86013008293724602 0.95348807107366518 1.0504787119871346 1.1507572226528291 1.2539507436498831 1.3596575124066137 1.4674506964211103 1.5768779169547731 1.6874604208641228 1.7986971523790214 1.9100770696120963 2.0210617486914741 2.1310984220539462 2.2396228260826745 2.3460639224781623 2.4498474021693077 2.5504005194464581 2.6471546352950366 2.7395544814045629 2.8270641542036006 2.909169564964492 2.9853859730400698 3.0552655921566383 2.978250513006012 2.90122274505543 2.8237783548556452 2.7459881806512887 2.6675842771180278 2.5878956550689058 2.5067757168400542 2.4237047502837576 2.3376920387187305 2.2487840070798946 2.1558275061477961 2.0595240765937679 2.369861659669366 2.663453638956589 2.9381227220140538 2.9559561270390784 2.9657078884115999 2.9656909023370077 2.9536629209805829 2.9268343133660641 2.8819113638893419 2.8151385110774378 2.7014382888562616 2.5783271399881982 2.4462782956052802 2.2776038959595177 2.0991633144677087 1.9120526178652286 1.717496681562795 1.5168260852073219 1.3104773601543329 1.0609700223835332 0.80828795907782758 0.55419576175454754 0.30047883424387312 0.048919060588446917 -0.19867099158141424 -0.44049017228490112 -0.67574586480715548 -0.90158401315229963 -1.1163448577997697 -1.3187031871670234 -1.507596408031036 -1.6822291064915793 -1.8427601216692751 -1.9880093259505645 -2.1177554362088786 -2.231915162022859 -2.3305209870093173 -2.4140956742463855 -2.4823688713296801 -2.5356012690521617 -2.5742922183918044 -2.5985182157991997 -2.6086461355046713 -2.6050602740846212 -2.5881134483266197 -2.5581935370935036 -2.515714731531427 -2.4610972673810481 -2.3947678597946167 -2.3168982303164434 -2.2281591934247755 -2.1290217947813912 -2.01998165527975 -1.9015655062548571 -1.7743417336359031 -1.639361114574639 -1.4968932020025514 -1.3476919693208333 -1.1930795004154608 -1.0335417351585412 -0.87015224929531765 -0.70463450217285051 -0.5379031069681246 -0.44899457762396133 -0.36597449504062263 -0.28678916919996938 -0.21856532121656047 -0.15299708928075073 -0.096586922599768296 -0.052059439482077752 -0.021641442617754893 -0.010141329556647869 -0.0041696905325288519
        </DataArray>
      </CellData>
      <Points>
        <DataArray type="Float32" NumberOfComponents="3" format="ascii">
          3.7566747228528605 8.7627891271022076 0
          3.760628438948737 8.7695986311175691 0
          3.7646151199177753 8.7763888849889184 0
          3.7686519220482992 8.7831494576931384 0
          3.7727518634019148 8.7898719223626927 0
          3.7769255988972512 8.7965488165700059 0
          3.7811821470184745 8.8031732197404171 0
          3.7855292823661428 8.8097385279195528 0
          3.7899737751688236 8.8162383189098765 0
          3.7945215500386098 8.8226662648944902 0
          3.7991777925678747 8.8290160761540157 0
          3.8039470277672098 8.8352814612133344 0
          3.8088331767638564 8.8414561000042422 0
          3.8138395979236659 8.8475336266558084 0
          3.8189691144819107 8.8535076215020201 0
          3.8242240336549851 8.859371609476959 0
          3.8296061610295831 8.865119062433001 0
          3.8351168146556884 8.8707434015998743 0
          3.8407568320102623 8.8762380067801594 0
          3.8465265761678702 8.8815962270800757 0
          3.8524259417983902 8.8868113925636774 0
          3.8584543595930998 8.8918768284496554 0
          3.8646107990787391 8.8967858724306677 0
          3.8708937723330208 8.9015318925468403 0
          3.8773013387013542 8.9061083053739161 0
          3.8838311080119685 8.910508598096051 0
          3.8904802480385312 8.91472634663279 0
          3.8972454906453247 8.9187552373694388 0
          3.904123136628276 8.9225890938106591 0
          3.9111090645574982 8.9262218999154879 0
          3.9181987506153728 8.9296478039071925 0
          3.9253872697463459 8.9328611593752747 0
          3.9326693091617395 8.9358565479435015 0
          3.940039182989683 8.9386288025770337 0
          3.9474908493532084 8.9411730282467747 0
          3.9550179284195068 8.9434846230708605 0
          3.9626137221846442 8.945559297783797 0
          3.970271234135228 8.9473931002753062 0
          3.9779831931717471 8.9489824294210365 0
          3.9857420785273239 8.9503240454382542 0
          3.9935401435201134 8.9514150884981341 0
          4.0013694412546483 8.9522530934101354 0
          4.0092218516904286 8.9528360001865241 0
          4.017042287679546 8.9537530115719228 0
          4.0248168844632461 8.9550003385158305 0
          4.0325319166150217 8.9565746888463185 0
          4.040174160803546 8.9584711635964993 0
          4.0477307951174835 8.9606843336067659 0
          4.0551890496459508 8.9632093601939982 0
          4.0625368671736606 8.9660398290003602 0
          4.0697626585348088 8.9691688525225928 0
          4.0768547799403123 8.9725902246680569 0
          4.0838031361645104 8.9762950523051366 0
          4.0905976679008633 8.9802751923560198 0
          4.0972312641928861 8.9845183955932395 0
          4.1042994692554267 8.9879900157923416 0
          4.1117129201370561 8.9906461668926045 0
          4.1193778468598907 8.9924535139806192 0
          4.1270555465079308 8.9942047589064309 0
          4.1347395410056906 8.9959272188512731 0
          4.1424234627244179 8.9976491650874735 0
          4.1501007503153575 8.9993997487900703 0
          4.1577643013445833 9.0012089631852401 0
          4.1654060980048273 9.0031075600364741 0
          4.1730167986597531 9.0051269454341138 0
          4.1805752750082545 9.0073336603672942 0
          4.1880776319317574 9.0097242456068773 0
          4.1955202269346481 9.0122949808136923 0
          4.2028862683259414 9.0150777041880872 0
          4.2101708327745699 9.0180675044780347 0
          4.2173693731916444 9.0212591884244908 0
          4.2244777300400838 9.0246473217107503 0
          4.2314921421382223 9.0282262620412475 0
          4.2384087772295311 9.0319910696174404 0
          4.245204781903305 9.0359699274882939 0
          4.251875742643775 9.0401554908066402 0
          4.258417765693066 9.0445403038394154 0
          4.2648274678153832 9.0491168460364566 0
          4.2711019536260855 9.0538775877461148 0
          4.2772388091045341 9.0588150148087916 0
          4.2832360681043582 9.0639216822488091 0
          4.2890915434539272 9.0691909649177962 0
          4.2947749338324188 9.0746444391976855 0
          4.300283728251209 9.0802734207488669 0
          4.3056157767756584 9.0860694450925816 0
          4.3107692571456724 9.0920242744191793 0
          4.3157426146063376 9.0981299250772185 0
          4.3205337806391038 9.1043792407213253 0
          4.3251415537371223 9.1107647343964135 0
          4.3295648548399512 9.117279194277101 0
          4.3338026819511617 9.1239156807045561 0
          4.3378540650067272 9.1306675202498244 0
          4.3417172478178276 9.1375287322994385 0
          4.3453911793878675 9.1444930968540366 0
          4.3488747236717016 9.1515546181736021 0
          4.3521658416147977 9.1587078646170141 0
          4.3552631064146432 9.1659471822739729 0
          4.3581649086621885 9.1732670722238918 0
          4.3608694281795888 9.1806621619089359 0
          4.3633738173266794 9.1881274391463865 0
          4.3656757419032326 9.1956576463153095 0
          4.367772583999459 9.203247551025024 0
          4.3696614217910259 9.2108919069658768 0
          4.3713390088973343 9.2185854124331321 0
          4.3728009794322986 9.2263228119157468 0
          4.3740433813678194 9.2340985097343253 0
          4.3750618944372741 9.2419067072851888 0
          4.3758518197296432 9.249741346159718 0
          4.3764080690192904 9.2575960467945038 0
          4.3767251598930512 9.2654640413655009 0
          4.3767980165330718 9.2733380937377543 0
          4.3766203581652565 9.2812104851688648 0
          4.3761855045688023 9.2890728700670291 0
          4.3754872121542299 9.2969162533931797 0
          4.3745180202248797 9.3047307924044471 0
          4.3732700860147116 9.312505694113165 0
          4.371736079714216 9.3202292528773967 0
          4.3699074822091255 9.3278884226382441 0
          4.3679192915095282 9.3355077887828219 0
          4.3657750252078493 9.3430847903298115 0
          4.3634727778676359 9.3506153858471031 0
          4.3610246018387615 9.3580999274795005 0
          4.3584222909790364 9.3655324141319003 0
          4.3556714620568311 9.3729113820098267 0
          4.3527857487991568 9.3802388500981593 0
          4.3497914277082277 9.3875228661033034 0
          4.3467613508887162 9.3947924455195277 0
          4.3437406813844799 9.4020664172534065 0
        </DataArray>
      </Points>
      <Cells>
        <DataArray type="Int32" Name="connectivity" format="ascii">
          0 1 1 2 2 3 3 4 4 5 5 6 6 7 7 8 8 9 9 10 10 11 11 12 12 13 13 14 14 15 15 16 16 17 17 18 18 19 19 20 20 21 21 22 22 23 23 24 24 25 25 26 26 27 27 28 28 29 29 30 30 31 31 32 32 33 33 34 34 35 35 36 36 37 37 38 38 39 39 40 40 41 41 42 42 43 43 44 44 45 45 46 46 47 47 48 48 49 49 50 50 51 51 52 52 53 53 54 54 55 55 56 56 57 57 58 58 59 59 60 60 61 61 62 62 63 63 64 64 65 65 66 66 67 67 68 68 69 69 70 70 71 71 72 72 73 73 74 74 75 75 76 76 77 77 78 78 79 79 80 80 81 81 82 82 83 83 84 84 85 85 86 86 87 87 88 88 89 89 90 90 91 91 92 92 93 93 94 94 95 95 96 96 97 97 98 98 99 99 100 100 101 101 102 102 103 103 104 104 105 105 106 106 107 107 108 108 109 109 110 110 111 111 112 112 113 113 114 114 115 115 116 116 117 117 118 118 119 119 120 120 121 121 122 122 123 123 124 124 125 125 126 126 127 
        </DataArray>
        <DataArray type="Int32" Name="offsets" format="ascii">
          2 4 6 8 10 12 14 16 18 20 22 24 26 28 30 32 34 36 38 40 42 44 46 48 50 52 54 56 58 60 62 64 66 68 70 72 74 76 78 80 82 84 86 88 90 92 94 96 98 100 102 104 106 108 110 112 114 116 118 120 122 124 126 128 130 132 134 136 138 140 142 144 146 148 150 152 154 156 158 160 162 164 166 168 170 172 174 176 178 180 182 184 186 188 190 192 194 196 198 200 202 204 206 208 210 212 214 216 218 220 222 224 226 228 230 232 234 236 238 240 242 244 246 248 250 252 254 
        </DataArray>
        <DataArray type="Int32" Name="types" format="ascii">
          3 3 3 3 3 3 3 3 3 3 3 3 3 3 3 3 3 3 3 3 3 3 3 3 3 3 3 3 3 3 3 3 3 3 3 3 3 3 3 3 3 3 3 3 3 3 3 3 3 3 3 3 3 3 3 3 3 3 3 3 3 3 3 3 3 3 3 3 3 3 3 3 3 3 3 3 3 3 3 3 3 3 3 3 3 3 3 3 3 3 3 3 3 3 3 3 3 3 3 3 3 3 3 3 3 3 3 3 3 3 3 3 3 3 3 3 3 3 3 3 3 3 3 3 3 3 3         </DataArray>
      </Cells>
    </Piece>
  </UnstructuredGrid>
</VTKFile>
