<?xml version="1.0"?>
<VTKFile type="UnstructuredGrid" version="0.1" byte_order="LittleEndian">
  <UnstructuredGrid>
    <Piece NumberOfPoints="128" NumberOfCells="127">
      <PointData Scalars="W">
        <DataArray type="Float32" Name="W" NumberOfComponents="2">
          0 0 0.33986065519116299 0.026726188423061702 0.50302453497932009 0.037873082880138804 0.62430554445545472 0.044211351183953307 0.72197229555390507 0.047274420752852736 0.80351372452922731 0.047759619322701029 0.87301381385554344 0.046100942082717575 0.9329704987867391 0.042609218654838271 0.98505576637293346 0.037529811001455887 1.0303823715447389 0.031066376896128917 1.069807011035705 0.023400192938589193 1.1039287674742266 0.014694482586634071 1.1332028846640234 0.0051018970502135696 1.1579854330543415 -0.0052323342930901103 1.1785197458106793 -0.016167784079252328 1.1949922978580347 -0.027566392136608792 1.2076394294316974 -0.039294982200348993 1.216579952072657 -0.051221725086551644 1.2219549257494728 -0.063218515382201343 1.2239215623095463 -0.075162862711668027 1.2226157060362457 -0.086936874911514805 1.2181366214831502 -0.098425485211764696 1.2105988779851464 -0.10951994226662175 1.2001081764317139 -0.12011675643962291 1.1867662789899631 -0.13011828097575909 1.1707300825683786 -0.13944027556747532 1.1521060053518377 -0.14800134850597785 1.1309513988144901 -0.15572064777710609 1.1074178558505512 -0.16253719166157934 1.0819585847433937 -0.16844844902234474 1.0543484889354917 -0.1733607186453785 1.0247396868897423 -0.17724091959968816 0.99329904264792024 -0.180069101470926 0.96019878352197896 -0.18183725512648094 0.92560586604071282 -0.18254721740685884 0.88967597232512774 -0.1822088819542215 0.85249782058899204 -0.18082734645036008 0.81430474357017091 -0.17844686560292614 0.77536177489058256 -0.17513054548005516 0.73580210158375681 -0.17092217994006559 0.69581221106377644 -0.16588514864157664 0.65560897179735411 -0.16009803235642903 4.6882924316522567 -1.2535976413713812 4.4114253499681695 -1.3576584101253721 4.1287240430472911 -1.4324022997259587 4.0387790777525829 -1.5581139949662244 3.7533339119723679 -1.5926145126927902 3.6638661276856608 -1.6947305684836997 3.3792620150174066 -1.6911921980745117 3.2909347295587272 -1.7706359281305408 3.2016654855052185 -1.8453922729762262 3.1118075063477413 -1.9156351292204543 3.0215752289425493 -1.9814873836231108 2.9310515429655695 -2.0429954744392447 2.8404376310236961 -2.1002880355058515 2.3922248746653043 -1.8664251761410933 2.1356128035185709 -1.7460061110140175 1.8836707536952053 -1.6059079514965513 1.4374968139855842 -1.2691061716461827 1.1915449390425847 -1.0817752782446188 0.9468730625432602 -0.87958513190910326 0.70226970752104556 -0.66409671108123403 0.22589217375481133 -0.21577834987999642 -0.031314277658516639 0.029975749326752406 -0.54934377005095014 0.52255000679505026 -0.84278842243154017 0.78967620413977058 -0.87298028495092594 0.80298424054533613 -0.90628982579722661 0.81790533025673873 -1.2173254508168145 1.0741202561639862 -1.2562601467861587 1.0799442674474902 -1.2915605386109466 1.081076069490023 -1.6311108827454646 1.324456105486119 -1.6764856710212475 1.3155628778466952 -1.7177566670018916 1.3017186602460751 -1.7618541600262831 1.2883665714791321 -2.1335248457343301 1.499231590280323 -2.1803969734661561 1.4659870725345558 -2.2297800492080202 1.4328277483219782 -2.2777554578587775 1.3971012047931175 -2.3196596672593288 1.3562959754110548 -2.7267677826288801 1.5117930500501042 -2.7777257013310681 1.4518368689853334 -2.8260029227471652 1.3891774793544731 -2.8669142056537584 1.3219543190263696 -2.9092511453428376 1.2545971287488176 -3.3464488265852097 1.3384845371371217 -3.3851297093968835 1.243696431230102 -3.4244404013125349 1.1487852920995885 -3.4594088074903167 1.0519913177556752 -3.4846843637727738 0.95222904355112059 -3.9409858311828723 0.95007934176862019 -3.9675312797685076 0.82346309216683833 -3.982732922685519 0.69502739841247829 -3.9976431716200049 0.56723837389255649 -4.0067965861935333 0.43921589341057665 -4.465475005497769 0.33857637440343086 -4.4583147513814776 0.18053709725243935 -4.4500257285764784 0.023939377227418974 -4.4286545601022995 -0.13108116683399967 -4.8764769437128646 -0.32369004574323212 -4.8437963157624813 -0.50902550528687274 -4.7967980255607623 -0.6904886452013691 -4.7482933264246752 -0.86923238407532311 -5.1594925590922944 -1.1585774756069578 -5.0857169013292474 -1.3662504054020348 -5.0029939993637651 -1.5686334662109516 -5.3760810364277507 -1.9441009292219782 -5.2538860250864925 -2.1712359771730787 -5.1281793644684539 -2.3927141950899928 -5.4431573899703345 -2.8548678021510749 -5.2750712283178451 -3.1002832521966717 -5.5333496496928962 -3.6372673958405608 -5.3067044427430732 -3.8978824965363477 -5.4962175877008903 -4.5127609178008639 -5.2066133285357292 -4.785807660421999 -5.2942739975015174 -5.463432449529563 -5.3044853030786978 -6.201755833993122 -5.2218434274834706 -6.9981956933407945 -3.4711430820539642 -5.2775757652007655 -3.3705993282579318 -5.7437761607812217 -2.9502646045005214 -5.6772820001852562 -2.8392705191776431 -6.2392163276312367 -2.387397985214911 -6.0765975126416665 -1.8911263768791537 -5.6059954098258533 -1.4192282429993428 -4.8990811736943636 -0.84476275093514341 -3.3311200735930555 -0.38410606894585658 -1.6542936555855046 0 0
        </DataArray>
        <DataArray type="Float32" Name="u" NumberOfComponents="1">
          0 0.007874015748031496 0.015748031496062992 0.023622047244094488 0.031496062992125984 0.03937007874015748 0.047244094488188976 0.055118110236220472 0.062992125984251968 0.070866141732283464 0.07874015748031496 0.086614173228346455 0.094488188976377951 0.10236220472440945 0.11023622047244094 0.11811023622047244 0.12598425196850394 0.13385826771653545 0.14173228346456693 0.14960629921259844 0.15748031496062992 0.16535433070866143 0.17322834645669291 0.18110236220472442 0.1889763779527559 0.19685039370078741 0.20472440944881889 0.2125984251968504 0.22047244094488189 0.2283464566929134 0.23622047244094488 0.24409448818897639 0.25196850393700787 0.25984251968503935 0.26771653543307089 0.27559055118110237 0.28346456692913385 0.29133858267716534 0.29921259842519687 0.30708661417322836 0.31496062992125984 0.32283464566929132 0.33070866141732286 0.33858267716535434 0.34645669291338582 0.3543307086614173 0.36220472440944884 0.37007874015748032 0.37795275590551181 0.38582677165354329 0.39370078740157483 0.40157480314960631 0.40944881889763779 0.41732283464566927 0.42519685039370081 0.43307086614173229 0.44094488188976377 0.44881889763779526 0.45669291338582679 0.46456692913385828 0.47244094488188976 0.48031496062992124 0.48818897637795278 0.49606299212598426 0.50393700787401574 0.51181102362204722 0.51968503937007871 0.52755905511811019 0.53543307086614178 0.54330708661417326 0.55118110236220474 0.55905511811023623 0.56692913385826771 0.57480314960629919 0.58267716535433067 0.59055118110236215 0.59842519685039375 0.60629921259842523 0.61417322834645671 0.62204724409448819 0.62992125984251968 0.63779527559055116 0.64566929133858264 0.65354330708661412 0.66141732283464572 0.6692913385826772 0.67716535433070868 0.68503937007874016 0.69291338582677164 0.70078740157480313 0.70866141732283461 0.71653543307086609 0.72440944881889768 0.73228346456692917 0.74015748031496065 0.74803149606299213 0.75590551181102361 0.76377952755905509 0.77165354330708658 0.77952755905511806 0.78740157480314965 0.79527559055118113 0.80314960629921262 0.8110236220472441 0.81889763779527558 0.82677165354330706 0.83464566929133854 0.84251968503937003 0.85039370078740162 0.8582677165354331 0.86614173228346458 0.87401574803149606 0.88188976377952755 0.88976377952755903 0.89763779527559051 0.90551181102362199 0.91338582677165359 0.92125984251968507 0.92913385826771655 0.93700787401574803 0.94488188976377951 0.952755905511811 0.96062992125984248 0.96850393700787396 0.97637795275590555 0.98425196850393704 0.99212598425196852 1
        </DataArray>
      </PointData>
      <CellData Scalars="P">
        <DataArray type="Float32" Name="P" NumberOfComponents="1">
          0.01130796845240699 0.034328255778204191 0.05808882799218508 0.082728569955228939 0.108290959870813 0.13475424063019706 0.16204808699601081 0.19006428590679628 0.21866467094779524 0.24768699057310775 0.2769505202795649 0.30626044678434239 0.33541216064221019 0.36419530604699873 0.39239744474314081 0.41980784172825902 0.44622145055429008 0.4714419988796732 0.49528546239151705 0.51758314343309242 0.53818438907288879 0.55695916205674934 0.57380032619078813 0.58862564102954851 0.60137944945629085 0.61203349331544687 0.62058804563259062 0.6270730859867526 0.63154743167140848 0.63409310894640203 0.63482468422494009 0.63388303099649668 0.63143323022191011 0.62766219106329169 0.62277614263692671 0.61699802166777973 0.61056628994477202 0.60372753268589496 0.59673138652148328 0.58983065706510529 0.58327588087659021 0.57731044590350944 0.43340991825210656 0.29505962027076565 0.16313126886893953 0.030545370726769893 -0.094497451983248631 -0.21959532619335861 -0.33619205438050437 -0.45227752079369071 -0.5676606009388514 -0.68218156532988372 -0.7957034092034545 -0.90810296341635888 -1.0192736211685194 -1.1112812708680135 -1.1927429937103269 -1.2632860783680309 -1.3121963882145129 -1.3491701345124698 -1.3738641654167969 -1.3859872244168709 -1.3731518795676316 -1.3470207825173719 -1.2944928857514322 -1.2280479395084298 -1.1615334534690942 -1.0950443952485143 -1.0161413661914855 -0.93812042802808215 -0.86142174096546864 -0.77422915042982399 -0.68926633219973221 -0.60696153021024979 -0.52745052007756044 -0.44094360248891351 -0.35845780728629206 -0.28010485531903057 -0.20606547789076593 -0.13656911214765094 -0.064718646965875551 0.0017677020946541824 0.062835283270977954 0.11842871786787952 0.16866973527480034 0.21714373630418368 0.25969765991356747 0.29653281212728705 0.32786186575986059 0.35393657171095283 0.37536284094728456 0.39151043256216239 0.40274439877460533 0.4094596375446759 0.41209021772810439 0.40882743735722971 0.40194658898363567 0.39190264508478662 0.37924712553357381 0.36082046441489585 0.34045773030610449 0.31872364914123441 0.29608733275413679 0.26880355366372599 0.24150181037308557 0.21465209911315392 0.18436307200020161 0.15546631052352181 0.12828817807108053 0.099105746518631674 0.072440885172200931 0.044750823474324755 0.02026169174609839 -0.0044095630715949106 -0.025457676878478618 -0.045892566669305336 -0.065353996166541056 -0.083628581264025156 -0.088893974792850772 -0.092471686057479352 -0.091865730316388769 -0.087041978185110988 -0.077782078525174964 -0.064363291473007386 -0.047809934370187539 -0.029171412444007727 -0.0097616221989811625
        </DataArray>
      </CellData>
      <Points>
        <DataArray type="Float32" NumberOfComponents="3" format="ascii">
          4.1353206007500933 6.1459230745647337 0
          4.1346927620992355 6.153772108546451 0
          4.1340859953344955 6.1616227994563344 0
          4.1335104168858443 6.1694758380847263 0
          4.1329735463801534 6.1773316169900765 0
          4.1324814393164742 6.185190325601269 0
          4.1320391513865538 6.1930519934696626 0
          4.1316509916839221 6.2009165171917422 0
          4.1313206775764471 6.2087836796949372 0
          4.1310514383696937 6.2166531654646331 0
          4.1308460842979828 6.2245245731862218 0
          4.1307070596404598 6.2323974270003415 0
          4.130636479865835 6.2402711866396992 0
          4.1306361598601056 6.2481452569112905 0
          4.1307076360066741 6.2560189967194466 0
          4.1308521812779659 6.2638917277920267 0
          4.131070816803172 6.2717627432606813 0
          4.1313643265290922 6.279631315939076 0
          4.1317332645955283 6.2874967065182732 0
          4.1321779640914986 6.2953581715319231 0
          4.1326985468142388 6.3032149709738885 0
          4.1332949317046808 6.311066375631297 0
          4.1339668410161856 6.3189116742428553 0
          4.1347138074332666 6.3267501802660373 0
          4.1355351806414129 6.3345812383184521 0
          4.1364301336535059 6.342404230257328 0
          4.1373976725552044 6.3502185804281819 0
          4.1384366431210555 6.3580237607372725 0
          4.1395457343886601 6.3658192956910993 0
          4.1407234880757917 6.3736047662044539 0
          4.1419683266976888 6.3813798097850869 0
          4.1432785396286347 6.3891441263716988 0
          4.1446522925502887 6.3968974804142684 0
          4.146087637813376 6.4046397021413739 0
          4.1475825251308232 6.4123706880882096 0
          4.149134811942834 6.4200904010154298 0
          4.1507422730814909 6.4277988693299424 0
          4.152402606281691 6.4354961868049037 0
          4.1541134466570204 6.4431825098735889 0
          4.155872383139867 6.4508580537563134 0
          4.1576769667447149 6.4585230897869748 0
          4.1595247221348108 6.4661779415276941 0
          4.1614131610713372 6.4738229799430895 0
          4.1635923206858552 6.4813902354266979 0
          4.1660450268762981 6.4888732561681994 0
          4.1687537442091287 6.4962674084688921 0
          4.1717128927775962 6.5035649034492273 0
          4.1749047681780551 6.5107636028583933 0
          4.178323821199422 6.5178571806406564 0
          4.1819524005788429 6.5248458571241104 0
          4.1857850286971017 6.5317247116596748 0
          4.1898161699402587 6.5384891138060244 0
          4.1940402525522913 6.545134712569447 0
          4.1984516818872999 6.5516574288059006 0
          4.2030448455097993 6.5580534523623397 0
          4.2078141256379542 6.5643192341249081 0
          4.2127317255659396 6.5704692708190198 0
          4.2177817318975874 6.5765110289032078 0
          4.2229485209285507 6.5824531950228646 0
          4.2282044225850539 6.5883166488027767 0
          4.2335341851905444 6.5941130057390573 0
          4.2389226368491331 6.5998548026405155 0
          4.2443546104044403 6.6055554008559989 0
          4.249800565642686 6.6112425947718387 0
          4.255244555908841 6.6169316227949535 0
          4.2606544615232771 6.6226530242522097 0
          4.2660120918152007 6.6284233638250978 0
          4.2713155806169585 6.6342434717149414 0
          4.2765628677588872 6.6401142777241491 0
          4.2817346727293115 6.6460516708530353 0
          4.2868285862220725 6.652056017052816 0
          4.291842423503355 6.6581273909752392 0
          4.2967551362790672 6.6642808872380472 0
          4.3015639144778453 6.6705159592680578 0
          4.3062662016293514 6.6768317530630812 0
          4.3108592652612181 6.6832274446670024 0
          4.315320064434724 6.6897161147311888 0
          4.3196456935034506 6.6962957061863975 0
          4.3238330903839719 6.7029641666610758 0
          4.3278792795719943 6.7097192839557769 0
          4.3317816613420135 6.7165585302146216 0
          4.3355149946699836 6.7234915550480716 0
          4.3390761171860674 6.730514643155022 0
          4.342462032224101 6.7376239107583906 0
          4.3456701994131333 6.7448151901212219 0
          4.3486979897542311 6.7520843044023504 0
          4.3515182931133749 6.759436463985077 0
          4.3541287060069775 6.7668657904827167 0
          4.3565267858984873 6.7743663969902501 0
          4.3587103595967287 6.7819322788935255 0
          4.3606778551439138 6.789557246468914 0
          4.3624009749694475 6.7972411749506234 0
          4.3638780677729256 6.8049762087852157 0
          4.3651081861821259 6.8127543785403049 0
          4.3660904015442545 6.8205677542851273 0
          4.3668241429069976 6.8284083909844755 0
          4.3672809637618615 6.8362700558350662 0
          4.3674613047707158 6.8441429416070401 0
          4.3673656775461218 6.8520173302098 0
          4.366995405970914 6.8598836008879625 0
          4.366322716066386 6.8677298175471888 0
          4.3653496332523245 6.8755444794535281 0
          4.3640790719824176 6.8833163258161356 0
          4.3625140411531884 6.8910342649052261 0
          4.360629037507989 6.8986803620029598 0
          4.3584286372364094 6.9062417315930853 0
          4.3559179723634536 6.9137058167150842 0
          4.3530739018766349 6.9210493426244799 0
          4.3499040054838458 6.9282582176405718 0
          4.3464160813407826 6.935318701878507 0
          4.3425905898549049 6.9422021456440257 0
          4.3384379563222444 6.9488933251335592 0
          4.3339421540524263 6.9553589501243236 0
          4.3291172382134011 6.9615828542615246 0
          4.3239514416830334 6.9675269163232887 0
          4.3184627209751927 6.9731741986758244 0
          4.3126456186879309 6.9784826868268199 0
          4.3064994736735018 6.9834065989530938 0
          4.3000293757935397 6.9878965435381506 0
          4.2933439686779762 6.9920591769612992 0
          4.2864494600459953 6.9958655945373591 0
          4.2793719016721541 6.9993199195447682 0
          4.2721188230155853 7.0023870339064098 0
          4.2647181145129096 7.0050771704843511 0
          4.2572004178356497 7.0074196154438164 0
          4.2495948649935702 7.0094582690701115 0
          4.2419369559016546 7.0112903870571115 0
          4.234255145822055 7.0130199572907683 0
        </DataArray>
      </Points>
      <Cells>
        <DataArray type="Int32" Name="connectivity" format="ascii">
          0 1 1 2 2 3 3 4 4 5 5 6 6 7 7 8 8 9 9 10 10 11 11 12 12 13 13 14 14 15 15 16 16 17 17 18 18 19 19 20 20 21 21 22 22 23 23 24 24 25 25 26 26 27 27 28 28 29 29 30 30 31 31 32 32 33 33 34 34 35 35 36 36 37 37 38 38 39 39 40 40 41 41 42 42 43 43 44 44 45 45 46 46 47 47 48 48 49 49 50 50 51 51 52 52 53 53 54 54 55 55 56 56 57 57 58 58 59 59 60 60 61 61 62 62 63 63 64 64 65 65 66 66 67 67 68 68 69 69 70 70 71 71 72 72 73 73 74 74 75 75 76 76 77 77 78 78 79 79 80 80 81 81 82 82 83 83 84 84 85 85 86 86 87 87 88 88 89 89 90 90 91 91 92 92 93 93 94 94 95 95 96 96 97 97 98 98 99 99 100 100 101 101 102 102 103 103 104 104 105 105 106 106 107 107 108 108 109 109 110 110 111 111 112 112 113 113 114 114 115 115 116 116 117 117 118 118 119 119 120 120 121 121 122 122 123 123 124 124 125 125 126 126 127 
        </DataArray>
        <DataArray type="Int32" Name="offsets" format="ascii">
          2 4 6 8 10 12 14 16 18 20 22 24 26 28 30 32 34 36 38 40 42 44 46 48 50 52 54 56 58 60 62 64 66 68 70 72 74 76 78 80 82 84 86 88 90 92 94 96 98 100 102 104 106 108 110 112 114 116 118 120 122 124 126 128 130 132 134 136 138 140 142 144 146 148 150 152 154 156 158 160 162 164 166 168 170 172 174 176 178 180 182 184 186 188 190 192 194 196 198 200 202 204 206 208 210 212 214 216 218 220 222 224 226 228 230 232 234 236 238 240 242 244 246 248 250 252 254 
        </DataArray>
        <DataArray type="Int32" Name="types" format="ascii">
          3 3 3 3 3 3 3 3 3 3 3 3 3 3 3 3 3 3 3 3 3 3 3 3 3 3 3 3 3 3 3 3 3 3 3 3 3 3 3 3 3 3 3 3 3 3 3 3 3 3 3 3 3 3 3 3 3 3 3 3 3 3 3 3 3 3 3 3 3 3 3 3 3 3 3 3 3 3 3 3 3 3 3 3 3 3 3 3 3 3 3 3 3 3 3 3 3 3 3 3 3 3 3 3 3 3 3 3 3 3 3 3 3 3 3 3 3 3 3 3 3 3 3 3 3 3 3         </DataArray>
      </Cells>
    </Piece>
  </UnstructuredGrid>
</VTKFile>
