<?xml version="1.0"?>
<VTKFile type="UnstructuredGrid" version="0.1" byte_order="LittleEndian">
  <UnstructuredGrid>
    <Piece NumberOfPoints="128" NumberOfCells="127">
      <PointData Scalars="W">
        <DataArray type="Float32" Name="W" NumberOfComponents="2">
          0 0 0.33020492250095512 0.58747214950455862 0.52813344891873759 0.95509129788843494 0.66879288733006759 1.238070385998804 0.77556497964007776 1.4782734713153174 0.85793021194220376 1.6926316055017752 0.92067203731124081 1.8896320163922111 0.96653409293035442 2.0740628570615876 0.99725050833546214 2.2488554951778048 1.0140217751362117 2.4159533752914326 1.0176900267116182 2.5766100982186924 1.0088850530718929 2.7316575143786292 0.98808869999506377 2.8816125053261188 0.95571064518882543 3.0268471771107484 0.91210498375060334 3.1676340126771687 0.85756301472991658 3.3041115896851854 0.79231539246701543 3.4362457796191452 0.71658251613655144 3.5639900652700556 0.63056328446696619 3.6872494880455071 0.53442846688633139 3.8058121973021461 0.42834411841596376 3.9194297611038027 0.31247568495685651 4.0278481215916484 0.18698267583717415 4.1307333733074776 0.052030388230844535 4.2276965538086202 -0.092206676507360488 4.3184116894978652 -0.24554409232037661 4.402389755208767 -0.40777778297463046 4.4791780668967442 -0.57869395628752462 4.5483637841410216 -0.75805713877612591 4.6094490929050753 -0.94552021221437332 4.6615239567737534 -1.1408217595416357 4.704391914300083 -1.343624689638665 4.7374780533167469 -1.5535493464011574 4.7601861309076856 -1.7701656749949801 4.7718962753219056 -1.993000477809884 4.7720019450480029 -2.2215141723753198 4.759862671692713 -2.4551564340331486 4.7349347516448441 -2.6932520913570315 4.6965405780330736 -2.9350558698012987 4.644032635733117 -3.1798249508759064 4.5768992227805425 -3.426736337479197 4.4946139354746864 -3.6748957599307532 4.3966707205986779 2.0829082559592726 -2.4423321641665359 1.9545257733376495 -2.4106686928525227 1.8085608599131759 -2.3428146383966424 1.7079923969530337 -2.3209877761409992 1.5895458399882629 -2.263800648071538 1.4755577445325887 -2.1997241627302864 1.3659673726501316 -2.1289163166920568 1.2606406046622727 -2.0514269589989489 1.1602965473497588 -1.9687836282809281 1.0646513557952326 -1.8810174404888196 0.95246002106781325 -1.7488987683359396 0.84478932941767404 -1.6081343043787064 1.4205254662840294 -2.8381791758762276 1.3158320922013029 -2.7995215717887363 1.0252429543298978 -2.3129418813833489 0.9426695964716918 -2.2440355256232141 0.86526386029495406 -2.1732663888541688 0.7925575746849759 -2.1001651258806877 0.73094060619294798 -2.0437470060212255 0.66733486217747384 -1.969200483191796 0.60829269518414231 -1.8942697525040282 0.5533404542756889 -1.8183536441222072 0.50257683752952353 -1.7426357283214891 0.46106873281817357 -1.6872452680566485 0.41733389107631425 -1.6121192666538209 0.38224809973443369 -1.5590587168989962 0.34983687235692235 -1.5075337224225009 0.31993748730453181 -1.4577046340021982 0.29239148575443191 -1.4097243076980879 0.26704393572872781 -1.3637337984308702 0.24365838713078716 -1.3193858733020694 0.22226854762875178 -1.2777496721152704 0.19915161787120253 -1.2164903781488692 0.18156169790064328 -1.1796074224141226 0.16544424465461763 -1.1452889141280411 0.15067400577798057 -1.1136256029321925 0.13713042747264045 -1.0847033447399077 0.12469742621115362 -1.0586043495836206 0.11326297404843536 -1.0354076747182797 0.10267271726047836 -1.0147170677812625 0.092920660410619416 -0.9975528273139429 0.083850385624621313 -0.98351700120146535 0.075360852568115463 -0.97268326575898889 0.067352071143371703 -0.96512586721135574 0.059724233578093394 -0.96091994933635294 0.052353788172443308 -0.95968888240125716 0.045191349256351543 -0.96241790566245422 0.038101954787891273 -0.96873577259440102 0.030976454429088012 -0.97872763300639853 0.023691531394642841 -0.99204355039920566 0.016150365960928444 -1.0096606928839675 0.0082073356988090866 -1.0312278652956866 -0.0002774586710196621 -1.05685585366935 -0.0094507905878635431 -1.0862319187613301 -0.019482895659337515 -1.1203241439277076 -0.030558977052461359 -1.15883558845456 -0.042882254990086924 -1.2019026398225987 -0.056678781290174618 -1.2496720084525783 -0.072176198799419541 -1.3018917553981373 -0.08969836166724654 -1.3595518564341489 -0.10954691458670529 -1.4224260428088737 -0.13208086076192424 -1.490713004216337 -0.15525828051260282 -1.5417398983666022 -0.18384387888472459 -1.621578463601832 -0.21645995200858592 -1.7075501535418818 -0.25370134362494856 -1.7999362461371347 -0.29240491050272754 -1.8755491768364794 -0.34029936376740039 -1.9818464588973916 -0.39037082192969391 -2.0714639444456266 -0.45242785525612422 -2.193718754107258 -0.51774082172057823 -2.2992345527047617 -0.59860305119763835 -2.4391908722632816 -0.68456559115697302 -2.5631312576780041 -0.7909151710577057 -2.723764515033277 -0.9054374898049643 -2.8697942123713496 0.11857640132493567 0.36270738075995412 0.1641104821746906 0.50818544463317517 0.17005742373133526 0.53446960159622947 0.19852275108565556 0.63451642481822157 0.27458213640713264 0.8974625828744287 0.33337297445989872 1.12288445383609 0.48351688513045876 1.700512513602267 0.68935712114312764 2.5968022570726967 1.1426465101867427 4.9005796541921214 1.1537916059621509 6.1836236787352767 0 0
        </DataArray>
        <DataArray type="Float32" Name="u" NumberOfComponents="1">
          0 0.007874015748031496 0.015748031496062992 0.023622047244094488 0.031496062992125984 0.03937007874015748 0.047244094488188976 0.055118110236220472 0.062992125984251968 0.070866141732283464 0.07874015748031496 0.086614173228346455 0.094488188976377951 0.10236220472440945 0.11023622047244094 0.11811023622047244 0.12598425196850394 0.13385826771653545 0.14173228346456693 0.14960629921259844 0.15748031496062992 0.16535433070866143 0.17322834645669291 0.18110236220472442 0.1889763779527559 0.19685039370078741 0.20472440944881889 0.2125984251968504 0.22047244094488189 0.2283464566929134 0.23622047244094488 0.24409448818897639 0.25196850393700787 0.25984251968503935 0.26771653543307089 0.27559055118110237 0.28346456692913385 0.29133858267716534 0.29921259842519687 0.30708661417322836 0.31496062992125984 0.32283464566929132 0.33070866141732286 0.33858267716535434 0.34645669291338582 0.3543307086614173 0.36220472440944884 0.37007874015748032 0.37795275590551181 0.38582677165354329 0.39370078740157483 0.40157480314960631 0.40944881889763779 0.41732283464566927 0.42519685039370081 0.43307086614173229 0.44094488188976377 0.44881889763779526 0.45669291338582679 0.46456692913385828 0.47244094488188976 0.48031496062992124 0.48818897637795278 0.49606299212598426 0.50393700787401574 0.51181102362204722 0.51968503937007871 0.52755905511811019 0.53543307086614178 0.54330708661417326 0.55118110236220474 0.55905511811023623 0.56692913385826771 0.57480314960629919 0.58267716535433067 0.59055118110236215 0.59842519685039375 0.60629921259842523 0.61417322834645671 0.62204724409448819 0.62992125984251968 0.63779527559055116 0.64566929133858264 0.65354330708661412 0.66141732283464572 0.6692913385826772 0.67716535433070868 0.68503937007874016 0.69291338582677164 0.70078740157480313 0.70866141732283461 0.71653543307086609 0.72440944881889768 0.73228346456692917 0.74015748031496065 0.74803149606299213 0.75590551181102361 0.76377952755905509 0.77165354330708658 0.77952755905511806 0.78740157480314965 0.79527559055118113 0.80314960629921262 0.8110236220472441 0.81889763779527558 0.82677165354330706 0.83464566929133854 0.84251968503937003 0.85039370078740162 0.8582677165354331 0.86614173228346458 0.87401574803149606 0.88188976377952755 0.88976377952755903 0.89763779527559051 0.90551181102362199 0.91338582677165359 0.92125984251968507 0.92913385826771655 0.93700787401574803 0.94488188976377951 0.952755905511811 0.96062992125984248 0.96850393700787396 0.97637795275590555 0.98425196850393704 0.99212598425196852 1
        </DataArray>
      </PointData>
      <CellData Scalars="P">
        <DataArray type="Float32" Name="P" NumberOfComponents="1">
          -0.013598792504626813 -0.038754832503830022 -0.059573460349720088 -0.074846012487795599 -0.083781299209789412 -0.085820571426852288 -0.080555925841187009 -0.067685739544878942 -0.046986277135798588 -0.018290770933198638 0.018524054244708273 0.063548707124910189 0.11684854526650854 0.17847197884483565 0.24845751440430419 0.32683787817536497 0.4136411121701547 0.50889530802668326 0.61263143283764487 0.72488295771462175 0.84568743100188903 0.9750887076825614 1.1131359751631027 1.2598831155722701 1.4153924321772031 1.5797289311749532 1.7529622108275806 1.9351685199675321 2.1264271243042594 2.3268003562647555 2.5363657936146833 2.755197935413046 2.9833656069844574 3.2209287439414198 3.4679366538057907 3.7244232113280411 3.9904090747986709 4.2658899377086517 4.5508331771585722 4.8451811495964128 5.148844725556339 5.4616982071832849 5.2519735978666402 5.0383024553493074 4.8251725806267514 4.6098179921519877 4.3964211110546607 4.1865607481771017 3.9816758142089266 3.7830777145931105 3.591817205363276 3.4088260156346415 3.2385074871372361 3.0818327453870049 2.8156378954895449 2.5561357202904245 2.3428972842411318 2.1389659361907962 1.9446534262839639 1.7602391280902265 1.5844102057350071 1.4186256274927678 1.262830794759112 1.1169660875339176 0.98083781199286424 0.85284813173832841 0.73414387339465037 0.62306759393885214 0.51934734903933377 0.42269277814555889 0.33279983047448763 0.24935549299186469 0.17206468607092756 0.10058542714199639 0.035498711077375109 -0.024473099794477902 -0.079631138575403007 -0.13026399389359461 -0.17664528922820619 -0.21903156478205857 -0.25766042766014519 -0.29274040837572579 -0.32447690463751838 -0.35304228053935838 -0.37858515349609889 -0.40122979488045935 -0.42107574980421475 -0.43819788984482033 -0.45264720237114403 -0.46444890289382446 -0.47360406547133516 -0.48009541745441126 -0.48387386330475873 -0.48487274427046589 -0.48300491721062266 -0.47817341451304335 -0.4702464648363755 -0.45908480607375363 -0.44453550229840705 -0.42643410578728508 -0.4046200256346773 -0.37890085006604507 -0.34909265657277466 -0.31501082064627012 -0.2773326567060635 -0.23505021058984296 -0.18799592131987333 -0.13601682604092658 -0.07994509524170447 -0.018717203950646105 0.046735249764512966 0.1174859796302597 0.19247972533004301 0.27274174067630536 0.35710041345099902 0.44648457612535836 0.53959677919353199 0.50264757425751649 0.4607247803921441 0.41889792759876832 0.37515783583727241 0.3254978290580039 0.2732430251692245 0.21278527898418934 0.14463312671076678 0.061627517992810577 0.0068074034747192223
        </DataArray>
      </CellData>
      <Points>
        <DataArray type="Float32" NumberOfComponents="3" format="ascii">
          6.6972478246924494 9.7391020211302717 0
          6.7041022263860022 9.7352253459562075 0
          6.710977102448072 9.7313851019443245 0
          6.7178847256234038 9.7276040861982853 0
          6.7248338175797793 9.7238998469366233 0
          6.7318309987094445 9.7202872796204609 0
          6.7388813759752724 9.7167796769048227 0
          6.7459888395144016 9.713389254961255 0
          6.7531562327621657 9.7101274504088 0
          6.7603854599814381 9.707005102099572 0
          6.7676775607040565 9.7040325716398268 0
          6.7750327619523008 9.7012198211316782 0
          6.7824505172942402 9.6985764647607713 0
          6.7899295367259311 9.69611180085192 0
          6.7974678120791374 9.6938348349467169 0
          6.8050626389828333 9.6917542967031931 0
          6.8127106349311006 9.6898786484917867 0
          6.8204077535907039 9.688216083281743 0
          6.8281492984729875 9.6867745217593004 0
          6.8359299352726834 9.6855616064420769 0
          6.8437437024625671 9.6845846885451685 0
          6.8515840215958743 9.6838508125790277 0
          6.8594437075709971 9.6833667005987163 0
          6.8673149785281131 9.6831387315021171 0
          6.8751894661046977 9.6831729169144456 0
          6.8830582262617721 9.6834748809789577 0
          6.8909117507254987 9.6840498300374005 0
          6.8987399796471767 9.6849025245643574 0
          6.9065323148655837 9.6860372535726569 0
          6.914277634513569 9.6874578037501333 0
          6.9219643145473198 9.6891674030358672 0
          6.9295802449611692 9.6911687084442928 0
          6.9371128506945352 9.6934637704227882 0
          6.9445491151778223 9.6960539958871319 0
          6.9518756070030152 9.6989401097923373 0
          6.9590785092689629 9.7021221175305978 0
          6.9661436530424465 9.7055992652260574 0
          6.9730565514847314 9.7093700060301664 0
          6.9798024417188085 9.7134319581146045 0
          6.9863663310427064 9.7177818645305702 0
          6.9927330429897152 9.722415561489786 0
          6.9988872683593106 9.7273279457342117 0
          7.0048136206665035 9.7325129431678921 0
          7.0108691035583988 9.7375464839685968 0
          7.0170457556969783 9.7424305333783625 0
          7.0233345252905268 9.7471693002307589 0
          7.0297291765656196 9.7517641401708879 0
          7.0362223649332325 9.7562186008746128 0
          7.0428070224748458 9.7605366571188075 0
          7.0494763541646481 9.7647227009688713 0
          7.0562238295426143 9.7687815386747499 0
          7.0630432273110806 9.7727182959609884 0
          7.0699286177239813 9.7765384160879734 0
          7.0768730449432313 9.7802500919351569 0
          7.0838698337234618 9.7838620523830713 0
          7.0909546930415424 9.7872980401662613 0
          7.0981211317708448 9.7905604524496095 0
          7.1053511293444833 9.7936794564953047 0
          7.1126395663073945 9.7966593251492515 0
          7.1199816436611307 9.7995044467113601 0
          7.127372853828315 9.8022193540326832 0
          7.1348093769387697 9.8048075455949242 0
          7.1422872697467881 9.8072736437679158 0
          7.1498028720028985 9.8096222947047611 0
          7.1573527770818437 9.8118582056141381 0
          7.1649338381059637 9.8139860713810432 0
          7.1725434821510277 9.8160093265635151 0
          7.1801789981995912 9.8179326292723559 0
          7.1878382115630677 9.8197592695342255 0
          7.1955191133864238 9.8214924421327972 0
          7.2032198505578924 9.8231352366697813 0
          7.2109387158832732 9.8246906280904511 0
          7.2186741384791544 9.826161467940679 0
          7.2264246691129079 9.827550505897829 0
          7.2341889822913137 9.8288603234858467 0
          7.2419656455045764 9.8300947188494696 0
          7.2497535688925261 9.8312559787677927 0
          7.2575517538930887 9.8323462310020453 0
          7.265359285476837 9.8333674386702672 0
          7.273175324673006 9.8343213949250963 0
          7.2809991013728164 9.8352097178573157 0
          7.2888299073843701 9.8360338455945584 0
          7.2966670868668384 9.8367950608695676 0
          7.3045100359535535 9.8374944277599674 0
          7.3123581930578245 9.8381328163611279 0
          7.3202110326095502 9.8387108982170997 0
          7.3280680588570188 9.8392291417157907 0
          7.3359287996801257 9.8396878074280796 0
          7.3437927989364908 9.8400869714574668 0
          7.3516596133916332 9.8404264643503119 0
          7.3595288043571747 9.8407058941106555 0
          7.3673999309250142 9.8409246409169384 0
          7.3752725423292098 9.8410818788147143 0
          7.3831461719331637 9.8411765151244346 0
          7.3910203282080342 9.841207212210799 0
          7.3988944860602466 9.8411723806072118 0
          7.4067680777397493 9.8410701983994162 0
          7.4146404822729819 9.8408985511927067 0
          7.4225110139873651 9.8406550505140071 0
          7.4303789099119557 9.8403370253449545 0
          7.4382433157620049 9.8399415130136401 0
          7.4461032718325955 9.8394652748029277 0
          7.4539576929018683 9.8389047345531058 0
          7.4618053495339627 9.8382559926752613 0
          7.4696448458166458 9.8375148138134652 0
          7.4774747465021543 9.8366780326495977 0
          7.4852932805324146 9.835740697204022 0
          7.4930984269543437 9.8346974749940639 0
          7.5008878780255284 9.8335426355649034 0
          7.5086592359690165 9.8322714882059543 0
          7.5164095324998179 9.8308774392907754 0
          7.5241356650015101 9.8293549290706537 0
          7.5318337869281375 9.8276963736925431 0
          7.5394998505173865 9.8258952267539055 0
          7.5471288429377132 9.8239428058273042 0
          7.554715435741775 9.8218314209763786 0
          7.5622530351967363 9.8195511064500387 0
          7.5697345413308312 9.8170928012610013 0
          7.5772235856930132 9.8146569300783693 0
          7.5847230246186239 9.8122525072495748 0
          7.5922332589496664 9.8098811560477337 0
          7.5997560940831894 9.8075490737878948 0
          7.6072963024795754 9.8052725611939469 0
          7.6148575931992601 9.8030655942911444 0
          7.6224493766126971 9.8009640007711543 0
          7.6300845628331553 9.7990233913924794 0
          7.6377915622298644 9.797386749727341 0
          7.6455698181505847 9.7961340151679437 0
        </DataArray>
      </Points>
      <Cells>
        <DataArray type="Int32" Name="connectivity" format="ascii">
          0 1 1 2 2 3 3 4 4 5 5 6 6 7 7 8 8 9 9 10 10 11 11 12 12 13 13 14 14 15 15 16 16 17 17 18 18 19 19 20 20 21 21 22 22 23 23 24 24 25 25 26 26 27 27 28 28 29 29 30 30 31 31 32 32 33 33 34 34 35 35 36 36 37 37 38 38 39 39 40 40 41 41 42 42 43 43 44 44 45 45 46 46 47 47 48 48 49 49 50 50 51 51 52 52 53 53 54 54 55 55 56 56 57 57 58 58 59 59 60 60 61 61 62 62 63 63 64 64 65 65 66 66 67 67 68 68 69 69 70 70 71 71 72 72 73 73 74 74 75 75 76 76 77 77 78 78 79 79 80 80 81 81 82 82 83 83 84 84 85 85 86 86 87 87 88 88 89 89 90 90 91 91 92 92 93 93 94 94 95 95 96 96 97 97 98 98 99 99 100 100 101 101 102 102 103 103 104 104 105 105 106 106 107 107 108 108 109 109 110 110 111 111 112 112 113 113 114 114 115 115 116 116 117 117 118 118 119 119 120 120 121 121 122 122 123 123 124 124 125 125 126 126 127 
        </DataArray>
        <DataArray type="Int32" Name="offsets" format="ascii">
          2 4 6 8 10 12 14 16 18 20 22 24 26 28 30 32 34 36 38 40 42 44 46 48 50 52 54 56 58 60 62 64 66 68 70 72 74 76 78 80 82 84 86 88 90 92 94 96 98 100 102 104 106 108 110 112 114 116 118 120 122 124 126 128 130 132 134 136 138 140 142 144 146 148 150 152 154 156 158 160 162 164 166 168 170 172 174 176 178 180 182 184 186 188 190 192 194 196 198 200 202 204 206 208 210 212 214 216 218 220 222 224 226 228 230 232 234 236 238 240 242 244 246 248 250 252 254 
        </DataArray>
        <DataArray type="Int32" Name="types" format="ascii">
          3 3 3 3 3 3 3 3 3 3 3 3 3 3 3 3 3 3 3 3 3 3 3 3 3 3 3 3 3 3 3 3 3 3 3 3 3 3 3 3 3 3 3 3 3 3 3 3 3 3 3 3 3 3 3 3 3 3 3 3 3 3 3 3 3 3 3 3 3 3 3 3 3 3 3 3 3 3 3 3 3 3 3 3 3 3 3 3 3 3 3 3 3 3 3 3 3 3 3 3 3 3 3 3 3 3 3 3 3 3 3 3 3 3 3 3 3 3 3 3 3 3 3 3 3 3 3         </DataArray>
      </Cells>
    </Piece>
  </UnstructuredGrid>
</VTKFile>
