<?xml version="1.0"?>
<VTKFile type="UnstructuredGrid" version="0.1" byte_order="LittleEndian">
  <UnstructuredGrid>
    <Piece NumberOfPoints="128" NumberOfCells="127">
      <PointData Scalars="W">
        <DataArray type="Float32" Name="W" NumberOfComponents="2">
          0 0 0.067536106686183581 0.010746838844626088 0.059538062742789624 0.0094432090223042445 0.06307440121038492 0.0099724988555894081 0.07429299097632619 0.011704544379837102 0.0916137430098799 0.014371280915416181 0.11436805468483309 0.017844532265114909 0.14216501191400974 0.022032788077016925 0.17473050731172726 0.026853962581415185 0.21178614209522212 0.032215310148203773 0.25313950953686293 0.03802633895310352 0.29857390271923157 0.044181153742484026 0.34787022320529948 0.050561642429111459 0.40079814096532224 0.057036298511873529 0.45710798260356122 0.063459647936928334 0.51656681339924426 0.069678131037056903 0.57902334762045593 0.075538923498109437 0.64424256408349057 0.080868120846483441 0.71202465815647598 0.085488137590264773 0.78220142721183195 0.08921735439331753 0.85458164199460807 0.091864338300542178 0.92895615946162613 0.093230374174609901 1.0051134366624705 0.09311296206919617 1.0828452027839459 0.091307847806519793 1.161915862800015 0.087608163709385248 1.2421476172478523 0.081812675863349268 1.3232859124229244 0.073717029413225499 1.4050011307422789 0.063119996683917781 1.4870434832351433 0.049834763942899526 1.5694699984369458 0.03368883297711054 1.6516262420644829 0.014499262403133793 1.7332093602710317 -0.007882720273617444 1.8138940320944597 -0.033587087515028979 1.8933555276508847 -0.062722243228286303 1.9712262461480607 -0.095370830646759483 2.0471465576729471 -0.13158753126828238 2.1206326364020511 -0.17138602434233163 2.1913391462181342 -0.21475206417598264 2.2589332235604109 -0.26163972212598668 2.322935529475878 -0.31194817807298542 2.3828798975736114 -0.3655289832996691 2.4383461213573687 -0.42219044836379183 -7.4776229201401989 1.1408686924286329 -7.4691844071546534 0.68971058263122942 -5.3366352066656058 0.22165428762021194 -5.1359508445782911 0.0013144299893345542 -4.9967429719837542 -0.19826320493581834 -4.8481637619842921 -0.38135006001601524 -4.6912212508656861 -0.5477928339413608 -4.5269098749436072 -0.69749822666640904 -4.4423477497471042 -0.84845373977606053 -4.3707726488118217 -0.99658815234517573 -4.2768003277080711 -1.1343032509679587 -4.1822354851403141 -1.265731119701903 -4.07777472234475 -1.3878498958183696 -3.9727244841104672 -1.5032137024677992 -3.6948416431598905 -1.5370249387441026 -3.4100565661687754 -1.5421420291089509 -3.1222841198558036 -1.5202683917413646 -2.8318461431781059 -1.4719897671788591 -2.5318046041432503 -1.3940244631582288 -2.2254746969216987 -1.2884842400408023 -1.9159152557393562 -1.1582540505147323 -1.594375444136211 -0.99954410839878083 -1.2718532361488744 -0.82123892875546833 -1.0681293476364666 -0.70646664662499392 -1.005254902935153 -0.6791627013628897 -0.94293214693927541 -0.64988978030945777 -0.74480735272926935 -0.52227620122516871 -0.68491487979714005 -0.48735331035264717 -0.48105018570312458 -0.34639869172019799 -0.42297671361885403 -0.30741102302878792 -0.22105881575047623 -0.16172333921480836 -0.16385844909047578 -0.12034969001051569 -0.10682713733480789 -0.07867945558635682 0.10365376892183351 0.076344712383569602 0.16075187849458514 0.11807942619017117 0.21328201709317807 0.15606644253736035 0.43028695324218158 0.31279066945184153 0.48865578522906666 0.35189685076679866 0.54729740195649446 0.38997217573779225 0.77337472907841831 0.54367025416763393 0.8341405071223239 0.57682408033969645 0.89021920142917377 0.60483459435124887 1.1275716929143933 0.75042683785109776 1.1913285544712868 0.7742112621167484 1.2552168310607117 0.79544849696326581 1.5055176882229373 0.92724926472364966 1.5722449582771625 0.93788283634471459 1.6386493319821385 0.94521371006431432 1.8970532170274106 1.0542007355075305 1.9655109996692952 1.0481218494614748 2.0328222553915647 1.038085722807613 2.3093286157545072 1.1242099166553674 2.3771097117020812 1.0977417169784491 2.4424808181273798 1.0668613953828923 2.7291079576163164 1.1208805807496089 2.7859344439371485 1.0688557432388026 2.8446594488363028 1.01491669251826 3.1365798312631101 1.0318064397172524 3.188786350842495 0.95747328269265763 3.234648199642161 0.87917901751637884 3.5250185928858708 0.85481821048834694 3.5524639919791818 0.75467152897262979 3.8405746658880586 0.69748801947498151 3.8581272432307356 0.57882988112780709 4.1389196593379927 0.48707496885653895 4.1277414722876511 0.34928122170163628 4.3951541245413219 0.22333730642852617 4.6582842969207885 0.070297501836360826 4.602787071922779 -0.098479934481986151 4.8410069195696144 -0.28413831992569843 5.0676168529063439 -0.49712674892296627 5.2721436970659257 -0.73658777887142468 5.1349287896326574 -0.93625069129974936 5.2947695012805909 -1.1968036329454046 5.4379477313008673 -1.4809864748359531 5.8971778670883888 -1.9054514571239163 5.9692311605227664 -2.2611757540437964 4.1534570711186145 -1.7809337376501926 4.3481120729023539 -2.0568017019807452 4.3106753099510966 -2.2439688094257404 4.4956512255228587 -2.5712843575753284 4.9410079653877297 -3.1184429487808116 5.731893175725868 -4.0377269027706175 5.5486268796332574 -4.3891999050980912 3.3985866999741772 -2.9503263081802658 0 0
        </DataArray>
        <DataArray type="Float32" Name="u" NumberOfComponents="1">
          0 0.007874015748031496 0.015748031496062992 0.023622047244094488 0.031496062992125984 0.03937007874015748 0.047244094488188976 0.055118110236220472 0.062992125984251968 0.070866141732283464 0.07874015748031496 0.086614173228346455 0.094488188976377951 0.10236220472440945 0.11023622047244094 0.11811023622047244 0.12598425196850394 0.13385826771653545 0.14173228346456693 0.14960629921259844 0.15748031496062992 0.16535433070866143 0.17322834645669291 0.18110236220472442 0.1889763779527559 0.19685039370078741 0.20472440944881889 0.2125984251968504 0.22047244094488189 0.2283464566929134 0.23622047244094488 0.24409448818897639 0.25196850393700787 0.25984251968503935 0.26771653543307089 0.27559055118110237 0.28346456692913385 0.29133858267716534 0.29921259842519687 0.30708661417322836 0.31496062992125984 0.32283464566929132 0.33070866141732286 0.33858267716535434 0.34645669291338582 0.3543307086614173 0.36220472440944884 0.37007874015748032 0.37795275590551181 0.38582677165354329 0.39370078740157483 0.40157480314960631 0.40944881889763779 0.41732283464566927 0.42519685039370081 0.43307086614173229 0.44094488188976377 0.44881889763779526 0.45669291338582679 0.46456692913385828 0.47244094488188976 0.48031496062992124 0.48818897637795278 0.49606299212598426 0.50393700787401574 0.51181102362204722 0.51968503937007871 0.52755905511811019 0.53543307086614178 0.54330708661417326 0.55118110236220474 0.55905511811023623 0.56692913385826771 0.57480314960629919 0.58267716535433067 0.59055118110236215 0.59842519685039375 0.60629921259842523 0.61417322834645671 0.62204724409448819 0.62992125984251968 0.63779527559055116 0.64566929133858264 0.65354330708661412 0.66141732283464572 0.6692913385826772 0.67716535433070868 0.68503937007874016 0.69291338582677164 0.70078740157480313 0.70866141732283461 0.71653543307086609 0.72440944881889768 0.73228346456692917 0.74015748031496065 0.74803149606299213 0.75590551181102361 0.76377952755905509 0.77165354330708658 0.77952755905511806 0.78740157480314965 0.79527559055118113 0.80314960629921262 0.8110236220472441 0.81889763779527558 0.82677165354330706 0.83464566929133854 0.84251968503937003 0.85039370078740162 0.8582677165354331 0.86614173228346458 0.87401574803149606 0.88188976377952755 0.88976377952755903 0.89763779527559051 0.90551181102362199 0.91338582677165359 0.92125984251968507 0.92913385826771655 0.93700787401574803 0.94488188976377951 0.952755905511811 0.96062992125984248 0.96850393700787396 0.97637795275590555 0.98425196850393704 0.99212598425196852 1
        </DataArray>
      </PointData>
      <CellData Scalars="P">
        <DataArray type="Float32" Name="P" NumberOfComponents="1">
          0.016453508134738608 0.04936112441361043 0.082279159406128607 0.11521627066441111 0.14818893304026484 0.18122695528529187 0.21437822286699668 0.24771281804369005 0.2813265316978184 0.31534337710883059 0.3499178563821439 0.38523601708763056 0.42151573529579711 0.45900603363671955 0.49798534207587086 0.53875933262628239 0.58165933144426418 0.62703741752074027 0.67526265052108259 0.72671693455616215 0.78178912382855026 0.84086845752123696 0.90433779078647925 0.97256654960536371 1.0459022252728003 1.1246645763408609 1.2091347153738909 1.2995433167445101 1.3960650167241608 1.4988241556499207 1.6078541757085143 1.723104258889318 1.8444301522465236 1.9715865480307935 2.1042178280953556 2.2418521076304105 2.3838891921792849 2.5296036064512171 2.6781422401481167 2.8285149039776671 2.9795952154537604 3.1301250681655226 2.79564874813867 2.4624656036281647 2.2353919051625977 2.0170641302546328 1.8034776260766714 1.5943384836249768 1.389463176951905 1.1887739749612978 0.98755371210585774 0.78456857624161735 0.58060217900017652 0.37530564819307755 0.16894811947357433 -0.038676746034601542 -0.23650447013094919 -0.42325088994368754 -0.59768915506751374 -0.75845309171586284 -0.90353348483639206 -1.0310248701808482 -1.1391810163838327 -1.2255516361016692 -1.2885851845978611 -1.3367991833004795 -1.3812616962516653 -1.4217102493912106 -1.4461408160240889 -1.4660763762321092 -1.4687206027330644 -1.4665878195078066 -1.4469547785337806 -1.4224718390006597 -1.3931652717591032 -1.3458238479647358 -1.293927974046206 -1.2380210986120805 -1.1646440222739813 -1.0874629588372973 -1.0067541356359382 -0.90987745197936243 -0.81042360720283058 -0.70915650252734397 -0.59376612692541564 -0.47747235645678365 -0.36078593771238693 -0.23277357182509345 -0.10595707908718999 0.019066931718846609 0.15164163686173052 0.28060860091075468 0.40533120383737087 0.53383684436000545 0.65613167047431231 0.77160397435420058 0.88642484176405634 0.9923230498920359 1.0889920058403724 1.1805551623005324 1.2612133829726884 1.3307116455352166 1.3910241990890662 1.4390144886262157 1.4752679194006282 1.498616147861433 1.5081579677493286 1.5048661395984453 1.4864518217473375 1.4520348809482919 1.4059903992325233 1.3440820796974216 1.266324632565714 1.1732497903036812 1.0736468267543944 0.96174116438208745 0.83910664341158481 0.69822678190659093 0.55138965329045109 0.45611006152374445 0.35793071829115408 0.2665032823044941 0.17960762201460162 0.096282721439519922 0.01767734332489802 -0.023143526466045103 -0.015715662372892389
        </DataArray>
      </CellData>
      <Points>
        <DataArray type="Float32" NumberOfComponents="3" format="ascii">
          4.0071208023679672 7.2077038565257281 0
          4.00588124970204 7.2154800568895974 0
          4.0046458852032689 7.2232569202269987 0
          4.0034142133138895 7.2310343633523804 0
          4.0021864536085223 7.2388124171154669 0
          4.0009633019631528 7.2465911871632738 0
          3.9997458325859854 7.2543708372598399 0
          3.9985354565593978 7.2621515813147672 0
          3.9973338975972741 7.2699336777003749 0
          3.9961431750434802 7.2777174241610432 0
          3.9949655866035538 7.285503152065969 0
          3.9938036964080834 7.2932912208044263 0
          3.9926603215695189 7.3010820112277193 0
          3.99153851859124 7.3088759183347936 0
          3.9904415690810637 7.3166733431282207 0
          3.9893729642665772 7.3244746836047261 0
          3.9883363905497986 7.3322803252447244 0
          3.9873357201259898 7.340090631547695 0
          3.9863749964125801 7.3479059332606136 0
          3.985458421663814 7.3557265173779998 0
          3.984590346547157 7.3635526158916589 0
          3.9837752582945822 7.3713843939315202 0
          3.9830177677459386 7.3792219374543091 0
          3.9823225962464184 7.3870652406967414 0
          3.9816945627498956 7.3949141935188472 0
          3.9811385692312 7.402768568583844 0
          3.9806595896847741 7.4106280088856495 0
          3.9802626543675319 7.4184920150808766 0
          3.9799528293906317 7.426359933012316 0
          3.9797352012633245 7.4342309421233645 0
          3.9796148804619578 7.4421040447568716 0
          3.979596960890281 7.4499780548030046 0
          3.9796865011394043 7.4578515884616836 0
          3.9798885043558632 7.4657230561663663 0
          3.9802078981467863 7.4735906558405327 0
          3.9806495118267731 7.4814523677464804 0
          3.9812180541578917 7.4893059510627022 0
          3.9819180833873018 7.4971489429983516 0
          3.9827539858684542 7.5049786596338555 0
          3.9837299554517722 7.5127921987208657 0
          3.9848499637883932 7.5205864458808316 0
          3.9861177314442933 7.5283580837522468 0
          3.9875367018567549 7.5361036038152323 0
          3.9884920167389319 7.5439199317414101 0
          3.9889841877389323 7.5517790990165574 0
          3.9891454406882203 7.5596520334403001 0
          3.9889882171664186 7.5675250689486129 0
          3.9885211471401347 7.575385828383153 0
          3.987753442035634 7.5832229568713378 0
          3.9866948322552593 7.5910261313758411 0
          3.9853555055300096 7.5987860665246982 0
          3.9837407041524959 7.6064934016015346 0
          3.9818548649481813 7.6141389512260433 0
          3.9797038136851173 7.6217141755443851 0
          3.9772934128479629 7.6292109245905548 0
          3.9746301386414853 7.6366216254080213 0
          3.9717205038191574 7.6439391239234142 0
          3.9685817410754498 7.6511613182804261 0
          3.9652315120371426 7.6582878858071766 0
          3.9616876643880072 7.6653201775498792 0
          3.9579682118127311 7.6722611820037985 0
          3.9540917642311704 7.6791157284543088 0
          3.9500773220237404 7.6858903561566425 0
          3.9459440861061443 7.6925931355551391 0
          3.9417120004958237 7.6992339030799641 0
          3.9374010698558726 7.7058237105560226 0
          3.9330239296649667 7.7123696735502785 0
          3.9285844787220046 7.7188734874249016 0
          3.9240865814649357 7.7253369695302343 0
          3.9195425250636511 7.7317680319019724 0
          3.9149560227345086 7.7381688422487347 0
          3.9103397168128349 7.7445481398579403 0
          3.9056972071666949 7.7509083445101234 0
          3.9010410144647958 7.7572584892169241 0
          3.8963746838816524 7.7636011417505983 0
          3.8917017500284912 7.7699388881780687 0
          3.8870352633550134 7.7762813406130373 0
          3.8823787620837935 7.7826310892589845 0
          3.8777355011412378 7.7889904919425659 0
          3.8731189343195731 7.7953692666906367 0
          3.8685326781517628 7.8017698409245018 0
          3.8639803661050736 7.8081945781321247 0
          3.8594760134319221 7.8146530095578886 0
          3.8550233849687849 7.8211471940008854 0
          3.8506259550374748 7.8276788714250847 0
          3.8462984371765327 7.8342570717724955 0
          3.8420447816381231 7.8408832736402294 0
          3.8378689470085305 7.8475587978064532 0
          3.833786449238783 7.8542918209522057 0
          3.8298014230844721 7.8610830073770197 0
          3.8259179835924648 7.8679328167885565 0
          3.8221521493583204 7.8748480137840771 0
          3.8185081633121607 7.8818282278763832 0
          3.8149901977694749 7.8888728434594944 0
          3.8116153948003104 7.8959872107259743 0
          3.8083879569864356 7.9031696967716547 0
          3.805311938162153 7.9104183953963245 0
          3.8024051102793197 7.9177366699125349 0
          3.7996709992954614 7.9251213046594691 0
          3.7971132497630218 7.9325689656579721 0
          3.794749965833196 7.9400807181878843 0
          3.7925843907045769 7.947651965524944 0
          3.7906193753593262 7.9552778654893563 0
          3.7888729339050937 7.9629569299404785 0
          3.7873467792565951 7.9706829630697378 0
          3.7860587913772381 7.9784524448701637 0
          3.7850100746651765 7.9862580332760693 0
          3.7842180629957847 7.9940940677042152 0
          3.7836820850436568 8.0019520200164109 0
          3.7834187545060218 8.0098241120936766 0
          3.783444427047117 8.0177008874412401 0
          3.7837556959190568 8.0255718968738634 0
          3.7843673852189434 8.0334256618284208 0
          3.7852936094359064 8.0412490092953739 0
          3.7865471248722393 8.0490271236072903 0
          3.7881194822172128 8.0567476353298559 0
          3.7900206849010591 8.0643944163323287 0
          3.7922597180082156 8.0719498699725456 0
          3.794865225359644 8.0793877141183756 0
          3.7978418253086956 8.0866858990956541 0
          3.8010767737957565 8.0938741258016655 0
          3.8045822898458712 8.1009353122061896 0
          3.8083561814497346 8.1078578648655419 0
          3.8124101214081105 8.1146215017490704 0
          3.8167720423036133 8.1211922953803164 0
          3.8214914925850327 8.1275131954505415 0
          3.8265556940845573 8.1335603783949288 0
          3.8318307021419029 8.1394233269966243 0
        </DataArray>
      </Points>
      <Cells>
        <DataArray type="Int32" Name="connectivity" format="ascii">
          0 1 1 2 2 3 3 4 4 5 5 6 6 7 7 8 8 9 9 10 10 11 11 12 12 13 13 14 14 15 15 16 16 17 17 18 18 19 19 20 20 21 21 22 22 23 23 24 24 25 25 26 26 27 27 28 28 29 29 30 30 31 31 32 32 33 33 34 34 35 35 36 36 37 37 38 38 39 39 40 40 41 41 42 42 43 43 44 44 45 45 46 46 47 47 48 48 49 49 50 50 51 51 52 52 53 53 54 54 55 55 56 56 57 57 58 58 59 59 60 60 61 61 62 62 63 63 64 64 65 65 66 66 67 67 68 68 69 69 70 70 71 71 72 72 73 73 74 74 75 75 76 76 77 77 78 78 79 79 80 80 81 81 82 82 83 83 84 84 85 85 86 86 87 87 88 88 89 89 90 90 91 91 92 92 93 93 94 94 95 95 96 96 97 97 98 98 99 99 100 100 101 101 102 102 103 103 104 104 105 105 106 106 107 107 108 108 109 109 110 110 111 111 112 112 113 113 114 114 115 115 116 116 117 117 118 118 119 119 120 120 121 121 122 122 123 123 124 124 125 125 126 126 127 
        </DataArray>
        <DataArray type="Int32" Name="offsets" format="ascii">
          2 4 6 8 10 12 14 16 18 20 22 24 26 28 30 32 34 36 38 40 42 44 46 48 50 52 54 56 58 60 62 64 66 68 70 72 74 76 78 80 82 84 86 88 90 92 94 96 98 100 102 104 106 108 110 112 114 116 118 120 122 124 126 128 130 132 134 136 138 140 142 144 146 148 150 152 154 156 158 160 162 164 166 168 170 172 174 176 178 180 182 184 186 188 190 192 194 196 198 200 202 204 206 208 210 212 214 216 218 220 222 224 226 228 230 232 234 236 238 240 242 244 246 248 250 252 254 
        </DataArray>
        <DataArray type="Int32" Name="types" format="ascii">
          3 3 3 3 3 3 3 3 3 3 3 3 3 3 3 3 3 3 3 3 3 3 3 3 3 3 3 3 3 3 3 3 3 3 3 3 3 3 3 3 3 3 3 3 3 3 3 3 3 3 3 3 3 3 3 3 3 3 3 3 3 3 3 3 3 3 3 3 3 3 3 3 3 3 3 3 3 3 3 3 3 3 3 3 3 3 3 3 3 3 3 3 3 3 3 3 3 3 3 3 3 3 3 3 3 3 3 3 3 3 3 3 3 3 3 3 3 3 3 3 3 3 3 3 3 3 3         </DataArray>
      </Cells>
    </Piece>
  </UnstructuredGrid>
</VTKFile>
