<?xml version="1.0"?>
<VTKFile type="UnstructuredGrid" version="0.1" byte_order="LittleEndian">
  <UnstructuredGrid>
    <Piece NumberOfPoints="128" NumberOfCells="127">
      <PointData Scalars="W">
        <DataArray type="Float32" Name="W" NumberOfComponents="2">
          0 0 0.18887962216936904 -0.77271291701747913 0.27515196667189878 -1.1652174637000399 0.32971618810056069 -1.4657748506278867 0.36307297255013055 -1.7165878104351779 0.37968431116248641 -1.9349310285640178 0.38206090403120319 -2.1300498188443457 0.37182097552532289 -2.3075949238199014 0.3500841110094921 -2.471264958344539 0.31765068696885002 -2.6234905759841829 0.27513373597171226 -2.7660208124254662 0.22300840628667776 -2.9001000035656643 0.16165070977284063 -3.0266050516850718 0.091364621633238829 -3.1460852168944915 0.012411030095966643 -3.2588364857282746 -0.074971666469410794 -3.3650319871774377 -0.17056362993961696 -3.4648070681915808 -0.27415544898603628 -3.5581443710325762 -0.38553659131473722 -3.644933946592011 -0.5044983526218112 -3.7250660253486045 -0.63082271781765864 -3.7983457959517022 -0.76427434573763109 -3.8645127452153538 -0.90460598484626364 -3.9233038193052114 -1.0515588756109382 -3.9744504549418234 -1.2048374236824511 -4.0175975639159125 -1.3641531258313164 -4.0524777496248001 -1.5291801950304786 -4.0787483624791783 -1.699536298769919 -4.0959868141930862 -1.8748343972798436 -4.1038438908155284 -2.0548306848571687 -4.1022959901714042 -2.2389560631283296 -4.0906665406989688 -2.4267513893442771 -4.0686274953362611 -2.6177270656558314 -4.0358516473263908 -2.8113740915708618 -3.9920335549384807 -3.0071451382849652 -3.9368632204821972 -3.2044781512277423 -3.8700631971017727 -3.4027210266403491 -3.7913027808091089 -3.601297596842024 -3.7003961652577697 -3.7995997922005471 -3.5971535493039961 -3.996888859109172 -3.4813069757250363 -4.1924232360580795 -3.3526560638773004 -4.3854626410249322 -3.2110597817914326 2.4786766776064528 1.7793972339629105 2.3380129818838014 1.7632811105675281 2.2405174135586261 1.7712177069359412 2.1026340280108045 1.7386813948409938 2.0097115397936571 1.7348573111497199 1.8758591772633868 1.6872567858013527 1.7876530639681036 1.6723550984047708 1.6607635116083266 1.6131018300667768 1.5791108846017903 1.5898237030204097 1.4592009167217179 1.5202874079917892 1.3846907758239795 1.4905655076943976 1.2281296816403424 1.3630984120085761 1.0249453031449758 1.1685686839790437 -11.460036534555337 -11.625965703371261 2.6250561336896228 2.407982189355681 1.5920033493631807 1.528372256026713 1.5207073517074559 1.510821796336119 1.4512620543674577 1.4905952653517038 1.3850194633897952 1.4692731566950359 1.3213822526063972 1.4465001305241638 1.2307784057427251 1.3886358731532999 1.17341578739685 1.3629214590798782 1.0896172526938981 1.3013919626912547 1.0384305916344003 1.2739301528861133 0.98979093622165437 1.2463425603318614 0.94367494676534969 1.2188460795107927 0.90002991860263004 1.1916184453634207 0.85880486580525617 1.164835090807391 0.81941140700233361 1.1379119095427126 0.78287145459957508 1.112487798504616 0.74857393926899352 1.0879704550402038 0.71645475786729795 1.0644937327788884 0.68644878727319159 1.0421829263547235 0.65849011107340849 1.0211549182902873 0.63251252206416442 1.0015188697489397 0.63276643604729621 1.0230964746601332 0.60982915238188717 1.0069827382019103 0.58869193547810461 0.99252564716030245 0.5688465284554941 0.97904534547817534 0.55112705776749527 0.96815966156191513 0.53501822741435245 0.95919879240623651 0.52044488697724833 0.95222147801531853 0.50734956950403709 0.94731455441402856 0.49566926672855871 0.94455311128697361 0.5053697093194468 0.9833886083411032 0.49565962924604168 0.98548053700308902 0.48717571890506933 0.98994306520377795 0.47984166576943255 0.99683680032684241 0.47359500742899174 1.006255129808606 0.46802271849109073 1.0175288703582519 0.46375411311250719 1.0322553018598644 0.47766555834356667 1.0897573143807024 0.47431705781525396 1.1105096043734659 0.47135217617772285 1.133532834817105 0.46930495448263015 1.1604330468435136 0.46776011873575102 1.1906110195702659 0.46661386884774331 1.2242183125221346 0.46575359927754767 1.2614226108153135 0.4647991717567781 1.3016777324160054 0.46414948445744419 1.3466619932961594 0.4633750673562661 1.395862763734748 0.46231277528817016 1.4495547649937239 0.46077226089036832 1.5080278220203076 0.45854839273888864 1.5716450674663502 0.45539724628163697 1.640789938553046 0.45104299277303728 1.7159169673656256 0.44516707485720297 1.7975549435110583 0.42787850934300498 1.8438310067824866 0.41928192116453661 1.9409196457416591 0.40776818582052671 2.04601643263043 0.38522586115828999 2.1165369164049292 0.36801021668634271 2.2430623156860143 0.33953440950082803 2.3353720268608171 0.31329572588011334 2.4891350604292786 -0.39421097638094182 -3.0742799426814194 -0.5429001279058886 -3.5043675609954219 -0.6918957680794946 -3.7456611790016057 -0.89714862544058527 -4.1226752297867888 -1.0795598733432337 -4.2600078684136218 -1.2846275967764844 -4.4079555429405364 -1.6494039249748886 -4.9411859285124624 -2.3190894378911389 -6.0133681748873791 -3.2874369769844929 -7.2660040339199012 -3.1840130523845502 -6.0671553428386389 -1.6742051157162607 -2.9007026156815479 0 0
        </DataArray>
        <DataArray type="Float32" Name="u" NumberOfComponents="1">
          0 0.007874015748031496 0.015748031496062992 0.023622047244094488 0.031496062992125984 0.03937007874015748 0.047244094488188976 0.055118110236220472 0.062992125984251968 0.070866141732283464 0.07874015748031496 0.086614173228346455 0.094488188976377951 0.10236220472440945 0.11023622047244094 0.11811023622047244 0.12598425196850394 0.13385826771653545 0.14173228346456693 0.14960629921259844 0.15748031496062992 0.16535433070866143 0.17322834645669291 0.18110236220472442 0.1889763779527559 0.19685039370078741 0.20472440944881889 0.2125984251968504 0.22047244094488189 0.2283464566929134 0.23622047244094488 0.24409448818897639 0.25196850393700787 0.25984251968503935 0.26771653543307089 0.27559055118110237 0.28346456692913385 0.29133858267716534 0.29921259842519687 0.30708661417322836 0.31496062992125984 0.32283464566929132 0.33070866141732286 0.33858267716535434 0.34645669291338582 0.3543307086614173 0.36220472440944884 0.37007874015748032 0.37795275590551181 0.38582677165354329 0.39370078740157483 0.40157480314960631 0.40944881889763779 0.41732283464566927 0.42519685039370081 0.43307086614173229 0.44094488188976377 0.44881889763779526 0.45669291338582679 0.46456692913385828 0.47244094488188976 0.48031496062992124 0.48818897637795278 0.49606299212598426 0.50393700787401574 0.51181102362204722 0.51968503937007871 0.52755905511811019 0.53543307086614178 0.54330708661417326 0.55118110236220474 0.55905511811023623 0.56692913385826771 0.57480314960629919 0.58267716535433067 0.59055118110236215 0.59842519685039375 0.60629921259842523 0.61417322834645671 0.62204724409448819 0.62992125984251968 0.63779527559055116 0.64566929133858264 0.65354330708661412 0.66141732283464572 0.6692913385826772 0.67716535433070868 0.68503937007874016 0.69291338582677164 0.70078740157480313 0.70866141732283461 0.71653543307086609 0.72440944881889768 0.73228346456692917 0.74015748031496065 0.74803149606299213 0.75590551181102361 0.76377952755905509 0.77165354330708658 0.77952755905511806 0.78740157480314965 0.79527559055118113 0.80314960629921262 0.8110236220472441 0.81889763779527558 0.82677165354330706 0.83464566929133854 0.84251968503937003 0.85039370078740162 0.8582677165354331 0.86614173228346458 0.87401574803149606 0.88188976377952755 0.88976377952755903 0.89763779527559051 0.90551181102362199 0.91338582677165359 0.92125984251968507 0.92913385826771655 0.93700787401574803 0.94488188976377951 0.952755905511811 0.96062992125984248 0.96850393700787396 0.97637795275590555 0.98425196850393704 0.99212598425196852 1
        </DataArray>
      </PointData>
      <CellData Scalars="P">
        <DataArray type="Float32" Name="P" NumberOfComponents="1">
          -0.013961382570136202 -0.039693589897477025 -0.061252046024745044 -0.077597208684567584 -0.08806641979124126 -0.092212959217671434 -0.089726056544117958 -0.080383881693084455 -0.064024012574108821 -0.040525677519772846 -0.0097953272374525554 0.02824301836927566 0.073654539664917737 0.12649706182237105 0.18682296941302595 0.25468213936374889 0.33012587319700926 0.41320655023464242 0.5039777659516298 0.6024965989614165 0.7088226475985776 0.82301693413269961 0.9451424835114639 1.0752645547358073 1.2134473452142562 1.3597571591094302 1.5142589482914308 1.6770117942359359 1.8480706740544846 2.0275011961202383 2.2153469928751597 2.4116437735342378 2.6164172322450319 2.8296818596422435 3.0514380332682629 3.2816710300853034 3.5203441380959708 3.7674045804868381 4.0227802410303752 4.2863696726161615 4.5580419085397708 4.8376360587605047 4.6452551818047665 4.4518718972614568 4.2560797792354128 4.0630191759344516 3.8704910193834965 3.6837335476927655 3.49989824841902 3.3239884598744838 3.1526677748910643 2.990806634625621 2.8346133397497972 2.6934641747473562 2.5731175108937863 3.6054598848803074 3.3607344639642971 3.2041991798641436 3.0528033395390461 2.9069195137178059 2.7667302881343732 2.6324085727765807 2.5067610420864797 2.3870838473190692 2.275953514490733 2.1706564321848698 2.0710962877612396 1.9771454086357101 1.8886517689843529 1.8054431313799453 1.7273717750480777 1.654195632973688 1.5857071314793727 1.521694338379648 1.461944059286225 1.4062446282545877 1.3543883738310711 1.3049604415721079 1.2591038418877278 1.2166376038378843 1.1774074513955273 1.1412359614333945 1.1079765402991681 1.077496072408344 1.0496748559354721 1.0244070500569822 1.0014524091719623 0.98098594452051679 0.9629434133940501 0.94727396156320665 0.93393975548791541 0.92290921353821864 0.91417378532478033 0.90823420729605442 0.90467909195229768 0.90351491855522958 0.90478096903964877 0.90851506002907056 0.91476373203900818 0.9235817151533674 0.9350138160920114 0.94914663084847262 0.96605656906128956 0.98582695813502752 1.0085473737815587 1.0343145335840382 1.0632316618930231 1.0954092130245732 1.1309656143222084 1.1686866191176766 1.2100580000549712 1.2552072859656709 1.302863445995784 1.3546697199818405 1.4093119049191725 1.4685612761926266 1.3459689073638845 1.2083001243691398 1.0631447525478717 0.90811427462268601 0.7536332083854701 0.602593619495705 0.44850463686097153 0.28568319391783326 0.1361218929468917 0.040374883912640908 0.0068563194096895866
        </DataArray>
      </CellData>
      <Points>
        <DataArray type="Float32" NumberOfComponents="3" format="ascii">
          5.5807536887889349 10.281097244826988 0
          5.5883972780032716 10.282991010556927 0
          5.5960525770388641 10.284836859081638 0
          5.6037249345119013 10.286610450693326 0
          5.6114177332483521 10.288293147593803 0
          5.6191330412307474 10.289869396805591 0
          5.6268718882050299 10.291325658922233 0
          5.6346344213272141 10.292649834777446 0
          5.6424200054849409 10.293830915022047 0
          5.6502272927072692 10.294858750757209 0
          5.6580542717853124 10.295723902797189 0
          5.6658983062786774 10.296417533201373 0
          5.6737561639735619 10.296931328104439 0
          5.6816240401946239 10.29725744333239 0
          5.6894975766506732 10.297388470336745 0
          5.6973718776090614 10.297317417835087 0
          5.7052415246758912 10.297037701070769 0
          5.7131005904255598 10.296543133416202 0
          5.7209426513839521 10.295827927445952 0
          5.7287608010812976 10.294886701751979 0
          5.7365476629918151 10.293714487748296 0
          5.7442954040508516 10.292306741749536 0
          5.7519957492465572 10.290659361124137 0
          5.759639996950261 10.288768700605498 0
          5.7672190349606351 10.286631588945216 0
          5.7747233588321798 10.284245350932009 0
          5.7821430897642401 10.281607823973335 0
          5.7894679948022496 10.278717379343677 0
          5.7966875105456017 10.275572948389996 0
          5.8037907671477607 10.272174044187528 0
          5.8107666034349892 10.268520763004965 0
          5.8176036021964839 10.264613826259618 0
          5.8242901186567524 10.260454600860976 0
          5.8308143108369066 10.256045119502172 0
          5.8371641711195812 10.2513880996017 0
          5.8433275601910148 10.246486962527474 0
          5.8492922418967179 10.241345850802219 0
          5.8550459236814438 10.235969648610871 0
          5.8605762923209053 10.230363993322706 0
          5.8658710516321291 10.224535287260649 0
          5.8709179682876611 10.218490714316308 0
          5.8757049178042031 10.212238252373997 0
          5.880219930452137 10.205786682053878 0
          5.8848886168718266 10.199445480904021 0
          5.8897022527986413 10.193213647636375 0
          5.8946547917351513 10.187091671438573 0
          5.8997376824823293 10.181077532817056 0
          5.9049451627280769 10.175170991741519 0
          5.9102689318766899 10.169369094678427 0
          5.9157035206375026 10.163670914828405 0
          5.9212410608101953 10.158072776176059 0
          5.9268764900075421 10.152573232677671 0
          5.9326023734147437 10.147167970825778 0
          5.9384140920146571 10.141855145204804 0
          5.944301938595256 10.136626851076766 0
          5.950253315175023 10.131471026095079 0
          5.9554941522889324 10.125594376061031 0
          5.9608977452279159 10.119867025610043 0
          5.9664000351219872 10.114234445791631 0
          5.9719966019928625 10.108695547056493 0
          5.9776831406874598 10.103249074023672 0
          5.9834555447023767 10.097893703463306 0
          5.9893098691324989 10.09262802227072 0
          5.9952404970295472 10.087448441883636 0
          6.0012438726655617 10.08235336694513 0
          6.007314801212817 10.077338981718237 0
          6.0134501099687903 10.072403582623942 0
          6.0196467841599528 10.067545458366574 0
          6.0259019654855059 10.06276290337882 0
          6.0322129488410399 10.058054228838712 0
          6.0385771791494465 10.053417773543709 0
          6.0449922148753927 10.048851867692047 0
          6.0514557913756022 10.044354934493002 0
          6.0579657830069102 10.039925453440796 0
          6.0645201991466591 10.035561968610546 0
          6.0711171801505825 10.031263096423556 0
          6.0777549932621922 10.027027532891093 0
          6.0844320285048541 10.022854060379483 0
          6.0911483019473103 10.018744016749945 0
          6.0979023919596278 10.014696402880761 0
          6.1046929884649295 10.010710322405176 0
          6.1115188614333542 10.006784939552983 0
          6.1183789125866266 10.002919579462201 0
          6.1252721434557618 9.9991136866446464 0
          6.1321976507233318 9.9953668286251958 0
          6.1391546226623914 9.991678701323254 0
          6.1461423352324314 9.9880491337059425 0
          6.153161389534394 9.9844805340879716 0
          6.160211183564968 9.980973032408464 0
          6.1672911913106194 9.9775269056026055 0
          6.1744009580206107 9.9741425813570466 0
          6.181540096338753 9.9708206438979996 0
          6.1887082607100972 9.967561792493342 0
          6.1959051863853603 9.9643669404954185 0
          6.2031317352492685 9.9612396537124219 0
          6.2103876995587362 9.9581812191189947 0
          6.2176728953693567 9.955193064485977 0
          6.2249871956323162 9.9522768579677283 0
          6.2323305044630946 9.9494344709431868 0
          6.2397027507122056 9.9466679874124786 0
          6.2471038809901831 9.9439797143937856 0
          6.2545338361164831 9.9413721480543167 0
          6.2619925758368682 9.9388480777810972 0
          6.2694800522139582 9.9364105543932641 0
          6.2769961995194024 9.9340629071781041 0
          6.2845409224400166 9.9318087618643744 0
          6.2921140833670464 9.9296520631422585 0
          6.2997154872808734 9.927597098443389 0
          6.3073448646575851 9.9256485261306437 0
          6.3150018517263131 9.9238114082940694 0
          6.3226853779567058 9.9220886142883984 0
          6.3303949111344178 9.9204861643127487 0
          6.338129738313599 9.9190105751673183 0
          6.3458884637027655 9.9176662196868293 0
          6.3536700211160353 9.9164609435660527 0
          6.3614726472524223 9.9154004709541042 0
          6.369294716775288 9.9144943367656815 0
          6.3770924901759471 9.9133975566852399 0
          6.3848567898741111 9.9120834420981545 0
          6.3925784204713718 9.9105370033877538 0
          6.4002447080483691 9.9087348225505369 0
          6.4078443922867976 9.9066683348603632 0
          6.4153648122123439 9.9043283036560528 0
          6.4227834239363633 9.9016815653119039 0
          6.4300588051400513 9.8986614629159746 0
          6.4371298938112842 9.8951906480989678 0
          6.4440031312938082 9.8913435600542989 0
          6.4507721190134308 9.887316740778374 0
        </DataArray>
      </Points>
      <Cells>
        <DataArray type="Int32" Name="connectivity" format="ascii">
          0 1 1 2 2 3 3 4 4 5 5 6 6 7 7 8 8 9 9 10 10 11 11 12 12 13 13 14 14 15 15 16 16 17 17 18 18 19 19 20 20 21 21 22 22 23 23 24 24 25 25 26 26 27 27 28 28 29 29 30 30 31 31 32 32 33 33 34 34 35 35 36 36 37 37 38 38 39 39 40 40 41 41 42 42 43 43 44 44 45 45 46 46 47 47 48 48 49 49 50 50 51 51 52 52 53 53 54 54 55 55 56 56 57 57 58 58 59 59 60 60 61 61 62 62 63 63 64 64 65 65 66 66 67 67 68 68 69 69 70 70 71 71 72 72 73 73 74 74 75 75 76 76 77 77 78 78 79 79 80 80 81 81 82 82 83 83 84 84 85 85 86 86 87 87 88 88 89 89 90 90 91 91 92 92 93 93 94 94 95 95 96 96 97 97 98 98 99 99 100 100 101 101 102 102 103 103 104 104 105 105 106 106 107 107 108 108 109 109 110 110 111 111 112 112 113 113 114 114 115 115 116 116 117 117 118 118 119 119 120 120 121 121 122 122 123 123 124 124 125 125 126 126 127 
        </DataArray>
        <DataArray type="Int32" Name="offsets" format="ascii">
          2 4 6 8 10 12 14 16 18 20 22 24 26 28 30 32 34 36 38 40 42 44 46 48 50 52 54 56 58 60 62 64 66 68 70 72 74 76 78 80 82 84 86 88 90 92 94 96 98 100 102 104 106 108 110 112 114 116 118 120 122 124 126 128 130 132 134 136 138 140 142 144 146 148 150 152 154 156 158 160 162 164 166 168 170 172 174 176 178 180 182 184 186 188 190 192 194 196 198 200 202 204 206 208 210 212 214 216 218 220 222 224 226 228 230 232 234 236 238 240 242 244 246 248 250 252 254 
        </DataArray>
        <DataArray type="Int32" Name="types" format="ascii">
          3 3 3 3 3 3 3 3 3 3 3 3 3 3 3 3 3 3 3 3 3 3 3 3 3 3 3 3 3 3 3 3 3 3 3 3 3 3 3 3 3 3 3 3 3 3 3 3 3 3 3 3 3 3 3 3 3 3 3 3 3 3 3 3 3 3 3 3 3 3 3 3 3 3 3 3 3 3 3 3 3 3 3 3 3 3 3 3 3 3 3 3 3 3 3 3 3 3 3 3 3 3 3 3 3 3 3 3 3 3 3 3 3 3 3 3 3 3 3 3 3 3 3 3 3 3 3         </DataArray>
      </Cells>
    </Piece>
  </UnstructuredGrid>
</VTKFile>
