<?xml version="1.0"?>
<VTKFile type="UnstructuredGrid" version="0.1" byte_order="LittleEndian">
  <UnstructuredGrid>
    <Piece NumberOfPoints="128" NumberOfCells="127">
      <PointData Scalars="W">
        <DataArray type="Float32" Name="W" NumberOfComponents="2">
          0 0 0.62826721824694798 -0.49027188650077741 0.94674825817802488 -0.75090726743007397 1.1663686940782525 -0.94555352303182294 1.3289599456615366 -1.1056791508567159 1.4519988647876707 -1.243708524935113 1.5450677596121241 -1.365930307637776 1.6141776782042403 -1.4758895157021827 1.6634924895399055 -1.5757440218958263 1.6960462253915711 -1.6668178427729015 1.7142283298588055 -1.7499928027678691 1.7199343875422051 -1.8258119647257933 1.7147526129984025 -1.8946324024168177 1.7000359841391359 -1.9566773812183327 1.676952579767756 -2.0120702071218672 1.6465476927978087 -2.0608892144586024 1.6098092458362829 -2.1032418989880646 1.5675978009250915 -2.139171514076466 1.5207305794610357 -2.1687557125356847 1.4699825551807955 -2.1921113455373495 1.4160609837146156 -2.2093568240581289 1.3596125608897083 -2.2206152832272328 1.3012546724615925 -2.2260613349223068 1.241549468598705 -2.2258791464512089 1.1810211614919512 -2.2202883276122485 1.120176444036814 -2.2095857464670616 1.0594535322175589 -2.1940502383616476 0.99923144964377764 -2.1739458449164935 0.93988626722792534 -2.1496383650969726 0.88186086362505167 -2.1217898157217028 0.82528914494885841 -2.0904636610394802 0.77042523150804809 -2.0560863531821152 0.71748701999613584 -2.019113353619983 0.66665199355738813 -1.9800134631893915 0.618064612501247 -1.9392841256040763 0.57182332490246457 -1.8974039380989574 0.52798024286726075 -1.8548110927692538 0.48659759858490748 -1.8120926428585187 0.44770843148968137 -1.7698690820736118 0.41128664898757095 -1.7286618619931375 0.37728992966808128 -1.6890367682449705 0.34565951777054937 -1.6516099241165723 -0.83894442922076173 3.8391893752394921 -1.1062618391883341 4.3627025317506671 -1.2689085631469375 4.3488208715903749 -1.6181178234556821 4.8522500123985806 -2.0421281976868553 5.3510012741234814 -2.8055773552226198 6.3754627766587397 -3.4688390999215106 6.7947602384579202 -4.238312206837306 7.1544699530118718 -4.7212052083644975 6.8940956977679066 -5.1782517254506972 6.585188942626524 -5.6265168561267762 6.2557752696055182 7.3742471312951414 -8.3798122495692198 -1.1440407274010151 1.4009069643659664 -1.0553322830631116 1.2570280085732364 -1.3913356643231785 1.6081782147570016 -1.4481923378955246 1.6177336847990655 -1.501418199357528 1.6200720159969402 -1.5610250742529712 1.6261114355740642 -1.6219433543648669 1.6300307045734643 -1.684057288928851 1.6316574906343502 -1.7416387070504433 1.6256964872450674 -1.8055925484603934 1.6224998284939975 -2.2132553710100114 1.9061237369896802 -2.291425699540715 1.882727292039726 -2.3700714734727244 1.855678653793319 -2.4489325472488184 1.8248093389087576 -2.5281222805142818 1.7902407876528801 -2.6073885141617237 1.751818064172294 -2.6866026595661125 1.7094914484989467 -2.7656395090436772 1.6632184472416494 -2.8443777690062433 1.6129626400927028 -2.9227005561248118 1.5586924767873835 -2.5899426509145718 1.3009093460421293 -2.6570299834525399 1.2589698601571251 -2.7238892083392923 1.2137038975052641 -2.7904240971284162 1.1650669680981842 -2.8565392838774799 1.1130166995961708 -2.9219985528206371 1.0574628241169295 -2.9869894374209713 0.99847091924720111 -3.0588336058467398 0.9381579314926628 -3.12244863122939 0.87167223181478903 -3.185171420914374 0.8015577402542815 -2.8151260488525844 0.63612925177674651 -2.8709931874479357 0.58000018398533726 -2.9264928175838261 0.52074837695581944 -2.9813837364912268 0.45827088210898204 -3.0355615740881605 0.39249795811417054 -3.0964969238163369 0.32405899017733292 -2.7229541531012171 0.22174489005033368 -2.7728223814636261 0.16534502168612789 -2.8221221299401424 0.10588216466882423 -2.8707003988804516 0.043277863356803899 -2.9182576661608359 -0.022538521409472791 -2.5524203998882071 -0.074732184856594386 -2.5983920233000384 -0.12890995106113615 -2.6508202938203018 -0.18660742601964267 -2.6947592780379765 -0.24699208368275538 -2.7371588070174639 -0.31035981303717686 -2.7779900505208737 -0.37673862957520426 -2.816810728261042 -0.44609388411622153 -2.8532872657342234 -0.51837195893760335 -2.8870635985730333 -0.59348509104173086 -2.9177607587078533 -0.67130621197926177 -2.9378647950741912 -0.74975725381946257 -2.961261469632539 -0.83207984242405419 -2.9803115905656461 -0.91642618019605349 -2.9945355734129415 -1.002444453271867 -3.0034232357898167 -1.0897028708680583 -2.9993839995081459 -1.1748126224809465 -3.3743656338858448 -1.4283802350448365 -3.3479291545112302 -1.532849260450152 -3.7001723046826775 -1.8338240919718942 -3.6514892407227215 -1.9603827136896255 -3.9634102038911245 -2.3067475465435123 -3.8951659127059211 -2.4599425349894379 -2.8645734885819572 -1.9390065923231841 -2.7362773695419009 -1.9614173640475334 -2.9524556866731193 -2.243456506724848 -2.7638750187714658 -2.2275530476710119 -2.8774125977987897 -2.4594491976180106 -2.6147445473790065 -2.3685596119038275 -2.6802295412932025 -2.5707374050051923 -2.607429369176526 -2.6516879353275673 -2.5456159231338704 -2.7457183416462874 -3.7746788655713273 -4.391049080335292 0 0
        </DataArray>
        <DataArray type="Float32" Name="u" NumberOfComponents="1">
          0 0.007874015748031496 0.015748031496062992 0.023622047244094488 0.031496062992125984 0.03937007874015748 0.047244094488188976 0.055118110236220472 0.062992125984251968 0.070866141732283464 0.07874015748031496 0.086614173228346455 0.094488188976377951 0.10236220472440945 0.11023622047244094 0.11811023622047244 0.12598425196850394 0.13385826771653545 0.14173228346456693 0.14960629921259844 0.15748031496062992 0.16535433070866143 0.17322834645669291 0.18110236220472442 0.1889763779527559 0.19685039370078741 0.20472440944881889 0.2125984251968504 0.22047244094488189 0.2283464566929134 0.23622047244094488 0.24409448818897639 0.25196850393700787 0.25984251968503935 0.26771653543307089 0.27559055118110237 0.28346456692913385 0.29133858267716534 0.29921259842519687 0.30708661417322836 0.31496062992125984 0.32283464566929132 0.33070866141732286 0.33858267716535434 0.34645669291338582 0.3543307086614173 0.36220472440944884 0.37007874015748032 0.37795275590551181 0.38582677165354329 0.39370078740157483 0.40157480314960631 0.40944881889763779 0.41732283464566927 0.42519685039370081 0.43307086614173229 0.44094488188976377 0.44881889763779526 0.45669291338582679 0.46456692913385828 0.47244094488188976 0.48031496062992124 0.48818897637795278 0.49606299212598426 0.50393700787401574 0.51181102362204722 0.51968503937007871 0.52755905511811019 0.53543307086614178 0.54330708661417326 0.55118110236220474 0.55905511811023623 0.56692913385826771 0.57480314960629919 0.58267716535433067 0.59055118110236215 0.59842519685039375 0.60629921259842523 0.61417322834645671 0.62204724409448819 0.62992125984251968 0.63779527559055116 0.64566929133858264 0.65354330708661412 0.66141732283464572 0.6692913385826772 0.67716535433070868 0.68503937007874016 0.69291338582677164 0.70078740157480313 0.70866141732283461 0.71653543307086609 0.72440944881889768 0.73228346456692917 0.74015748031496065 0.74803149606299213 0.75590551181102361 0.76377952755905509 0.77165354330708658 0.77952755905511806 0.78740157480314965 0.79527559055118113 0.80314960629921262 0.8110236220472441 0.81889763779527558 0.82677165354330706 0.83464566929133854 0.84251968503937003 0.85039370078740162 0.8582677165354331 0.86614173228346458 0.87401574803149606 0.88188976377952755 0.88976377952755903 0.89763779527559051 0.90551181102362199 0.91338582677165359 0.92125984251968507 0.92913385826771655 0.93700787401574803 0.94488188976377951 0.952755905511811 0.96062992125984248 0.96850393700787396 0.97637795275590555 0.98425196850393704 0.99212598425196852 1
        </DataArray>
      </PointData>
      <CellData Scalars="P">
        <DataArray type="Float32" Name="P" NumberOfComponents="1">
          -0.021649308681348945 -0.062557269717580979 -0.099237452548755281 -0.13129778639726516 -0.15894023838798074 -0.18270334613132919 -0.20333084596538151 -0.22169252866332265 -0.23873038651076137 -0.2554203681789895 -0.27274214433476801 -0.29165621799445485 -0.31308470152952717 -0.33789561409252189 -0.36688980098424545 -0.40078970703045286 -0.44022999955476122 -0.48575053981777555 -0.53779060584232985 -0.59668508927177033 -0.66266218175765379 -0.73584227449736717 -0.81623868169955693 -0.9037592810739199 -0.99820969034045792 -1.099298693421932 -1.2066428636038764 -1.3197716228540846 -1.4381362782434643 -1.5611270032238955 -1.6880614205347308 -1.8182031072168727 -1.9507705537466162 -2.0849453798813169 -2.2198806551716168 -2.3547065410882251 -2.4885339157415176 -2.6204644714476144 -2.7495941694665529 -2.8750089067439251 -2.9957834214809904 -3.110976990033183 -3.0230424695170846 -2.9230626884966502 -2.8282736542424161 -2.7209977640840162 -2.5992619126394634 -2.4419519240029617 -2.2603442152011919 -2.0673822875643402 -1.8573810916248488 -1.6262160970938717 -1.3691756618780904 -1.881633958116621 -1.8518134114604825 -1.8274919391242817 -1.7805542840140816 -1.7303945322279723 -1.6776864072841957 -1.6224279469867164 -1.5649525806968829 -1.505592182246636 -1.4450233150699112 -1.383223781952049 -1.3002706274610498 -1.2166524920677226 -1.1325480011083577 -1.0481130119221891 -0.96345908654773238 -0.87867295045248506 -0.79380885942941026 -0.70888795046111686 -0.6238977365524464 -0.53879172592605828 -0.4719520362102394 -0.40483585157657687 -0.33748165270459834 -0.26991192556436611 -0.20213317712312678 -0.13414170958221169 -0.065906426646820795 0.0029086611559442136 0.072066198243736015 0.1416427181611439 0.19564641021700283 0.25024318219429653 0.30539012421273576 0.36103999752976784 0.41714673539110125 0.4739298262597586 0.51643403818059619 0.55933342442621714 0.60245173170042043 0.6456012946547236 0.68857925387798502 0.71816629252675679 0.74738383323721924 0.77611644961457527 0.80378060557829889 0.82999592655289745 0.85437085737254725 0.87649386893119874 0.89594034260701705 0.91227630955888861 0.92506290756876386 0.93372092116218031 0.93797057637928305 0.93739043963566482 0.93157960968179676 0.92016627459921763 0.90274367595829041 0.88226609628443797 0.85455999182255493 0.82129832449758267 0.78039136414864574 0.73244769221542783 0.6775920583249192 0.61994648679590847 0.55899581421205535 0.49353942626321967 0.42635090738550396 0.35634279811453851 0.28723683502615804 0.21781480388262797 0.15049704187294075 0.086867621385256971 0.024439836921566677
        </DataArray>
      </CellData>
      <Points>
        <DataArray type="Float32" NumberOfComponents="3" format="ascii">
          3.9952894487250474 6.052959858378653 0
          4.00011644402045 6.0591856893284186 0
          4.0049824207756242 6.0653810817698188 0
          4.009907136092389 6.0715298511514186 0
          4.0149042112921025 6.0776199089916378 0
          4.0199837277116508 6.0836413097481019 0
          4.0251533112407829 6.0895854797896911 0
          4.0304187270061069 6.0954448272209394 0
          4.0357842524738849 6.1012125220007238 0
          4.0412529359558818 6.1068823621516994 0
          4.0468267850305253 6.1124486917130243 0
          4.0525069149892401 6.1179063461235108 0
          4.0582936666592211 6.1232506186113582 0
          4.0641867051715828 6.1284772381053196 0
          4.0701851041482602 6.1335823554264426 0
          4.0762874184279383 6.1385625356574192 0
          4.0824917491814769 6.1434147532760131 0
          4.088795805471455 6.1481363854527116 0
          4.0951969579098835 6.1527252093073814 0
          4.1016922896230303 6.1571793970060051 0
          4.1082786445872967 6.1614975084016894 0
          4.1149526717529215 6.165678483556948 0
          4.1217108653971231 6.169721634953488 0
          4.1285496036419103 6.1736266364924015 0
          4.13546518352695 6.1773935118886358 0
          4.1424538537088873 6.1810226208577967 0
          4.1495118460523521 6.1845146405062001 0
          4.1566354029522126 6.1878705478373597 0
          4.1638208009634727 6.1910916031771457 0
          4.1710643742263764 6.1941793272938117 0
          4.1783625420129882 6.1971354601598811 0
          4.1857118170972996 6.1999619568369049 0
          4.193108821562074 6.202660960865205 0
          4.2005503003442435 6.2052347758689352 0
          4.2080331322611677 6.2076858363486336 0
          4.2155543389782881 6.210016676712379 0
          4.223111091115002 6.2122299014890032 0
          4.2307007114706074 6.2143281580586081 0
          4.2383206788725962 6.2163141001629016 0
          4.2459686302115891 6.2181903493472674 0
          4.2536423588076735 6.2199594625449786 0
          4.2613398117690782 6.2216238969082251 0
          4.2690590863309454 6.2231859715064148 0
          4.2767260772116398 6.2249861187170197 0
          4.2843242183243992 6.2270567862801034 0
          4.291843457501952 6.2293970973319013 0
          4.2992621553150565 6.2320382527903702 0
          4.3065540387958636 6.235011162162329 0
          4.3136717808769296 6.2383793270928756 0
          4.3205742914330632 6.2421687308868856 0
          4.327214197854734 6.2464018715824121 0
          4.3335615918468351 6.2510626883516176 0
          4.3395881532785472 6.2561321256560625 0
          4.3452660885372447 6.2615898690489775 0
          4.3514018425641572 6.2665281588900115 0
          4.3574665676048339 6.2715533029550805 0
          4.3634657806056021 6.2766563839859977 0
          4.3693786287291028 6.2818591720125987 0
          4.3752015917663156 6.2871622605901818 0
          4.3809313746588865 6.2925657958851158 0
          4.386564285982268 6.2980701534753374 0
          4.392096552702843 6.3036755775000985 0
          4.3975243273731728 6.3093821699817294 0
          4.4028440436518599 6.315189562632014 0
          4.4080517394707073 6.3210975584845626 0
          4.4131221225514112 6.3271237361316279 0
          4.4180503502400459 6.3332666452796236 0
          4.4228315501240214 6.3395246092623951 0
          4.4274608361717593 6.3458957145907338 0
          4.4319333016952704 6.3523778184672359 0
          4.4362440349940968 6.3589685391728965 0
          4.4403881273310537 6.3656652529732192 0
          4.4443606806984546 6.3724650914711285 0
          4.4481568153419877 6.3793649393352156 0
          4.4517716770116502 6.3863614323286537 0
          4.4552259125403939 6.3934385995664682 0
          4.4585153626620437 6.4005938420181092 0
          4.4616358820240558 6.4078243543441316 0
          4.4645833451552539 6.4151271221198458 0
          4.4673536523811368 6.4224989191881336 0
          4.4699427444775264 6.4299363020448101 0
          4.4723465910404014 6.437435613871819 0
          4.4745607363406119 6.4449931155317826 0
          4.4765812348902276 6.4526046851906695 0
          4.4784041963372729 6.4602659757911525 0
          4.4800525730716299 6.4679667447067475 0
          4.4815228986356983 6.4757035122738653 0
          4.4828117291741725 6.483472604883862 0
          4.4839156584146371 6.4912701485626396 0
          4.484831324166179 6.4990920646035564 0
          4.4855549449922565 6.5069341082645815 0
          4.4861096874615534 6.5147899505342446 0
          4.4864924556621784 6.5226560932564652 0
          4.4867001888745692 6.5305288477717207 0
          4.4867298711122157 6.5384043300050561 0
          4.4865785497583035 6.5462784560481735 0
          4.4862689123228989 6.5541480039298934 0
          4.4857981040711534 6.5620096107834822 0
          4.4851628699608703 6.5698596943425445 0
          4.4843604817337628 6.5776945051919959 0
          4.4833883069469493 6.5855101080868632 0
          4.4822438108608678 6.5933023801963522 0
          4.4809245839766376 6.6010670132667357 0
          4.4794283628349287 6.6087995169714251 0
          4.4777530522113986 6.6164952243973882 0
          4.4758967487315688 6.624149299989873 0
          4.4738582069757165 6.6317568688743913 0
          4.4716359783905615 6.6393128152089211 0
          4.4692288851645534 6.6468118972728218 0
          4.4666360500392033 6.654248769445652 0
          4.4638569279940139 6.6616180091711756 0
          4.460891776953928 6.6689143276813736 0
          4.4577173540130435 6.6761219706005486 0
          4.4543353103721497 6.6832344511268147 0
          4.4507238192885596 6.6902330796427671 0
          4.4468859153580871 6.6971100043235419 0
          4.442802277298779 6.7038437295179882 0
          4.43847715470854 6.710424758941155 0
          4.4339744539140407 6.7168854359406573 0
          4.4293021411187103 6.7232243742719895 0
          4.4244468274163493 6.7294240800338869 0
          4.419420213178249 6.7354855505279447 0
          4.4142152679664832 6.7413944130008145 0
          4.4088482775601241 6.7471563216119153 0
          4.4033151806910169 6.7527587561164406 0
          4.3976204805176078 6.7581967204821529 0
          4.391767988563327 6.7634644132000803 0
          4.3856814594226652 6.7684598646069887 0
        </DataArray>
      </Points>
      <Cells>
        <DataArray type="Int32" Name="connectivity" format="ascii">
          0 1 1 2 2 3 3 4 4 5 5 6 6 7 7 8 8 9 9 10 10 11 11 12 12 13 13 14 14 15 15 16 16 17 17 18 18 19 19 20 20 21 21 22 22 23 23 24 24 25 25 26 26 27 27 28 28 29 29 30 30 31 31 32 32 33 33 34 34 35 35 36 36 37 37 38 38 39 39 40 40 41 41 42 42 43 43 44 44 45 45 46 46 47 47 48 48 49 49 50 50 51 51 52 52 53 53 54 54 55 55 56 56 57 57 58 58 59 59 60 60 61 61 62 62 63 63 64 64 65 65 66 66 67 67 68 68 69 69 70 70 71 71 72 72 73 73 74 74 75 75 76 76 77 77 78 78 79 79 80 80 81 81 82 82 83 83 84 84 85 85 86 86 87 87 88 88 89 89 90 90 91 91 92 92 93 93 94 94 95 95 96 96 97 97 98 98 99 99 100 100 101 101 102 102 103 103 104 104 105 105 106 106 107 107 108 108 109 109 110 110 111 111 112 112 113 113 114 114 115 115 116 116 117 117 118 118 119 119 120 120 121 121 122 122 123 123 124 124 125 125 126 126 127 
        </DataArray>
        <DataArray type="Int32" Name="offsets" format="ascii">
          2 4 6 8 10 12 14 16 18 20 22 24 26 28 30 32 34 36 38 40 42 44 46 48 50 52 54 56 58 60 62 64 66 68 70 72 74 76 78 80 82 84 86 88 90 92 94 96 98 100 102 104 106 108 110 112 114 116 118 120 122 124 126 128 130 132 134 136 138 140 142 144 146 148 150 152 154 156 158 160 162 164 166 168 170 172 174 176 178 180 182 184 186 188 190 192 194 196 198 200 202 204 206 208 210 212 214 216 218 220 222 224 226 228 230 232 234 236 238 240 242 244 246 248 250 252 254 
        </DataArray>
        <DataArray type="Int32" Name="types" format="ascii">
          3 3 3 3 3 3 3 3 3 3 3 3 3 3 3 3 3 3 3 3 3 3 3 3 3 3 3 3 3 3 3 3 3 3 3 3 3 3 3 3 3 3 3 3 3 3 3 3 3 3 3 3 3 3 3 3 3 3 3 3 3 3 3 3 3 3 3 3 3 3 3 3 3 3 3 3 3 3 3 3 3 3 3 3 3 3 3 3 3 3 3 3 3 3 3 3 3 3 3 3 3 3 3 3 3 3 3 3 3 3 3 3 3 3 3 3 3 3 3 3 3 3 3 3 3 3 3         </DataArray>
      </Cells>
    </Piece>
  </UnstructuredGrid>
</VTKFile>
