<?xml version="1.0"?>
<VTKFile type="UnstructuredGrid" version="0.1" byte_order="LittleEndian">
  <UnstructuredGrid>
    <Piece NumberOfPoints="128" NumberOfCells="127">
      <PointData Scalars="W">
        <DataArray type="Float32" Name="W" NumberOfComponents="2">
          0 0 0.57702914054727505 0.093070218777675767 0.86843260515087495 0.13494260641115122 1.0966707193242968 0.16163027965693719 1.2910451250954305 0.1777699103667747 1.4635960169980984 0.18523918397117947 1.6208443903403476 0.1850292394227836 1.7667610246776775 0.17771407553695157 1.9039712919311604 0.16363939066647687 2.0341958351831697 0.14300171438901502 2.1586731819909621 0.11591059885046102 2.2782765810049002 0.08241165113636903 2.3936036798078559 0.042505487451394701 2.5050090025658469 -0.0038369799846810627 2.6126680109779357 -0.056659283210630323 2.7166480492455305 -0.11600947576263876 2.8170366854816469 -0.18194237000021699 2.9137324098012374 -0.25450732121489161 3.0065880236017168 -0.33374466726098806 3.0954524959597283 -0.41968889258810887 3.1801020419600881 -0.51235944714477988 3.2602345745985226 -0.61175145637438078 3.3355443956830246 -0.7178424465168608 3.4057228171083334 -0.83059362820135707 3.4703690707505168 -0.94992545335093981 3.5291526600961123 -1.0757541260990069 3.5816657470609607 -1.2079536096863692 3.6274010242960002 -1.346332722690593 3.6659205936255415 -1.4906853081913334 3.6971078195491698 -1.6409199887406418 3.7201868688161182 -1.7966427087450811 3.7347126547203624 -1.9575379525786218 3.740234453209772 -2.1232455281126286 3.7363278296772635 -2.2933755528534792 3.7225494404471915 -2.4674800504192516 3.698496124955359 -2.6450850517589899 3.6636896453747632 -2.8256036177420691 3.6178108037626506 -3.0085007439025282 3.5605649078460297 -3.1932146917263435 3.4915611698878539 -3.3790360825031178 3.4104918841917105 -3.5652436112013217 3.3171073517909164 -3.7510897585174443 -3.3134286965503112 3.7470912973792752 -3.4047273432962832 3.5597454798520709 -3.2326414275117381 3.137855245340357 -3.2642285094932744 2.953412867878209 -3.2926328123045705 2.7798374959993444 -3.2994743700937148 2.6013872322895533 -3.3172161562301632 2.4435055955393157 -3.3149599798136595 2.281599265324354 -3.3037963712202405 2.1246400133556453 -3.3122686293266579 1.9891883755742987 -3.2866666640207751 1.8417897363968105 -3.2683451669239405 1.7074697002011945 -3.2438024117595097 1.5777787098953502 -3.2149616899619589 1.4535396317114537 -3.1529597716558966 1.322876924252111 -3.0850206794303889 1.1992843282086452 -3.0117020395986227 1.0827765689120974 -2.9322013753562026 0.97290258911921412 -2.8475320767793915 0.86988482875100304 -2.7580128935310273 0.773654411039434 -2.664722337308842 0.68431511607201856 -2.5913015999726237 0.60690917669969746 -2.4650822137223241 0.5245437314670629 -2.4152573616837314 0.46464307765487295 -2.3374774531667941 0.40373200768501544 -2.2882599935448016 0.35187683769410921 -2.2113813922027119 0.29963995487526818 -2.165583036963044 0.25521141824718513 -2.1205573399936006 0.21347594383672802 -2.0473700239893864 0.17207892189382459 -2.0061542778999288 0.13631893203905587 -1.9370033699100877 0.10138413682866532 -1.9003262957816052 0.070666948549646114 -1.8661725726376472 0.041685513428978457 -1.8024859750155104 0.014218295077263665 -1.7737744784326783 -0.010983792818517208 -1.7489618713181871 -0.035093997363724073 -1.6929149243121069 -0.056935353655739929 -1.6733276040510798 -0.078508004716066865 -1.6569970897303223 -0.099561813504337626 -1.6097056526638707 -0.11756121732533818 -1.6002575719588263 -0.13728709338695314 -1.5953817842418472 -0.15719778657978406 -1.5931495091381493 -0.17730900309670747 -1.5593609811763134 -0.19330620205147853 -1.5648271847056046 -0.21372400664878224 -1.5742308718729585 -0.23506377899230466 -1.5513731098870815 -0.25144023267029952 -1.5700948731574513 -0.27459831190812545 -1.5919843337904305 -0.29923316360275726 -1.5808810706592364 -0.31802677918863825 -1.6116164836427922 -0.34579446655341523 -1.6468044958657582 -0.37604515503246455 -1.6483097516228946 -0.39957518766223465 -1.6928569488715399 -0.43475781894198934 -1.7431080721927463 -0.47375912602872788 -1.7579503510233674 -0.50492082904500535 -1.8169123085800638 -0.55084557487729924 -1.8406388332796293 -0.58849564103626073 -1.9095527049389267 -0.64340733842554076 -1.9843037528822187 -0.70464349380137437 -2.0220547173302825 -0.75651629752918859 -2.1056310641740157 -0.8298575685470434 -2.1523249541151199 -0.89356404927017274 -2.2465387672959412 -0.98266987150741525 -2.3017657972957504 -1.0611417848123381 -2.4037774267045702 -1.168510611508415 -2.4667098242313887 -1.2651847157138947 -2.5338491556941642 -1.3717012286393937 -2.6471122124539863 -1.5139898486552106 -2.7195582115388128 -1.6452120425113272 -2.7925314443752085 -1.7884652261686302 -2.8663385090467881 -1.9455600235933019 -2.9411247779581395 -2.1185993560331351 -3.0146336158671176 -2.3082886501353528 1.7338513895944401 1.3450424153052267 2.0196133479476295 1.507513014876608 1.6080147369707012 1.1564799915160413 1.4140587638612241 0.98601590207527623 1.2049618975510159 0.81798302027334635 1.0250074711108734 0.68009652420044386 0.49081609846341462 0.32062713222214789 -0.015294071999113612 -0.0099421732406149398 -0.95084257627945767 -0.62428453732531231 -4.8624032713133376 -3.3896695805784902 0 0
        </DataArray>
        <DataArray type="Float32" Name="u" NumberOfComponents="1">
          0 0.007874015748031496 0.015748031496062992 0.023622047244094488 0.031496062992125984 0.03937007874015748 0.047244094488188976 0.055118110236220472 0.062992125984251968 0.070866141732283464 0.07874015748031496 0.086614173228346455 0.094488188976377951 0.10236220472440945 0.11023622047244094 0.11811023622047244 0.12598425196850394 0.13385826771653545 0.14173228346456693 0.14960629921259844 0.15748031496062992 0.16535433070866143 0.17322834645669291 0.18110236220472442 0.1889763779527559 0.19685039370078741 0.20472440944881889 0.2125984251968504 0.22047244094488189 0.2283464566929134 0.23622047244094488 0.24409448818897639 0.25196850393700787 0.25984251968503935 0.26771653543307089 0.27559055118110237 0.28346456692913385 0.29133858267716534 0.29921259842519687 0.30708661417322836 0.31496062992125984 0.32283464566929132 0.33070866141732286 0.33858267716535434 0.34645669291338582 0.3543307086614173 0.36220472440944884 0.37007874015748032 0.37795275590551181 0.38582677165354329 0.39370078740157483 0.40157480314960631 0.40944881889763779 0.41732283464566927 0.42519685039370081 0.43307086614173229 0.44094488188976377 0.44881889763779526 0.45669291338582679 0.46456692913385828 0.47244094488188976 0.48031496062992124 0.48818897637795278 0.49606299212598426 0.50393700787401574 0.51181102362204722 0.51968503937007871 0.52755905511811019 0.53543307086614178 0.54330708661417326 0.55118110236220474 0.55905511811023623 0.56692913385826771 0.57480314960629919 0.58267716535433067 0.59055118110236215 0.59842519685039375 0.60629921259842523 0.61417322834645671 0.62204724409448819 0.62992125984251968 0.63779527559055116 0.64566929133858264 0.65354330708661412 0.66141732283464572 0.6692913385826772 0.67716535433070868 0.68503937007874016 0.69291338582677164 0.70078740157480313 0.70866141732283461 0.71653543307086609 0.72440944881889768 0.73228346456692917 0.74015748031496065 0.74803149606299213 0.75590551181102361 0.76377952755905509 0.77165354330708658 0.77952755905511806 0.78740157480314965 0.79527559055118113 0.80314960629921262 0.8110236220472441 0.81889763779527558 0.82677165354330706 0.83464566929133854 0.84251968503937003 0.85039370078740162 0.8582677165354331 0.86614173228346458 0.87401574803149606 0.88188976377952755 0.88976377952755903 0.89763779527559051 0.90551181102362199 0.91338582677165359 0.92125984251968507 0.92913385826771655 0.93700787401574803 0.94488188976377951 0.952755905511811 0.96062992125984248 0.96850393700787396 0.97637795275590555 0.98425196850393704 0.99212598425196852 1
        </DataArray>
      </PointData>
      <CellData Scalars="P">
        <DataArray type="Float32" Name="P" NumberOfComponents="1">
          -0.0063448705602979086 -0.017867967850773187 -0.027072250298654621 -0.033209301700379716 -0.035684141147386161 -0.033988462148544528 -0.02766793857557831 -0.016304149908246204 0.00049677391413070532 0.023109826756416763 0.051896042234090681 0.087205160133008663 0.1293768360214988 0.17874005481782987 0.23561198330642849 0.30029718301552477 0.37308970065212449 0.45426872303304533 0.54409735731717801 0.64282251589903638 0.75067223565862573 0.86785213844698406 0.99454426032242538 1.1309059007024413 1.2770644472887298 1.4331189560371591 1.5991351826025533 1.7751386756184826 1.9611157861681459 2.157029389181444 2.3627814351027769 2.5782274637971661 2.8031737026761245 3.0373760113218005 3.2805358975670744 3.5323001979567739 3.7922525523461661 4.0599212357732464 4.3347783344330919 4.6162289066051567 4.9036133305010665 5.1962081118089483 4.8816869856062555 4.5573006936060114 4.2491384588471623 3.9381584726326184 3.6253627386392817 3.313460525065564 3.0020040967666684 2.6934483972565921 2.3891211110849988 2.0876764615403993 1.7926871914774489 1.503862943552031 1.2221105477704761 0.94811816321232745 0.6849492041145161 0.43320305322765507 0.19336791317222396 -0.034070915067294628 -0.24877840701415191 -0.45051169606105884 -0.63917297243959237 -0.81634492269738923 -0.97869024841294783 -1.1315163765637277 -1.2731920654213886 -1.4056169975003099 -1.5273766379530385 -1.640379145390499 -1.7447836848139737 -1.8394388536364337 -1.9260468516875484 -2.003656986207619 -2.0737971194382645 -2.1367009655300122 -2.1916496449361018 -2.2399264524561531 -2.281760054246146 -2.3166792500604445 -2.3456212770567944 -2.368740982613903 -2.3858730004758608 -2.3975566656674525 -2.40387833901424 -2.4048906022941701 -2.4008079697762907 -2.3915817158123991 -2.3771851067887346 -2.3581208583319717 -2.3338582944019315 -2.3042997336646733 -2.2702416448206861 -2.2307077731490841 -2.1855069148165205 -2.1357340490574073 -2.0799693492483935 -2.0179244244159449 -1.9510382769171839 -1.8774980662234202 -1.7989323268661133 -1.713290294312076 -1.6202788159492798 -1.5219095267070302 -1.4159089961982267 -1.3044942057079054 -1.1852481092336649 -1.0607252727710981 -0.92858470456982578 -0.79162487750883859 -0.65021441349543663 -0.50228851891639148 -0.35114007763870403 -0.1977379933822937 -0.043196393719315648 0.11119023293737863 0.26378279229092982 0.19098126595563938 0.11178736310606974 0.058058948652340896 0.017853392859785728 -0.010304921828407214 -0.029331523379124223 -0.034032275579693363 -0.030470585272758637 -0.019632879630281552 0.0011254706421371052
        </DataArray>
      </CellData>
      <Points>
        <DataArray type="Float32" NumberOfComponents="3" format="ascii">
          3.9468864896749154 9.0040914253528044 0
          3.945614788511798 9.011862097594264 0
          3.944378863375773 9.0196385409390061 0
          3.943196781403151 9.0274233519068368 0
          3.9420826934779782 9.035218185454994 0
          3.9410486509427849 9.0430240425042303 0
          3.9401053520945108 9.050841386375172 0
          3.9392625464884583 9.0586702042481324 0
          3.9385292811280266 9.066510042755505 0
          3.9379140632386549 9.0743600294171927 0
          3.9374249669481207 9.082218884826208 0
          3.9370697100753764 9.0900849294408932 0
          3.9368557082717981 9.0979560864120383 0
          3.9367901120748856 9.1058298816202772 0
          3.9368798288880043 9.1137034418716549 0
          3.9371315338579698 9.1215734921975624 0
          3.9375516740491063 9.1294363528743165 0
          3.938146473871083 9.137287936023716 0
          3.9389219287835888 9.1451237425520091 0
          3.9398837961681288 9.1529388596480405 0
          3.9410375859621016 9.1607279586444417 0
          3.9423885467819497 9.1684852938110968 0
          3.9439416471913971 9.1762047026569249 0
          3.9457015567457243 9.183879607322984 0
          3.9476726268506384 9.1915030169873599 0
          3.9498588659120295 9.1990675327973044 0
          3.9522639188426942 9.206565353064935 0
          3.9548910417738021 9.2139882810821003 0
          3.9577430705991765 9.2213277369744979 0
          3.9608223938231322 9.2285747704844372 0
          3.9641309453272915 9.2357200666372421 0
          3.9676701562661494 9.2427539701743164 0
          3.9714409274696441 9.2496665051167231 0
          3.9754436014963832 9.2564473970988637 0
          3.9796779363170653 9.2630860975430664 0
          3.9841430778257165 9.2695718114361068 0
          3.988837534842586 9.2758935267173275 0
          3.9937591494623157 9.2820400506710481 0
          3.9989050772631338 9.2880000430988598 0
          4.0042717690356602 9.2937620511493133 0
          4.0098549465538085 9.2993145533014516 0
          4.0156495834971295 9.30464600408758 0
          4.0216498899698303 9.309744880441114 0
          4.0274447581169426 9.3150760862988502 0
          4.0330285270390167 9.3206280059874764 0
          4.0384118634088617 9.3263744783433982 0
          4.0435928087299642 9.332304067155059 0
          4.0485696019694721 9.3384060100962074 0
          4.0533418189520152 9.3446692424611637 0
          4.0579083598811181 9.3510839751047765 0
          4.0622693647846129 9.357640169221721 0
          4.0664255259818542 9.3643280927408892 0
          4.0703763185226451 9.3711393474339708 0
          4.0741233299266346 9.3780647940285178 0
          4.0776676963999652 9.3850961043138934 0
          4.0810109398666574 9.3922252370880077 0
          4.08415484872903 9.3994444891900688 0
          4.0871032673140073 9.4067457588777348 0
          4.0898604080873957 9.4141213827634669 0
          4.0924308170791166 9.4215641367318739 0
          4.0948194236324955 9.4290672079651046 0
          4.0970314775738936 9.4366242087467711 0
          4.0990725294478585 9.4442291721979643 0
          4.1009483636472268 9.4518765587268181 0
          4.1026635326704302 9.459561568866361 0
          4.1042258625055732 9.4672790952592329 0
          4.1056384427360024 9.4750254241100613 0
          4.1069060961268802 9.4827967787874137 0
          4.1080318745644346 9.4905899443934452 0
          4.1090205448983026 9.4984016822046282 0
          4.1098749469860785 9.5062292378742921 0
          4.1105978727516144 9.5140700240555454 0
          4.1111938601147218 9.5219214742715952 0
          4.1116654647294428 9.5297813717658286 0
          4.1120169742039945 9.5376475508689946 0
          4.1122506627330457 9.5455181076021471 0
          4.112368648027565 9.5533912456521435 0
          4.1123748788059773 9.5612652625730838 0
          4.1122711352850247 9.5691385965192328 0
          4.1120589559071403 9.5770097534006737 0
          4.1117418156026986 9.5848773798553726 0
          4.1113209287499464 9.5927401392922196 0
          4.1107973077516009 9.6005967273558728 0
          4.1101738845296731 9.6084460292123133 0
          4.1094512446507094 9.6162868230341179 0
          4.1086296901300647 9.6241178756061423 0
          4.107709359010201 9.6319379413589576 0
          4.1066923457308313 9.6397460300696363 0
          4.1055783108476973 9.6475408773756879 0
          4.1043666706922597 9.6553211618289829 0
          4.1030588416804994 9.6630858700932318 0
          4.1016536621801603 9.6708335681911688 0
          4.1001497740263 9.6785627306605218 0
          4.0985478644319526 9.6862721946972794 0
          4.0968460264546733 9.693960240795052 0
          4.0950420769082179 9.7016249955431206 0
          4.0931359207078266 9.7092650028307794 0
          4.0911247939566495 9.7168780835955815 0
          4.0890055788711281 9.7244618219902836 0
          4.0867773527130034 9.7320142889719534 0
          4.084436457042611 9.7395326394630626 0
          4.0819814176549292 9.7470145422281309 0
          4.0794079583925686 9.7544565948808906 0
          4.0767114408163554 9.761855002713304 0
          4.0738895200315062 9.7692065524652989 0
          4.07093700954744 9.7765066985313389 0
          4.067851009051763 9.7837514936084204 0
          4.0646256715228199 9.7909354139777829 0
          4.0612575665108146 9.7980535962301509 0
          4.0577403624060011 9.8050993833425633 0
          4.054070149835316 9.8120667823425123 0
          4.0502427579284754 9.8189491893966725 0
          4.0462511556256793 9.8257377800924495 0
          4.0420908417784922 9.8324244170354493 0
          4.0377572818646756 9.8390002159287508 0
          4.0332458889963405 9.8454554330913187 0
          4.0285520149490859 9.8517793348200939 0
          4.0236710901284161 9.8579601534985493 0
          4.0188979773498863 9.8642240412679634 0
          4.0142503285065683 9.8705811303807796 0
          4.0097025712315197 9.877009687340971 0
          4.0052426295819545 9.8834991906524863 0
          4.0008574933425596 9.8900392737510376 0
          3.9965359627039141 9.8966214427173327 0
          3.9922448782409834 9.9032234670986412 0
          3.9879528197671936 9.9098249147033108 0
          3.983601733150087 9.9163877682562838 0
          3.9789491899686689 9.9227404169596358 0
        </DataArray>
      </Points>
      <Cells>
        <DataArray type="Int32" Name="connectivity" format="ascii">
          0 1 1 2 2 3 3 4 4 5 5 6 6 7 7 8 8 9 9 10 10 11 11 12 12 13 13 14 14 15 15 16 16 17 17 18 18 19 19 20 20 21 21 22 22 23 23 24 24 25 25 26 26 27 27 28 28 29 29 30 30 31 31 32 32 33 33 34 34 35 35 36 36 37 37 38 38 39 39 40 40 41 41 42 42 43 43 44 44 45 45 46 46 47 47 48 48 49 49 50 50 51 51 52 52 53 53 54 54 55 55 56 56 57 57 58 58 59 59 60 60 61 61 62 62 63 63 64 64 65 65 66 66 67 67 68 68 69 69 70 70 71 71 72 72 73 73 74 74 75 75 76 76 77 77 78 78 79 79 80 80 81 81 82 82 83 83 84 84 85 85 86 86 87 87 88 88 89 89 90 90 91 91 92 92 93 93 94 94 95 95 96 96 97 97 98 98 99 99 100 100 101 101 102 102 103 103 104 104 105 105 106 106 107 107 108 108 109 109 110 110 111 111 112 112 113 113 114 114 115 115 116 116 117 117 118 118 119 119 120 120 121 121 122 122 123 123 124 124 125 125 126 126 127 
        </DataArray>
        <DataArray type="Int32" Name="offsets" format="ascii">
          2 4 6 8 10 12 14 16 18 20 22 24 26 28 30 32 34 36 38 40 42 44 46 48 50 52 54 56 58 60 62 64 66 68 70 72 74 76 78 80 82 84 86 88 90 92 94 96 98 100 102 104 106 108 110 112 114 116 118 120 122 124 126 128 130 132 134 136 138 140 142 144 146 148 150 152 154 156 158 160 162 164 166 168 170 172 174 176 178 180 182 184 186 188 190 192 194 196 198 200 202 204 206 208 210 212 214 216 218 220 222 224 226 228 230 232 234 236 238 240 242 244 246 248 250 252 254 
        </DataArray>
        <DataArray type="Int32" Name="types" format="ascii">
          3 3 3 3 3 3 3 3 3 3 3 3 3 3 3 3 3 3 3 3 3 3 3 3 3 3 3 3 3 3 3 3 3 3 3 3 3 3 3 3 3 3 3 3 3 3 3 3 3 3 3 3 3 3 3 3 3 3 3 3 3 3 3 3 3 3 3 3 3 3 3 3 3 3 3 3 3 3 3 3 3 3 3 3 3 3 3 3 3 3 3 3 3 3 3 3 3 3 3 3 3 3 3 3 3 3 3 3 3 3 3 3 3 3 3 3 3 3 3 3 3 3 3 3 3 3 3         </DataArray>
      </Cells>
    </Piece>
  </UnstructuredGrid>
</VTKFile>
