<?xml version="1.0"?>
<VTKFile type="UnstructuredGrid" version="0.1" byte_order="LittleEndian">
  <UnstructuredGrid>
    <Piece NumberOfPoints="128" NumberOfCells="127">
      <PointData Scalars="W">
        <DataArray type="Float32" Name="W" NumberOfComponents="2">
          0 0 -0.07777310278770945 -0.32133544002771058 -0.11191427357925698 -0.45610656760698864 -0.13782982363981008 -0.55196366704778799 -0.158977101453354 -0.62396091803033937 -0.17670204907875858 -0.67849098928469775 -0.19170978934010119 -0.71930665083705458 -0.20441734207427678 -0.74893718361557893 -0.21507805533388502 -0.76918632343463489 -0.22382623469727903 -0.78132429782947677 -0.23075139493550167 -0.78637429304641471 -0.23590546973821677 -0.78514629665214675 -0.23932018369938818 -0.77830598435360709 -0.24099377827220475 -0.76634138338574875 -0.24089557047570537 -0.74959227297743236 -0.23900060771768861 -0.72836741715330766 -0.23530811090112824 -0.70299820772151234 -0.22980037316661814 -0.67371327812303894 -0.22246654775366195 -0.6407148223760194 -0.21331834454045254 -0.6042228861331399 -0.20236821732418273 -0.56441142641278574 -0.18963092735458931 -0.52141528211109223 -0.17514711372316549 -0.47539552861891526 -0.15897750358283039 -0.4265210904668818 -0.14116799720827433 -0.37487576940306216 -0.12181948523594499 -0.32064588168668973 -0.10102546900660597 -0.26395300591212806 -0.07886651458259851 -0.20484353818416379 -0.055466981752037417 -0.14343783511593872 -0.031104688392605582 -0.080211630844443133 -0.0058070928012071829 -0.014957283535587514 0.020253616731701153 0.052191404443242849 0.046885839866083794 0.12108237161577927 0.073883921295221228 0.1915549839977502 0.10104003350448491 0.26346615438620036 0.12812137723123035 0.33662584053179223 0.15492355702125832 0.41093132297809004 0.18117703245900038 0.48611455971052953 0.20661438924584383 0.56190761909709508 0.23101805076382698 0.63816641136845853 0.25415029092047575 0.71467704796221909 0.27576702379911 0.79118148002399635 -1.8247673686328914 -4.9546985387599793 -1.9473064628741232 -4.6885086494229329 -2.0425638843761775 -4.4207337306477728 -2.1113224766709759 -4.1529048456163808 -2.2479145940767715 -4.0479633803326101 -2.2804760124744909 -3.7825747349767136 -2.3702330514017689 -3.6412087846322887 -2.451171885300568 -3.4998396555514533 -2.4341948553816701 -3.243807892128109 -2.4899315477221249 -3.1081181012647923 -2.5377865943706688 -2.9735925831354098 -2.6778649378075783 -2.9471589913894265 -2.7174860859532952 -2.8101732180633694 -2.5345261682910092 -2.4716201768111929 -2.3156033489826302 -2.1420063452753095 -2.1898453917985665 -1.9305809035085375 -2.0480467156737912 -1.7268565598957277 -1.7468404701201945 -1.4158292986557484 -1.5670468955485028 -1.2273433774955287 -1.3743759179962116 -1.0443559145448937 -0.99962915717438738 -0.74131340982260818 -0.77332560028464792 -0.56316760657348319 -0.35274625459068126 -0.25393906234964303 -0.097899527619937379 -0.070152720425183182 -0.038488041984882079 -0.027541254800052622 0.018294605577987937 0.013088540836144993 0.28043366098411543 0.20124548082690805 0.33646085541684329 0.24298074362133421 0.39477885992946155 0.28723760073317778 0.65993082357542832 0.48537461587066294 0.71215779187424955 0.53120192422592782 0.76616550971884756 0.58021704263160778 1.0295026458443421 0.79416235795809742 1.0746366769095641 0.84713591131994104 1.1208372444940691 0.90382610125063578 1.164947925384042 0.9619411762311284 1.4131137646640075 1.1986857107558502 1.4475503277752908 1.2653730363043338 1.4790806003500732 1.3336982084570363 1.5044367630782056 1.4006611484655362 1.7331519991061528 1.6714057923104477 1.7472682413296434 1.7510620637302254 1.7571955687159402 1.8319237938477209 1.7599735728219161 1.9107009699525523 1.7611461931802652 1.9932337540618159 1.9455828776524275 2.3037231463508947 1.9240930635916771 2.3922672890801886 1.8998289263537529 2.4838280367122003 1.8699528814627493 2.5748723897797849 1.8343958950637131 2.6650149140242556 1.953579466589267 3.0080639193347229 1.8924172952160558 3.1036361195887179 1.8249105441049851 3.1965558212910863 1.74904071113716 3.2821921600849775 1.6693974159566596 3.3680615872106627 1.7108421687865463 3.7385300985780421 1.5994489349307737 3.8182670257890936 1.4841593030115909 3.8960104813799523 1.363338065046674 3.9668163724912837 1.3262741626216294 4.338804824045182 1.1743508040244661 4.3992130094308424 1.018208688745283 4.4495770952580251 0.91477778451086345 4.8168072731305944 0.72812837426185362 4.848381043054621 0.53936276225091151 4.8612911269997996 0.36899525577869896 5.2138517311326646 0.15391488925817234 5.2037143404893351 -0.070365239518333303 5.5318384257587461 -0.30829971663948491 5.4854829622016954 -0.53891801527829308 5.4142771510344803 -0.82204750621022304 5.6969145613613001 -1.0635372681396091 5.5797001925497822 -1.3874161918645354 5.8137466483173874 -1.7483745913538122 6.0232225782580855 -2.1458401004290635 6.2026579711010745 -2.4077676348067154 5.955114196280495 -2.0815015832289938 4.5478368957575954 -2.3485351524157525 4.6304339341009841 -2.3548310569140463 4.2209329728140048 -2.5114567875589833 4.1244598352275652 -2.9190380829452511 4.3904579479868886 -3.0410241554947746 4.189095245957688 -3.683155003645509 4.6332535795292289 -4.4324487858303767 5.0391910181003929 -3.623810339624864 3.748916632098497 0 0
        </DataArray>
        <DataArray type="Float32" Name="u" NumberOfComponents="1">
          0 0.007874015748031496 0.015748031496062992 0.023622047244094488 0.031496062992125984 0.03937007874015748 0.047244094488188976 0.055118110236220472 0.062992125984251968 0.070866141732283464 0.07874015748031496 0.086614173228346455 0.094488188976377951 0.10236220472440945 0.11023622047244094 0.11811023622047244 0.12598425196850394 0.13385826771653545 0.14173228346456693 0.14960629921259844 0.15748031496062992 0.16535433070866143 0.17322834645669291 0.18110236220472442 0.1889763779527559 0.19685039370078741 0.20472440944881889 0.2125984251968504 0.22047244094488189 0.2283464566929134 0.23622047244094488 0.24409448818897639 0.25196850393700787 0.25984251968503935 0.26771653543307089 0.27559055118110237 0.28346456692913385 0.29133858267716534 0.29921259842519687 0.30708661417322836 0.31496062992125984 0.32283464566929132 0.33070866141732286 0.33858267716535434 0.34645669291338582 0.3543307086614173 0.36220472440944884 0.37007874015748032 0.37795275590551181 0.38582677165354329 0.39370078740157483 0.40157480314960631 0.40944881889763779 0.41732283464566927 0.42519685039370081 0.43307086614173229 0.44094488188976377 0.44881889763779526 0.45669291338582679 0.46456692913385828 0.47244094488188976 0.48031496062992124 0.48818897637795278 0.49606299212598426 0.50393700787401574 0.51181102362204722 0.51968503937007871 0.52755905511811019 0.53543307086614178 0.54330708661417326 0.55118110236220474 0.55905511811023623 0.56692913385826771 0.57480314960629919 0.58267716535433067 0.59055118110236215 0.59842519685039375 0.60629921259842523 0.61417322834645671 0.62204724409448819 0.62992125984251968 0.63779527559055116 0.64566929133858264 0.65354330708661412 0.66141732283464572 0.6692913385826772 0.67716535433070868 0.68503937007874016 0.69291338582677164 0.70078740157480313 0.70866141732283461 0.71653543307086609 0.72440944881889768 0.73228346456692917 0.74015748031496065 0.74803149606299213 0.75590551181102361 0.76377952755905509 0.77165354330708658 0.77952755905511806 0.78740157480314965 0.79527559055118113 0.80314960629921262 0.8110236220472441 0.81889763779527558 0.82677165354330706 0.83464566929133854 0.84251968503937003 0.85039370078740162 0.8582677165354331 0.86614173228346458 0.87401574803149606 0.88188976377952755 0.88976377952755903 0.89763779527559051 0.90551181102362199 0.91338582677165359 0.92125984251968507 0.92913385826771655 0.93700787401574803 0.94488188976377951 0.952755905511811 0.96062992125984248 0.96850393700787396 0.97637795275590555 0.98425196850393704 0.99212598425196852 1
        </DataArray>
      </PointData>
      <CellData Scalars="P">
        <DataArray type="Float32" Name="P" NumberOfComponents="1">
          0.013999707249841262 0.04230128425230343 0.071078396744218675 0.1003353637555346 0.12999043511160846 0.15990695145602443 0.18991388669994719 0.21982088595664989 0.24942975737544243 0.27854356108283185 0.30697444060034285 0.33455006458719838 0.36111905219239238 0.38655570738324024 0.41076447677442068 0.43368372534097194 0.45528837572641262 0.4755926530518243 0.49465200617979771 0.51256381666077955 0.52946815507962508 0.54554811694938132 0.56102838485898354 0.57617309688543306 0.59128537455373775 0.60670148901084564 0.62278840037501859 0.63994182575094838 0.65857880334954155 0.67911671033238863 0.70199309492353545 0.72764583731168908 0.75650423211068385 0.78897990010506891 0.82545867144091867 0.86628880457569257 0.9117764263662429 0.96216660767096418 1.0176333840094594 1.0782780296547492 1.1441162299052152 1.2150671074820756 0.9214165475313153 0.63622162344539268 0.36013456339666644 0.093834480341532911 -0.17432637197127787 -0.43186024559188618 -0.68790377381557688 -0.94226929954372973 -1.1847435490240306 -1.4249694939479793 -1.6627257498786687 -1.9080985594003379 -2.150649599951981 -2.369005903847341 -2.5615824312135116 -2.7389017672197444 -2.900250713170557 -3.0313717706245784 -3.1445936573256721 -3.2391579723493011 -3.2985865820503673 -3.3370750843930361 -3.3368117327941453 -3.3132426588052462 -3.2844981310044163 -3.2508388429299298 -3.19328977145187 -3.1309983882942851 -3.0638373348645032 -2.972897362210035 -2.8778427361236534 -2.7786532010354841 -2.6564934962032098 -2.5312666714144694 -2.4030679657612781 -2.2722787339746646 -2.1211068913279778 -1.9685233455586051 -1.8150076542036022 -1.6613121017219881 -1.4904557223308186 -1.3207007935902508 -1.1526322137180369 -0.98705699557093984 -0.82431264201002907 -0.65023653787612834 -0.48103883112249807 -0.31713017889255324 -0.15910383066194361 -0.0075225043898190696 0.14828055063978252 0.29569860220317312 0.43419562276624124 0.56315987497963105 0.68232261714153941 0.79861002403618164 0.90328938254331304 0.99619546300023343 1.0771476030805378 1.1496942050497714 1.2090967045834422 1.2554328854692207 1.2898010480920452 1.3105114748017084 1.3180254560325253 1.3110796475402238 1.2912150166314684 1.2557311619456497 1.2083408200740162 1.1504275419680663 1.0773721107904413 0.99620987335665878 0.90149184079404532 0.79404705975536383 0.67512734355111914 0.55566173020152188 0.46585183325707019 0.37350228029813509 0.29242804142270623 0.21756351189164211 0.14372452458601698 0.083754719605547007 0.030127212518190789 -0.0092342298966340466 -0.010606266372226763
        </DataArray>
      </CellData>
      <Points>
        <DataArray type="Float32" NumberOfComponents="3" format="ascii">
          6.0290884822866362 10.500292669687543 0
          6.036744174316067 10.49845030132132 0
          6.0443950413262124 10.496588009571825 0
          6.0520389646049955 10.49469743858721 0
          6.0596743357831393 10.492772645304376 0
          6.067299842330816 10.490809166062743 0
          6.0749143840573421 10.488803620242543 0
          6.0825170293733004 10.486753477578624 0
          6.0901069894288957 10.484656901331082 0
          6.0976836024070371 10.482512636439868 0
          6.1052463252012421 10.480319930757084 0
          6.1127947278729371 10.478078471595422 0
          6.1203284904402162 10.475788335494714 0
          6.1278474009205608 10.473449946935599 0
          6.1353513554500978 10.471064048067404 0
          6.1428403601965096 10.468631677627473 0
          6.1503145329167186 10.466154151783455 0
          6.1577741030158517 10.463633043572836 0
          6.1652194126557305 10.461070168714127 0
          6.1726509174379371 10.458467573058044 0
          6.1800691856882555 10.455827518932891 0
          6.1874748976949556 10.453152474348755 0
          6.1948688448039775 10.450445104628663 0
          6.2022519269096454 10.447708262414938 0
          6.2096251486999252 10.444944977191126 0
          6.2169896168209933 10.442158450084069 0
          6.2243465336324562 10.439352042312855 0
          6.2316971914207642 10.43652926765461 0
          6.2390429674146199 10.433693789574987 0
          6.2463853160851679 10.430849413776739 0
          6.253725751931583 10.428000058718482 0
          6.2610658477887844 10.425149768507044 0
          6.2684072241614288 10.422302704624409 0
          6.2757515373536465 10.41946313652684 0
          6.2831004667264052 10.416635431716792 0
          6.2904557018189307 10.41382404690702 0
          6.2978189279200683 10.411033516277557 0
          6.305191813398566 10.408268445151032 0
          6.3125759929914089 10.405533493421089 0
          6.319973051220682 10.402833358990609 0
          6.3273845088966114 10.40017276889164 0
          6.3348118083667142 10.39755646607974 0
          6.3422562983655126 10.394989193491449 0
          6.3495876266003881 10.392114675809403 0
          6.3567981925102206 10.388949421416044 0
          6.3638820873723194 10.385510037278411 0
          6.370835045787465 10.381813133970061 0
          6.377648600485669 10.377865218896559 0
          6.3843207307733056 10.373682751284784 0
          6.3908458726140109 10.369274497633379 0
          6.3972190087057932 10.364649224433208 0
          6.403441190400625 10.359822810618246 0
          6.4095089632267985 10.354803670379932 0
          6.4154193613555339 10.349600145536467 0
          6.4211637028696806 10.344213872399408 0
          6.4267395320911662 10.338653344805049 0
          6.4321581901917613 10.332939561083554 0
          6.4374332486472134 10.327092965782919 0
          6.4425725048500118 10.321126671874712 0
          6.4475847509578861 10.315053314754628 0
          6.4524886610688057 10.308892186796299 0
          6.4572953835925686 10.302654978211105 0
          6.4620168654286587 10.296353037976649 0
          6.4666763407076884 10.290005162498781 0
          6.4712878417423152 10.283622399537995 0
          6.4758774443919123 10.277223927506677 0
          6.4804609506695714 10.270821142189819 0
          6.4850420470934669 10.264416681973733 0
          6.4896242569686224 10.258013062467022 0
          6.4942238340793121 10.25162194917125 0
          6.498844254679299 10.245245925896679 0
          6.5034891368438164 10.238887733045738 0
          6.5081749211008431 10.232559653809 0
          6.5129048478512104 10.226264525717395 0
          6.5176822677512138 10.220005384258769 0
          6.5225235091261347 10.21379549187097 0
          6.5274313726139015 10.207638129393773 0
          6.5324087248774099 10.201536808467093 0
          6.5374583029193909 10.195495129424007 0
          6.5425954953430914 10.189527767723973 0
          6.5478224397036158 10.183638855352847 0
          6.5531410932996002 10.177832626257455 0
          6.55855303054273 10.172113230348321 0
          6.5640724355800977 10.166497451133898 0
          6.569700186474793 10.160990225924943 0
          6.5754369014929299 10.155596567234639 0
          6.5812827555025946 10.150321358805291 0
          6.5872378237499243 10.145169717629832 0
          6.5933135473476909 10.140160892468829 0
          6.5995085970034095 10.135300373786816 0
          6.6058214713059549 10.130593839511681 0
          6.6122503207329864 10.126046935983666 0
          6.6187929433569472 10.121665254024432 0
          6.6254567370108957 10.11747006327351 0
          6.6322379128080033 10.113467292257624 0
          6.6391322882625037 10.10966270546278 0
          6.6461351620213005 10.106061616195534 0
          6.6532415986365372 10.10266935251779 0
          6.6604541787770284 10.099508887452048 0
          6.6677659988933584 10.096585170308845 0
          6.6751699137157532 10.093903027144513 0
          6.6826584347625522 10.091466854202704 0
          6.690229277326929 10.089299722928557 0
          6.6978730250962233 10.087405386901521 0
          6.7055799999335264 10.085786977353495 0
          6.7133438044302309 10.084467275606585 0
          6.7211528694297584 10.08344825062751 0
          6.7289954940853995 10.082730714657917 0
          6.7368611329676673 10.082336546422018 0
          6.7447364541722008 10.082265133062135 0
          6.7526075707529687 10.082536845321124 0
          6.7604597337081556 10.083148829705564 0
          6.7682786469934531 10.08409669278503 0
          6.7760467755163516 10.085397997493434 0
          6.7837491484021077 10.087045504257151 0
          6.7913657029992551 10.089053775272285 0
          6.798874076428679 10.091435859770549 0
          6.8062496398492875 10.094202956599513 0
          6.8134761481599995 10.097339770113502 0
          6.8205737816091965 10.100758987160505 0
          6.827525998602094 10.104465799945796 0
          6.8343324083847872 10.108434844906228 0
          6.8409833136590974 10.112660208797509 0
          6.8474534667391662 10.117158521386084 0
          6.8537353177702078 10.121917392671735 0
          6.8597890709520914 10.126964603017163 0
          6.8655682695963076 10.132325640939218 0
          6.8711217268742733 10.137919050148914 0
        </DataArray>
      </Points>
      <Cells>
        <DataArray type="Int32" Name="connectivity" format="ascii">
          0 1 1 2 2 3 3 4 4 5 5 6 6 7 7 8 8 9 9 10 10 11 11 12 12 13 13 14 14 15 15 16 16 17 17 18 18 19 19 20 20 21 21 22 22 23 23 24 24 25 25 26 26 27 27 28 28 29 29 30 30 31 31 32 32 33 33 34 34 35 35 36 36 37 37 38 38 39 39 40 40 41 41 42 42 43 43 44 44 45 45 46 46 47 47 48 48 49 49 50 50 51 51 52 52 53 53 54 54 55 55 56 56 57 57 58 58 59 59 60 60 61 61 62 62 63 63 64 64 65 65 66 66 67 67 68 68 69 69 70 70 71 71 72 72 73 73 74 74 75 75 76 76 77 77 78 78 79 79 80 80 81 81 82 82 83 83 84 84 85 85 86 86 87 87 88 88 89 89 90 90 91 91 92 92 93 93 94 94 95 95 96 96 97 97 98 98 99 99 100 100 101 101 102 102 103 103 104 104 105 105 106 106 107 107 108 108 109 109 110 110 111 111 112 112 113 113 114 114 115 115 116 116 117 117 118 118 119 119 120 120 121 121 122 122 123 123 124 124 125 125 126 126 127 
        </DataArray>
        <DataArray type="Int32" Name="offsets" format="ascii">
          2 4 6 8 10 12 14 16 18 20 22 24 26 28 30 32 34 36 38 40 42 44 46 48 50 52 54 56 58 60 62 64 66 68 70 72 74 76 78 80 82 84 86 88 90 92 94 96 98 100 102 104 106 108 110 112 114 116 118 120 122 124 126 128 130 132 134 136 138 140 142 144 146 148 150 152 154 156 158 160 162 164 166 168 170 172 174 176 178 180 182 184 186 188 190 192 194 196 198 200 202 204 206 208 210 212 214 216 218 220 222 224 226 228 230 232 234 236 238 240 242 244 246 248 250 252 254 
        </DataArray>
        <DataArray type="Int32" Name="types" format="ascii">
          3 3 3 3 3 3 3 3 3 3 3 3 3 3 3 3 3 3 3 3 3 3 3 3 3 3 3 3 3 3 3 3 3 3 3 3 3 3 3 3 3 3 3 3 3 3 3 3 3 3 3 3 3 3 3 3 3 3 3 3 3 3 3 3 3 3 3 3 3 3 3 3 3 3 3 3 3 3 3 3 3 3 3 3 3 3 3 3 3 3 3 3 3 3 3 3 3 3 3 3 3 3 3 3 3 3 3 3 3 3 3 3 3 3 3 3 3 3 3 3 3 3 3 3 3 3 3         </DataArray>
      </Cells>
    </Piece>
  </UnstructuredGrid>
</VTKFile>
