<?xml version="1.0"?>
<VTKFile type="UnstructuredGrid" version="0.1" byte_order="LittleEndian">
  <UnstructuredGrid>
    <Piece NumberOfPoints="128" NumberOfCells="127">
      <PointData Scalars="W">
        <DataArray type="Float32" Name="W" NumberOfComponents="2">
          0 0 -0.13333897159674701 0.52363808847937754 -0.22324135429305583 0.85656305164373192 -0.29858757850558776 1.1091908539106559 -0.36887845448878864 1.3181171513517207 -0.43794013825449263 1.4980978927673014 -0.50764377899670765 1.656479244656631 -0.5789887521837398 1.7974102962720946 -0.65251720835331695 1.9234494853815984 -0.72853526003000102 2.036373958414841 -0.80715428139922629 2.1373681500809218 -0.88836173535189789 2.2272799769297582 -0.97205740775341976 2.3067459135832351 -1.0580988288598108 2.376313635597874 -1.146315607267445 2.4364692733056716 -1.236496409690802 2.4876077266439562 -1.3283662219381549 2.530000659915244 -1.4216572923583015 2.5639466172865384 -1.5160915413286442 2.5897258210090213 -1.6113454550725816 2.6075434347356765 -1.707111659623566 2.6176395146725122 -1.8030966493719722 2.6202729831818901 -1.8989945223964257 2.6156781122467923 -1.9944927782955579 2.6040770730886234 -2.0893294235679889 2.5857514474593652 -2.1831835659166363 2.5608985431326685 -2.2757948820444986 2.529784944884816 -2.3669773375444856 2.4927402977258772 -2.456523647929298 2.4500433957118415 -2.5439731254678963 2.4017211469771405 -2.6293875164095928 2.3483023256432949 -2.7126179877256318 2.2900618570631721 -2.7935563101758341 2.2272850015394305 -2.8721049952581206 2.1602389281327516 -2.9482131198745467 2.0891991375729129 -3.0218436549401173 2.0144209201654091 -3.0930710353306901 1.936199588462987 -3.1618737661695655 1.8547308470792705 -3.2282607326126129 1.7702045803784419 -3.2924066231470634 1.6828677488898816 -3.354480734442157 1.5929132655818232 -3.4146538207800119 1.5004882940706439 1.7660581850071417 -0.76110774503986611 2.2195410633462314 -1.0020478591577218 2.67342326649608 -1.2760313499564919 2.6121706816020218 -1.322020791909382 2.5507135291716962 -1.365221353764684 2.988176783635319 -1.69647611877911 2.9057539899907638 -1.7546423192608631 2.8239994158753103 -1.8093594670898205 2.7393177243545979 -1.8582364511387968 2.6521726486301538 -1.901158730952738 2.5630456716664476 -1.9380719432049813 2.4724307399356897 -1.9689847790941462 1.942398956727049 -1.6192911866643598 1.8765272722942612 -1.6282178876798883 1.3896744497700544 -1.2481645608076988 0.9327520726759666 -0.85881160821054248 1.2751035317934729 -1.2023559362981817 1.2138732530025613 -1.176108633379934 1.5506289607751809 -1.5490326153237375 1.8764119728728745 -1.9481903261059894 1.7910236382125764 -1.9396220832930884 2.0930892474932907 -2.3733497596979034 2.3821189966545564 -2.8533276985868046 2.257925416891791 -2.8698623410842945 2.5128363572729535 -3.4063520979530693 2.3663490376144014 -3.4406363801955364 2.2227337795990967 -3.4692898710376641 2.0784065560947402 -3.4862798199825513 1.942239098302315 -3.5064795923238332 1.8093640008815897 -3.5230127936724895 1.6766872577864509 -3.5296101823852597 1.5511978569936236 -3.5411657288700331 1.4291743199344951 -3.5516124261667099 1.3100977511668541 -3.560659946078502 1.1939253148417894 -3.569188303475066 1.0781285455193101 -3.5697288281025754 0.96739044077171388 -3.578362916761515 0.85875263932140899 -3.5881345140855569 0.75161792527838933 -3.5984326044509563 0.64426891973295175 -3.6010833878221931 0.45294499119579623 -2.9816185032883777 0.38188283828785335 -2.9903653349527084 0.31108415670846878 -3.0017375384006919 0.24021344322468843 -3.0162894425035929 0.16879984210480059 -3.0329676060367947 0.096344544648165331 -3.042978881776726 0.02454178692092426 -2.4483492778818894 -0.023126097122285166 -2.4726283900461818 -0.07235762104804333 -2.4999527268025106 -0.12349280832514185 -2.5307254151634471 -0.17679826125306047 -2.5637103983442344 -0.1747044791309055 -2.0054206481785881 -0.21024634983470017 -2.0363363863575175 -0.24896482143506427 -2.0789581198828175 -0.2903892895089325 -2.1240621294662891 -0.33486624782538704 -2.172058716186883 -0.38247123962526425 -2.221531613218434 -0.43352762442772563 -2.2728281105817256 -0.48841530075934042 -2.3262920814762196 -0.41377340481845332 -1.8191214850867801 -0.45716921433226132 -1.8794411116883938 -0.50144385590921925 -1.9308887029673973 -0.7114942899049943 -2.5474987421496578 -0.78733049755033857 -2.6052646433649795 -0.86814184170377717 -2.6622428743792752 -0.95457760901107058 -2.7193537587474363 -1.0464766579383433 -2.7750122751773922 -1.1406122346979415 -2.8206791843577279 -1.4892112288121873 -3.4176890367003576 -1.6297744627161799 -3.4560158189883174 -2.0676551842354107 -4.034962323850249 -2.2550371067096391 -4.035283102980892 -2.4563703142190678 -4.0389117241084236 -3.0299916407330167 -4.5590697321199478 -3.6893035672967036 -5.0314336580958141 -4.0144600030530562 -4.940765090079771 -4.3450928012548875 -4.8264370114188635 -4.6990445305475905 -4.705434136267856 -5.0647649638508394 -4.5605032797606411 -3.1409397601670266 -2.593293757250557 -3.1131768020565991 -2.409393067637227 -2.861548985481543 -2.0829185310406451 -2.4517088377482681 -1.6900845660717063 -1.4803825286239545 -0.98013878774733854 -0.8010696081134111 -0.51807751586581807 0 0
        </DataArray>
        <DataArray type="Float32" Name="u" NumberOfComponents="1">
          0 0.007874015748031496 0.015748031496062992 0.023622047244094488 0.031496062992125984 0.03937007874015748 0.047244094488188976 0.055118110236220472 0.062992125984251968 0.070866141732283464 0.07874015748031496 0.086614173228346455 0.094488188976377951 0.10236220472440945 0.11023622047244094 0.11811023622047244 0.12598425196850394 0.13385826771653545 0.14173228346456693 0.14960629921259844 0.15748031496062992 0.16535433070866143 0.17322834645669291 0.18110236220472442 0.1889763779527559 0.19685039370078741 0.20472440944881889 0.2125984251968504 0.22047244094488189 0.2283464566929134 0.23622047244094488 0.24409448818897639 0.25196850393700787 0.25984251968503935 0.26771653543307089 0.27559055118110237 0.28346456692913385 0.29133858267716534 0.29921259842519687 0.30708661417322836 0.31496062992125984 0.32283464566929132 0.33070866141732286 0.33858267716535434 0.34645669291338582 0.3543307086614173 0.36220472440944884 0.37007874015748032 0.37795275590551181 0.38582677165354329 0.39370078740157483 0.40157480314960631 0.40944881889763779 0.41732283464566927 0.42519685039370081 0.43307086614173229 0.44094488188976377 0.44881889763779526 0.45669291338582679 0.46456692913385828 0.47244094488188976 0.48031496062992124 0.48818897637795278 0.49606299212598426 0.50393700787401574 0.51181102362204722 0.51968503937007871 0.52755905511811019 0.53543307086614178 0.54330708661417326 0.55118110236220474 0.55905511811023623 0.56692913385826771 0.57480314960629919 0.58267716535433067 0.59055118110236215 0.59842519685039375 0.60629921259842523 0.61417322834645671 0.62204724409448819 0.62992125984251968 0.63779527559055116 0.64566929133858264 0.65354330708661412 0.66141732283464572 0.6692913385826772 0.67716535433070868 0.68503937007874016 0.69291338582677164 0.70078740157480313 0.70866141732283461 0.71653543307086609 0.72440944881889768 0.73228346456692917 0.74015748031496065 0.74803149606299213 0.75590551181102361 0.76377952755905509 0.77165354330708658 0.77952755905511806 0.78740157480314965 0.79527559055118113 0.80314960629921262 0.8110236220472441 0.81889763779527558 0.82677165354330706 0.83464566929133854 0.84251968503937003 0.85039370078740162 0.8582677165354331 0.86614173228346458 0.87401574803149606 0.88188976377952755 0.88976377952755903 0.89763779527559051 0.90551181102362199 0.91338582677165359 0.92125984251968507 0.92913385826771655 0.93700787401574803 0.94488188976377951 0.952755905511811 0.96062992125984248 0.96850393700787396 0.97637795275590555 0.98425196850393704 0.99212598425196852 1
        </DataArray>
      </PointData>
      <CellData Scalars="P">
        <DataArray type="Float32" Name="P" NumberOfComponents="1">
          -0.0013139718475379297 -0.0026435202300143673 -0.0011114471462109448 0.0041603279536086401 0.013757897916084623 0.028079761836218558 0.047380474817657912 0.071794048919644526 0.10134908573550676 0.13598177342208723 0.17554436852638453 0.21981344483892942 0.26849789981757444 0.32124805132498563 0.37766459999604818 0.43730633665488017 0.49969651922380531 0.5643326462584195 0.63069511069565409 0.69825428763572783 0.76648040811450302 0.83485302733414457 0.90286928626544571 0.97005241225066818 1.0359619549453094 1.1002001444150324 1.1624220241062517 1.2223450516418621 1.279755561889961 1.3345104414635922 1.3865560218584314 1.4359287933839628 1.4827620684878178 1.5272917107236914 1.5698621527490768 1.6109315918417002 1.6510782986828625 1.6910040350749715 1.7315393731655802 1.7736507093127964 1.8184454610069265 1.8671780057740364 1.8333605334404401 1.7856997569556283 1.7204681140164386 1.6468105120692598 1.5645296233347301 1.4567504744195428 1.3386769813495361 1.2107003362553346 1.0735528255350484 0.92815019622005912 0.77556397935815147 0.61699169590586112 0.48249183542688051 0.34529969839712826 0.23732980004289145 0.16059491110330976 0.055499173577930778 -0.046740771165436255 -0.17872796188544143 -0.34106901668729289 -0.49864502651410297 -0.68567023177270137 -0.9022684414319142 -1.1102605943697426 -1.3453695458150019 -1.5692725655391278 -1.7810162133835081 -1.9794196779414379 -2.1643211456461304 -2.335218787315346 -2.491423367135849 -2.6330535899791263 -2.7599736294991604 -2.8720941657487793 -2.9694079944658687 -3.0517706801770306 -3.119497594460277 -3.1727139138704579 -3.2115527215464486 -3.2361158238502674 -3.2449837694070371 -3.243025155062337 -3.2304160476101873 -3.2073431011356597 -3.1740166771894267 -3.1308039694276339 -3.0890367761163375 -3.0399487476505804 -2.9837248269754086 -2.9205623544253339 -2.8507129560447471 -2.7922145972260619 -2.7291378770923176 -2.6614149792215822 -2.5892779500309695 -2.5129707319540167 -2.4328109304461472 -2.3491269845353968 -2.2622531732207456 -2.1935268596544852 -2.1224935757163212 -2.0498521018155786 -1.9552725101338118 -1.8596095737507861 -1.7633425922036394 -1.6668999753833853 -1.5707402366544405 -1.4755730399081104 -1.3637717934535731 -1.2539342150797768 -1.1295807507176858 -1.0086681343851776 -0.89101536459794417 -0.76153203651254697 -0.63586102474132034 -0.51352056527080803 -0.3948871502677031 -0.28021787293254402 -0.17059633632724924 -0.11466979523226449 -0.066813701194255476 -0.03074981662277897 -0.0074498782066765561 0.00039667191576133403 0.00083752164639936679
        </DataArray>
      </CellData>
      <Points>
        <DataArray type="Float32" NumberOfComponents="3" format="ascii">
          4.2166116637622384 9.8205022678533904 0
          4.2242464798767818 9.8224291078430479 0
          4.2318730338201771 9.8243884163967632 0
          4.2394857534568686 9.8264008365906825 0
          4.2470799680496798 9.8284820326548896 0
          4.2546513195973716 9.8306449590955456 0
          4.2621955257609114 9.8329007756160696 0
          4.2697082639303936 9.8352593025852819 0
          4.2771851093184443 9.8377292782669628 0
          4.2846215013955629 9.8403185174203109 0
          4.2920127249614914 9.8430340214579299 0
          4.2993539032959562 9.8458820518566359 0
          4.3066399989990112 9.8488681827083724 0
          4.3138658202748612 9.8519973401686833 0
          4.3210260298425007 9.855273836409145 0
          4.328115155583415 9.8587013997654651 0
          4.3351276037322117 9.862283199242297 0
          4.3420576760181886 9.8660218613917561 0
          4.3488995863568762 9.8699194888744852 0
          4.3556474781797654 9.8739776779013155 0
          4.3622954445762794 9.8781975310380492 0
          4.3688375474273871 9.8825796721906265 0
          4.3752678356689678 9.8871242627764797 0
          4.3815803643106523 9.8918310163830032 0
          4.3877692138479913 9.8966992126899473 0
          4.3938285065249199 9.9017277150878087 0
          4.399752426227689 9.9069149830816023 0
          4.4055352346011203 9.9122590889979421 0
          4.4111712825352214 9.9177577386074152 0
          4.4166550229445587 9.9234082885971215 0
          4.4219810392331276 9.9292077484265668 0
          4.4271440413424283 9.9351528132969413 0
          4.4321388748296791 9.9412398813768981 0
          4.4369605274030626 9.9474650716621031 0
          4.4416041347660169 9.9538242407040762 0
          4.4460649835500412 9.9603129998448807 0
          4.450338513362345 9.9669267311866019 0
          4.4544203118990815 9.9736606060291777 0
          4.4583061159837136 9.9805095971181057 0
          4.4619918106992449 9.9874684905160507 0
          4.4654734182164031 9.9945319009983695 0
          4.4687470869314874 10.001694284081463 0
          4.471809080487902 10.008949945197516 0
          4.4749804752963307 10.016158111640479 0
          4.4782893954121468 10.023303881990948 0
          4.4817639891510455 10.030370311072632 0
          4.4854004699566836 10.03735460398233 0
          4.4891950413987844 10.044254132758072 0
          4.4931748405023884 10.051048399878635 0
          4.497334776198155 10.05773384227888 0
          4.5016698000372637 10.064307103432261 0
          4.5061746822307693 10.07076518162885 0
          4.5108440393687168 10.077105437191276 0
          4.5156723633075613 10.083325596101428 0
          4.5206540509297515 10.089423749856703 0
          4.525756241214796 10.095421574637468 0
          4.530974854320017 10.101318513310416 0
          4.5362796920848583 10.107138114398229 0
          4.5416424052827651 10.112904500085625 0
          4.5470842233545348 10.118596364773637 0
          4.55260133798991 10.12421532167442 0
          4.5582146299807489 10.129738241412117 0
          4.5639442994785853 10.135140367217154 0
          4.569785035728505 10.140422214499388 0
          4.5757555664065057 10.145556883295921 0
          4.5818738106571875 10.150514606225251 0
          4.5881320471551161 10.155294344133974 0
          4.594546078657201 10.15986282900786 0
          4.6011068046124199 10.164217928345366 0
          4.6078053047177798 10.168357862640583 0
          4.6146326174533323 10.172281579146903 0
          4.621580291234948 10.175987829353572 0
          4.6286400827668066 10.17947559462675 0
          4.6358037651720245 10.182744474146736 0
          4.6430635614218767 10.185793760764598 0
          4.6504119129821264 10.188622816358741 0
          4.6578414469649534 10.191231089141906 0
          4.6653449726588212 10.193618058519567 0
          4.6729153238250074 10.195783697700518 0
          4.680545648180245 10.197727476380468 0
          4.6882292229955427 10.199448791876485 0
          4.6959594172519328 10.200947007042851 0
          4.70372958457191 10.202221957238152 0
          4.7115278756841468 10.203312049314048 0
          4.719349890721646 10.204216738646105 0
          4.7271912426827249 10.204935317001764 0
          4.7350475367924654 10.205466878576901 0
          4.7429143416452471 10.205810385696889 0
          4.7507871588847754 10.20596521437694 0
          4.7586615415779088 10.205968232208743 0
          4.7665345265562715 10.205817931417608 0
          4.7744030523817784 10.205512616012951 0
          4.7822639387616857 10.20505037689351 0
          4.7901138705308366 10.204429168543101 0
          4.797952981453248 10.203683608166786 0
          4.8057790585241698 10.202811779261499 0
          4.8135896920031387 10.201811040023211 0
          4.82138230509858 10.200678595224069 0
          4.8291541327077798 10.199411470707929 0
          4.8369022169409348 10.198006601125282 0
          4.8446233871825948 10.196460808309258 0
          4.8523142365978833 10.194770779858237 0
          4.8599794014890367 10.192967963012126 0
          4.8676161887292091 10.191048619626823 0
          4.8752218519574759 10.189009561577661 0
          4.8827833587159004 10.186812561143421 0
          4.890296009499159 10.184454038670481 0
          4.8977547973783535 10.181930462938031 0
          4.9051543676227318 10.179238294007213 0
          4.9124890276061564 10.176374081394361 0
          4.9197529468247856 10.173334993384824 0
          4.9269245166677011 10.170084014884514 0
          4.9339950319743533 10.166618766559502 0
          4.940937355513638 10.16290334828842 0
          4.9477398832768325 10.15893773140281 0
          4.9543901465782891 10.154721679013333 0
          4.9608526011669074 10.150222919868789 0
          4.9670862281441464 10.145412268245556 0
          4.9730709422311543 10.140295299852317 0
          4.9787863009275357 10.134879050567196 0
          4.9842103970146452 10.129170966969145 0
          4.9893205741539948 10.123179979827512 0
          4.9942361755519276 10.117027959392569 0
          4.9989589422793719 10.110726235028329 0
          5.0035044916726372 10.104294978447358 0
          5.0078982510157362 10.097758481799868 0
          5.012200495263083 10.091160696683403 0
          5.0164533802365376 10.084530236860296 0
        </DataArray>
      </Points>
      <Cells>
        <DataArray type="Int32" Name="connectivity" format="ascii">
          0 1 1 2 2 3 3 4 4 5 5 6 6 7 7 8 8 9 9 10 10 11 11 12 12 13 13 14 14 15 15 16 16 17 17 18 18 19 19 20 20 21 21 22 22 23 23 24 24 25 25 26 26 27 27 28 28 29 29 30 30 31 31 32 32 33 33 34 34 35 35 36 36 37 37 38 38 39 39 40 40 41 41 42 42 43 43 44 44 45 45 46 46 47 47 48 48 49 49 50 50 51 51 52 52 53 53 54 54 55 55 56 56 57 57 58 58 59 59 60 60 61 61 62 62 63 63 64 64 65 65 66 66 67 67 68 68 69 69 70 70 71 71 72 72 73 73 74 74 75 75 76 76 77 77 78 78 79 79 80 80 81 81 82 82 83 83 84 84 85 85 86 86 87 87 88 88 89 89 90 90 91 91 92 92 93 93 94 94 95 95 96 96 97 97 98 98 99 99 100 100 101 101 102 102 103 103 104 104 105 105 106 106 107 107 108 108 109 109 110 110 111 111 112 112 113 113 114 114 115 115 116 116 117 117 118 118 119 119 120 120 121 121 122 122 123 123 124 124 125 125 126 126 127 
        </DataArray>
        <DataArray type="Int32" Name="offsets" format="ascii">
          2 4 6 8 10 12 14 16 18 20 22 24 26 28 30 32 34 36 38 40 42 44 46 48 50 52 54 56 58 60 62 64 66 68 70 72 74 76 78 80 82 84 86 88 90 92 94 96 98 100 102 104 106 108 110 112 114 116 118 120 122 124 126 128 130 132 134 136 138 140 142 144 146 148 150 152 154 156 158 160 162 164 166 168 170 172 174 176 178 180 182 184 186 188 190 192 194 196 198 200 202 204 206 208 210 212 214 216 218 220 222 224 226 228 230 232 234 236 238 240 242 244 246 248 250 252 254 
        </DataArray>
        <DataArray type="Int32" Name="types" format="ascii">
          3 3 3 3 3 3 3 3 3 3 3 3 3 3 3 3 3 3 3 3 3 3 3 3 3 3 3 3 3 3 3 3 3 3 3 3 3 3 3 3 3 3 3 3 3 3 3 3 3 3 3 3 3 3 3 3 3 3 3 3 3 3 3 3 3 3 3 3 3 3 3 3 3 3 3 3 3 3 3 3 3 3 3 3 3 3 3 3 3 3 3 3 3 3 3 3 3 3 3 3 3 3 3 3 3 3 3 3 3 3 3 3 3 3 3 3 3 3 3 3 3 3 3 3 3 3 3         </DataArray>
      </Cells>
    </Piece>
  </UnstructuredGrid>
</VTKFile>
