<?xml version="1.0"?>
<VTKFile type="UnstructuredGrid" version="0.1" byte_order="LittleEndian">
  <UnstructuredGrid>
    <Piece NumberOfPoints="128" NumberOfCells="127">
      <PointData Scalars="W">
        <DataArray type="Float32" Name="W" NumberOfComponents="2">
          0 0 0.39853647024675842 0.58720824921221426 0.62669939159692267 0.93792227998657351 0.78705441690952993 1.2040784986184154 0.90805252675661585 1.4272976997616829 1.001392619894347 1.6244066915607487 1.0731128151888878 1.8038602550122325 1.126782322706392 1.9704527267165806 1.1647323234514912 2.1271357784185829 1.1886438109898125 2.2759087187012574 1.1997349494857572 2.4180739382611023 1.1989462896921756 2.5545162873533513 1.1870349838630594 2.6858458807529337 1.1646475136675547 2.8125263069841937 1.1323512749867179 2.9349398664899531 1.0906180201237901 3.0533365475168845 1.0398290287014915 3.1678087086771689 0.98033744719316751 3.2784387487222775 0.91245838018465886 3.3852745443859398 0.8364555807553874 3.4882623921366154 0.7525755613884022 3.5873462500250191 0.66104481342003618 3.682464692572061 0.56206157790543765 3.7734996383845942 0.4558045617505927 3.8602795164619823 0.34244880679048495 3.9426859236608185 0.22214690513425114 4.0204716525035611 0.09505331365070116 4.0934329683044526 -0.038685640776560205 4.1614248773395666 -0.17893562588263329 4.2242029189620247 -0.32552884958815032 4.2811291199981856 -0.47832462753061833 4.3322755698369386 -0.63717813843575499 4.3773242622615767 -0.80193643233062462 4.4159455838250707 -0.97243213269937756 4.4477774734637965 -1.1484847414099737 4.4724527367843434 -1.3298926107952367 4.4895746451160914 -1.5164631128803294 4.4988190346339758 -1.7079339785382874 4.4996901551027957 -1.9040108390768702 4.4917031778163272 -2.104423257583393 4.4744957482924281 -2.3088609751780083 4.4476479441367225 -2.5169637174036374 4.4106925852799286 1.1514022227338161 -1.9670088953746472 1.0443338794414736 -1.8573426806243454 0.94095690994197811 -1.738733511911277 0.8858592373311106 -1.698617961368253 0.79071933569617536 -1.5712282975543557 0.70099656749919925 -1.4400861926893238 0.61499289716715244 -1.3028361816533438 0.53389655546984549 -1.1631524025947211 0.45591731523224688 -1.0184980588103536 0.33619489172564532 -0.76680278546939939 -7.1476980207812399 14.006837219317307 -8.8640811393734857 13.06790136934455 -10.459483436117006 11.909200057950089 2.7935695822251798 -2.8966753881638456 1.1689155330833523 -1.268296749417354 1.1474324643262515 -1.2793647620075805 1.1006021178952479 -1.2606219550597491 1.054707979498799 -1.2402322789850726 1.0099249519949989 -1.2184513692972656 0.96644836394744793 -1.1955894225166688 0.92524293629984788 -1.1729764487427492 0.8847741802024649 -1.148809617847167 0.80079306027981823 -1.0636608596504937 0.76503931483000942 -1.0382981687513344 0.73105516454189123 -1.013231240588961 0.69888005197725034 -0.98867936873577322 0.668540678850856 -0.96485064745265325 0.6400519099580021 -0.9419408567389842 0.61343344819179901 -0.92015647354032359 0.58865106125332778 -0.89962468587153399 0.5657084881586627 -0.88052856394515455 0.54458753796758508 -0.86301778011484587 0.5252642273466771 -0.84723133171390441 0.50770946195030897 -0.83329800004901766 0.53120681076031062 -0.88759783797474034 0.51536803716577395 -0.87713506951438303 0.50191093776735718 -0.87001321989405844 0.49007890977211183 -0.86516154559999736 0.47983438327372407 -0.86270112974738222 0.47109764067283749 -0.86267797649985933 0.46382353212287214 -0.8652003847584705 0.45795031995779878 -0.87034954216894 0.45341148347328747 -0.87820104285227574 0.45013609286476747 -0.88882666974270252 0.48032812315902235 -0.96800117014431009 0.47825350018527335 -0.98491868576646446 0.47716765209391115 -1.0048131067243238 0.47697485835014264 -1.0277578682689277 0.47757200135995442 -1.0538250891574579 0.4788583320998126 -1.0831098769853948 0.50887104698200269 -1.1819572035596309 0.50931182097268501 -1.2172217244881109 0.51049887949581785 -1.2570978038733673 0.51177453268981665 -1.3005222772052349 0.51295696385766809 -1.347548687310794 0.53751025669302122 -1.4638489553575151 0.53635379067505662 -1.5190390825533444 0.53444182572049259 -1.5781994786762836 0.53155010212673792 -1.6414959828037445 0.52741236417610737 -1.7090442344677064 0.52176132977010858 -1.7810444959778757 0.51429551312715249 -1.8576969915609658 0.5046832780876862 -1.9392299343267752 0.49255760413520638 -2.0259041294922602 0.47751057061312763 -2.1180226217868143 0.45908542106139155 -2.2159395523585563 0.43676690187595629 -2.3200735467554856 0.41016992679172942 -2.4321938240464851 0.36862474734789924 -2.4813357381859711 0.33357451594901533 -2.6071789022027128 0.28513753820048837 -2.6716614952756439 0.23888100570143608 -2.8164072874576815 0.18390090213894095 -2.9742793246938319 0.11647060328051839 -3.0698930472511323 -0.29670087306586151 5.9942161929065287 -0.59392403628195845 6.0916668813414088 -0.84489913416684492 5.8100256600853601 -1.0535029597402037 5.491420099213796 -1.3230998047153666 5.5501118789764208 -1.4730840011780835 5.1685198440793014 -1.5910183922614993 4.820478852695679 -1.5285612507311463 4.1101589197608108 -1.3705979953706853 3.3573098663337424 -0.9812568802580165 2.248271049411867 1.1218891809577662 -2.5804849394118721 0 0
        </DataArray>
        <DataArray type="Float32" Name="u" NumberOfComponents="1">
          0 0.007874015748031496 0.015748031496062992 0.023622047244094488 0.031496062992125984 0.03937007874015748 0.047244094488188976 0.055118110236220472 0.062992125984251968 0.070866141732283464 0.07874015748031496 0.086614173228346455 0.094488188976377951 0.10236220472440945 0.11023622047244094 0.11811023622047244 0.12598425196850394 0.13385826771653545 0.14173228346456693 0.14960629921259844 0.15748031496062992 0.16535433070866143 0.17322834645669291 0.18110236220472442 0.1889763779527559 0.19685039370078741 0.20472440944881889 0.2125984251968504 0.22047244094488189 0.2283464566929134 0.23622047244094488 0.24409448818897639 0.25196850393700787 0.25984251968503935 0.26771653543307089 0.27559055118110237 0.28346456692913385 0.29133858267716534 0.29921259842519687 0.30708661417322836 0.31496062992125984 0.32283464566929132 0.33070866141732286 0.33858267716535434 0.34645669291338582 0.3543307086614173 0.36220472440944884 0.37007874015748032 0.37795275590551181 0.38582677165354329 0.39370078740157483 0.40157480314960631 0.40944881889763779 0.41732283464566927 0.42519685039370081 0.43307086614173229 0.44094488188976377 0.44881889763779526 0.45669291338582679 0.46456692913385828 0.47244094488188976 0.48031496062992124 0.48818897637795278 0.49606299212598426 0.50393700787401574 0.51181102362204722 0.51968503937007871 0.52755905511811019 0.53543307086614178 0.54330708661417326 0.55118110236220474 0.55905511811023623 0.56692913385826771 0.57480314960629919 0.58267716535433067 0.59055118110236215 0.59842519685039375 0.60629921259842523 0.61417322834645671 0.62204724409448819 0.62992125984251968 0.63779527559055116 0.64566929133858264 0.65354330708661412 0.66141732283464572 0.6692913385826772 0.67716535433070868 0.68503937007874016 0.69291338582677164 0.70078740157480313 0.70866141732283461 0.71653543307086609 0.72440944881889768 0.73228346456692917 0.74015748031496065 0.74803149606299213 0.75590551181102361 0.76377952755905509 0.77165354330708658 0.77952755905511806 0.78740157480314965 0.79527559055118113 0.80314960629921262 0.8110236220472441 0.81889763779527558 0.82677165354330706 0.83464566929133854 0.84251968503937003 0.85039370078740162 0.8582677165354331 0.86614173228346458 0.87401574803149606 0.88188976377952755 0.88976377952755903 0.89763779527559051 0.90551181102362199 0.91338582677165359 0.92125984251968507 0.92913385826771655 0.93700787401574803 0.94488188976377951 0.952755905511811 0.96062992125984248 0.96850393700787396 0.97637795275590555 0.98425196850393704 0.99212598425196852 1
        </DataArray>
      </PointData>
      <CellData Scalars="P">
        <DataArray type="Float32" Name="P" NumberOfComponents="1">
          -0.023133338937110875 -0.067246817607592768 -0.10703992744433102 -0.14155402642145248 -0.17028735838858602 -0.19298341713772998 -0.20953589655703142 -0.21993614316288801 -0.22423992638730586 -0.22254311422016471 -0.21496660825087885 -0.20164470476273186 -0.18271619772355399 -0.1583164658974888 -0.1285706520062993 -0.093590101785301902 -0.053471171041165944 -0.0082914373087191878 0.04189266254977761 0.097045640468438638 0.15715494022578855 0.22223250316399298 0.29231453901028137 0.36746106134281264 0.4477584786376067 0.53331642756768705 0.62426976434484938 0.72078116764376032 0.82303854348976357 0.93124164643015417 1.04562679146996 1.1664539311002988 1.2940064451992392 1.4285900221132453 1.5705324321788747 1.7201821774632351 1.8779113923485162 2.0441080688146545 2.2191753771054468 2.4035364336780485 2.5976307916920551 2.8019107234495668 2.6511355403329553 2.5038447183925494 2.36212045779595 2.2221889823597083 2.0905340753487809 1.9680661045755949 1.8555624183849724 1.7533074954474146 1.6614936838156811 1.5857381707818849 2.2692640183168939 2.9050913491501218 3.5048391265632772 3.2993645004779717 3.1883045792911022 3.0756058864811466 2.9636831541667208 2.853178351204102 2.744643410556582 2.6385405215333777 2.5351875676633089 2.4349476803358026 2.3413665446832881 2.2511901713116202 2.1644990571775331 2.0813262566440902 2.0016643448414082 1.9254722464002489 1.8526808870704981 1.7832020805032194 1.716931520842242 1.653755023196761 1.5935533246517097 1.5362063590390282 1.4803108927886515 1.4272842138429402 1.37700977720342 1.3294036986835738 1.2843935387411136 1.2419201388774981 1.2019379021118386 1.16441540246806 1.1293353483768613 1.0966941393582228 1.0672788281148773 1.0405169448295006 1.0164411833775153 0.99509338331914488 0.97652292755804992 0.96078552002254125 0.94964212093075029 0.94155411126175348 0.93661411771715775 0.93488446891712351 0.93642394698326414 0.94346757420078198 0.95397414344203757 0.96799108478645646 0.98556155290122271 1.0067217273652123 1.0315031691021204 1.0599324284142226 1.0920319560733196 1.1278215193468362 1.1673203509835457 1.2105500411350301 1.2575383889950011 1.3083726081159999 1.3604552691469691 1.4164856782252369 1.4739566666525608 1.5356496693883872 1.6018092638461965 1.6699881955870541 1.4351671100570966 1.1981398840267312 0.97662895502790636 0.77503129028514062 0.58384642510890006 0.418770396858336 0.27930712408375979 0.17218893950074354 0.093402935509791327 0.040073303886834853 0.017843718848020201
        </DataArray>
      </CellData>
      <Points>
        <DataArray type="Float32" NumberOfComponents="3" format="ascii">
          6.0250379035622297 9.9773695744077013 0
          6.0315421140675483 9.9729285861921948 0
          6.0380710413020893 9.9685240230621535 0
          6.0446388363709902 9.9641776394437667 0
          6.0512554450837808 9.9599059443483231 0
          6.0579283723665798 9.9557227832425692 0
          6.0646634077855524 9.9516403818810328 0
          6.0714650000109875 9.9476698707977071 0
          6.0783364781687945 9.9438215827282246 0
          6.0852801964138727 9.9401052357240154 0
          6.0922976381813312 9.9365300571859407 0
          6.0993894917338274 9.933104864664525 0
          6.1065557084917259 9.9298381207572746 0
          6.1137955499890166 9.9267379709617654 0
          6.1211076279654604 9.9238122724375604 0
          6.1284899395538641 9.9210686177238987 0
          6.1359398965352225 9.9185143502486355 0
          6.143454348982412 9.9161565700584191 0
          6.1510296071590833 9.9140021389296518 0
          6.158661461059137 9.9120576833368936 0
          6.1663451967612923 9.9103295911194724 0
          6.1740756117145459 9.9088240080019716 0
          6.181847028782113 9.9075468337798061 0
          6.1896533085334751 9.9065037149897126 0
          6.1974878603252161 9.9057000342616153 0
          6.2053436531550989 9.9051409029674478 0
          6.2132132251242549 9.9048311458799549 0
          6.2210886930157345 9.9047752885272011 0
          6.2289617613695469 9.9049775481898532 0
          6.2368237308145886 9.9054418187282618 0
          6.2446655084769258 9.9061716310009 0
          6.2524776167077754 9.9071701573246571 0
          6.2602502020692841 9.9084401917385669 0
          6.2679730448258137 9.9099841295471656 0
          6.2756355693314738 9.9118039448509379 0
          6.2832268552330781 9.9139011677581763 0
          6.2907356499866447 9.9162768597648707 0
          6.2981503808162893 9.9189315936355591 0
          6.305459170994629 9.9218654226416536 0
          6.3126498581162762 9.9250778504776527 0
          6.3197100108891568 9.928567808774611 0
          6.3266269483981157 9.9323336310438606 0
          6.3333877624731851 9.9363730236907983 0
          6.3402198917746526 9.9402903553978117 0
          6.3471166926717286 9.9440924333340224 0
          6.3540717513101095 9.9477866189861608 0
          6.3610816520713698 9.9513754069991762 0
          6.368140493582251 9.9548667026955062 0
          6.3752427114140655 9.9582686437544403 0
          6.3823829726791921 9.9615897462073022 0
          6.3895562498189449 9.9648386766138124 0
          6.3967577094874555 9.9680244093227834 0
          6.4039799283072032 9.9711625546498599 0
          6.4107589235903468 9.9751692373450123 0
          6.4169882660591071 9.9799862325920827 0
          6.4225690290918838 9.9855416883131483 0
          6.4283230076680082 9.9909175196150599 0
          6.4341494219289945 9.9962146651226291 0
          6.4400469418459316 10.001432443700022 0
          6.4460126652644316 10.00657202187992 0
          6.4520437483223798 10.011634668109332 0
          6.4581374162807306 10.01662173690187 0
          6.4642909756197628 10.021534649607718 0
          6.470501873850794 10.026374811962565 0
          6.4767676043245279 10.031143725847159 0
          6.4830829621181545 10.035846673493142 0
          6.4894457334254341 10.040485230680954 0
          6.4958538142755602 10.04506095467284 0
          6.5023052129557311 10.049575370618911 0
          6.5087980516435966 10.054029958657496 0
          6.5153305673058171 10.058426141778824 0
          6.5219011128968214 10.062765273025303 0
          6.5285081552139044 10.067048627607411 0
          6.5351502751073145 10.071277391554691 0
          6.541826166331397 10.075452652437061 0
          6.5485346340374964 10.079575390747612 0
          6.5552745929510516 10.083646471918476 0
          6.5620475024343499 10.087662530377111 0
          6.5688523832387391 10.091624215926664 0
          6.5756884036507 10.095531971060188 0
          6.5825548325757248 10.099386097351958 0
          6.5894510371959747 10.103186747949428 0
          6.5963764780169285 10.106933924720673 0
          6.6033307060579425 10.110627471539027 0
          6.6103133590160006 10.114267069248942 0
          6.6173241571343961 10.117852230978887 0
          6.6243628987995056 10.121382297690898 0
          6.6314314560285155 10.124852359122011 0
          6.6385297011323665 10.128261365704843 0
          6.6456575675303906 10.131608083143661 0
          6.6528150438150462 10.134891087864364 0
          6.6600021673592851 10.138108762546862 0
          6.6672190180715223 10.14125929023254 0
          6.674467455250487 10.144336539615237 0
          6.6817475059166664 10.147338322687213 0
          6.6890592431561373 10.150262165381402 0
          6.696402745373601 10.153105373519024 0
          6.7037780850272375 10.155865029500031 0
          6.7111867817770543 10.158533919213975 0
          6.7186287626591952 10.16110861873703 0
          6.7261039077277855 10.163585457931759 0
          6.7336120361590615 10.16596051017606 0
          6.7411528897539865 10.168229585206085 0
          6.7487261163759911 10.170388216711009 0
          6.7563312512689517 10.172431649930427 0
          6.7639676965060094 10.174354827515923 0
          6.7716346982445312 10.176152373371224 0
          6.77933132144494 10.177818573872457 0
          6.7870564215610845 10.179347355919154 0
          6.794808612602683 10.180732260985575 0
          6.8025862432283626 10.181966335408868 0
          6.8103867373935927 10.183046531537457 0
          6.8182079196673895 10.183965044859743 0
          6.8260467867696724 10.184717876456451 0
          6.8339004684263083 10.185296049729752 0
          6.8417655533726682 10.18568977421282 0
          6.8496378607405202 10.185893120561122 0
          6.8574914538018836 10.186468165158201 0
          6.8653079769543961 10.187420916314137 0
          6.873071933614975 10.188733888256346 0
          6.8807704549786548 10.190387316903433 0
          6.888386890825914 10.192384843483687 0
          6.8959119991372404 10.194702820684469 0
          6.9033385210264191 10.197319690323361 0
          6.9106703814976997 10.20019144069807 0
          6.917917427046735 10.203271428345802 0
          6.9251038583431503 10.206490927785794 0
          6.9323602825451465 10.209550584942274 0
        </DataArray>
      </Points>
      <Cells>
        <DataArray type="Int32" Name="connectivity" format="ascii">
          0 1 1 2 2 3 3 4 4 5 5 6 6 7 7 8 8 9 9 10 10 11 11 12 12 13 13 14 14 15 15 16 16 17 17 18 18 19 19 20 20 21 21 22 22 23 23 24 24 25 25 26 26 27 27 28 28 29 29 30 30 31 31 32 32 33 33 34 34 35 35 36 36 37 37 38 38 39 39 40 40 41 41 42 42 43 43 44 44 45 45 46 46 47 47 48 48 49 49 50 50 51 51 52 52 53 53 54 54 55 55 56 56 57 57 58 58 59 59 60 60 61 61 62 62 63 63 64 64 65 65 66 66 67 67 68 68 69 69 70 70 71 71 72 72 73 73 74 74 75 75 76 76 77 77 78 78 79 79 80 80 81 81 82 82 83 83 84 84 85 85 86 86 87 87 88 88 89 89 90 90 91 91 92 92 93 93 94 94 95 95 96 96 97 97 98 98 99 99 100 100 101 101 102 102 103 103 104 104 105 105 106 106 107 107 108 108 109 109 110 110 111 111 112 112 113 113 114 114 115 115 116 116 117 117 118 118 119 119 120 120 121 121 122 122 123 123 124 124 125 125 126 126 127 
        </DataArray>
        <DataArray type="Int32" Name="offsets" format="ascii">
          2 4 6 8 10 12 14 16 18 20 22 24 26 28 30 32 34 36 38 40 42 44 46 48 50 52 54 56 58 60 62 64 66 68 70 72 74 76 78 80 82 84 86 88 90 92 94 96 98 100 102 104 106 108 110 112 114 116 118 120 122 124 126 128 130 132 134 136 138 140 142 144 146 148 150 152 154 156 158 160 162 164 166 168 170 172 174 176 178 180 182 184 186 188 190 192 194 196 198 200 202 204 206 208 210 212 214 216 218 220 222 224 226 228 230 232 234 236 238 240 242 244 246 248 250 252 254 
        </DataArray>
        <DataArray type="Int32" Name="types" format="ascii">
          3 3 3 3 3 3 3 3 3 3 3 3 3 3 3 3 3 3 3 3 3 3 3 3 3 3 3 3 3 3 3 3 3 3 3 3 3 3 3 3 3 3 3 3 3 3 3 3 3 3 3 3 3 3 3 3 3 3 3 3 3 3 3 3 3 3 3 3 3 3 3 3 3 3 3 3 3 3 3 3 3 3 3 3 3 3 3 3 3 3 3 3 3 3 3 3 3 3 3 3 3 3 3 3 3 3 3 3 3 3 3 3 3 3 3 3 3 3 3 3 3 3 3 3 3 3 3         </DataArray>
      </Cells>
    </Piece>
  </UnstructuredGrid>
</VTKFile>
