<?xml version="1.0"?>
<VTKFile type="UnstructuredGrid" version="0.1" byte_order="LittleEndian">
  <UnstructuredGrid>
    <Piece NumberOfPoints="128" NumberOfCells="127">
      <PointData Scalars="W">
        <DataArray type="Float32" Name="W" NumberOfComponents="2">
          0 0 0.0054453717245299682 0.54723456560460038 0.0038196043854162197 0.89013815040668076 -0.0043044914919632225 1.1502067616045319 -0.018651833724607009 1.3662698383505254 -0.039095687709324353 1.5540898384363517 -0.065547463958957997 1.7215952740386193 -0.097921089181714799 1.8733077527722781 -0.13612121687652287 2.0120530897592812 -0.18004834436801734 2.1398049877670857 -0.22958927829000331 2.2578854366967129 -0.28461867875900293 2.3672345763664229 -0.34500058468374895 2.4685426882115236 -0.41059768166003785 2.5623721362372378 -0.48128063846311298 2.6492156717502739 -0.55691702118568653 2.7294327130295142 -0.63735658189858435 2.8032231162456767 -0.72245640822984691 2.8707806333525121 -0.81207722606489718 2.9322633998963563 -0.90606206108247522 2.9877270168909247 -1.0042588836043262 3.0372254974549056 -1.1065218450880923 3.0808062250814148 -1.2126936172549556 3.1184607673881959 -1.3226006870616378 3.1501304761361628 -1.4360937889171945 3.175808550880225 -1.5529753269986071 3.1953713347790731 -1.6730642249790411 3.2087400781396913 -1.7962116903869256 3.2158900924925873 -1.9222291257053015 3.2167106921381228 -2.0507119857793281 3.2107661496873776 -2.181618761945102 3.1982394641013001 -2.3147188176795446 3.1789801961339523 -2.4497721930782772 3.1528382892048752 -2.5865157296083261 3.1196484401671416 -2.7246777304518615 3.0792527879127403 -2.8639623088829942 3.0314841524611817 -3.004123125486827 2.9762423873192252 -3.1447848053405285 2.9133114707417178 -3.2855614729348654 2.8425035383849293 -3.4261568162189651 2.7637340498035501 -3.566228140094426 2.6768884646383819 -3.705384303323902 2.5818339284094352 3.9461181100514833 -2.7564409885194125 3.7798495974428121 -2.8576284165444696 3.611500295865409 -2.9465486870865125 3.4580136981979384 -3.0379528681633996 3.2885179419501078 -3.105321873483236 3.1202110601880024 -3.1620145610819961 2.95330301608921 -3.2079845704725334 2.7889647512005458 -3.2442769160537455 2.6272662878734803 -3.2708496492634773 2.4542420366756774 -3.2682314539264956 -9.6416539178083287 11.733708767591754 -11.012430420951029 10.532044975237282 -12.234542752511164 9.1636351459829157 2.765869385770686 -1.8752207227086746 2.269612002100649 -1.6200678566245321 2.7003400922768845 -2.0282427639081568 3.1098911511168628 -2.4798948279034274 2.9850536630953028 -2.5360406649563414 2.8604491806450656 -2.5849680557109473 2.7366469715378092 -2.6270475858335294 2.6143478753868656 -2.6628883615870156 2.4935697304857531 -2.692496809311828 2.3640828705400523 -2.7037744820623582 2.2485609975327012 -2.7220432254263889 2.1357314583796625 -2.7356521066787955 2.0258023573837542 -2.7450469145088663 1.9189351776661514 -2.7506691834101349 1.8152482332928683 -2.7529527233914055 1.7148234096033508 -2.7523261374654249 1.6176969962443219 -2.7491903650944702 1.5238823922497042 -2.7439472404391476 1.4333601028577225 -2.7369782609575815 1.3460840573142507 -2.7286486455526449 1.261984357614756 -2.7193067704502276 1.1875842014771003 -2.7249563086210866 1.1087093193594608 -2.7145840325719957 1.0328113996078339 -2.704391394978896 0.95962364885643492 -2.6943845817184791 0.88899157798823403 -2.6848355413899982 0.82074265568128657 -2.6759839246286874 0.75469867667223278 -2.6680704186744078 0.69066897586603082 -2.6613158610731107 0.628452979414165 -2.655926878864928 0.56784076312597465 -2.6520968363756392 0.51149024078131955 -2.6659125519647491 0.45274399540693655 -2.6658523867151698 0.3949165244061883 -2.6678395026543917 0.33775979844828424 -2.6720216355852831 0.28101556946321116 -2.6785357693256411 0.22441510239619905 -2.6875142002034407 0.16849281693346158 -2.7149520749712845 0.11063276268526351 -2.7289372125185705 0.052047034894139269 -2.7459691922991638 -0.007610684507334692 -2.7658589614815976 -0.068683862718747019 -2.7886747430468781 -0.13242513878443971 -2.8298496279289402 -0.19813219622079012 -2.8586842817423395 -0.26642597537072843 -2.8906018387806873 -0.33774723354677516 -2.9256401503802025 -0.4125665643762581 -2.9638079037528891 -0.49139155160608156 -3.005113520717738 -0.57476944175746414 -3.0495426991862282 -0.66329288257924979 -3.097061523402143 -0.75760600023294211 -3.147613415936283 -0.85841168473115881 -3.201116368010795 -0.9664800736633351 -3.25745895162623 -1.0826587969202737 -3.3164960736380631 -1.2079847042582579 -3.3783097789734082 -1.3375148726704367 -3.4278792149072617 -1.4832514281398896 -3.494053300468174 -1.6347808291353378 -3.5478648588884734 -1.8062061584171811 -3.6175065915446729 -1.9935165225425544 -3.6883351005573668 -2.1898829077806341 -3.7451971073625914 -1.2233739711622016 -1.9717251643062037 -1.239127667654272 -1.9185790301532037 -1.303516973285602 -1.9398918330166164 -1.4771528823992233 -2.1090047681756134 -1.4190592573386347 -1.9437735499807949 -1.5266392050252535 -2.0080963733493773 -1.5307581669837846 -1.9334684052336542 -1.4622100481254374 -1.7772763482222285 -1.2342465399325599 -1.4505378254798944 -0.64190109344494561 -0.73726628448276121 -0.2556264803503826 -0.2904375332608457 0 0
        </DataArray>
        <DataArray type="Float32" Name="u" NumberOfComponents="1">
          0 0.007874015748031496 0.015748031496062992 0.023622047244094488 0.031496062992125984 0.03937007874015748 0.047244094488188976 0.055118110236220472 0.062992125984251968 0.070866141732283464 0.07874015748031496 0.086614173228346455 0.094488188976377951 0.10236220472440945 0.11023622047244094 0.11811023622047244 0.12598425196850394 0.13385826771653545 0.14173228346456693 0.14960629921259844 0.15748031496062992 0.16535433070866143 0.17322834645669291 0.18110236220472442 0.1889763779527559 0.19685039370078741 0.20472440944881889 0.2125984251968504 0.22047244094488189 0.2283464566929134 0.23622047244094488 0.24409448818897639 0.25196850393700787 0.25984251968503935 0.26771653543307089 0.27559055118110237 0.28346456692913385 0.29133858267716534 0.29921259842519687 0.30708661417322836 0.31496062992125984 0.32283464566929132 0.33070866141732286 0.33858267716535434 0.34645669291338582 0.3543307086614173 0.36220472440944884 0.37007874015748032 0.37795275590551181 0.38582677165354329 0.39370078740157483 0.40157480314960631 0.40944881889763779 0.41732283464566927 0.42519685039370081 0.43307086614173229 0.44094488188976377 0.44881889763779526 0.45669291338582679 0.46456692913385828 0.47244094488188976 0.48031496062992124 0.48818897637795278 0.49606299212598426 0.50393700787401574 0.51181102362204722 0.51968503937007871 0.52755905511811019 0.53543307086614178 0.54330708661417326 0.55118110236220474 0.55905511811023623 0.56692913385826771 0.57480314960629919 0.58267716535433067 0.59055118110236215 0.59842519685039375 0.60629921259842523 0.61417322834645671 0.62204724409448819 0.62992125984251968 0.63779527559055116 0.64566929133858264 0.65354330708661412 0.66141732283464572 0.6692913385826772 0.67716535433070868 0.68503937007874016 0.69291338582677164 0.70078740157480313 0.70866141732283461 0.71653543307086609 0.72440944881889768 0.73228346456692917 0.74015748031496065 0.74803149606299213 0.75590551181102361 0.76377952755905509 0.77165354330708658 0.77952755905511806 0.78740157480314965 0.79527559055118113 0.80314960629921262 0.8110236220472441 0.81889763779527558 0.82677165354330706 0.83464566929133854 0.84251968503937003 0.85039370078740162 0.8582677165354331 0.86614173228346458 0.87401574803149606 0.88188976377952755 0.88976377952755903 0.89763779527559051 0.90551181102362199 0.91338582677165359 0.92125984251968507 0.92913385826771655 0.93700787401574803 0.94488188976377951 0.952755905511811 0.96062992125984248 0.96850393700787396 0.97637795275590555 0.98425196850393704 0.99212598425196852 1
        </DataArray>
      </PointData>
      <CellData Scalars="P">
        <DataArray type="Float32" Name="P" NumberOfComponents="1">
          -0.010162798786653276 -0.029135245352382523 -0.045211272599507038 -0.057572019278861193 -0.065683826934225739 -0.069176279997154297 -0.067788303656288573 -0.061338332945464112 -0.049704983934108306 -0.032811848984766571 -0.010618296690926482 0.016888141113187923 0.049697949117408734 0.087785704228224987 0.13111580506130269 0.17964548197198674 0.23332576869772298 0.29210525972878831 0.35593267201881379 0.42475698328296974 0.49852985288502505 0.57720772484821781 0.66075217906287642 0.74913006807452776 0.84231687718729265 0.94029425334727124 1.0430528503110643 1.1505958299121399 1.2629371330026227 1.3800890828991843 1.5020884457853494 1.6289845770266607 1.7608405166398604 1.8977333200555424 2.0397553792282141 2.1870148814832326 2.3396404399363666 2.4977757012528925 2.6615810638832391 2.8312405833791914 3.0069612308757794 3.188972255040436 2.9575797674037059 2.7187496237391846 2.4745621502635866 2.2258045231413339 1.9752844193303174 1.7245850216725331 1.475165887077043 1.2282804133724143 0.98506234151913563 0.74789641783929961 1.5611652447575726 2.3597694458971388 3.1423276504863034 2.9208227172634502 2.7218851585224111 2.4815424938500157 2.237964254281843 1.9929339200011518 1.7480800536823449 1.5048764326445423 1.264626856910537 1.0285258193591191 0.7986614502153937 0.57486916945983002 0.35791543777796714 0.14844928404930616 -0.052989152685366879 -0.24595990004426377 -0.43011474037239661 -0.60518757089437325 -0.77098696589038396 -0.92738766526363869 -1.0743227407110463 -1.2117761490624543 -1.3404591008579756 -1.4596869216789359 -1.5695644018989305 -1.6702097683400257 -1.761761927239792 -1.8443752175614407 -1.9182156742195116 -1.9834570284226591 -2.0402773193972816 -2.0888559379537299 -2.1295395371771848 -2.1622778818767472 -2.1872394459886082 -2.2045861239879989 -2.2144721478475682 -2.2170433262177975 -2.2123295260175757 -2.2005182785338246 -2.1817269135064565 -2.1560662251875304 -2.1236397344954492 -2.0842519640620041 -2.0382468520985664 -1.9857140228220636 -1.9267419133943504 -1.8614205941814261 -1.7898442167595534 -1.7121143288851783 -1.6283434710712363 -1.5386592168692974 -1.4432086644008064 -1.3421634346993865 -1.2357252047887817 -1.1241216690052425 -1.0081992294506754 -0.88774105832432448 -0.76370003639418305 -0.63596786218546264 -0.50506501324644271 -0.37219332459163085 -0.31153475599554908 -0.25498776925901956 -0.20029405168885528 -0.14294583949997866 -0.095583430825555538 -0.051267732081924589 -0.015167850773260112 0.010250280355045121 0.021996063759319753 0.017223291934382694 0.0058822806312520534
        </DataArray>
      </CellData>
      <Points>
        <DataArray type="Float32" NumberOfComponents="3" format="ascii">
          6.155718138431034 9.8819261302518377 0
          6.1635919802702599 9.8818308122270615 0
          6.1714661566612872 9.8817694263038831 0
          6.1793405655360933 9.8817632346507178 0
          6.1872147023956812 9.8818283630591672 0
          6.1950876771319816 9.8819782086316525 0
          6.2029582217873935 9.8822244171650411 0
          6.2108246959946571 9.8825773747775738 0
          6.2186850922813246 9.8830464882845188 0
          6.2265370419602108 9.8836403604226852 0
          6.2343778212839913 9.8843669122374802 0
          6.2422043584527778 9.8852334650587022 0
          6.2500132413775367 9.8862467987983589 0
          6.2578007261040067 9.8874131947548882 0
          6.2655627453219198 9.8887384704848849 0
          6.2732949163803529 9.8902280103576228 0
          6.2809925494963963 9.8918867878414467 0
          6.2886506570692058 9.8937193778957866 0
          6.2962639625400021 9.8957299689840799 0
          6.3038269090272339 9.8979223728777832 0
          6.3113336690600095 9.9003000281022846 0
          6.3187781540057335 9.9028660032840357 0
          6.3261540231153095 9.9056230000864094 0
          6.3334546932810243 9.9085733526846091 0
          6.3406733497988537 9.9117190241270219 0
          6.3478029556282811 9.9150616059116103 0
          6.3548362636497577 9.9186023103170893 0
          6.3617658278988554 9.9223419655191609 0
          6.3685840127996682 9.9262810140595743 0
          6.3752830048672227 9.9304195059840517 0
          6.3818548378002378 9.9347570718278 0
          6.3882913950650257 9.9392929339658949 0
          6.3945844242066316 9.9440258972910804 0
          6.4007255517383923 9.9489543399173783 0
          6.406706299470005 9.9540762029407404 0
          6.4125181013647472 9.9593889806637073 0
          6.4181523218959375 9.9648897102450977 0
          6.4236002713302636 9.9705749655088827 0
          6.4288532290100484 9.9764408435715559 0
          6.4339024672843657 9.9824829532184687 0
          6.4387392698842305 9.9886964096894779 0
          6.4433549531701697 9.995075827607339 0
          6.4477408903793743 10.001615312773144 0
          6.452371482085983 10.007983881762614 0
          6.4572364188132383 10.014175262997908 0
          6.462325262549574 10.02018394565558 0
          6.4676284973719786 10.026004265131641 0
          6.4731356152510555 10.03163204700965 0
          6.4788361824612011 10.037063778864212 0
          6.4847198526164478 10.04229661307348 0
          6.4907764392760683 10.047328301963882 0
          6.4969959202765368 10.05215720034241 0
          6.5033675719166224 10.056783472712386 0
          6.5091414442849578 10.062137245869337 0
          6.5142325482367749 10.068144021175225 0
          6.5185651103410294 10.074718962458487 0
          6.5230691297225771 10.081177597498458 0
          6.5277139223353506 10.087535864239538 0
          6.532526295476587 10.093768571866747 0
          6.5375314634674675 10.099847470113479 0
          6.5427216854196431 10.10576908492113 0
          6.5480892356179954 10.111530389457354 0
          6.5536264387133683 10.117128781053815 0
          6.5593257130754941 10.122562043381469 0
          6.5651795717932728 10.127828346007021 0
          6.5711799882168265 10.132926994399407 0
          6.5773198019342374 10.137856860157934 0
          6.5835920196255771 10.142617103262161 0
          6.5899898278970159 10.147207144450361 0
          6.5965066032340811 10.151626637869715 0
          6.6031359192879906 10.155875444211185 0
          6.609871551912593 10.159953604171058 0
          6.6167074813829156 10.163861313629754 0
          6.6236378932023801 10.167598898775967 0
          6.6306571768776141 10.17116679249129 0
          6.6377599230516848 10.174565511742841 0
          6.6449409191653075 10.177795636018161 0
          6.6521955538111897 10.180856815085944 0
          6.6595189380694073 10.183749691923595 0
          6.6669063674635263 10.186474898219839 0
          6.6743533054285793 10.189033054014647 0
          6.6818553737422208 10.191424750858062 0
          6.6894083418384405 10.193650536968555 0
          6.6970081157699486 10.195710902324178 0
          6.7046507263983184 10.197606264981669 0
          6.7123323169696798 10.199336958274044 0
          6.7200491301103371 10.200903218828111 0
          6.7277976724207909 10.2023041891084 0
          6.735574302114788 10.203539871919048 0
          6.7433754343451149 10.204610143088244 0
          6.7511975258335211 10.205514742306852 0
          6.7590370588660491 10.20625326463211 0
          6.7668905246370015 10.206825152280478 0
          6.7747544561157094 10.207228702844562 0
          6.7826252663864874 10.207463048008192 0
          6.7904993235422682 10.207527130474665 0
          6.7983729292180417 10.207419715679819 0
          6.8062422972953263 10.207139387551429 0
          6.8141034759178565 10.206683591578177 0
          6.8219523916456097 10.206050538305066 0
          6.829784810654882 10.205238247004395 0
          6.8375963114035567 10.204244543313735 0
          6.8453822554446742 10.203067058680999 0
          6.8531377559437718 10.201703229824764 0
          6.8608576437344073 10.200150299602347 0
          6.8685364305554808 10.198405319092831 0
          6.8761682690930721 10.196465151084068 0
          6.8837469093743726 10.194326475135513 0
          6.8912656509869548 10.19198579446436 0
          6.8987172904871708 10.189439444918545 0
          6.9060940570606784 10.186683589867325 0
          6.9133879194309085 10.183715151466187 0
          6.9205898407052242 10.180530021979365 0
          6.9276904249196107 10.177124859725669 0
          6.9346790415281792 10.173495341135308 0
          6.9415440744502135 10.169637068650657 0
          6.9482733459505059 10.165546510165134 0
          6.9549268594460898 10.161333602270174 0
          6.9615036486819735 10.157001625138124 0
          6.9679997289351201 10.152549240930599 0
          6.9744043334295558 10.147965947021785 0
          6.9807210826203434 10.143261965995782 0
          6.9869433116612543 10.138433286329303 0
          6.9930707806829595 10.133484507408262 0
          6.9991077644719217 10.128425280926406 0
          7.0050684428375725 10.123275826296082 0
          7.0109896401855565 10.118080320204239 0
          7.016895401734641 10.112866413372203 0
        </DataArray>
      </Points>
      <Cells>
        <DataArray type="Int32" Name="connectivity" format="ascii">
          0 1 1 2 2 3 3 4 4 5 5 6 6 7 7 8 8 9 9 10 10 11 11 12 12 13 13 14 14 15 15 16 16 17 17 18 18 19 19 20 20 21 21 22 22 23 23 24 24 25 25 26 26 27 27 28 28 29 29 30 30 31 31 32 32 33 33 34 34 35 35 36 36 37 37 38 38 39 39 40 40 41 41 42 42 43 43 44 44 45 45 46 46 47 47 48 48 49 49 50 50 51 51 52 52 53 53 54 54 55 55 56 56 57 57 58 58 59 59 60 60 61 61 62 62 63 63 64 64 65 65 66 66 67 67 68 68 69 69 70 70 71 71 72 72 73 73 74 74 75 75 76 76 77 77 78 78 79 79 80 80 81 81 82 82 83 83 84 84 85 85 86 86 87 87 88 88 89 89 90 90 91 91 92 92 93 93 94 94 95 95 96 96 97 97 98 98 99 99 100 100 101 101 102 102 103 103 104 104 105 105 106 106 107 107 108 108 109 109 110 110 111 111 112 112 113 113 114 114 115 115 116 116 117 117 118 118 119 119 120 120 121 121 122 122 123 123 124 124 125 125 126 126 127 
        </DataArray>
        <DataArray type="Int32" Name="offsets" format="ascii">
          2 4 6 8 10 12 14 16 18 20 22 24 26 28 30 32 34 36 38 40 42 44 46 48 50 52 54 56 58 60 62 64 66 68 70 72 74 76 78 80 82 84 86 88 90 92 94 96 98 100 102 104 106 108 110 112 114 116 118 120 122 124 126 128 130 132 134 136 138 140 142 144 146 148 150 152 154 156 158 160 162 164 166 168 170 172 174 176 178 180 182 184 186 188 190 192 194 196 198 200 202 204 206 208 210 212 214 216 218 220 222 224 226 228 230 232 234 236 238 240 242 244 246 248 250 252 254 
        </DataArray>
        <DataArray type="Int32" Name="types" format="ascii">
          3 3 3 3 3 3 3 3 3 3 3 3 3 3 3 3 3 3 3 3 3 3 3 3 3 3 3 3 3 3 3 3 3 3 3 3 3 3 3 3 3 3 3 3 3 3 3 3 3 3 3 3 3 3 3 3 3 3 3 3 3 3 3 3 3 3 3 3 3 3 3 3 3 3 3 3 3 3 3 3 3 3 3 3 3 3 3 3 3 3 3 3 3 3 3 3 3 3 3 3 3 3 3 3 3 3 3 3 3 3 3 3 3 3 3 3 3 3 3 3 3 3 3 3 3 3 3         </DataArray>
      </Cells>
    </Piece>
  </UnstructuredGrid>
</VTKFile>
