<?xml version="1.0"?>
<VTKFile type="UnstructuredGrid" version="0.1" byte_order="LittleEndian">
  <UnstructuredGrid>
    <Piece NumberOfPoints="128" NumberOfCells="127">
      <PointData Scalars="W">
        <DataArray type="Float32" Name="W" NumberOfComponents="2">
          0 0 -0.18660619619994942 -0.17933477895265068 -0.28887648676041894 -0.2790688560497519 -0.35181549394667183 -0.34226965751897021 -0.39234336749432785 -0.38483931395986914 -0.41760486862956697 -0.41330297815175393 -0.43134884869905743 -0.43094994983656953 -0.43589385737711006 -0.43972603204401023 -0.43280877209347213 -0.44088838893116306 -0.42328538192051007 -0.43536837787375199 -0.40821108875415868 -0.42383805721959122 -0.38829045945274487 -0.40682842665539348 -0.36410595304727617 -0.38478869617888817 -0.33617968427875128 -0.35814900906047553 -0.30496619786774493 -0.32731132667073548 -0.27084225244683613 -0.29263564555508242 -0.23406724384463409 -0.25439318297283753 -0.19491910621923328 -0.21291024396710448 -0.15362148594618091 -0.16848769267499825 -0.11033371470188452 -0.12138668650592198 -0.06519270783972328 -0.071871842486503107 -0.018326650291411829 -0.020224139427076099 0.030176092398092925 0.033295790741334631 0.080262595121042085 0.088445299324016818 0.1318623726261193 0.14494358021949727 0.184986925660831 0.20258346716477663 0.23961837981713033 0.26111068096574763 0.2957022969013135 0.32021929119419712 0.35324340011016464 0.37965884123416521 0.41249662723425257 0.4394369313711029 0.47325175751357379 0.49905424581111535 0.53554130295425617 0.55827119081352639 0.59938680235725394 0.61683484610084394 0.66483408344085948 0.67451729904969238 0.73191109266895349 0.73107335333282009 0.80064964050331555 0.78626480317034453 0.87100067402027259 0.83978040236641982 0.94301864714246053 0.89141874496678053 1.0167651447956785 0.94098926588007525 1.0921780994622186 0.98819441352627846 1.1692053138166947 1.032762087955666 1.247803568555313 1.0744443889333994 4.1401137149956515 3.3711113863292259 5.5454203409178939 4.0877042012379645 9.8891139470918947 6.2281870428128157 10.515653769371692 5.3357221889481359 11.069357970693039 4.3727658002045535 11.535810230776358 3.3423554733069305 11.921037526471389 2.2543611992514223 12.203288896650259 1.1113927330239639 12.373111727569665 -0.076829853739169895 -7.2131966024893526 0.19146398618897237 -7.0705602887855825 -0.21043510184320913 -6.8964281332209412 -0.58682267125421506 -2.0335980460015444 -0.24566831450012536 -1.8770387409003444 -0.25639204239587265 -1.5576298374926383 -0.23449083450738289 -1.2925695250332165 -0.20963457002459451 -1.1313707559545572 -0.19474881647356396 -0.7995632778251468 -0.14399917071375432 -0.63742744796758233 -0.11858980565550799 -0.30017845589173514 -0.057014323462315934 0.042402910082346541 0.0080992010464303234 0.20307496231040512 0.038581355218784127 0.74180676805185941 0.13802465207514425 0.90383000609810782 0.16201740795028455 1.0646085900675979 0.18220075514130413 1.2209864101851062 0.19751172100218306 1.3783076758738304 0.20832787331234662 1.7357810960530506 0.2403958608318699 1.8891373413620898 0.23396197038698033 2.0394560850837964 0.22037998311635987 2.1862076180353909 0.19930562781009747 2.3260840751395939 0.17029395318446791 2.4644273070229379 0.13363465332820845 2.5977346722874572 0.088911575300586868 2.7254389839411606 0.036085344493840196 2.8469530462339452 -0.02479849518569761 2.9616792372859559 -0.093606349985335721 3.2797541018783649 -0.18453267958803013 3.3783905795584412 -0.27933530443751686 3.4649506077207208 -0.38120529071429365 3.5449031683420893 -0.49016340628869687 3.614623104866634 -0.60534509343338228 3.6736019840692036 -0.72601084785744108 3.7213847341216235 -0.8513380105850793 3.7575163806181862 -0.98040928475473799 3.7818190052759002 -1.1122905589543992 3.7939955916384585 -1.2459412557381386 3.5964778306014238 -1.3050707571922486 3.5887493077383286 -1.4266383911383995 3.5693920991524548 -1.5467297177989658 3.5386324726964133 -1.6643090103864364 3.4937859372856757 -1.7767667251310764 3.4408080393808254 -1.8857734773148129 3.3772921041219739 -1.9889949323354343 3.3036437121755777 -2.0853383215949317 3.2204087699235986 -2.1737711876326014 3.1281578152148457 -2.2532644944257938 3.0276811812568489 -2.3229474008685838 2.919670198980167 -2.3818984827997092 2.8024563356580985 -2.4270992527574604 2.6819012355900642 -2.4620295655739195 2.5562204857782853 -2.4839074964046173 2.4263406654719848 -2.4921792755917846 2.29076966383264 -2.4836954941443992 2.1549845945157204 -2.4628808439069299 2.01732557010873 -2.4268478581410147 1.876320781204436 -2.3723557813398708 1.8620129686365445 -2.4745831166017886 1.7149035088285582 -2.3956583949142076 1.5665064870184435 -2.295994315913318 1.5385011863527485 -2.3653500251140991 1.3853302572037931 -2.2332724054992354 1.3493778346087875 -2.2797243725084506 1.1933085037527513 -2.1111593120111687 1.150994070322702 -2.1301785695632041 1.1070156555218293 -2.1454657374673425 0.94702207554760587 -1.9190654630450845 0.59481986624160721 -1.248707779191228 0.42767990478525958 -0.92010255878786407 0.33546068755321862 -0.73546811585757632 0.24039164654896525 -0.53479584980431161 0.10794803043376215 -0.24231987988653778 -0.098056207078103017 0.2201714420892277 -0.33392582560279638 0.74148683112143332 0.062465694794081851 -0.13774593536624899 0 0
        </DataArray>
        <DataArray type="Float32" Name="u" NumberOfComponents="1">
          0 0.007874015748031496 0.015748031496062992 0.023622047244094488 0.031496062992125984 0.03937007874015748 0.047244094488188976 0.055118110236220472 0.062992125984251968 0.070866141732283464 0.07874015748031496 0.086614173228346455 0.094488188976377951 0.10236220472440945 0.11023622047244094 0.11811023622047244 0.12598425196850394 0.13385826771653545 0.14173228346456693 0.14960629921259844 0.15748031496062992 0.16535433070866143 0.17322834645669291 0.18110236220472442 0.1889763779527559 0.19685039370078741 0.20472440944881889 0.2125984251968504 0.22047244094488189 0.2283464566929134 0.23622047244094488 0.24409448818897639 0.25196850393700787 0.25984251968503935 0.26771653543307089 0.27559055118110237 0.28346456692913385 0.29133858267716534 0.29921259842519687 0.30708661417322836 0.31496062992125984 0.32283464566929132 0.33070866141732286 0.33858267716535434 0.34645669291338582 0.3543307086614173 0.36220472440944884 0.37007874015748032 0.37795275590551181 0.38582677165354329 0.39370078740157483 0.40157480314960631 0.40944881889763779 0.41732283464566927 0.42519685039370081 0.43307086614173229 0.44094488188976377 0.44881889763779526 0.45669291338582679 0.46456692913385828 0.47244094488188976 0.48031496062992124 0.48818897637795278 0.49606299212598426 0.50393700787401574 0.51181102362204722 0.51968503937007871 0.52755905511811019 0.53543307086614178 0.54330708661417326 0.55118110236220474 0.55905511811023623 0.56692913385826771 0.57480314960629919 0.58267716535433067 0.59055118110236215 0.59842519685039375 0.60629921259842523 0.61417322834645671 0.62204724409448819 0.62992125984251968 0.63779527559055116 0.64566929133858264 0.65354330708661412 0.66141732283464572 0.6692913385826772 0.67716535433070868 0.68503937007874016 0.69291338582677164 0.70078740157480313 0.70866141732283461 0.71653543307086609 0.72440944881889768 0.73228346456692917 0.74015748031496065 0.74803149606299213 0.75590551181102361 0.76377952755905509 0.77165354330708658 0.77952755905511806 0.78740157480314965 0.79527559055118113 0.80314960629921262 0.8110236220472441 0.81889763779527558 0.82677165354330706 0.83464566929133854 0.84251968503937003 0.85039370078740162 0.8582677165354331 0.86614173228346458 0.87401574803149606 0.88188976377952755 0.88976377952755903 0.89763779527559051 0.90551181102362199 0.91338582677165359 0.92125984251968507 0.92913385826771655 0.93700787401574803 0.94488188976377951 0.952755905511811 0.96062992125984248 0.96850393700787396 0.97637795275590555 0.98425196850393704 0.99212598425196852 1
        </DataArray>
      </PointData>
      <CellData Scalars="P">
        <DataArray type="Float32" Name="P" NumberOfComponents="1">
          -0.03402581599738886 -0.10174456306224226 -0.16896856582709951 -0.23582875845531703 -0.30255388243078662 -0.36940533213412113 -0.43664337442697349 -0.50450592156282648 -0.5731943393992206 -0.64286388221307877 -0.71361738565604715 -0.78550134551343476 -0.85850400903686697 -0.9325555489040207 -1.0075296511922061 -1.0832458990595715 -1.1594716533905238 -1.2359270058778726 -1.3122890004010941 -1.3881955197677027 -1.4632504169657659 -1.5370294966453697 -1.6090854475560201 -1.6789526715091561 -1.7461546650025617 -1.8102061878484415 -1.8706209642706058 -1.9269205196240549 -1.978637051371988 -2.0253014317841944 -2.0664811323698573 -2.101769783620596 -2.1307933935163152 -2.1532135704052053 -2.1687338360884048 -2.1771040004015352 -2.1781317571462537 -2.1716779413910445 -2.1576596017270364 -2.1360648923912637 -2.1069557584228491 -2.0704702711880243 -1.7364090338774045 -1.2763015056940246 -0.47600864756014433 0.37460973590591923 1.2869485894754187 2.2709154462062862 3.3365341393425672 4.4909882145495752 5.7393680933055222 4.8215972268369143 3.8347258431170612 2.7983126172020119 2.4421223591262615 2.0973225636419914 1.7939799651603443 1.5274779151421365 1.2832424525689563 1.0926382286857925 0.92805722185315975 0.82102437217916957 0.77291756356246843 0.75171210502889041 0.82214937577394398 0.91755528808766518 1.0364655381751815 1.1766979086072704 1.3367896317458874 1.5462803170181116 1.7703402639899546 2.0064906851399282 2.2521416486454213 2.5042449115599599 2.7605189847385594 3.0182370086627079 3.2746741254840708 3.5271330502478446 3.7729699351217278 4.0304951548881531 4.2748178297617345 4.5034107918357629 4.7144602736653116 4.9060623069721601 5.0765285638149411 5.2244038916477287 5.3484783353250229 5.4478105522779066 5.5217261186436861 5.5638490883670775 5.5816249524763641 5.575034934213253 5.5443182737009877 5.4899542598214133 5.4127056634304953 5.3135340231055759 5.1936190929159984 5.054342552294262 4.8972703108353874 4.7241269379071955 4.5367759463529698 4.3373106244828783 4.127689240151339 3.9100329108754517 3.6864902463190687 3.459375439395882 3.2306711022117058 3.0024600490701001 2.7769317308508192 2.5449593848143799 2.319150620457505 2.1015584717188713 1.8824815323332498 1.6750014050839532 1.469261695515665 1.278134519378515 1.0918527608261643 0.91166150139495572 0.74946034479839974 0.62233143470146979 0.51266686724679944 0.41333315421046135 0.32338238437609779 0.24317746205127574 0.17281292482740029 0.10814773429136573 0.035253774710821313
        </DataArray>
      </CellData>
      <Points>
        <DataArray type="Float32" NumberOfComponents="3" format="ascii">
          4.3537673110088759 9.2979086188471562 0
          4.3483155647159002 9.3035929999442661 0
          4.3428522846403155 9.3092662126132844 0
          4.3373711482040695 9.3149220486040747 0
          4.3318682658503214 9.3205565739310536 0
          4.3263411341678815 9.3261671393258165 0
          4.320788193789725 9.3317519740690784 0
          4.315208597420467 9.3373099811193896 0
          4.3096020663613457 9.3428406158413537 0
          4.303968793425561 9.348343807593988 0
          4.2983093691844845 9.3538199016198593 0
          4.2926247270606845 9.3592696170813152 0
          4.2869160997426272 9.3646940138940096 0
          4.2811849831626727 9.3700944646720323 0
          4.2754331042129108 9.3754726278884881 0
          4.2696623926496411 9.3808304228124229 0
          4.2638749578213089 9.3861700070731846 0
          4.2580730726742377 9.3914937597519135 0
          4.252259156609373 9.3968042610771505 0
          4.2464357617058086 9.4021042737158691 0
          4.2406055629323456 9.4073967265424798 0
          4.2347713497488568 9.412684698207574 0
          4.2289360182486098 9.4179713997049213 0
          4.2231025657687153 9.4232601582112281 0
          4.2172740876968717 9.4285544020505725 0
          4.2114537731881034 9.4338576433014705 0
          4.2056449059631555 9.4391734649767134 0
          4.1998508632840679 9.4445055052880473 0
          4.1940751126610127 9.4498574387131349 0
          4.1883212122253584 9.4552329605054357 0
          4.18259282661539 9.4606357872073765 0
          4.1768937140192559 9.4660696257349848 0
          4.1712277282662562 9.4715381585666254 0
          4.1655988202362995 9.4770450281054472 0
          4.1600110407742275 9.4825938225919533 0
          4.1544685424943673 9.4881880609436955 0
          4.148975581823886 9.4938311780268361 0
          4.1435365160305615 9.4995265053957425 0
          4.138155806669034 9.5052772588418506 0
          4.1328380234697741 9.511086526612738 0
          4.1275878405590216 9.5169572509928315 0
          4.1224100332905733 9.5228922114591459 0
          4.1173094756346345 9.5288940093346941 0
          4.1124660209027857 9.5351045913840711 0
          4.1079667996424769 9.5415683561723572 0
          4.1040808379178966 9.5484186011212451 0
          4.1008470425807166 9.555600013219621 0
          4.0982998130430408 9.5630529016288346 0
          4.0964681466564858 9.5707133845558374 0
          4.0953760123316387 9.5785139988762023 0
          4.0950410002407871 9.5863838607349603 0
          4.0954737344176229 9.5942492666869672 0
          4.0954588669225034 9.6021268617312341 0
          4.0950051962630383 9.6099917171943083 0
          4.0941234748736024 9.617820482750675 0
          4.0931155327522628 9.6256340105881542 0
          4.0919910866258933 9.6334316349925473 0
          4.0907699627028258 9.6412147044347307 0
          4.089468613732457 9.6489847550681258 0
          4.0880970449082827 9.656742711814557 0
          4.0866758526805551 9.6644917139970872 0
          4.0852151003299904 9.6722333401478089 0
          4.0837357219530368 9.6799714015190137 0
          4.0822589823895745 9.687709928714094 0
          4.0807948533810663 9.6954508154686607 0
          4.0793767752231727 9.7032002097399292 0
          4.0780148022285374 9.7109596023906164 0
          4.0767189111592401 9.7187302477688231 0
          4.0754988053528223 9.7265130979179624 0
          4.0743642464864136 9.7343088256233443 0
          4.073337419102935 9.7421194091483283 0
          4.072427837509875 9.7499444505665451 0
          4.0716448272565886 9.7577831082219006 0
          4.0709974922772796 9.7656340753744466 0
          4.0704945096207288 9.7734955527742269 0
          4.070144460988149 9.7813652662727026 0
          4.0699556153538747 9.7892404411979594 0
          4.0699358937706069 9.797117799922729 0
          4.0700928329303654 9.8049935647039739 0
          4.0704335480761431 9.8128634659882277 0
          4.0709777710868496 9.8207218489589163 0
          4.0717316170175071 9.828562831234736 0
          4.0727004512994611 9.8363800920984854 0
          4.073889229050657 9.8441668708818337 0
          4.0753022701456141 9.8519160208331709 0
          4.0769432276707018 9.8596200550431696 0
          4.0788150596941808 9.8672711975323733 0
          4.0809200010484847 9.87486144021622 0
          4.0832595523051616 9.8823826009035471 0
          4.085834461370105 9.8898263879127413 0
          4.0886324706745274 9.8971891435392152 0
          4.0916530937710345 9.9044633256072228 0
          4.0948951224599162 9.9116414838668092 0
          4.0983566408678502 9.9187163242932801 0
          4.1020348590493638 9.9256808711626032 0
          4.1059264823679307 9.9325283631711265 0
          4.1100275623331139 9.9392523984300603 0
          4.1143335218500834 9.9458470022870316 0
          4.1188391891826734 9.9523066913924936 0
          4.1235388334552461 9.9586265375434397 0
          4.1284262137909558 9.964802221693807 0
          4.1334946223199269 9.9708300910946814 0
          4.1387367809149458 9.9767073465789107 0
          4.1441452047109237 9.9824318264718936 0
          4.1497120916476247 9.9880021791926392 0
          4.1554293800687647 9.9934178975217911 0
          4.1612886564092593 9.9986795139078612 0
          4.1672814948219612 10.003788325794901 0
          4.1733993544388941 10.008746574679876 0
          4.1796334882932777 10.013557647021107 0
          4.1859830027541056 10.018215208048591 0
          4.1924387753922776 10.022724160577271 0
          4.1989916057335863 10.027090693337097 0
          4.2056397564964101 10.031310512568627 0
          4.2123737354032702 10.035391817405134 0
          4.2191913174371374 10.039331735738324 0
          4.2260828354494233 10.043140729076011 0
          4.2330456758430541 10.046817627139058 0
          4.2400771256586438 10.050361491800459 0
          4.2471672831844671 10.053786370159976 0
          4.2542943301594045 10.05713383336232 0
          4.2614479221718051 10.060424263008066 0
          4.2686223626362345 10.063669115289626 0
          4.2758117811160057 10.06688084189696 0
          4.2830079915605763 10.07007758776029 0
          4.2901982459127321 10.073288040710638 0
          4.2973679443744501 10.076544539466555 0
          4.3045417409186761 10.079792598226692 0
        </DataArray>
      </Points>
      <Cells>
        <DataArray type="Int32" Name="connectivity" format="ascii">
          0 1 1 2 2 3 3 4 4 5 5 6 6 7 7 8 8 9 9 10 10 11 11 12 12 13 13 14 14 15 15 16 16 17 17 18 18 19 19 20 20 21 21 22 22 23 23 24 24 25 25 26 26 27 27 28 28 29 29 30 30 31 31 32 32 33 33 34 34 35 35 36 36 37 37 38 38 39 39 40 40 41 41 42 42 43 43 44 44 45 45 46 46 47 47 48 48 49 49 50 50 51 51 52 52 53 53 54 54 55 55 56 56 57 57 58 58 59 59 60 60 61 61 62 62 63 63 64 64 65 65 66 66 67 67 68 68 69 69 70 70 71 71 72 72 73 73 74 74 75 75 76 76 77 77 78 78 79 79 80 80 81 81 82 82 83 83 84 84 85 85 86 86 87 87 88 88 89 89 90 90 91 91 92 92 93 93 94 94 95 95 96 96 97 97 98 98 99 99 100 100 101 101 102 102 103 103 104 104 105 105 106 106 107 107 108 108 109 109 110 110 111 111 112 112 113 113 114 114 115 115 116 116 117 117 118 118 119 119 120 120 121 121 122 122 123 123 124 124 125 125 126 126 127 
        </DataArray>
        <DataArray type="Int32" Name="offsets" format="ascii">
          2 4 6 8 10 12 14 16 18 20 22 24 26 28 30 32 34 36 38 40 42 44 46 48 50 52 54 56 58 60 62 64 66 68 70 72 74 76 78 80 82 84 86 88 90 92 94 96 98 100 102 104 106 108 110 112 114 116 118 120 122 124 126 128 130 132 134 136 138 140 142 144 146 148 150 152 154 156 158 160 162 164 166 168 170 172 174 176 178 180 182 184 186 188 190 192 194 196 198 200 202 204 206 208 210 212 214 216 218 220 222 224 226 228 230 232 234 236 238 240 242 244 246 248 250 252 254 
        </DataArray>
        <DataArray type="Int32" Name="types" format="ascii">
          3 3 3 3 3 3 3 3 3 3 3 3 3 3 3 3 3 3 3 3 3 3 3 3 3 3 3 3 3 3 3 3 3 3 3 3 3 3 3 3 3 3 3 3 3 3 3 3 3 3 3 3 3 3 3 3 3 3 3 3 3 3 3 3 3 3 3 3 3 3 3 3 3 3 3 3 3 3 3 3 3 3 3 3 3 3 3 3 3 3 3 3 3 3 3 3 3 3 3 3 3 3 3 3 3 3 3 3 3 3 3 3 3 3 3 3 3 3 3 3 3 3 3 3 3 3 3         </DataArray>
      </Cells>
    </Piece>
  </UnstructuredGrid>
</VTKFile>
