<?xml version="1.0"?>
<VTKFile type="UnstructuredGrid" version="0.1" byte_order="LittleEndian">
  <UnstructuredGrid>
    <Piece NumberOfPoints="128" NumberOfCells="127">
      <PointData Scalars="W">
        <DataArray type="Float32" Name="W" NumberOfComponents="2">
          0 0 0.56993005744267677 0.4776210130251583 0.8709662656846231 0.71902993921726621 1.0988373964919176 0.88879765620496964 1.2897985984606228 1.0178210443989053 1.4585091584794752 1.1188513668730653 1.6126667735462514 1.1987329324955109 1.7568280359389932 1.2616078326471885 1.8939401641636575 1.310203236639629 2.0259597569356305 1.3463673767283109 2.1542982759513918 1.3714388360277383 2.2799290447016731 1.3863584434707337 2.4035656719902989 1.3918172267341271 2.5257144969121854 1.3883110309911677 2.6467100452675694 1.3761818958736824 2.7667755327465806 1.3556679304125989 2.8861046448575483 1.3269524791832674 3.0047515935915334 1.2901180466118378 3.1227441644451872 1.2452102100944809 3.2400839107371078 1.1922382742539694 3.356703970861552 1.1311625668328475 3.4724693048648105 1.0619034361231907 3.5872356787364299 0.98436561346645468 3.7007987929028645 0.89842469088333343 3.812923390835103 0.80394039681769613 3.9233893321879596 0.70076606852323453 4.0318872900909941 0.58872787426617679 4.138016896862001 0.46763752728195979 4.2414238819354795 0.33731438405145131 4.3420035797944312 0.19757687990529141 4.4389287759438556 0.048190622204302702 4.5316980779922869 -0.11103088040098047 4.6197651893742488 -0.28027121105768221 4.7025279808445744 -0.45970703108266714 4.7793400842430369 -0.64950500492330454 4.8494559697575017 -0.84980918226449942 4.9120109887599117 -1.0607213006757581 4.9662129191694362 -1.2823330918231575 5.0112154476284196 -1.5147131623171695 5.0459848755881955 -1.7578548991066574 5.0694444042817199 -2.0116959315398124 5.0804753924286175 -2.2761159571609357 -0.5200030777671838 0.24536186004194702 -0.30812684448117428 0.1440325748016304 -0.089730956667935985 0.041755332569925134 0.13618616939090011 -0.063406221439472304 0.23189967739004211 -0.10842091949519551 0.46104003941280192 -0.21724888944441895 0.69001209258969387 -0.32938707525828897 0.9224737035919125 -0.44837158366274549 1.0084072042667849 -0.50075007071029864 1.3825994104588764 -0.7048415059964257 1.609872055947269 -0.84782450851881719 14.186225387318544 -8.8508019068534374 -2.511660498452851 1.7615621047351802 0.090698948726872355 -0.062048160086570242 0.16455426745569701 -0.11286807479567849 0.23459247943447761 -0.16156641640150704 0.392770238637077 -0.27224841855813997 0.45728051576636858 -0.31973351116910559 0.51852799930731064 -0.36619690489490098 0.57623272290677952 -0.41153414642260933 0.72025350167740831 -0.52126329691231821 0.76908383388778823 -0.56515613692705757 0.90378970750535359 -0.67562970447598725 0.94237659893340264 -0.71794896520143892 0.97613621888211333 -0.7584838685727866 1.0067696926474583 -0.79844193661673146 1.0306555226186889 -0.83479131411556995 1.0495858654324941 -0.86868696975635606 1.0635812662475079 -0.89989330077568785 1.0726897928443975 -0.92817158753477358 1.0769863380709055 -0.9532833420170107 1.0765715169995742 -0.97499367355290056 1.0715678518728087 -0.99307244211853352 1.0621187055951493 -1.007297957572524 1.0483851678935061 -1.0174589640854113 1.0305444150470631 -1.0233580698735341 1.0087853222793433 -1.0248125253565943 0.98482270457697607 -1.0232503252615415 0.95579415877109775 -1.0153727589388424 0.84575046045821545 -0.91740678441551382 0.81203007766148594 -0.89811995424067725 0.7753447818991086 -0.87386064711793943 0.73583693367048286 -0.84453836073277466 0.69507420402973574 -0.81177290905106148 0.65039742966167235 -0.7722978088059379 0.60333514475499816 -0.72770964432915042 0.55399296025364964 -0.67803011707614724 0.43272354111121908 -0.53631825146657119 0.38123211725220396 -0.47748031079794057 0.32617934489278377 -0.41229942554441856 0.26881472376636584 -0.34244404198963013 0.20908001338291338 -0.26802819434612724 0.14810323295200956 -0.19075842005775501 0.083306296698724483 -0.10762928199978061 0.015791899500296601 -0.020429564525111146 -0.12066160020273668 0.15587933717925523 -0.19461779301130319 0.25037230155794854 -0.27108963407405678 0.34661437460451422 -0.35277972224568077 0.44738597773122835 -0.43889459733875907 0.55088776448473564 -0.52986244809585503 0.65681153395165259 -0.62615735407641127 0.76481889293719574 -0.72830214355075729 0.87453917653558988 -0.76670572935147308 0.90371110803660915 -0.88048820042504417 1.0171047097214505 -1.0016706167017773 1.1311248923474011 -1.1309646077124711 1.2452225828890116 -1.2691315161149914 1.3587781667291787 -1.3390959249965941 1.3914512770544107 -1.4963096296755183 1.5059301233877058 -1.5801836107269029 1.5370400279888561 -1.7583456566026765 1.6492068059630922 -1.9485888649138945 1.7563311195489408 -2.0642833532482938 1.7832099927991683 -2.5152830515486269 2.0712807993327487 0.089098154875453028 -0.071537210876835317 -0.1342088280655761 0.10770647924382708 -0.26132974185909663 0.20886885744452849 -0.076171713032818597 0.060668513376006164 -0.22562618238315713 0.17914553546621256 -0.50438884297653597 0.39747756173356041 -0.71175009535415379 0.55390543100371459 -1.8346464943383711 1.3909743885319261 -3.0189581816622675 2.1780780328498524 -4.4654672908730415 2.9846058580752239 0 0
        </DataArray>
        <DataArray type="Float32" Name="u" NumberOfComponents="1">
          0 0.007874015748031496 0.015748031496062992 0.023622047244094488 0.031496062992125984 0.03937007874015748 0.047244094488188976 0.055118110236220472 0.062992125984251968 0.070866141732283464 0.07874015748031496 0.086614173228346455 0.094488188976377951 0.10236220472440945 0.11023622047244094 0.11811023622047244 0.12598425196850394 0.13385826771653545 0.14173228346456693 0.14960629921259844 0.15748031496062992 0.16535433070866143 0.17322834645669291 0.18110236220472442 0.1889763779527559 0.19685039370078741 0.20472440944881889 0.2125984251968504 0.22047244094488189 0.2283464566929134 0.23622047244094488 0.24409448818897639 0.25196850393700787 0.25984251968503935 0.26771653543307089 0.27559055118110237 0.28346456692913385 0.29133858267716534 0.29921259842519687 0.30708661417322836 0.31496062992125984 0.32283464566929132 0.33070866141732286 0.33858267716535434 0.34645669291338582 0.3543307086614173 0.36220472440944884 0.37007874015748032 0.37795275590551181 0.38582677165354329 0.39370078740157483 0.40157480314960631 0.40944881889763779 0.41732283464566927 0.42519685039370081 0.43307086614173229 0.44094488188976377 0.44881889763779526 0.45669291338582679 0.46456692913385828 0.47244094488188976 0.48031496062992124 0.48818897637795278 0.49606299212598426 0.50393700787401574 0.51181102362204722 0.51968503937007871 0.52755905511811019 0.53543307086614178 0.54330708661417326 0.55118110236220474 0.55905511811023623 0.56692913385826771 0.57480314960629919 0.58267716535433067 0.59055118110236215 0.59842519685039375 0.60629921259842523 0.61417322834645671 0.62204724409448819 0.62992125984251968 0.63779527559055116 0.64566929133858264 0.65354330708661412 0.66141732283464572 0.6692913385826772 0.67716535433070868 0.68503937007874016 0.69291338582677164 0.70078740157480313 0.70866141732283461 0.71653543307086609 0.72440944881889768 0.73228346456692917 0.74015748031496065 0.74803149606299213 0.75590551181102361 0.76377952755905509 0.77165354330708658 0.77952755905511806 0.78740157480314965 0.79527559055118113 0.80314960629921262 0.8110236220472441 0.81889763779527558 0.82677165354330706 0.83464566929133854 0.84251968503937003 0.85039370078740162 0.8582677165354331 0.86614173228346458 0.87401574803149606 0.88188976377952755 0.88976377952755903 0.89763779527559051 0.90551181102362199 0.91338582677165359 0.92125984251968507 0.92913385826771655 0.93700787401574803 0.94488188976377951 0.952755905511811 0.96062992125984248 0.96850393700787396 0.97637795275590555 0.98425196850393704 0.99212598425196852 1
        </DataArray>
      </PointData>
      <CellData Scalars="P">
        <DataArray type="Float32" Name="P" NumberOfComponents="1">
          -0.042915820077111956 -0.12674498783536833 -0.20686320409721698 -0.28255283586774754 -0.35343635360473197 -0.41929757366982323 -0.47999963323811945 -0.53544197463992427 -0.58553490072387182 -0.63018498348931951 -0.66928435194076541 -0.70270509748169341 -0.7302945992196882 -0.75187263034149387 -0.76722970391585532 -0.77612532325266714 -0.77828484263985542 -0.77339994109481269 -0.76112640595755354 -0.74108200884015829 -0.71284581298147243 -0.6759577081322633 -0.62991602965228322 -0.57417691977933438 -0.508152700412416 -0.43120829183446946 -0.34266161203052403 -0.24178446634008849 -0.127797573236237 0.00014518365940146486 0.14292635535884521 0.30148264160450189 0.47680588316878736 0.66994331075588542 0.88199823082088391 1.114127004769998 1.3675335271979105 1.6434756857310204 1.943264024869497 2.2682492881207086 2.6198184729144871 2.9993901137460184 2.8824055929569754 2.7853755471662702 2.7106435747421185 2.660144963704397 2.6202757945130992 2.6056919371950178 2.616219377829426 2.651740729899045 2.6954872361237889 2.7778260473603646 2.8816304585337136 4.2586078318505205 3.9180148632674849 3.8595268168551096 3.808506928081504 3.764156268406166 3.7348874054712367 3.710354905987499 3.689545094086347 3.6713800295365857 3.662454610118191 3.6533983022019232 3.6498498754024413 3.6433126058060092 3.6327172534602719 3.6171728127347649 3.5956636891993803 3.5673930435662351 3.5316788561971397 3.4879624533220803 3.4358149958715742 3.3749418809357912 3.3051850192408594 3.2265231044775962 3.1390698939012731 3.0430705833581047 2.9388963910285772 2.8269892154559106 2.7079865963837082 2.5862433020408688 2.4594305381553063 2.3283554888138016 2.1938923965992503 2.0568630132098109 1.9183301416228096 1.7792895306195406 1.6407510122649744 1.5106015314225083 1.3831150216409682 1.2593416415824126 1.1401759526588253 1.0264705647557977 0.91888264911163819 0.81829171381473498 0.72536087682581296 0.64870695963371872 0.5808315705370537 0.5219713202575702 0.47256079761491226 0.43279576957763255 0.40277380683921499 0.38249208009729185 0.37184641330284524 0.36304108363641557 0.36350539149978478 0.37281846120818651 0.39045132837005236 0.41577139608063096 0.44130869928177913 0.47335828668692609 0.50450578175248206 0.54052154909076722 0.58019057233374027 0.61692716345927523 0.66818377966081188 0.60078365256501742 0.54233958579481578 0.48634533785322198 0.41997385149977434 0.35531950672828416 0.29361836983297784 0.23023040501920056 0.17382407028450153 0.11353541846214107 0.041546760243352368
        </DataArray>
      </CellData>
      <Points>
        <DataArray type="Float32" NumberOfComponents="3" format="ascii">
          4.1130316166878584 5.6969077538915061 0
          4.1079547881081124 5.7029298610295101 0
          4.1029132953997065 5.7089816270100071 0
          4.0979258042365547 5.715078043495212 0
          4.0930064452532458 5.7212296542958008 0
          4.0881670617638424 5.7274444739678279 0
          4.0834181185900977 5.7337287795595673 0
          4.0787691792967502 5.7400875355334318 0
          4.074229188687144 5.7465246508865242 0
          4.0698066555228776 5.7530431484097644 0
          4.0655097738242159 5.7596452793720463 0
          4.0613465103737427 5.7663326065580947 0
          4.0573246650513335 5.7731060626111743 0
          4.0534519150645991 5.7799659928658746 0
          4.0497358463244426 5.786912186063053 0
          4.046183974162477 5.7939438955163087 0
          4.0428037571424555 5.8010598538262359 0
          4.0396026090394521 5.808258284194757 0
          4.0365879021623439 5.8155369054806521 0
          4.0337669690344669 5.822892934963332 0
          4.0311471024440628 5.8303230888562174 0
          4.0287355512458918 5.8378235797815421 0
          4.0265395119280525 5.8453901117652469 0
          4.0245661196049403 5.8530178742645784 0
          4.022822435278461 5.8607015343893076 0
          4.0213154311742043 5.8684352281409975 0
          4.0200519770129368 5.8762125512586483 0
          4.0190388207424013 5.8840265483810708 0
          4.0182825636137469 5.8918697013155956 0
          4.0177896381168283 5.8997339177853032 0
          4.017566301411283 5.9076105201233826 0
          4.0176185838933884 5.9154902306918311 0
          4.0179522579894753 5.923363160278889 0
          4.0185728041594011 5.9312187966819803 0
          4.0194853734317286 5.9390459937255358 0
          4.0206947471907855 5.9468329609046631 0
          4.0222052908052701 5.9545672544385875 0
          4.0240208998589644 5.9622357709570695 0
          4.0261449508791038 5.9698247418136932 0
          4.0285802487064828 5.9773197288406301 0
          4.031328962229292 5.9847056247801538 0
          4.0343925574413912 5.9919666571843617 0
          4.0377717279037384 5.9990863959179785 0
          4.0411184915758289 6.006221138757601 0
          4.0444460056053257 6.0133645826957327 0
          4.0477678301288069 6.0205103675051284 0
          4.0510979901467365 6.0276519554251902 0
          4.0544424292535686 6.0347865557494496 0
          4.0578153688983711 6.0419074062521538 0
          4.0612310177917497 6.0490075413788453 0
          4.0647037987401555 6.0560795725251593 0
          4.0682390422817809 6.0631202580115184 0
          4.0718599588300481 6.070116920739701 0
          4.0755806418378819 6.0770606901600823 0
          4.0801817343215632 6.083455209011257 0
          4.0846269666417649 6.089959070236679 0
          4.0890777257437803 6.0964589318801536 0
          4.0935385953467822 6.1029516419986622 0
          4.0980139219436831 6.1094341808603421 0
          4.1025135168964715 6.1158996776948493 0
          4.1070413826928727 6.1223451895046441 0
          4.1116013190612604 6.1287678371213801 0
          4.1161969056556948 6.1351648116754003 0
          4.1208370733738988 6.1415293052128721 0
          4.1255248507106552 6.1478585999804984 0
          4.1302685898749587 6.1541458440537085 0
          4.1350706836082818 6.1603884188225564 0
          4.1399332252827774 6.1665838167499274 0
          4.1448581144285255 6.1727295663711974 0
          4.1498468323011144 6.1788234204787305 0
          4.1549005530556897 6.1848632843601479 0
          4.1600201450902254 6.1908472303734312 0
          4.1652061740921429 6.1967735127125456 0
          4.1704589077441643 6.2026405821562287 0
          4.1757783220201521 6.2084471005916191 0
          4.1811641088336868 6.2141919552418337 0
          4.1866156849725193 6.2198742723686582 0
          4.1921322021252339 6.2254934303280356 0
          4.1977125578978525 6.2310490717664058 0
          4.2033554075479325 6.2365411149105068 0
          4.2090592702999983 6.2419696649650138 0
          4.214822351925978 6.2473352186634168 0
          4.220637836597203 6.2526438590478355 0
          4.2265036400747418 6.2578967895276545 0
          4.2324174948261435 6.2630955216995963 0
          4.2383769588267235 6.2682418809454559 0
          4.2443795127212169 6.2733379059951808 0
          4.2504223949223316 6.2783860514552785 0
          4.2565026963218102 6.2833890888176676 0
          4.2626173667796738 6.2883501051260327 0
          4.2687588959661271 6.2932778927622461 0
          4.274924100416361 6.2981761062045987 0
          4.2811095759194933 6.303048793185047 0
          4.2873117749132641 6.3079002912885853 0
          4.2935270027779531 6.312735220922546 0
          4.2997514877138707 6.317558379570726 0
          4.3059812207124999 6.3223749281439359 0
          4.3122120238390185 6.3271902801358477 0
          4.3184354410311219 6.3320153731115063 0
          4.3246468930799669 6.3368560732166559 0
          4.330841644026882 6.3417183553988323 0
          4.3370146333247241 6.3466084757857333 0
          4.3431605249412071 6.3515328601560261 0
          4.3492736806541394 6.3564980848338415 0
          4.355348130497644 6.3615108556970403 0
          4.3613775401840664 6.3665779851680906 0
          4.3673595317517844 6.371701292776919 0
          4.3732870462353182 6.3768878193471963 0
          4.3791525637536148 6.3821446447387311 0
          4.384948059249373 6.3874788537085765 0
          4.3906649551665353 6.3928974973806625 0
          4.3962989083221666 6.3984026128833129 0
          4.4018401556339999 6.404001308436496 0
          4.4072834879736957 6.4096955240898277 0
          4.4126178387595418 6.4154922243782355 0
          4.417831389981874 6.4213980608805121 0
          4.4229169538761015 6.4274147111243085 0
          4.4278465134856333 6.4335600416857437 0
          4.4327810307142892 6.4397002207495682 0
          4.4377067163836363 6.4458464537087163 0
          4.4426157609873203 6.4520051055030283 0
          4.4475197348160824 6.4581670853028221 0
          4.4524094389509505 6.4643398255354381 0
          4.4572676548024752 6.4705369446404184 0
          4.4620815939214724 6.4767682223012226 0
          4.4667816965971143 6.4830856303863031 0
          4.4712946080469314 6.4895380600178925 0
          4.4755306565030581 6.4961755308559548 0
        </DataArray>
      </Points>
      <Cells>
        <DataArray type="Int32" Name="connectivity" format="ascii">
          0 1 1 2 2 3 3 4 4 5 5 6 6 7 7 8 8 9 9 10 10 11 11 12 12 13 13 14 14 15 15 16 16 17 17 18 18 19 19 20 20 21 21 22 22 23 23 24 24 25 25 26 26 27 27 28 28 29 29 30 30 31 31 32 32 33 33 34 34 35 35 36 36 37 37 38 38 39 39 40 40 41 41 42 42 43 43 44 44 45 45 46 46 47 47 48 48 49 49 50 50 51 51 52 52 53 53 54 54 55 55 56 56 57 57 58 58 59 59 60 60 61 61 62 62 63 63 64 64 65 65 66 66 67 67 68 68 69 69 70 70 71 71 72 72 73 73 74 74 75 75 76 76 77 77 78 78 79 79 80 80 81 81 82 82 83 83 84 84 85 85 86 86 87 87 88 88 89 89 90 90 91 91 92 92 93 93 94 94 95 95 96 96 97 97 98 98 99 99 100 100 101 101 102 102 103 103 104 104 105 105 106 106 107 107 108 108 109 109 110 110 111 111 112 112 113 113 114 114 115 115 116 116 117 117 118 118 119 119 120 120 121 121 122 122 123 123 124 124 125 125 126 126 127 
        </DataArray>
        <DataArray type="Int32" Name="offsets" format="ascii">
          2 4 6 8 10 12 14 16 18 20 22 24 26 28 30 32 34 36 38 40 42 44 46 48 50 52 54 56 58 60 62 64 66 68 70 72 74 76 78 80 82 84 86 88 90 92 94 96 98 100 102 104 106 108 110 112 114 116 118 120 122 124 126 128 130 132 134 136 138 140 142 144 146 148 150 152 154 156 158 160 162 164 166 168 170 172 174 176 178 180 182 184 186 188 190 192 194 196 198 200 202 204 206 208 210 212 214 216 218 220 222 224 226 228 230 232 234 236 238 240 242 244 246 248 250 252 254 
        </DataArray>
        <DataArray type="Int32" Name="types" format="ascii">
          3 3 3 3 3 3 3 3 3 3 3 3 3 3 3 3 3 3 3 3 3 3 3 3 3 3 3 3 3 3 3 3 3 3 3 3 3 3 3 3 3 3 3 3 3 3 3 3 3 3 3 3 3 3 3 3 3 3 3 3 3 3 3 3 3 3 3 3 3 3 3 3 3 3 3 3 3 3 3 3 3 3 3 3 3 3 3 3 3 3 3 3 3 3 3 3 3 3 3 3 3 3 3 3 3 3 3 3 3 3 3 3 3 3 3 3 3 3 3 3 3 3 3 3 3 3 3         </DataArray>
      </Cells>
    </Piece>
  </UnstructuredGrid>
</VTKFile>
