<?xml version="1.0"?>
<VTKFile type="UnstructuredGrid" version="0.1" byte_order="LittleEndian">
  <UnstructuredGrid>
    <Piece NumberOfPoints="128" NumberOfCells="127">
      <PointData Scalars="W">
        <DataArray type="Float32" Name="W" NumberOfComponents="2">
          0 0 0.60478468241870464 0.14752464151162156 0.89506209434199302 0.21258104627402713 1.1185636972318487 0.25606324371752831 1.306404237040836 0.28564317973703934 1.4713550203079857 0.30451304114434802 1.6203131831160229 0.31441733449996834 1.7575112719453621 0.31642939174487456 1.8857604110297079 0.31125231845591833 2.0069109823310782 0.2993432128944733 2.1223256367623979 0.28102100399004781 2.2329929531307244 0.25649938218403295 2.339623335158965 0.22591463367305037 2.4426644546565668 0.18934281927430122 2.5423688754580023 0.14682262396388815 2.638887526114877 0.098373566686638186 2.732361365183146 0.044003288661391179 2.822784287473211 -0.016293942530158086 2.9100916576070031 -0.082525538953270583 2.9942166882144958 -0.15469937339669521 3.0750105285931157 -0.23281940338193396 3.1522612344452345 -0.31687847776427924 3.2257441768109172 -0.40685776504614468 3.295246159545794 -0.50273031878837071 3.3604612230748674 -0.60444432227600864 3.4211567400107485 -0.71194585747456263 3.4770166278513703 -0.82515297994637815 3.5276312733855595 -0.94393914160705794 3.5726510329019372 -1.0681640132674173 3.6120720609703754 -1.1977836083245363 3.6452097304219375 -1.3325284507343469 3.6717128622994299 -1.4721879657686066 3.6912108650480446 -1.6165164446997125 3.7033657583374096 -1.7652528312184812 3.7078062924464348 -1.9180909236271544 3.7041942096113725 -2.0747070478992873 3.692118575962922 -2.234698751648883 3.6713080167705141 -2.3977033134881527 3.6415133971196214 -2.5633473845061046 3.6023560194631479 -2.7311313217631921 3.5535359654880891 -2.9005551858504761 3.4948015047550576 -3.0711075020307645 -1.3615309128245923 1.2235497599287688 -1.2400814984442023 1.0840792151389846 -1.2089318381665661 1.0299707613807532 -1.0775449446146688 0.89635326673859506 -1.0447059244103092 0.85007395059636892 -0.90788780765273747 0.72395974337973179 -0.87460039291964797 0.68470595139366219 -0.73513684603496465 0.56606382425518265 -0.70542217017839837 0.53520341081256118 -0.56411902030754835 0.42245716591118648 -0.53856866124233393 0.39879035974418464 -0.40067511224739982 0.29384418443851179 -0.0056742712970572103 0.0041440669320467558 11.66545364841955 -9.635220481286515 10.46037205623346 -10.982343888323538 9.0937180451527624 -12.177485402354465 7.5868879667023634 -13.20316125712375 5.9603111652598519 -14.040114519981746 4.2391920476956813 -14.676980741775228 2.4484338417313265 -15.104183468321061 -0.12468772630281705 1.1820089558312494 -0.13576848282108631 1.1809810787017236 -0.14670638379753972 1.178795135221044 -0.15701186137889783 1.1722178318734726 -0.16684694097068112 1.1634481404194352 -0.17618835580271583 1.152845359479586 -0.18502688505982165 1.1407478092638099 -0.19336656923094697 1.1274754232931177 -0.2012233980104145 1.1133290863954737 -0.20862420605596177 1.0985915698757642 -0.21560558455623019 1.0835284043051701 -0.24621572298301767 1.1811051943629456 -0.25451202740813883 1.165668392582125 -0.26208680728756156 1.1487887527585319 -0.26982095518473187 1.1343090911599161 -0.27741052404562389 1.1206407752637471 -0.28492409023645243 1.1079139534356033 -0.32170702849488925 1.2038652692573264 -0.33134673150796012 1.1930301410888042 -0.3411703130208234 1.1836379105678325 -0.35128549055035685 1.1758354390753032 -0.36180395819940298 1.1697573909481991 -0.40565629622524779 1.2662883380955836 -0.41936864142881874 1.2633832523429489 -0.43383792360832713 1.2624947640629964 -0.44921105872634642 1.2637487049975091 -0.46563128097561868 1.2672328285489729 -0.52079399288536998 1.3702401202129404 -0.54131339986970228 1.3759804368090929 -0.56397276545997344 1.3857171677140161 -0.58835358361142454 1.3978988948763145 -0.65545060077572259 1.5047140151598708 -0.68620273611890636 1.5208671691923423 -0.71861398360949658 1.5379970059959529 -0.7542968883591914 1.5591178789385736 -0.837117124171607 1.6695268837415218 -0.88131197139479489 1.6942966376472055 -0.92896963240921326 1.7213973176531328 -0.98041448494067995 1.7508015622837791 -1.0359556640241425 1.7823974499099329 -1.1445109518019552 1.8950066800278711 -1.2121622532484329 1.9290721594746467 -1.285182191762636 1.9648944986516625 -1.3649705144149022 2.0036538400496418 -1.4502408343829589 2.0424641880124219 -1.5424378085539654 2.0824824690325907 -1.6421754427311519 2.1234467239600558 -1.7501867649060523 2.1651196808255628 -1.8066724321711658 2.1371414991389823 -1.9303903221241665 2.1819929468360613 -2.0649544136405709 2.2267115692059769 -2.1439517775644226 2.2031071756053482 -2.30050265078135 2.249670462020144 -2.3986562554361508 2.2285865880277562 -2.7531825466100557 2.4211983340621002 1.7346029134762826 -1.5089531924217658 1.5459626770024364 -1.3924115004365476 1.6756215156106045 -1.5622622727721904 1.4618394200689089 -1.4102010582592446 1.3159406637661468 -1.3089257705554116 1.0716407934333483 -1.0947501297113238 0.88056017861121205 -0.91965090714791731 0.36015203965469422 -0.38151001332961715 -0.87321302558838243 0.91958948473231661 -4.192345907254726 4.1721166706540354 0 0
        </DataArray>
        <DataArray type="Float32" Name="u" NumberOfComponents="1">
          0 0.007874015748031496 0.015748031496062992 0.023622047244094488 0.031496062992125984 0.03937007874015748 0.047244094488188976 0.055118110236220472 0.062992125984251968 0.070866141732283464 0.07874015748031496 0.086614173228346455 0.094488188976377951 0.10236220472440945 0.11023622047244094 0.11811023622047244 0.12598425196850394 0.13385826771653545 0.14173228346456693 0.14960629921259844 0.15748031496062992 0.16535433070866143 0.17322834645669291 0.18110236220472442 0.1889763779527559 0.19685039370078741 0.20472440944881889 0.2125984251968504 0.22047244094488189 0.2283464566929134 0.23622047244094488 0.24409448818897639 0.25196850393700787 0.25984251968503935 0.26771653543307089 0.27559055118110237 0.28346456692913385 0.29133858267716534 0.29921259842519687 0.30708661417322836 0.31496062992125984 0.32283464566929132 0.33070866141732286 0.33858267716535434 0.34645669291338582 0.3543307086614173 0.36220472440944884 0.37007874015748032 0.37795275590551181 0.38582677165354329 0.39370078740157483 0.40157480314960631 0.40944881889763779 0.41732283464566927 0.42519685039370081 0.43307086614173229 0.44094488188976377 0.44881889763779526 0.45669291338582679 0.46456692913385828 0.47244094488188976 0.48031496062992124 0.48818897637795278 0.49606299212598426 0.50393700787401574 0.51181102362204722 0.51968503937007871 0.52755905511811019 0.53543307086614178 0.54330708661417326 0.55118110236220474 0.55905511811023623 0.56692913385826771 0.57480314960629919 0.58267716535433067 0.59055118110236215 0.59842519685039375 0.60629921259842523 0.61417322834645671 0.62204724409448819 0.62992125984251968 0.63779527559055116 0.64566929133858264 0.65354330708661412 0.66141732283464572 0.6692913385826772 0.67716535433070868 0.68503937007874016 0.69291338582677164 0.70078740157480313 0.70866141732283461 0.71653543307086609 0.72440944881889768 0.73228346456692917 0.74015748031496065 0.74803149606299213 0.75590551181102361 0.76377952755905509 0.77165354330708658 0.77952755905511806 0.78740157480314965 0.79527559055118113 0.80314960629921262 0.8110236220472441 0.81889763779527558 0.82677165354330706 0.83464566929133854 0.84251968503937003 0.85039370078740162 0.8582677165354331 0.86614173228346458 0.87401574803149606 0.88188976377952755 0.88976377952755903 0.89763779527559051 0.90551181102362199 0.91338582677165359 0.92125984251968507 0.92913385826771655 0.93700787401574803 0.94488188976377951 0.952755905511811 0.96062992125984248 0.96850393700787396 0.97637795275590555 0.98425196850393704 0.99212598425196852 1
        </DataArray>
      </PointData>
      <CellData Scalars="P">
        <DataArray type="Float32" Name="P" NumberOfComponents="1">
          -0.022406344567267939 -0.06599225361313972 -0.10727860289799819 -0.14564956469162801 -0.18065631375389271 -0.21193848326958273 -0.23918669260498812 -0.26212207186907727 -0.28048411486744568 -0.29402499356820172 -0.30250462830499497 -0.30568822570351345 -0.3033452346925315 -0.29525037684307298 -0.28118526065454869 -0.26093924435605603 -0.23430869156539078 -0.20110010590914756 -0.16113175041389652 -0.11423392968594633 -0.060251800384418262 0.00095191029695859805 0.069495548714342464 0.14547804454705388 0.22897460915835205 0.3200384038676225 0.41869639954638849 0.52494423060737661 0.63874716910044815 0.76005479401358544 0.88876983188493375 1.0247612594809816 1.167862248081557 1.3178707084153902 1.4745465835855935 1.6376125573734448 1.8067489512465893 1.9816005165779855 2.1617773501480633 2.346846390624286 2.5363350592516194 2.7297334929642796 2.59987995744611 2.4791466131482802 2.3619977686134606 2.2559820295822375 2.1547709753553259 2.0652194205120171 1.9808359112967644 1.9074465929519817 1.8387476729022243 1.779491131841668 1.7239936245806351 1.6755151040342067 1.6382917078824202 1.7762243701608686 1.8205620132889619 1.7897434508713044 1.7041782223851554 1.585645406834552 1.4566503348382513 1.339783377090777 1.2991215858644984 1.2550236139576709 1.2079375359178393 1.1583220011526152 1.1066239256605208 1.0532725355676538 0.99867334890368864 0.9432037980634278 0.88721031224434899 0.83100664773785815 0.77487327953924434 0.71751109639729826 0.66073408716146398 0.60479039907981136 0.54984954791978191 0.4960767136872723 0.44361224264552762 0.39166666143330531 0.34142145978472427 0.29298539343001184 0.24645146458258274 0.20189974488172319 0.1594280015953026 0.11929132899240696 0.081565253624674039 0.046320166644100574 0.013622893837326322 -0.0153957415879691 -0.04152919044220639 -0.064684435609588628 -0.08478718019860125 -0.099935232164562918 -0.11167636078557076 -0.11996746591886014 -0.12470019686588998 -0.12334784669645997 -0.1181282492557844 -0.10897674200345793 -0.095837720382689118 -0.07866921392822683 -0.054490537121243604 -0.026128470426492738 0.0064185170003750406 0.043187901043176498 0.084084470244078724 0.12904323752176106 0.17797188227387553 0.23075176882839096 0.2839322411731684 0.34062971100046596 0.40061804940397217 0.46033047751768053 0.52282237372715945 0.5844844165231905 0.65541708081906791 0.55809650741837391 0.46999765074477318 0.37951364385686803 0.30018297993306275 0.22937023984720523 0.16911851633476696 0.11646899486273553 0.074755388116926211 0.045048374424903399 0.020624644504357768
        </DataArray>
      </CellData>
      <Points>
        <DataArray type="Float32" NumberOfComponents="3" format="ascii">
          4.5176927026507281 9.7812570395459488 0
          4.515807885728492 9.7889025008578319 0
          4.513960566422182 9.7965571197012284 0
          4.5121687424925039 9.80422493565551 0
          4.5104462717989211 9.8119086494155354 0
          4.5088048014437243 9.819610099124688 0
          4.5072545596144042 9.8273304585471379 0
          4.5058047832261821 9.835070345346125 0
          4.5044639803590245 9.8428298876878948 0
          4.5032401045654336 9.85060876785918 0
          4.5021406696098945 9.8584062506127861 0
          4.5011728339676838 9.8662212029343586 0
          4.5003434621291278 9.874052107275876 0
          4.4996591686545058 9.8818970699838999 0
          4.4991263459360695 9.8897538259892386 0
          4.4987511798595703 9.8976197411757685 0
          4.4985396591609383 9.9054918135584398 0
          4.4984975841622052 9.9133666737229298 0
          4.4986305663845902 9.9212405844347771 0
          4.4989440245285568 9.929109440143586 0
          4.4994431803169901 9.9369687664583388 0
          4.5001330492454885 9.9448137198655928 0
          4.501018427415862 9.952639088137083 0
          4.5021038775789739 9.9604392914627429 0
          4.503393715882793 9.9682083840883671 0
          4.5048919928632722 9.9759400574975761 0
          4.5066024789796906 9.9836276437263258 0
          4.5085286449703013 9.9912641204182933 0
          4.510673636403129 9.9988421186499767 0
          4.5130402519429209 10.006353931614132 0
          4.5156309430647257 10.013791517331079 0
          4.5184477715376712 10.021146515350685 0
          4.5214923875892117 10.028410259805671 0
          4.5247660068635955 10.035573794649164 0
          4.5282693894021664 10.042627889849333 0
          4.5320028165593671 10.049563060389753 0
          4.5359660699654496 10.056369586359072 0
          4.5401584059813214 10.063037537933129 0
          4.5445785388123792 10.069556797897762 0
          4.5492246250043458 10.075917084835931 0
          4.5540942399039359 10.082107984154822 0
          4.5591843590100076 10.088118979136265 0
          4.5644913423181972 10.093939482707171 0
          4.5697137634583687 10.099835795502685 0
          4.5748591581152089 10.105799257215045 0
          4.5799294641844153 10.111826509159162 0
          4.5849328335999608 10.117909256015054 0
          4.5898713089951988 10.124044626377863 0
          4.5947533789018955 10.130224792434204 0
          4.5995811135566127 10.136447320107765 0
          4.6043631651937975 10.142704847169972 0
          4.6091013822576068 10.148995461719581 0
          4.6138045306316071 10.155312169251138 0
          4.6184742002636909 10.161653505459416 0
          4.6231189452726325 10.168012961727337 0
          4.6277632580953227 10.174372565046882 0
          4.6331310116989375 10.180134664175373 0
          4.6391474785877458 10.185215711377033 0
          4.6457279097697981 10.189541583303212 0
          4.6527788614867038 10.193048665566481 0
          4.6601994622091096 10.195685047395617 0
          4.6678829756810636 10.197411226730249 0
          4.6757183454080762 10.198200704467892 0
          4.6835458796815121 10.199063474204197 0
          4.6913648966255224 10.199999469927178 0
          4.6991747233311907 10.201008554012962 0
          4.706974726117787 10.202090316723496 0
          4.7147643005544415 10.2032442125941 0
          4.7225428729112036 10.204469582725626 0
          4.730309900736942 10.205765675772845 0
          4.7380648726129539 10.207131667790078 0
          4.7458073071637923 10.208566680893293 0
          4.7535367513938978 10.210069800796925 0
          4.7612527784176599 10.211640093279817 0
          4.7689534977954162 10.213283608623613 0
          4.7766384009046892 10.214999389791842 0
          4.7843070239321284 10.216786390545803 0
          4.7919588932869868 10.218643713711957 0
          4.7995935444149485 10.220570512675833 0
          4.8072105175350792 10.222565999447944 0
          4.8148075383292364 10.224636124383363 0
          4.8223840148781774 10.22678021715517 0
          4.8299393438774896 10.228997697142258 0
          4.837472903941519 10.231288082530931 0
          4.8449840486590459 10.23365099866025 0
          4.8524700640301006 10.236092432686565 0
          4.8599301051298847 10.238612207053867 0
          4.8673632800100295 10.241210269466091 0
          4.8747686405631621 10.243886700685129 0
          4.8821451736140942 10.246641719968117 0
          4.8894894619675826 10.249481716963977 0
          4.8968002375639994 10.252407051184074 0
          4.9040760993933574 10.255418330126444 0
          4.9113155394342156 10.258516313086425 0
          4.9185143984222961 10.261707626559247 0
          4.9256707722814372 10.264993276388951 0
          4.9327826537224908 10.268374329160535 0
          4.9398478321353876 10.271852099072497 0
          4.9468611707299539 10.275433436076609 0
          4.9538199298290984 10.279119880807754 0
          4.9607211545036742 10.282913118536953 0
          4.9675616544182715 10.28681497745519 0
          4.9743379846253948 10.290827421712089 0
          4.981043408720387 10.294957438012437 0
          4.9876737292532054 10.299207143535851 0
          4.994224415174684 10.303578764356178 0
          5.0006905149427547 10.308074708566071 0
          5.0070667363994001 10.312697387317275 0
          5.0133473571050438 10.317449286504166 0
          5.0195261862523965 10.322332950479542 0
          5.025596519203142 10.327350967300578 0
          5.0315548501548886 10.3325016071395 0
          5.0373934990862228 10.337787654842506 0
          5.0431041126227729 10.343211886719814 0
          5.0486817873283618 10.348772843844589 0
          5.0541168050280705 10.354473416677406 0
          5.0594030734211222 10.360312302760487 0
          5.0645185842518865 10.366301444192352 0
          5.0697412924239709 10.372196513462924 0
          5.0750595334607951 10.378004825757811 0
          5.0804814014442217 10.383715940674513 0
          5.0859936837609769 10.389339363730754 0
          5.0915873855311382 10.394881447385542 0
          5.0972474133345838 10.400355537100651 0
          5.1029619776516979 10.405772551078453 0
          5.1086988719728028 10.411165911770752 0
          5.114381697102008 10.416616355360643 0
          5.1198045696372496 10.422325456395633 0
        </DataArray>
      </Points>
      <Cells>
        <DataArray type="Int32" Name="connectivity" format="ascii">
          0 1 1 2 2 3 3 4 4 5 5 6 6 7 7 8 8 9 9 10 10 11 11 12 12 13 13 14 14 15 15 16 16 17 17 18 18 19 19 20 20 21 21 22 22 23 23 24 24 25 25 26 26 27 27 28 28 29 29 30 30 31 31 32 32 33 33 34 34 35 35 36 36 37 37 38 38 39 39 40 40 41 41 42 42 43 43 44 44 45 45 46 46 47 47 48 48 49 49 50 50 51 51 52 52 53 53 54 54 55 55 56 56 57 57 58 58 59 59 60 60 61 61 62 62 63 63 64 64 65 65 66 66 67 67 68 68 69 69 70 70 71 71 72 72 73 73 74 74 75 75 76 76 77 77 78 78 79 79 80 80 81 81 82 82 83 83 84 84 85 85 86 86 87 87 88 88 89 89 90 90 91 91 92 92 93 93 94 94 95 95 96 96 97 97 98 98 99 99 100 100 101 101 102 102 103 103 104 104 105 105 106 106 107 107 108 108 109 109 110 110 111 111 112 112 113 113 114 114 115 115 116 116 117 117 118 118 119 119 120 120 121 121 122 122 123 123 124 124 125 125 126 126 127 
        </DataArray>
        <DataArray type="Int32" Name="offsets" format="ascii">
          2 4 6 8 10 12 14 16 18 20 22 24 26 28 30 32 34 36 38 40 42 44 46 48 50 52 54 56 58 60 62 64 66 68 70 72 74 76 78 80 82 84 86 88 90 92 94 96 98 100 102 104 106 108 110 112 114 116 118 120 122 124 126 128 130 132 134 136 138 140 142 144 146 148 150 152 154 156 158 160 162 164 166 168 170 172 174 176 178 180 182 184 186 188 190 192 194 196 198 200 202 204 206 208 210 212 214 216 218 220 222 224 226 228 230 232 234 236 238 240 242 244 246 248 250 252 254 
        </DataArray>
        <DataArray type="Int32" Name="types" format="ascii">
          3 3 3 3 3 3 3 3 3 3 3 3 3 3 3 3 3 3 3 3 3 3 3 3 3 3 3 3 3 3 3 3 3 3 3 3 3 3 3 3 3 3 3 3 3 3 3 3 3 3 3 3 3 3 3 3 3 3 3 3 3 3 3 3 3 3 3 3 3 3 3 3 3 3 3 3 3 3 3 3 3 3 3 3 3 3 3 3 3 3 3 3 3 3 3 3 3 3 3 3 3 3 3 3 3 3 3 3 3 3 3 3 3 3 3 3 3 3 3 3 3 3 3 3 3 3 3         </DataArray>
      </Cells>
    </Piece>
  </UnstructuredGrid>
</VTKFile>
