<?xml version="1.0"?>
<VTKFile type="UnstructuredGrid" version="0.1" byte_order="LittleEndian">
  <UnstructuredGrid>
    <Piece NumberOfPoints="128" NumberOfCells="127">
      <PointData Scalars="W">
        <DataArray type="Float32" Name="W" NumberOfComponents="2">
          0 0 -0.4929193236495284 0.25472183275102939 -0.79847501598240411 0.40685867271406201 -1.0373969208405565 0.51806702160813733 -1.2424220607861349 0.60499944816286455 -1.4268900527906812 0.67436890779552894 -1.5975302809341145 0.72951559059760462 -1.758246777216274 0.77234832339654047 -1.9114798392935783 0.80404347818694855 -2.0588953639405392 0.82539075313905108 -2.2015973003262612 0.83690906602277393 -2.3403554169255605 0.83895952193475676 -2.4757112331253124 0.83179801420596422 -2.608085390856139 0.81561970488952151 -2.7377829392902515 0.79056274188941855 -2.864987647931867 0.75671157270793377 -2.9897143000559447 0.7140944225603747 -3.1119803677407609 0.66273566054603883 -3.2317220562384192 0.60263427416678961 -3.348788013911558 0.53376994674950384 -3.4629872805390818 0.45611786898923978 -3.5741096671697594 0.36965260034663983 -3.6818778725715497 0.27434410834384643 -3.7859427702169115 0.17016523837421482 -3.8859795592054134 0.057100881467920674 -3.9815267807650074 -0.064854869159973169 -4.0721433560227913 -0.19568634987422637 -4.1574316139347012 -0.33536513084592479 -4.236876202724047 -0.48384070226956133 -4.3095891913316908 -0.64097725006141437 -4.3753305317640372 -0.80668179223617953 -4.4334813065743344 -0.98079904659815753 -4.4834233786774726 -1.1631366924185536 -4.5244795025553337 -1.3534470358204223 -4.5559741397423075 -1.5514345127670541 -4.577197192798609 -1.7567400173139067 -4.5875322123017375 -1.9689872876532377 -4.5862074451398218 -2.1876814434989229 -4.5724296763239014 -2.4122330882930059 -4.5455617272476427 -2.6420493940620591 -4.5049372104792385 -2.8764510313685188 -4.4498869840113988 -3.1146707252847539 3.4023920784208666 2.4068043658293652 3.3806792255990668 2.2309362456886253 3.3445023494374109 2.0592696224494915 3.3053627968613619 1.8987783536900584 3.2552301942893003 1.7441473983816917 3.2073869438912603 1.6019724603213881 3.1387177672233593 1.4603237800340971 3.0755163524847764 1.331770960545678 3.0062025433159505 1.2101109168610071 2.9315213319893187 1.0954476289098145 2.8521874450498204 0.98781351567872011 2.7851302966610127 0.89217842424169491 2.7143098426817156 0.80215749830152905 2.6428395287261242 0.71842254779091919 2.5533794443736353 0.63645006008508753 2.4794432611434178 0.56463407422150014 2.4061700933035648 0.49833895739995981 2.3150389107586138 0.43389213190924286 2.2428159027601167 0.37817693443290706 2.1514252730523262 0.32411082341475134 2.0610642051434169 0.27527187270577597 1.990538136283966 0.23334644333336332 1.882616796999943 0.19146764114051176 1.8146603844973708 0.15778650190759408 1.7496676052916662 0.12734574558552855 1.6869378081466684 0.099805448512697154 1.6041192005073888 0.074033551321798549 1.545359466581594 0.052113229808673431 1.4902647567979388 0.032423471916480588 1.4369937553387735 0.014696688833907099 1.3653947089136651 -0.0011009892545011295 1.3180178291680138 -0.014988295217130436 1.2748297711006185 -0.027516330317711966 1.2337788553035121 -0.038828721503989791 1.1959897832143471 -0.049103120496791955 1.139636880359705 -0.057301844313507169 1.1085684211456737 -0.065596149800292894 1.0809980912790986 -0.073339928820549766 1.0580702663708348 -0.080764675941981307 1.0376014432542078 -0.087846663156452162 1.0207670557093207 -0.094791629128317387 0.98510456735095808 -0.099369275936059959 0.97570519638751119 -0.10607790123007517 0.97013992759498235 -0.11304693227094324 0.96961866190702117 -0.12055288972111325 0.97180941321877423 -0.12843743931933524 0.97796310635952299 -0.13696766531897114 0.98936287777005294 -0.14646727217256564 1.0035708109016772 -0.15672001972584093 1.0219476413240758 -0.16805582226838842 1.0457840410411416 -0.18085545420313492 1.0726066626395525 -0.19486543808384488 1.1037462096880093 -0.21047656108607846 1.1405294581464809 -0.22815144774297619 1.1804894213481938 -0.24761949156405108 1.2249584517276766 -0.26936131941679359 1.2753384535018193 -0.2939618872911563 1.3289740141352804 -0.32110716418772828 1.3873492809841674 -0.35143375670115157 1.4518566906395847 -0.38567164242463825 1.5198030375740705 -0.4235160656639359 1.6167915855812627 -0.47300461717296188 1.6943307285026119 -0.52082789149386954 1.7768009952972632 -0.5741740590078096 1.8656213311192267 -0.6341659469106633 1.9579975478244378 -0.70059046721562701 2.0567980349949879 -0.77526019168386517 2.1590059986732935 -0.85798217389987108 2.2676276907104977 -0.95096878036830756 2.3810600690673418 -1.0548347959166382 2.4975763089741725 -1.1701423039459629 2.6202079315730993 -1.2998692513546066 2.7261899147796909 -1.4337425752838058 2.8577939455564891 -1.5954568846966608 2.972217326190572 -1.7642180646419054 3.1137943253687168 -1.9686895315842821 3.2585539388486242 -2.1996762108164947 3.3879258788450701 -2.4480589081914008 3.523314909233751 -2.7329979015172365 -1.2311304214977843 0.97759285768054727 -1.6809333476323376 1.2953452297334784 -2.358811643547845 1.7439954753717857 -3.9378740138792443 2.730195680166108 -5.9942369274095677 3.7538478179091865 -4.533701479989146 2.5428430949418619 0 0
        </DataArray>
        <DataArray type="Float32" Name="u" NumberOfComponents="1">
          0 0.007874015748031496 0.015748031496062992 0.023622047244094488 0.031496062992125984 0.03937007874015748 0.047244094488188976 0.055118110236220472 0.062992125984251968 0.070866141732283464 0.07874015748031496 0.086614173228346455 0.094488188976377951 0.10236220472440945 0.11023622047244094 0.11811023622047244 0.12598425196850394 0.13385826771653545 0.14173228346456693 0.14960629921259844 0.15748031496062992 0.16535433070866143 0.17322834645669291 0.18110236220472442 0.1889763779527559 0.19685039370078741 0.20472440944881889 0.2125984251968504 0.22047244094488189 0.2283464566929134 0.23622047244094488 0.24409448818897639 0.25196850393700787 0.25984251968503935 0.26771653543307089 0.27559055118110237 0.28346456692913385 0.29133858267716534 0.29921259842519687 0.30708661417322836 0.31496062992125984 0.32283464566929132 0.33070866141732286 0.33858267716535434 0.34645669291338582 0.3543307086614173 0.36220472440944884 0.37007874015748032 0.37795275590551181 0.38582677165354329 0.39370078740157483 0.40157480314960631 0.40944881889763779 0.41732283464566927 0.42519685039370081 0.43307086614173229 0.44094488188976377 0.44881889763779526 0.45669291338582679 0.46456692913385828 0.47244094488188976 0.48031496062992124 0.48818897637795278 0.49606299212598426 0.50393700787401574 0.51181102362204722 0.51968503937007871 0.52755905511811019 0.53543307086614178 0.54330708661417326 0.55118110236220474 0.55905511811023623 0.56692913385826771 0.57480314960629919 0.58267716535433067 0.59055118110236215 0.59842519685039375 0.60629921259842523 0.61417322834645671 0.62204724409448819 0.62992125984251968 0.63779527559055116 0.64566929133858264 0.65354330708661412 0.66141732283464572 0.6692913385826772 0.67716535433070868 0.68503937007874016 0.69291338582677164 0.70078740157480313 0.70866141732283461 0.71653543307086609 0.72440944881889768 0.73228346456692917 0.74015748031496065 0.74803149606299213 0.75590551181102361 0.76377952755905509 0.77165354330708658 0.77952755905511806 0.78740157480314965 0.79527559055118113 0.80314960629921262 0.8110236220472441 0.81889763779527558 0.82677165354330706 0.83464566929133854 0.84251968503937003 0.85039370078740162 0.8582677165354331 0.86614173228346458 0.87401574803149606 0.88188976377952755 0.88976377952755903 0.89763779527559051 0.90551181102362199 0.91338582677165359 0.92125984251968507 0.92913385826771655 0.93700787401574803 0.94488188976377951 0.952755905511811 0.96062992125984248 0.96850393700787396 0.97637795275590555 0.98425196850393704 0.99212598425196852 1
        </DataArray>
      </PointData>
      <CellData Scalars="P">
        <DataArray type="Float32" Name="P" NumberOfComponents="1">
          -0.011374032020294973 -0.032809367499994656 -0.051398039729490211 -0.06621534228850999 -0.076563254186109 -0.081866469819245918 -0.081627913294399002 -0.075404130955055881 -0.062790485404938701 -0.04341023070888423 -0.016908405464558764 0.017053101408485313 0.05879923543345162 0.10864572115390225 0.16690162892955637 0.23387042793454946 0.30984821908518334 0.39512626777726045 0.48999043483094745 0.59471963709805775 0.70958543205292135 0.83485209320768994 0.9707744996397919 1.1175952886674412 1.2755458332322704 1.4448398125880328 1.6256733769775118 1.8182266579907405 2.022657199778664 2.2390784906631587 2.4675925179201061 2.7082684134288337 2.9611404327112112 3.2262021136517411 3.5034036187235338 3.7926464835232983 4.0937866062045147 4.4066202502845142 4.7308777033538281 5.0662297478139262 5.4122808846126782 5.7685637061422046 5.4601887221741503 5.1452730261221769 4.8268396438278423 4.5067106656053069 4.1873362269034926 3.8697508245081291 3.5571241599761443 3.2499230769339658 2.9496346761032908 2.6575580698331103 2.3748095971824759 2.1007575901263307 1.8362569845873953 1.581776761801591 1.3393205142320628 1.1076686429632516 0.88694628557347244 0.6788383165067966 0.4817190298802162 0.29718911703487322 0.12502811870354966 -0.036492103882983337 -0.18470077016860961 -0.32286757348226047 -0.45139594731323168 -0.57065115246519815 -0.6796093744773517 -0.7800999146973786 -0.87259642402340332 -0.9574627643530963 -1.0340767682908611 -1.1039742634531029 -1.1676073060509833 -1.22531967510767 -1.2774853059816667 -1.3237758026937192 -1.3652864097637964 -1.4023226509429187 -1.4351835810726596 -1.4640891756400494 -1.4892554392852559 -1.510655347043629 -1.5287361203735053 -1.5436168268905111 -1.5553822223757083 -1.5640828968725449 -1.5697407341416496 -1.5723334457064362 -1.5718323278280992 -1.5681705344225183 -1.5612301179075747 -1.5509157194355094 -1.5370889437691986 -1.5195569477195014 -1.4981785249507942 -1.4727677838223663 -1.4430829089274491 -1.4089693519330235 -1.3702251589788312 -1.3265976890979576 -1.2779528348996894 -1.2230568634947161 -1.1627851784347072 -1.0970141593436493 -1.0255873108623708 -0.94851911508168818 -0.86573626405394444 -0.77736586828650334 -0.68345280005479636 -0.58419138306813301 -0.47994178741748411 -0.37100719119206621 -0.25888463263374556 -0.14315766371533603 -0.025547479644033408 0.094126300461364956 0.21477058692709763 0.33434485573073303 0.4515309852119016 0.38990497276839103 0.32012482848361185 0.24163572392633206 0.14504504155675349 0.045749361533339084 0.0048239732926774956
        </DataArray>
      </CellData>
      <Points>
        <DataArray type="Float32" NumberOfComponents="3" format="ascii">
          3.8808165162158308 8.0943439963389974 0
          3.8844467257126674 8.1013314481412433 0
          3.8880463734931641 8.1083346948314148 0
          3.8915965145842861 8.1153631701473543 0
          3.8950823353475057 8.1224237699407649 0
          3.8984911237381188 8.1295218847809405 0
          3.9018114422307861 8.1366618162147528 0
          3.9050327105892566 8.1438469838858136 0
          3.9081449638121208 8.1510800438962416 0
          3.9111387008324243 8.1583629617494786 0
          3.9140047812314087 8.165697061315516 0
          3.9167343567942008 8.1730830570052486 0
          3.9193188237855252 8.1805210761588487 0
          3.9217497893775723 8.188010674909993 0
          3.9240190455727344 8.1955508502840946 0
          3.9261185502936624 8.2031400487612576 0
          3.928040415993312 8.2107761715094867 0
          3.9297769087430607 8.2184565761319739 0
          3.931320447154413 8.2261780781754013 0
          3.9326636063398821 8.2339369510647593 0
          3.9337991273030779 8.2417289248415457 0
          3.9347199287849972 8.2495491846238185 0
          3.9354191203028535 8.2573923690276008 0
          3.9358900193503921 8.2652525683041436 0
          3.9361261730518908 8.2731233226562324 0
          3.9361213783079902 8.2809976213020864 0
          3.9358697104149929 8.288867902110578 0
          3.9353655504205021 8.2967260525746855 0
          3.934603609787453 8.3045634115773552 0
          3.9335789623546753 8.3123707725272329 0
          3.9322870993988355 8.3201383917845586 0
          3.930723944524102 8.3278559944320758 0
          3.9288858920429375 8.3355127839097136 0
          3.9267698453078252 8.3430974539465836 0
          3.9243732587071891 8.3505982039271398 0
          3.9216941795545344 8.3580027572261528 0
          3.9187312921193533 8.3652983834841592 0
          3.9154839558502319 8.3724719219470884 0
          3.9119522532262723 8.3795098121611158 0
          3.9081370389379035 8.3863981305281143 0
          3.9040399793912446 8.3931226270738453 0
          3.8996635940221074 8.3996687675794046 0
          3.895011296779308 8.4060217811652826 0
          3.890569968434356 8.4125240205908405 0
          3.886338262416301 8.4191645800866013 0
          3.8823139352495968 8.4259328143981467 0
          3.8784945595913594 8.4328187713917178 0
          3.8748770264300805 8.4398128623527455 0
          3.8714583685599426 8.4469062711553047 0
          3.8682343275573516 8.4540902141859409 0
          3.865200983900102 8.4613567201182995 0
          3.8623540390710995 8.4686982450993487 0
          3.8596888617600484 8.4761076791982521 0
          3.8572005321879983 8.4835783484175291 0
          3.8548848917200904 8.4911043230495107 0
          3.8527375484341775 8.4986800215523441 0
          3.8507540701564742 8.5063002522328048 0
          3.8489289094050849 8.5139599325681363 0
          3.847257481209605 8.5216546100446209 0
          3.8457352417625863 8.5293801745392486 0
          3.8443565401222668 8.5371326304252211 0
          3.8431168977029282 8.5449085237144988 0
          3.8420106475898455 8.5527045025600543 0
          3.8410321867565509 8.5605175393004131 0
          3.8401771420068029 8.568345035140533 0
          3.8394388216964144 8.5761843939840254 0
          3.8388130120683255 8.584033528337141 0
          3.8382956831751223 8.5918905516622335 0
          3.8378829454363839 8.5997537572919196 0
          3.8375696638208532 8.6076215481616227 0
          3.837352195007147 8.6154925661450719 0
          3.8372271229609245 8.6233655914455696 0
          3.8371911447702778 8.6312395259970707 0
          3.8372398212316643 8.6391133913582383 0
          3.8373702149666462 8.6469863275936287 0
          3.8375796483494797 8.6548575590621404 0
          3.8378655763004184 8.6627263855104353 0
          3.8382256560152914 8.6705921710562066 0
          3.8386563937702856 8.6784544086033506 0
          3.8391558635184579 8.6863125850947025 0
          3.8397223561342453 8.6941662216138198 0
          3.8403544503641389 8.7020148590229329 0
          3.8410508774489047 8.709858059443615 0
          3.841810594000858 8.7176953934932975 0
          3.8426313893233819 8.7255265787590446 0
          3.8435126810774602 8.7333512005432326 0
          3.8444541246788502 8.741168827995196 0
          3.8454556883146416 8.7489789969505392 0
          3.8465175083621586 8.7567812197698611 0
          3.8476399669502985 8.7645749687644887 0
          3.8488237715187736 8.7723596561057349 0
          3.85006980367059 8.7801346472609936 0
          3.8513792035438508 8.7878992405185148 0
          3.8527534498403724 8.7956526433536748 0
          3.8541942064826764 8.8033939881801295 0
          3.8557034051260164 8.8111223080961611 0
          3.8572833274276386 8.8188365081706586 0
          3.8589364520993175 8.8265353822616781 0
          3.8606655375238184 8.834217583187101 0
          3.8624737086842065 8.8418815864183085 0
          3.8643642925348289 8.8495257096000408 0
          3.8663409100312922 8.8571480730402037 0
          3.8684075624743817 8.8647465544045563 0
          3.8705684645388079 8.8723188076665789 0
          3.8728296317176305 8.8798617640503821 0
          3.8751958737802865 8.8873724585101748 0
          3.8776723064208269 8.8948475834096605 0
          3.8802644392456926 8.9022834188411526 0
          3.8829780025423943 8.9096758458976453 0
          3.8858191251343435 8.9170202341745437 0
          3.8887941473482086 8.9243114537987385 0
          3.8919098074140996 8.9315437381219382 0
          3.8951731420843223 8.9387106456129377 0
          3.898591379580933 8.9458050250244625 0
          3.9021721275559029 8.952818830585926 0
          3.9059219617265986 8.9597437598119782 0
          3.9098490466598057 8.9665697826287118 0
          3.9139604821202996 8.9732864323286172 0
          3.9182650516507396 8.9798810263632003 0
          3.9227717364064407 8.9863392373219959 0
          3.9274885639577741 8.9926456591025943 0
          3.9324239353003057 8.998782617758522 0
          3.9372831383063045 9.0049804478824544 0
          3.9420383079966848 9.0112589260337508 0
          3.9466474365766304 9.0176459808349687 0
          3.9510126274865707 9.0242029800390391 0
          3.9550063367675339 9.0309937286217252 0
          3.9587184760334284 9.0379419214309351 0
        </DataArray>
      </Points>
      <Cells>
        <DataArray type="Int32" Name="connectivity" format="ascii">
          0 1 1 2 2 3 3 4 4 5 5 6 6 7 7 8 8 9 9 10 10 11 11 12 12 13 13 14 14 15 15 16 16 17 17 18 18 19 19 20 20 21 21 22 22 23 23 24 24 25 25 26 26 27 27 28 28 29 29 30 30 31 31 32 32 33 33 34 34 35 35 36 36 37 37 38 38 39 39 40 40 41 41 42 42 43 43 44 44 45 45 46 46 47 47 48 48 49 49 50 50 51 51 52 52 53 53 54 54 55 55 56 56 57 57 58 58 59 59 60 60 61 61 62 62 63 63 64 64 65 65 66 66 67 67 68 68 69 69 70 70 71 71 72 72 73 73 74 74 75 75 76 76 77 77 78 78 79 79 80 80 81 81 82 82 83 83 84 84 85 85 86 86 87 87 88 88 89 89 90 90 91 91 92 92 93 93 94 94 95 95 96 96 97 97 98 98 99 99 100 100 101 101 102 102 103 103 104 104 105 105 106 106 107 107 108 108 109 109 110 110 111 111 112 112 113 113 114 114 115 115 116 116 117 117 118 118 119 119 120 120 121 121 122 122 123 123 124 124 125 125 126 126 127 
        </DataArray>
        <DataArray type="Int32" Name="offsets" format="ascii">
          2 4 6 8 10 12 14 16 18 20 22 24 26 28 30 32 34 36 38 40 42 44 46 48 50 52 54 56 58 60 62 64 66 68 70 72 74 76 78 80 82 84 86 88 90 92 94 96 98 100 102 104 106 108 110 112 114 116 118 120 122 124 126 128 130 132 134 136 138 140 142 144 146 148 150 152 154 156 158 160 162 164 166 168 170 172 174 176 178 180 182 184 186 188 190 192 194 196 198 200 202 204 206 208 210 212 214 216 218 220 222 224 226 228 230 232 234 236 238 240 242 244 246 248 250 252 254 
        </DataArray>
        <DataArray type="Int32" Name="types" format="ascii">
          3 3 3 3 3 3 3 3 3 3 3 3 3 3 3 3 3 3 3 3 3 3 3 3 3 3 3 3 3 3 3 3 3 3 3 3 3 3 3 3 3 3 3 3 3 3 3 3 3 3 3 3 3 3 3 3 3 3 3 3 3 3 3 3 3 3 3 3 3 3 3 3 3 3 3 3 3 3 3 3 3 3 3 3 3 3 3 3 3 3 3 3 3 3 3 3 3 3 3 3 3 3 3 3 3 3 3 3 3 3 3 3 3 3 3 3 3 3 3 3 3 3 3 3 3 3 3         </DataArray>
      </Cells>
    </Piece>
  </UnstructuredGrid>
</VTKFile>
