<?xml version="1.0"?>
<VTKFile type="UnstructuredGrid" version="0.1" byte_order="LittleEndian">
  <UnstructuredGrid>
    <Piece NumberOfPoints="128" NumberOfCells="127">
      <PointData Scalars="W">
        <DataArray type="Float32" Name="W" NumberOfComponents="2">
          0 0 -0.19594382519388898 0.099107150318826776 -0.35546878386618264 0.17871000871090351 -0.48929365248483037 0.24371463889376097 -0.61096150937554505 0.30064024041443277 -0.72596768906359732 0.35196548200029198 -0.83700310453279148 0.3987641575976727 -0.94561254167644226 0.44153838041470644 -1.0527581597003211 0.48050188491493445 -1.1591330264963211 0.51573417674282385 -1.2651811997807489 0.54719473121140871 -1.3712614404823407 0.57480049277829837 -1.4776455756990867 0.59842587133093694 -1.5845275851882343 0.61790869876917331 -1.6920826636763118 0.63307498482856528 -1.8004428436432287 0.64372876107401833 -1.9096145580901662 0.64962590180763802 -2.0196543622106069 0.65053988615774683 -2.1305353938000779 0.64621482941652819 -2.2421646511486504 0.63637736795014566 -2.3544229942805877 0.6207527433554183 -2.4671837887089865 0.59907060957914748 -2.5802708066389926 0.57105522585234492 -2.6934708221786017 0.53643230298715117 -2.8065366959658942 0.49493255738925201 -2.9191291243130588 0.44628623611977009 -3.030921513415934 0.39024671836232944 -3.1416068616672814 0.32658763075367464 -3.250741619344621 0.25508749413262832 -3.3575414801953385 0.17554086280804768 -3.4618729908998174 0.087824233343134508 -3.5631920725197248 -0.0081940373130136839 -3.660915597097437 -0.11260494785518443 -3.7544196359656632 -0.22545270782169341 -3.8430612516197815 -0.34673003268570723 -3.9261883475863839 -0.47637574774055313 -4.0032070727415618 -0.61428379795532151 -4.0733580835649636 -0.760268356226943 -4.1358464559889638 -0.91405949621459259 -4.1900130815217382 -1.0753382522597039 -4.2351615216695837 -1.2437069134020744 -4.2705760910208861 -1.4186816596534351 4.2236423155037768 1.4039982684212249 4.1587096010480087 1.2244068547102998 4.0836715687404723 1.0542889886407973 4.0322706434357922 0.90076975228866507 3.941702559673864 0.74874073603972346 3.8778949272754808 0.61174758026161757 3.7749340058611285 0.47826822729338347 3.7012911309632885 0.35792064331171247 3.6239564557423791 0.24484385678076628 3.5435085085314917 0.13896546569183227 3.4604752959562632 0.040174129283550873 3.3753323528769017 -0.051672506226947065 3.2885491611586635 -0.13674283280572991 3.1283993248794815 -0.20948083623313571 3.002845190472899 -0.27425174733016472 2.8760435739374515 -0.33031054101766621 2.706745971605065 -0.3717907853322992 2.5774595212091596 -0.4094328969924641 2.4479749521677969 -0.43939569970924219 2.3185842556141303 -0.4620460795810763 2.1403859574572257 -0.46659023795696419 2.0104681989261355 -0.47369245371918267 1.8278585028339469 -0.46078866135328145 1.6965694858969373 -0.45365494779757409 1.6231541640134965 -0.45768451601925997 1.5510817255229941 -0.45922510334795508 1.4255524610658588 -0.44111429679414949 1.3580413996162115 -0.43738728116234582 1.2933787456612316 -0.43230093296084332 1.172799311977015 -0.40541486100014495 1.1123377674544452 -0.39642718745735783 1.0548275162097382 -0.38675171818883913 0.99898352944229385 -0.3760832822703814 0.88682902183327672 -0.34192924821497017 0.83680900561572613 -0.32966369570378268 0.78852382240126395 -0.31693199154833135 0.74270114806353971 -0.30414148344694836 0.70014564143481017 -0.29175212791516097 0.59953192862380411 -0.25373997819983901 0.56174136703916211 -0.24104457134033352 0.52663343138963015 -0.22889610414667486 0.49499335686371315 -0.2177323918343943 0.46546660086561631 -0.20704559906159656 0.3774476289454356 -0.16953964202432206 0.35477893309493025 -0.16070770634759016 0.33444215053838694 -0.15269866043834768 0.31730746748957395 -0.14595906346128765 0.30427449045240501 -0.14095887024472786 0.23077769940952769 -0.10756233842085852 0.2241389117903772 -0.10500794424193298 0.22204337719116288 -0.10455218420295667 0.22305018742019922 -0.10555478532949177 0.22814245370907002 -0.10851414376700205 0.17252561662023563 -0.082430422011055063 0.18731180810043394 -0.089856710026024716 0.20595132854516252 -0.099234010404798581 0.23040553657977872 -0.1115589858192996 0.19221946393374598 -0.093509078978821811 0.22659525745757955 -0.11074641976354639 0.26760840791427276 -0.13151039532809666 0.31377320727927882 -0.1551925310156598 0.29831623909977573 -0.14854771002549486 0.35780438522967017 -0.17946150872303229 0.42440005256801078 -0.21469838510643305 0.42851972995714632 -0.21881369777720919 0.51174587119046833 -0.26400190267712914 0.60238835179892558 -0.3145425759245421 0.63010084140388845 -0.33342197444446986 0.7392771895629825 -0.39699474250436523 0.7846782956003775 -0.42829948916709037 0.91575176078727294 -0.50896832329857056 0.98026291058508674 -0.5558624314619337 1.1347294393820919 -0.65793230629918908 1.2233289588861076 -0.72701742176024187 1.3238457594603203 -0.80788131466713498 1.4371975172840497 -0.90248272650391304 1.9612354049908711 -1.2754632838419162 2.1296103079348438 -1.4443482573812019 1.3364546652847533 -0.93910907558037837 1.5489635110960611 -1.1210649511979744 1.21788408939143 -0.90676442578343019 1.540919349951275 -1.1802385727143945 2.2105360493258277 -1.759912049776422 3.504180839625592 -2.9609841960332006 3.4825294404581864 -3.1682426905273684 0 0
        </DataArray>
        <DataArray type="Float32" Name="u" NumberOfComponents="1">
          0 0.007874015748031496 0.015748031496062992 0.023622047244094488 0.031496062992125984 0.03937007874015748 0.047244094488188976 0.055118110236220472 0.062992125984251968 0.070866141732283464 0.07874015748031496 0.086614173228346455 0.094488188976377951 0.10236220472440945 0.11023622047244094 0.11811023622047244 0.12598425196850394 0.13385826771653545 0.14173228346456693 0.14960629921259844 0.15748031496062992 0.16535433070866143 0.17322834645669291 0.18110236220472442 0.1889763779527559 0.19685039370078741 0.20472440944881889 0.2125984251968504 0.22047244094488189 0.2283464566929134 0.23622047244094488 0.24409448818897639 0.25196850393700787 0.25984251968503935 0.26771653543307089 0.27559055118110237 0.28346456692913385 0.29133858267716534 0.29921259842519687 0.30708661417322836 0.31496062992125984 0.32283464566929132 0.33070866141732286 0.33858267716535434 0.34645669291338582 0.3543307086614173 0.36220472440944884 0.37007874015748032 0.37795275590551181 0.38582677165354329 0.39370078740157483 0.40157480314960631 0.40944881889763779 0.41732283464566927 0.42519685039370081 0.43307086614173229 0.44094488188976377 0.44881889763779526 0.45669291338582679 0.46456692913385828 0.47244094488188976 0.48031496062992124 0.48818897637795278 0.49606299212598426 0.50393700787401574 0.51181102362204722 0.51968503937007871 0.52755905511811019 0.53543307086614178 0.54330708661417326 0.55118110236220474 0.55905511811023623 0.56692913385826771 0.57480314960629919 0.58267716535433067 0.59055118110236215 0.59842519685039375 0.60629921259842523 0.61417322834645671 0.62204724409448819 0.62992125984251968 0.63779527559055116 0.64566929133858264 0.65354330708661412 0.66141732283464572 0.6692913385826772 0.67716535433070868 0.68503937007874016 0.69291338582677164 0.70078740157480313 0.70866141732283461 0.71653543307086609 0.72440944881889768 0.73228346456692917 0.74015748031496065 0.74803149606299213 0.75590551181102361 0.76377952755905509 0.77165354330708658 0.77952755905511806 0.78740157480314965 0.79527559055118113 0.80314960629921262 0.8110236220472441 0.81889763779527558 0.82677165354330706 0.83464566929133854 0.84251968503937003 0.85039370078740162 0.8582677165354331 0.86614173228346458 0.87401574803149606 0.88188976377952755 0.88976377952755903 0.89763779527559051 0.90551181102362199 0.91338582677165359 0.92125984251968507 0.92913385826771655 0.93700787401574803 0.94488188976377951 0.952755905511811 0.96062992125984248 0.96850393700787396 0.97637795275590555 0.98425196850393704 0.99212598425196852 1
        </DataArray>
      </PointData>
      <CellData Scalars="P">
        <DataArray type="Float32" Name="P" NumberOfComponents="1">
          0.00017239683542181818 0.00076146370805279357 0.0020459247528630329 0.004434091118976277 0.0083450875833644567 0.014220301235887536 0.02252527889409945 0.033749145292797197 0.048402644327720547 0.067016377387164427 0.09013725903723574 0.11832605090193807 0.15215421197726464 0.19220021220997735 0.23904674616397265 0.29327713567854646 0.35546865173747305 0.42619058529022913 0.50599802803193528 0.59542544836703437 0.6949812948867542 0.80514326378361067 0.92635165407213571 1.0590029498748064 1.2034433393741566 1.3599589733121016 1.5287713381600045 1.7100334240687407 1.9038170963413079 2.1100870973499695 2.3287348306367455 2.5595495277768698 2.8022110070139337 3.0562825336518387 3.3212054401487792 3.5962948953022056 3.8807409621688196 4.1735945756315758 4.4737629447998533 4.7800181202448551 5.0909941011256477 5.4051860657155943 5.0994849792245533 4.7936894998493811 4.4891961394548501 4.1847104158821358 3.8838794759560398 3.5850807060261349 3.2919875136704118 3.0026907068175062 2.7179292340584431 2.4383779598756696 2.1646505123755282 1.8973025946042987 1.6368316598788835 1.389712361160826 1.1533854236514611 0.92823987356958693 0.71803777049016504 0.51967440945242249 0.33332988852256445 0.15911821795938436 0.0010062060074840361 -0.14485928856040128 -0.27442408180203282 -0.39179336298106759 -0.50141844718753004 -0.60341131905036793 -0.69400226001633381 -0.77747254758669659 -0.85409878802865269 -0.92032935441864461 -0.98032463455971985 -1.034403112762325 -1.0828108497234896 -1.1225717965532196 -1.1574673089942122 -1.1877654021265027 -1.2137727564527898 -1.235827995959714 -1.2517131717623577 -1.2644075457208952 -1.2741997689497659 -1.2813898464666453 -1.2862157664753642 -1.2873774460639054 -1.2868856822992811 -1.2849291122107249 -1.2816914345102319 -1.2773384838399462 -1.2714988320348917 -1.2649876732362642 -1.2578673258298947 -1.2501596787320328 -1.2418514749591032 -1.2335308967723435 -1.2246779130692091 -1.215157681240707 -1.2047643417040459 -1.1948323557412175 -1.1837418783609113 -1.1711344407976068 -1.1566567054434795 -1.1422721365106481 -1.1253192416798439 -1.1052933297400072 -1.0846255456827048 -1.0598983372559703 -1.030570351498713 -0.99949616694196097 -0.96277003074639922 -0.92354364399111577 -0.87762124644592954 -0.82856044979276289 -0.77206979530847786 -0.71196992062933484 -0.6482747066775747 -0.58116430617145454 -0.49252229812872989 -0.40123364323710026 -0.32695476958967473 -0.25225441215128436 -0.19750714009557993 -0.14279093420312899 -0.085307629258634471 -0.032383423552112392 -0.0023906014301832883
        </DataArray>
      </CellData>
      <Points>
        <DataArray type="Float32" NumberOfComponents="3" format="ascii">
          4.1090983575875173 5.9911600731762666 0
          4.1126584063209828 5.9981835300395492 0
          4.1162063034645584 6.0052131268573516 0
          4.119732156775739 6.0122537966383165 0
          4.1232276680232154 6.0193095681448625 0
          4.126685293100679 6.02638396975434 0
          4.1300979012191021 6.0334801829925722 0
          4.1334586080116873 6.0406011090269649 0
          4.1367606797150343 6.0477493997434832 0
          4.1399974734814897 6.0549274709593037 0
          4.1431623943798943 6.0621375073225083 0
          4.146248867838187 6.0693814597758813 0
          4.1492503173766035 6.0766610403879655 0
          4.1521601477325554 6.0839777145499436 0
          4.1549717328135856 6.0913326909068637 0
          4.15767840481635 6.0987269105575193 0
          4.1602734460229573 6.1061610348928745 0
          4.162750088385776 6.113635430449631 0
          4.1651015100058251 6.1211501548559601 0
          4.1673208367842829 6.1287049409571681 0
          4.1694011481758508 6.1362991798579918 0
          4.1713354845638921 6.1439319038786824 0
          4.1731168551014273 6.1516017697847856 0
          4.1747382486281372 6.1593070416825668 0
          4.1761926468824644 6.1670455740044972 0
          4.1774730398175448 6.1748147948051333 0
          4.1785724466325318 6.1826116890279463 0
          4.1794839360170846 6.1904327832064041 0
          4.1802006451822589 6.198274131420475 0
          4.1807158073585144 6.2061313015566979 0
          4.1810228004218777 6.2139993625624594 0
          4.1811151551679124 6.2218728767809086 0
          4.1809865890455473 6.2297458917814614 0
          4.1806310423128012 6.2376119347105394 0
          4.1800427167229346 6.2454640095435616 0
          4.1792161153898055 6.2532945975299361 0
          4.1781460832216144 6.2610956609796382 0
          4.1768278437437099 6.268858649832775 0
          4.1752570461824208 6.2765745131754356 0
          4.1734298147551376 6.2842337159701422 0
          4.1713427895395911 6.2918262588270624 0
          4.1689931696575036 6.2993417026578049 0
          4.1663787576513371 6.3067691986682197 0
          4.1640262227064859 6.3142837492476973 0
          4.16193153919673 6.3218742188557009 0
          4.1600900548695234 6.3295300593113923 0
          4.1584985828897283 6.337241752047218 0
          4.1571515080120287 6.3449998704328596 0
          4.15604487410027 6.3527959205815954 0
          4.1551722974466934 6.3606216259843658 0
          4.1545292120653068 6.3684695248341212 0
          4.1541108230746167 6.3763326061400223 0
          4.1539121425686796 6.3842043052352402 0
          4.1539280223551254 6.392078496870357 0
          4.1541531834392593 6.3999494863837185 0
          4.1545822451324161 6.407811999257941 0
          4.1552052776835966 6.415661524529165 0
          4.1560144963437704 6.4234940457296039 0
          4.1570020389661817 6.4313060865437546 0
          4.158157408368397 6.4390950739270885 0
          4.1594725881993888 6.4468586733986761 0
          4.1609395497814869 6.4545950266012495 0
          4.1625502702179018 6.4623027285560184 0
          4.1642937001885016 6.4699814962037596 0
          4.1661617840193044 6.4776308885801948 0
          4.1681431987651596 6.4852517044055586 0
          4.1702298036714627 6.4928443853823721 0
          4.1724170465336599 6.5004086818411455 0
          4.1747004584278082 6.5079444984115637 0
          4.1770722557684818 6.5154529574347295 0
          4.1795282524828004 6.5229342901575409 0
          4.1820644391288848 6.5303888121047109 0
          4.1846733390874249 6.5378181897387018 0
          4.1873512034373412 6.5452229804934934 0
          4.1900944662680297 6.5526037844485181 0
          4.1928996649991719 6.5599612632372253 0
          4.1957598455023888 6.5672975340493664 0
          4.198671906359027 6.5746133576038917 0
          4.2016328537353136 6.5819095235208556 0
          4.2046398465024737 6.5891868250763688 0
          4.207690246129614 6.5964460306951969 0
          4.2107778142591936 6.6036894970079576 0
          4.2139002078809886 6.6109180115200488 0
          4.2170552503444885 6.6181323278597004 0
          4.2202409800475786 6.6253331386441241 0
          4.2234555664524516 6.6325211069644912 0
          4.2266935524077729 6.639698558510438 0
          4.2299535327141982 6.6468660415834986 0
          4.2332342468028008 6.6540240535433695 0
          4.236534632693397 6.6611730131368168 0
          4.239853882776357 6.6683132313743956 0
          4.2431874407445997 6.6754467799556449 0
          4.2465348956320916 6.6825738186236361 0
          4.2498961182440702 6.6896943771664192 0
          4.2532711718325329 6.6968083951349975 0
          4.2566603730628181 6.7039156909640258 0
          4.2600602748964089 6.7110178843280828 0
          4.2634717953601946 6.7181145173429124 0
          4.266896091562149 6.7252050114532338 0
          4.2703346813186354 6.7322886056564775 0
          4.2737851992190512 6.7393664232774713 0
          4.2772497787810284 6.7464373996868927 0
          4.2807309653504495 6.7535002520153 0
          4.2842316240482985 6.7605535169326192 0
          4.2877508001902216 6.7675976131108566 0
          4.2912921859371025 6.7746306301273345 0
          4.2948599147135251 6.7816503900826968 0
          4.2984542474710761 6.7886566469602814 0
          4.302080350287639 6.7956466073354518 0
          4.3057438500274507 6.8026171465382657 0
          4.3094464733445115 6.8095671059063019 0
          4.3131949987008511 6.8164925542496286 0
          4.3169922523104658 6.8233915644652905 0
          4.3208463736426275 6.8302591465506506 0
          4.3247613775834139 6.8370924084798812 0
          4.3287468585213116 6.8438850338358836 0
          4.332808329916995 6.8506327553340993 0
          4.3369520471984115 6.8573305755237373 0
          4.3411850650499026 6.863972644797129 0
          4.3455399058363913 6.8705358214947925 0
          4.3500270436038146 6.8770096396008835 0
          4.3545966916623735 6.8834246235916083 0
          4.3592620694261042 6.8897695841742568 0
          4.3640026972608146 6.8960579256386465 0
          4.3688386457515662 6.9022727660741232 0
          4.3738114699984907 6.9083782319901008 0
          4.3790016493715331 6.9143001835971285 0
          4.3844078621072198 6.9200257728527665 0
        </DataArray>
      </Points>
      <Cells>
        <DataArray type="Int32" Name="connectivity" format="ascii">
          0 1 1 2 2 3 3 4 4 5 5 6 6 7 7 8 8 9 9 10 10 11 11 12 12 13 13 14 14 15 15 16 16 17 17 18 18 19 19 20 20 21 21 22 22 23 23 24 24 25 25 26 26 27 27 28 28 29 29 30 30 31 31 32 32 33 33 34 34 35 35 36 36 37 37 38 38 39 39 40 40 41 41 42 42 43 43 44 44 45 45 46 46 47 47 48 48 49 49 50 50 51 51 52 52 53 53 54 54 55 55 56 56 57 57 58 58 59 59 60 60 61 61 62 62 63 63 64 64 65 65 66 66 67 67 68 68 69 69 70 70 71 71 72 72 73 73 74 74 75 75 76 76 77 77 78 78 79 79 80 80 81 81 82 82 83 83 84 84 85 85 86 86 87 87 88 88 89 89 90 90 91 91 92 92 93 93 94 94 95 95 96 96 97 97 98 98 99 99 100 100 101 101 102 102 103 103 104 104 105 105 106 106 107 107 108 108 109 109 110 110 111 111 112 112 113 113 114 114 115 115 116 116 117 117 118 118 119 119 120 120 121 121 122 122 123 123 124 124 125 125 126 126 127 
        </DataArray>
        <DataArray type="Int32" Name="offsets" format="ascii">
          2 4 6 8 10 12 14 16 18 20 22 24 26 28 30 32 34 36 38 40 42 44 46 48 50 52 54 56 58 60 62 64 66 68 70 72 74 76 78 80 82 84 86 88 90 92 94 96 98 100 102 104 106 108 110 112 114 116 118 120 122 124 126 128 130 132 134 136 138 140 142 144 146 148 150 152 154 156 158 160 162 164 166 168 170 172 174 176 178 180 182 184 186 188 190 192 194 196 198 200 202 204 206 208 210 212 214 216 218 220 222 224 226 228 230 232 234 236 238 240 242 244 246 248 250 252 254 
        </DataArray>
        <DataArray type="Int32" Name="types" format="ascii">
          3 3 3 3 3 3 3 3 3 3 3 3 3 3 3 3 3 3 3 3 3 3 3 3 3 3 3 3 3 3 3 3 3 3 3 3 3 3 3 3 3 3 3 3 3 3 3 3 3 3 3 3 3 3 3 3 3 3 3 3 3 3 3 3 3 3 3 3 3 3 3 3 3 3 3 3 3 3 3 3 3 3 3 3 3 3 3 3 3 3 3 3 3 3 3 3 3 3 3 3 3 3 3 3 3 3 3 3 3 3 3 3 3 3 3 3 3 3 3 3 3 3 3 3 3 3 3         </DataArray>
      </Cells>
    </Piece>
  </UnstructuredGrid>
</VTKFile>
