<?xml version="1.0"?>
<VTKFile type="UnstructuredGrid" version="0.1" byte_order="LittleEndian">
  <UnstructuredGrid>
    <Piece NumberOfPoints="128" NumberOfCells="127">
      <PointData Scalars="W">
        <DataArray type="Float32" Name="W" NumberOfComponents="2">
          0 0 -0.54525657547680639 0.20569991648452077 -0.88196582792405964 0.32669585334072015 -1.142887003641949 0.4123498834710484 -1.3645102142090892 0.47621911555330221 -1.5616880302594625 0.52379400722096225 -1.7419150180052607 0.55783925956111524 -1.9095378754380017 0.57996528623279964 -2.0672741252729785 0.59119495711541103 -2.216975796537203 0.5922403061309931 -2.3598735517062512 0.5835999512558 -2.4968278028308899 0.5656485139668056 -2.628447377454679 0.53867874159204154 -2.7552063472576571 0.5029342644502085 -2.87745336588491 0.45861363991909748 -2.9954087084594105 0.40587497492157099 -3.1091187733620052 0.34483986210985118 -3.2186345093830986 0.27562440098537866 -3.3239267910531689 0.19832809842170379 -3.4248820027885718 0.11304055585955723 -3.521352519346364 0.019849897856955723 -3.613177836638044 -0.081156438652781784 -3.7001373599388918 -0.18989019807551707 -3.7819471478820046 -0.3062549443926042 -3.8583568457576822 -0.43014979046335466 -3.9289898602772442 -0.56145290025662986 -3.9935008285444864 -0.70002986507462295 -4.0515973816428241 -0.8457463133524401 -4.1028813554885994 -0.99843954553354353 -4.1466034331779076 -1.1578254210740913 -4.1826592195027459 -1.3237538329454723 -4.210583051203912 -1.4959773772826579 -4.2299207264086149 -1.6742250808336196 -4.2401713747480017 -1.8581780561762664 -4.2408456820024272 -2.0474856600701163 -4.2314304027770104 -2.2417466492401248 -4.2115084903545066 -2.4405716822653671 -4.1805223736212778 -2.6434535565476183 -4.1379015940803976 -2.8498084784641695 -4.0832260932164237 -3.0590879057327376 -4.0160496954910867 -3.2706741532032586 -3.9359240859807225 -3.4838825728365244 3.3285996848036294 2.965031417877833 3.3552121847059757 2.7859862125140933 3.3680104087157687 2.6086896383708571 3.3736659567016347 2.4384901946903832 3.3679374562220374 2.2720376349967975 3.3586718530972366 2.1144237438612228 3.3329495625924719 1.9573753518243426 3.3061247127247744 1.8102485114318829 3.2718881906763371 1.6688223636786501 3.2309646468250786 1.5333784549801084 3.1840643795116983 1.4041202067486542 3.1414397760855413 1.284943339840553 3.0940327453242897 1.1712423784419532 3.0439489586837238 1.0636166157802198 2.9811635264974994 0.95867689465315375 2.9257798064059535 0.86288738022893363 2.8692752314562067 0.7727780449026691 2.8008102854701709 0.68550661398814428 2.7425448572118833 0.60644526883860816 2.6719223725006507 0.53006323884471507 2.6011980921871318 0.45915224049462444 2.5418770368446331 0.39506455086633052 2.4597114607539656 0.33231208307909282 2.4014076594250753 0.27738464402586682 2.3448745238547422 0.2262927694190687 2.2898194316080676 0.17871549334833547 2.2228574678788338 0.13371028431983592 2.170754899202882 0.092874829253588878 2.1213045041939012 0.054847547479626571 2.0734817745927083 0.019349405893591836 2.0151872473844605 -0.01363550387786368 1.9722121636462833 -0.044317156310224599 1.932512152168101 -0.073175728829950035 1.8949038820048858 -0.10039515075645006 1.8601168127101824 -0.12620334811236497 1.8150361193798616 -0.1496307460469686 1.7861561968103448 -0.17288080936041511 1.7603574990740385 -0.1953631998541642 1.7383552498434256 -0.2173694403575821 1.7188578905306726 -0.23894248035347834 1.7025913539074722 -0.26035360470665281 1.6761197209515866 -0.27946220408650008 1.6664912015289037 -0.30078780929899424 1.660244849731064 -0.32256184279085259 1.6581024121773984 -0.34513780756486612 1.6586688066421422 -0.3684372820868777 1.6626839773736808 -0.39280760143295468 1.6708952970515696 -0.41865595666415784 1.6818389264306981 -0.44584960192661272 1.6963006935421903 -0.47480474623587438 1.7150100701600044 -0.50599042970995323 1.7364745291697443 -0.53924004447320528 1.7614369285950648 -0.57503497320097563 1.7906187468246975 -0.61392802278768233 1.8225186496717587 -0.65573917274261662 1.8578457150305501 -0.70104088380941887 1.8973239915153191 -0.75050541052070452 1.9393218655297266 -0.80391367676859182 1.9845867324954134 -0.86198971127487778 2.0337783370347355 -0.9255401965077259 2.0852082201879032 -0.99435924768445805 2.1530989995976713 -1.0762626654611145 2.2098511996124492 -1.1584692002823165 2.2690713998032628 -1.2480490249869352 2.3312703235028223 -1.3461484338072263 2.3945846017396013 -1.4526489140021619 2.4602312464788416 -1.5693223943484347 2.5261437349257192 -1.6960649757919652 2.5934687171016337 -1.8349725400779486 2.6607699953575241 -1.9866505852736889 2.7264971606113595 -2.1516678172069721 2.7914954237454306 -2.3327072817560612 2.843293186086417 -2.5210060882863914 2.9026290546853337 -2.7371402595258285 2.9466327271167292 -2.9633652863179925 2.9960308327451566 -3.223892731494761 3.036979008607164 -3.5107318689318978 3.0588861898585606 -3.816650799324496 3.0697832478816349 -4.1575063337465137 0.93929682122439784 -1.3462156393117954 0.80828165366596361 -1.1889054484160526 0.60423362780989631 -0.90808613584468545 0.072034841449264295 -0.10939677505576799 -0.58333504266294367 0.87891089879136364 -1.3320020871952349 1.9494835778838326 0 0
        </DataArray>
        <DataArray type="Float32" Name="u" NumberOfComponents="1">
          0 0.007874015748031496 0.015748031496062992 0.023622047244094488 0.031496062992125984 0.03937007874015748 0.047244094488188976 0.055118110236220472 0.062992125984251968 0.070866141732283464 0.07874015748031496 0.086614173228346455 0.094488188976377951 0.10236220472440945 0.11023622047244094 0.11811023622047244 0.12598425196850394 0.13385826771653545 0.14173228346456693 0.14960629921259844 0.15748031496062992 0.16535433070866143 0.17322834645669291 0.18110236220472442 0.1889763779527559 0.19685039370078741 0.20472440944881889 0.2125984251968504 0.22047244094488189 0.2283464566929134 0.23622047244094488 0.24409448818897639 0.25196850393700787 0.25984251968503935 0.26771653543307089 0.27559055118110237 0.28346456692913385 0.29133858267716534 0.29921259842519687 0.30708661417322836 0.31496062992125984 0.32283464566929132 0.33070866141732286 0.33858267716535434 0.34645669291338582 0.3543307086614173 0.36220472440944884 0.37007874015748032 0.37795275590551181 0.38582677165354329 0.39370078740157483 0.40157480314960631 0.40944881889763779 0.41732283464566927 0.42519685039370081 0.43307086614173229 0.44094488188976377 0.44881889763779526 0.45669291338582679 0.46456692913385828 0.47244094488188976 0.48031496062992124 0.48818897637795278 0.49606299212598426 0.50393700787401574 0.51181102362204722 0.51968503937007871 0.52755905511811019 0.53543307086614178 0.54330708661417326 0.55118110236220474 0.55905511811023623 0.56692913385826771 0.57480314960629919 0.58267716535433067 0.59055118110236215 0.59842519685039375 0.60629921259842523 0.61417322834645671 0.62204724409448819 0.62992125984251968 0.63779527559055116 0.64566929133858264 0.65354330708661412 0.66141732283464572 0.6692913385826772 0.67716535433070868 0.68503937007874016 0.69291338582677164 0.70078740157480313 0.70866141732283461 0.71653543307086609 0.72440944881889768 0.73228346456692917 0.74015748031496065 0.74803149606299213 0.75590551181102361 0.76377952755905509 0.77165354330708658 0.77952755905511806 0.78740157480314965 0.79527559055118113 0.80314960629921262 0.8110236220472441 0.81889763779527558 0.82677165354330706 0.83464566929133854 0.84251968503937003 0.85039370078740162 0.8582677165354331 0.86614173228346458 0.87401574803149606 0.88188976377952755 0.88976377952755903 0.89763779527559051 0.90551181102362199 0.91338582677165359 0.92125984251968507 0.92913385826771655 0.93700787401574803 0.94488188976377951 0.952755905511811 0.96062992125984248 0.96850393700787396 0.97637795275590555 0.98425196850393704 0.99212598425196852 1
        </DataArray>
      </PointData>
      <CellData Scalars="P">
        <DataArray type="Float32" Name="P" NumberOfComponents="1">
          -0.010832402976080336 -0.031043661444368167 -0.048135166067288467 -0.06114883251005139 -0.069399633252204732 -0.072355779049513735 -0.069586267289640055 -0.060731249768682237 -0.04548366267654555 -0.023575568344235857 0.0052301405698751179 0.041146525627741203 0.084367891075916329 0.1350751173588568 0.19343948143234702 0.25962489309216585 0.33378738908407096 0.41607871055236945 0.50664687363844674 0.60563583509293872 0.71318623482160981 0.82943657898030743 0.95452241189290188 1.0885748575992542 1.2317226961052041 1.384087701348834 1.5457860434237762 1.7169308834813704 1.8976276923960838 2.0879563299858144 2.2880015347558889 2.497835030385704 2.7175150103008461 2.9470822041754108 3.1865587477106088 3.435944694833962 3.6952217728677628 3.9643419778776341 4.2432228306050543 4.5317538606376848 4.8297911569975209 5.1371527465097913 4.8406864357980792 4.5350710073420419 4.2230026274775927 3.9064761945494975 3.5877777565956102 3.2683610220247159 2.9507938910082068 2.6360980852427591 2.3257945000170781 2.021239296578023 1.7236272204412977 1.4331272605740801 1.150672657125611 0.87692869374914273 0.61335812890138142 0.35958970916662075 0.11595080489697353 -0.11641085689106047 -0.33822099857560717 -0.54845566176434901 -0.74713399630580446 -0.93513881509747987 -1.1109491286715969 -1.2763521659166308 -1.4315698647843609 -1.5768213737503891 -1.7115789194804902 -1.8368988428743944 -1.9531007098773492 -2.0604528155275257 -2.1586944582240206 -2.2487484550398569 -2.3309472705492587 -2.4055665609846799 -2.4728989991555035 -2.5328643932014145 -2.5861406369964488 -2.632978572429038 -2.6736212801784141 -2.7082660628150017 -2.7371027948445126 -2.7602067192286679 -2.7778654767892221 -2.7902002726146153 -2.7973063929982382 -2.7992575835113356 -2.7961050529495455 -2.78786863073951 -2.7745631820651062 -2.7561764031334346 -2.7326618220893346 -2.7039862060584774 -2.6700882666644863 -2.6308728072137515 -2.5862771813328589 -2.5362127605646094 -2.4805595030598937 -2.4192545891036876 -2.3522118962327228 -2.2793218529618362 -2.2005557494597143 -2.1152320594633469 -2.0239544132149536 -1.9267414646645 -1.8236113789359032 -1.7147076190061388 -1.6001470944260983 -1.4801970061173406 -1.3551096822738544 -1.2252660230184607 -1.0911904006984059 -0.95342303002419637 -0.81327206595969759 -0.67096841351503556 -0.52808338083657314 -0.38513776107343778 -0.24349329011724294 -0.10516389247553654 0.028157231174650976 0.053533532137068497 0.069238347630606614 0.073512899314843061 0.059362982759045675 0.032850842850981242 0.005770738003747943
        </DataArray>
      </CellData>
      <Points>
        <DataArray type="Float32" NumberOfComponents="3" format="ascii">
          3.9124267755414404 8.1263675214596756 0
          3.9152230716240868 8.1337285838889262 0
          3.9179855594037187 8.1411024008152513 0
          3.9206933614384645 8.1484964746863415 0
          3.9233302994565382 8.1559161165247236 0
          3.9258826318153592 8.1633652865541784 0
          3.9283381325808202 8.1708469346424994 0
          3.9306856268345323 8.1783631717301937 0
          3.9329147211625703 8.1859153696861462 0
          3.9350156351602323 8.1935042247319991 0
          3.9369790866012315 8.2011298015928453 0
          3.9387962151343867 8.2087915644149696 0
          3.9404585289374916 8.2164883999952067 0
          3.9419578669705344 8.2242186359337506 0
          3.9432863695843627 8.2319800557416212 0
          3.9444364569057915 8.2397699111535783 0
          3.9454008151826945 8.2475849319331207 0
          3.9461723939101652 8.2554213334137128 0
          3.9467444026744145 8.2632748236996694 0
          3.9471103129614948 8.2711406098385396 0
          3.9472638652046164 8.2790134033796079 0
          3.9471990779399966 8.286887425841174 0
          3.9469102577610036 8.2947564141355077 0
          3.9463920129978858 8.302613626044888 0
          3.9456392713249349 8.3104518462051828 0
          3.9446472952847333 8.3182633923657132 0
          3.9434117056393148 8.3260401229482994 0
          3.9419285027844122 8.3337734453861181 0
          3.9401940848773473 8.3414543244604555 0
          3.9382052725241019 8.349073292394074 0
          3.9359593552386705 8.3566204664745136 0
          3.9334540979140007 8.364085558366801 0
          3.9306877696923719 8.3714578894589593 0
          3.9276591721244434 8.3787264076688004 0
          3.9243676702212213 8.3858797072214095 0
          3.9208132227887891 8.3929060503953714 0
          3.9169964142461402 8.3997933924060177 0
          3.9129184804776767 8.4065294055503088 0
          3.9085813433980472 8.4131015106589935 0
          3.9039876463153931 8.419496913297051 0
          3.8991407799687083 8.4257026377777073 0
          3.89404491018405 8.4317055654627548 0
          3.8887050056629602 8.4374924772139082 0
          3.883571489643332 8.4434632228749962 0
          3.8786460116103845 8.4496067003894613 0
          3.8739293644933075 8.4559119161721572 0
          3.8694218982725039 8.4623683168142811 0
          3.865123257068956 8.4689655812954605 0
          3.861032865628228 8.4756939367742881 0
          3.8571491283937944 8.4825436454678869 0
          3.8534703813966757 8.4895055849204031 0
          3.849994501141027 8.4965709862140049 0
          3.8467189495401346 8.5037314514240911 0
          3.8436408179620405 8.5109789662302351 0
          3.8407574628636776 8.5183061415401156 0
          3.838065944227981 8.5257059278392404 0
          3.8355631561159211 8.53317165235703 0
          3.83324520514119 8.5406968088514965 0
          3.8311086568491657 8.5482754585446585 0
          3.8291500073395537 8.5559020148953984 0
          3.8273650112260555 8.5635710673060572 0
          3.8257500555308561 8.5712777143331316 0
          3.8243007611958406 8.5790172206422959 0
          3.823012742898654 8.5867851901677401 0
          3.8218823223639555 8.594577649988242 0
          3.8209044050118828 8.6023907099387333 0
          3.8200753757392341 8.6102209651338786 0
          3.8193917292784314 8.6180652485267615 0
          3.8188500520540742 8.6259206110040729 0
          3.8184461923155522 8.6337842629435162 0
          3.8181769196470299 8.6416536732913354 0
          3.8180391681186761 8.6495264851217435 0
          3.818029972765963 8.6574004983350985 0
          3.8181457194202961 8.6652736687013352 0
          3.8183837437699992 8.6731440947936029 0
          3.8187415846064332 8.6810099882271512 0
          3.8192169104567575 8.6888696622578863 0
          3.8198075648102838 8.6967215176475516 0
          3.8205107529991622 8.7045641028548904 0
          3.8213246848543996 8.7123959772794315 0
          3.8222477612919765 8.7202157479208768 0
          3.8232786186574432 8.728022051297275 0
          3.8244160486504053 8.7358135507902421 0
          3.8256590433339488 8.7435889198185457 0
          3.8270059621137564 8.7513469746964443 0
          3.8284562087261369 8.7590863941550676 0
          3.8300093966617523 8.7668058291135225 0
          3.8316653939166598 8.7745038807495064 0
          3.8334242365012048 8.7821791053754286 0
          3.8352861743205038 8.7898299928915566 0
          3.8372517175154393 8.7974549415244372 0
          3.8393215457103671 8.8050522660742718 0
          3.841496556739628 8.8126201720935793 0
          3.8437779118798114 8.8201567267871521 0
          3.8461669433206698 8.827659869361062 0
          3.8486652002287127 8.8351273811566493 0
          3.8512744934848602 8.8425568513519721 0
          3.8539968026112161 8.8499456881435066 0
          3.8568343197412536 8.8572910832279099 0
          3.8597894945173392 8.8645899700907691 0
          3.8628649329421649 8.8718390376123963 0
          3.8660634437248831 8.8790346851433686 0
          3.869388079191558 8.8861729724509679 0
          3.8728420306136049 8.8932496325063095 0
          3.8764295099597836 8.9002595864455731 0
          3.8801540388280475 8.9071977367916038 0
          3.8840192920240626 8.914058528681382 0
          3.8880291292276432 8.92083587873684 0
          3.8921874794761235 8.927523182428601 0
          3.8964984166129004 8.9341132041199565 0
          3.900966031173517 8.9405980835225147 0
          3.9055945014631166 8.946969205636373 0
          3.9103880045094161 8.9532171631815736 0
          3.9153506199347237 8.9593317213104964 0
          3.9204863823226197 8.9653016511115506 0
          3.9257985081244242 8.9711152733879391 0
          3.9312906811306751 8.9767591818006416 0
          3.9369656347912976 8.9822193440023064 0
          3.9428264368177341 8.9874795992119498 0
          3.9488756309095754 8.9925221541047957 0
          3.955114580240537 8.9973280315627306 0
          3.9615439650122175 9.0018760867332759 0
          3.9680317829537652 9.0063407668427935 0
          3.9745699447028926 9.01073184424353 0
          3.9811458417842744 9.0150667605577528 0
          3.9877265424266937 9.0193951106263235 0
          3.9942714938700292 9.0237782865639975 0
          4.0007343727038798 9.0282828349441289 0
        </DataArray>
      </Points>
      <Cells>
        <DataArray type="Int32" Name="connectivity" format="ascii">
          0 1 1 2 2 3 3 4 4 5 5 6 6 7 7 8 8 9 9 10 10 11 11 12 12 13 13 14 14 15 15 16 16 17 17 18 18 19 19 20 20 21 21 22 22 23 23 24 24 25 25 26 26 27 27 28 28 29 29 30 30 31 31 32 32 33 33 34 34 35 35 36 36 37 37 38 38 39 39 40 40 41 41 42 42 43 43 44 44 45 45 46 46 47 47 48 48 49 49 50 50 51 51 52 52 53 53 54 54 55 55 56 56 57 57 58 58 59 59 60 60 61 61 62 62 63 63 64 64 65 65 66 66 67 67 68 68 69 69 70 70 71 71 72 72 73 73 74 74 75 75 76 76 77 77 78 78 79 79 80 80 81 81 82 82 83 83 84 84 85 85 86 86 87 87 88 88 89 89 90 90 91 91 92 92 93 93 94 94 95 95 96 96 97 97 98 98 99 99 100 100 101 101 102 102 103 103 104 104 105 105 106 106 107 107 108 108 109 109 110 110 111 111 112 112 113 113 114 114 115 115 116 116 117 117 118 118 119 119 120 120 121 121 122 122 123 123 124 124 125 125 126 126 127 
        </DataArray>
        <DataArray type="Int32" Name="offsets" format="ascii">
          2 4 6 8 10 12 14 16 18 20 22 24 26 28 30 32 34 36 38 40 42 44 46 48 50 52 54 56 58 60 62 64 66 68 70 72 74 76 78 80 82 84 86 88 90 92 94 96 98 100 102 104 106 108 110 112 114 116 118 120 122 124 126 128 130 132 134 136 138 140 142 144 146 148 150 152 154 156 158 160 162 164 166 168 170 172 174 176 178 180 182 184 186 188 190 192 194 196 198 200 202 204 206 208 210 212 214 216 218 220 222 224 226 228 230 232 234 236 238 240 242 244 246 248 250 252 254 
        </DataArray>
        <DataArray type="Int32" Name="types" format="ascii">
          3 3 3 3 3 3 3 3 3 3 3 3 3 3 3 3 3 3 3 3 3 3 3 3 3 3 3 3 3 3 3 3 3 3 3 3 3 3 3 3 3 3 3 3 3 3 3 3 3 3 3 3 3 3 3 3 3 3 3 3 3 3 3 3 3 3 3 3 3 3 3 3 3 3 3 3 3 3 3 3 3 3 3 3 3 3 3 3 3 3 3 3 3 3 3 3 3 3 3 3 3 3 3 3 3 3 3 3 3 3 3 3 3 3 3 3 3 3 3 3 3 3 3 3 3 3 3         </DataArray>
      </Cells>
    </Piece>
  </UnstructuredGrid>
</VTKFile>
