<?xml version="1.0"?>
<VTKFile type="UnstructuredGrid" version="0.1" byte_order="LittleEndian">
  <UnstructuredGrid>
    <Piece NumberOfPoints="128" NumberOfCells="127">
      <PointData Scalars="W">
        <DataArray type="Float32" Name="W" NumberOfComponents="2">
          0 0 0.55196599249384337 0.26359432807081767 0.82986866773224821 0.39019205464582457 1.0474195609213095 0.48209722879885203 1.2336241645876134 0.55312418005290465 1.4003580755001628 0.60891515102508986 1.5539898949452857 0.65247486443738467 1.6983529672975992 0.6855850696464344 1.8359335059740221 0.70937159982250764 1.9683710210250713 0.72455095885536747 2.0968502229464021 0.73161143128515216 2.222174520100316 0.73085929044878262 2.3448934960044223 0.72248199629974497 2.465354553744691 0.70657946032055108 2.5837414989876679 0.68318909854747367 2.7001428623882422 0.65231518932261312 2.8146321668900152 0.61395202703204743 2.9271253946569864 0.56805437279700155 3.0375125781142791 0.51457618090797641 3.1456584013620157 0.45347059813392859 3.2513592807189822 0.38468557657266289 3.3543579058401005 0.3081722932306124 3.4543575268246309 0.22389155246844752 3.5510363183290474 0.1318179976289453 3.6440244775881818 0.031942089621809396 3.7329868632545606 -0.075726621811203459 3.817495605238709 -0.19115933312053843 3.8970392625914059 -0.31429396340812266 3.9711749680923698 -0.44503992668927561 4.0397584403111413 -0.58332868722915865 4.1019395213398866 -0.72897969791056638 4.1572183291841363 -0.88180065625868953 4.2050790265482441 -1.0415600102208002 4.2450187657450451 -1.2079913627011787 4.2765013233769285 -1.3807790589881888 4.2990136411863178 -1.559569820518462 4.3119482417142292 -1.7439250840613951 4.3148467968884212 -1.9334063833997592 4.3072823111152925 -2.1275479725317847 4.288721727672467 -2.325783002191097 4.2586717019825437 -2.5274948931367138 4.2167146223801311 -2.7320423704505208 -4.190929842082693 2.7160471049076862 -4.231558872275313 2.5134580070063897 -4.0496445669255445 2.2041810116863161 -4.0439261298298703 2.0161858692063506 -4.0349159487621771 1.8371188482858323 -4.0163194747770863 1.6635490932936112 -3.9889183511249691 1.4959582835988312 -3.9534957799771053 1.3347334604849033 -3.9203858602152688 1.182890269226643 -3.8833484906280926 1.0375990018711863 -3.8391096183807614 0.89786292887928798 -3.7907022851764722 0.76444757257941442 -3.737648974131853 0.63713628408477863 -3.6815903364164244 0.51610061896362625 -3.6019694796244095 0.39917622238192552 -3.5185772242821671 0.28988980226754962 -3.4323447895913497 0.18817272864912032 -3.3437623699093248 0.093865614912266013 -3.2523689934180986 0.0067953135222107242 -3.1589910343919501 -0.073164020216124642 -3.064455638706705 -0.14621176475513317 -2.968046737895615 -0.21248914543677502 -2.871678179029598 -0.27230768294726848 -2.7919710959740205 -0.32806682691261491 -2.7325516918713628 -0.38200613712526843 -2.6748989272634596 -0.43285228903196421 -2.6006826388935225 -0.47729729367339957 -2.5472030195172559 -0.52206073533655761 -2.4763884412487194 -0.5599807859567052 -2.427702275148925 -0.59983837024953035 -2.3620624514087467 -0.63266638787676244 -2.3186182174641141 -0.66881335450034829 -2.277838509469662 -0.70391281702378516 -2.2193942395527837 -0.73130838209206206 -2.184333315577887 -0.76437032899357238 -2.1526860001847452 -0.79743495900036399 -2.1025882544540289 -0.82203182103106476 -2.076271585115482 -0.85447747131316698 -2.0528031599998946 -0.88748900030765432 -2.0112983792409245 -0.91164228041908657 -1.9938281738948413 -0.94583750739984573 -1.9797690445957961 -0.98169535136904118 -1.9468211965927034 -1.007762793667077 -1.9380139359636872 -1.0461077689925342 -1.9318768757289346 -1.0866131400535979 -1.9072088255567126 -1.1169312942235015 -1.9066209803408232 -1.1618448732315203 -1.9084613665535317 -1.2097644535824819 -1.892071867486798 -1.2471807921389149 -1.8988988121461021 -1.3012652303907581 -1.9077731408495395 -1.3592705393270195 -1.8975169921096902 -1.4056597493891141 -1.9105346945214428 -1.4717014467780964 -1.9250302520726801 -1.54267558558201 -1.9200162370888785 -1.6013091725009996 -1.9379237668835767 -1.6829125076271643 -1.9558983628254818 -1.7701113723059374 -1.9538756190836037 -1.8442465054394412 -1.9728085935392277 -1.943931540857319 -1.991165489829549 -2.0509406740940066 -1.9888599289953126 -2.1441556804213411 -2.0058964127929744 -2.2668106057155613 -2.000970828354292 -2.3743597808570192 -2.013230621881648 -2.5133492405548274 -2.0031271738609271 -2.6369473373786327 -2.0084950987805272 -2.7953110366066096 -1.9898921212319403 -2.9367074544286891 -1.9660399310335117 -3.0866136261758013 -1.953521173475635 -3.2758553083904212 -1.9147115515751609 -3.4457945794180298 -1.8670528784652374 -3.625084875474712 -1.8094732201023818 -3.8145794884691657 -1.7542248892439447 -4.0480014322362123 -1.6691120733318512 -4.2585329036160378 2.1022384113789245 5.2945806981512478 2.2766776979172705 5.0671686665196338 2.5530275987459534 5.0698870532545586 2.5556081889696447 4.5743972943597306 2.6311327240880482 4.2921203565071915 2.6586170204387702 3.9826799730399856 2.6679695381224868 3.6947173530384254 2.4681435929534268 3.1853215263079502 2.2383776083317484 2.7179219978205817 1.6758275174090618 1.9383262991652346 -1.1573880923648026 -1.3301977200925466 0 0
        </DataArray>
        <DataArray type="Float32" Name="u" NumberOfComponents="1">
          0 0.007874015748031496 0.015748031496062992 0.023622047244094488 0.031496062992125984 0.03937007874015748 0.047244094488188976 0.055118110236220472 0.062992125984251968 0.070866141732283464 0.07874015748031496 0.086614173228346455 0.094488188976377951 0.10236220472440945 0.11023622047244094 0.11811023622047244 0.12598425196850394 0.13385826771653545 0.14173228346456693 0.14960629921259844 0.15748031496062992 0.16535433070866143 0.17322834645669291 0.18110236220472442 0.1889763779527559 0.19685039370078741 0.20472440944881889 0.2125984251968504 0.22047244094488189 0.2283464566929134 0.23622047244094488 0.24409448818897639 0.25196850393700787 0.25984251968503935 0.26771653543307089 0.27559055118110237 0.28346456692913385 0.29133858267716534 0.29921259842519687 0.30708661417322836 0.31496062992125984 0.32283464566929132 0.33070866141732286 0.33858267716535434 0.34645669291338582 0.3543307086614173 0.36220472440944884 0.37007874015748032 0.37795275590551181 0.38582677165354329 0.39370078740157483 0.40157480314960631 0.40944881889763779 0.41732283464566927 0.42519685039370081 0.43307086614173229 0.44094488188976377 0.44881889763779526 0.45669291338582679 0.46456692913385828 0.47244094488188976 0.48031496062992124 0.48818897637795278 0.49606299212598426 0.50393700787401574 0.51181102362204722 0.51968503937007871 0.52755905511811019 0.53543307086614178 0.54330708661417326 0.55118110236220474 0.55905511811023623 0.56692913385826771 0.57480314960629919 0.58267716535433067 0.59055118110236215 0.59842519685039375 0.60629921259842523 0.61417322834645671 0.62204724409448819 0.62992125984251968 0.63779527559055116 0.64566929133858264 0.65354330708661412 0.66141732283464572 0.6692913385826772 0.67716535433070868 0.68503937007874016 0.69291338582677164 0.70078740157480313 0.70866141732283461 0.71653543307086609 0.72440944881889768 0.73228346456692917 0.74015748031496065 0.74803149606299213 0.75590551181102361 0.76377952755905509 0.77165354330708658 0.77952755905511806 0.78740157480314965 0.79527559055118113 0.80314960629921262 0.8110236220472441 0.81889763779527558 0.82677165354330706 0.83464566929133854 0.84251968503937003 0.85039370078740162 0.8582677165354331 0.86614173228346458 0.87401574803149606 0.88188976377952755 0.88976377952755903 0.89763779527559051 0.90551181102362199 0.91338582677165359 0.92125984251968507 0.92913385826771655 0.93700787401574803 0.94488188976377951 0.952755905511811 0.96062992125984248 0.96850393700787396 0.97637795275590555 0.98425196850393704 0.99212598425196852 1
        </DataArray>
      </PointData>
      <CellData Scalars="P">
        <DataArray type="Float32" Name="P" NumberOfComponents="1">
          -0.0071967783593765424 -0.020281105728783548 -0.03080041164354624 -0.037980403743031847 -0.041230648237993391 -0.040064584407902684 -0.03406084923196908 -0.022842103001469567 -0.0060621633721229589 0.01660129242278369 0.045452871479930337 0.080782263075140012 0.12286613363883012 0.17196876584907975 0.22834178653990053 0.2922243393610568 0.36384479403804143 0.44341773815061697 0.53114408040462913 0.6272109514237163 0.73178985585861722 0.84503487581661496 0.96708105789226417 1.0980431147432663 1.2380130138882148 1.3870608091232162 1.5452300639378649 1.7125330782118988 1.8889527306512839 2.0744559548851544 2.2689590601525431 2.4723424920866517 2.6844485935035176 2.9050807801402927 3.1340001664322878 3.370925113195292 3.6155239240678423 3.8674214131395939 4.1261991678791698 4.3913871561389834 4.6624638016634607 4.9388585523316939 4.6388183883698915 4.3288546084182817 4.0268974705140463 3.7211575353664306 3.4129726483734122 3.1040920261161498 2.7961409461470863 2.490617339669754 2.1881489388323567 1.8897871009545602 1.596774900657105 1.310059180731608 1.0305624402205027 0.75902379231588812 0.49762245784068243 0.24697829989504236 0.0075744368811742997 -0.2202073033393725 -0.43602001724156636 -0.63963860857539734 -0.83095357788389923 -1.0098709869523927 -1.1764708397732413 -1.331800968648936 -1.4770157546816958 -1.6122153498971905 -1.7366507310095609 -1.8514021909362965 -1.9558220870694156 -2.0509616492468994 -2.1363197526104982 -2.2128325837767409 -2.2806820298183421 -2.3395360417465123 -2.3901556769383165 -2.4327119621950439 -2.4670426963413963 -2.4936638635884103 -2.5126926050958827 -2.5241607385005089 -2.5283056109728239 -2.5251855896772901 -2.5150137111175481 -2.4977278888130088 -2.4733281328238412 -2.4422126194254199 -2.4040129270101009 -2.3586722835732234 -2.3067630433105757 -2.2476352159223749 -2.1811897506858049 -2.1082207721183903 -2.0277917264114129 -1.9397877639703032 -1.8452219707400754 -1.7429037060537984 -1.6327740311749297 -1.5160868888160466 -1.391536672799681 -1.259119384718939 -1.1203601183521814 -0.97387425109960091 -0.82144365563019683 -0.66175559253582117 -0.49679597451975416 -0.32531834448629804 -0.14962203086304887 0.029566158718829505 0.21318572722939141 0.39844339795247308 0.58414787089388986 0.76895654926316093 0.95292025535701874 1.1325155973740029 0.9238305090351755 0.73404733493542296 0.55542385463516808 0.4073865641421891 0.28201997842576687 0.1797086065967452 0.098943004969192103 0.042866075983162104 0.0072051337270425293 -0.0087353334869358385 -0.00024832007330197686
        </DataArray>
      </CellData>
      <Points>
        <DataArray type="Float32" NumberOfComponents="3" format="ascii">
          3.9832418955904889 7.1466678384289732 0
          3.9798315538390598 7.1537650845354754 0
          3.9764554344846275 7.1608786743302169 0
          3.9731307677242569 7.1680164573723735 0
          3.9698710419203578 7.1751841321566872 0
          3.9666878019615464 7.1823861026587572 0
          3.9635913855579439 7.1896258281766414 0
          3.9605913180989858 7.196906009634862 0
          3.957696550323456 7.2042287000589527 0
          3.9549156124663578 7.2115953743805408 0
          3.9522567159094195 7.2190069738624203 0
          3.9497278266336262 7.2264639363730856 0
          3.9473367150305854 7.2339662153758821 0
          3.9450909899764262 7.2415132915512652 0
          3.9429981203701985 7.2491041789907165 0
          3.941065446528925 7.2567374275157031 0
          3.939300185675382 7.2644111229419455 0
          3.937709436495278 7.2721228867246213 0
          3.9363001739265306 7.2798698731524096 0
          3.9350792423394907 7.2876487664915501 0
          3.9340533471453907 7.2954557780798579 0
          3.9332290421719383 7.3032866430987564 0
          3.932612713707623 7.3111366175453609 0
          3.9322105621005643 7.3190004758016149 0
          3.9320285818025131 7.3268725090616211 0
          3.9320725384380495 7.3347465247399022 0
          3.932347948022771 7.3426158470633958 0
          3.9328600504320415 7.3504733188574809 0
          3.9336137776881217 7.358311305395504 0
          3.9346137264989944 7.3661217000159702 0
          3.9358641493101789 7.3738959283728427 0
          3.937368901590736 7.3816249596311012 0
          3.9391314108372075 7.3892993183914415 0
          3.9411546445884276 7.396909099048858 0
          3.943441079245892 7.404443982311987 0
          3.9459926668249747 7.4118932547768193 0
          3.9488108031426963 7.4192458308334457 0
          3.9518962901516024 7.4264902798609089 0
          3.9552493075215773 7.433614853416235 0
          3.9588693861647348 7.4406075141150589 0
          3.9627553751847087 7.4474559707810313 0
          3.9669054112886286 7.4541477166786514 0
          3.9713168928951998 7.4606700692773442 0
          3.9754685270950318 7.467360822389999 0
          3.979357794771782 7.4742074148412927 0
          3.9829959737223133 7.4811906679659073 0
          3.9863834187391802 7.4882989251714198 0
          3.9895206887914143 7.4955210835384793 0
          3.9924089372461307 7.5028463810172132 0
          3.9950498634014084 7.5102644262955023 0
          3.9974456639223055 7.5177652227991389 0
          3.9995983921320351 7.5253393557730748 0
          4.0015103448701694 7.5329778167525889 0
          4.0031842654742711 7.5406719417214578 0
          4.0046231557308474 7.5484134586009288 0
          4.0058303054768372 7.5561944738053777 0
          4.0068091908760515 7.5640074828887718 0
          4.0075647489536097 7.5718452361601036 0
          4.0081021505696297 7.5797009575379244 0
          4.0084267426775151 7.587568340301722 0
          4.0085440179256082 7.595441537212392 0
          4.0084596432320572 7.6033151497727465 0
          4.0081794085431239 7.6111842204322349 0
          4.0077091755430034 7.6190442202321549 0
          4.0070549220443468 7.6268910400464858 0
          4.0062226233207481 7.6347209712820314 0
          4.0052172215695858 7.6425305571951174 0
          4.0040424010775668 7.6503164540187072 0
          4.0027017365440525 7.6580755097933553 0
          4.0011998295682485 7.6658049694006278 0
          3.999539995998902 7.6735020580867754 0
          3.9977266264070632 7.6811644253730611 0
          3.9957627393243853 7.6887896007385299 0
          3.9936524043551476 7.6963755494996979 0
          3.9913983149013643 7.7039200312538192 0
          3.989002999100959 7.711420870556716 0
          3.9864700802250446 7.7188763696419294 0
          3.9838017317079397 7.7262844794366066 0
          3.9809999152741815 7.7336431507041095 0
          3.9780677364849693 7.7409508592814742 0
          3.975006826415318 7.7482055943364836 0
          3.971818639478641 7.755405309945437 0
          3.9685057482272272 7.7625485095047067 0
          3.9650692350229058 7.7696330737041448 0
          3.9615099706669437 7.7766567801251076 0
          3.9578299969140636 7.7836180135045092 0
          3.9540298587714351 7.7905143971951576 0
          3.950109935612077 7.7973434205636458 0
          3.9460717555479636 7.8041032047690582 0
          3.9419153537064711 7.8107909657937133 0
          3.9376406145762322 7.8174037331789776 0
          3.9332485526779144 7.8239391878796081 0
          3.9287387431224832 7.8303939770769979 0
          3.9241106339890459 7.8367645047529368 0
          3.9193648591747414 7.8430478953389233 0
          3.9145006096435999 7.8492400543381171 0
          3.9095169846365354 7.8553365812877702 0
          3.904414292666146 7.8613338411141562 0
          3.8991914212080148 7.8672267739965136 0
          3.8938472534844224 7.8730099729850229 0
          3.8883819121810026 7.8786788413684166 0
          3.8827942208892852 7.8842271975739084 0
          3.8770830388499795 7.8896484056363958 0
          3.8712485059607591 7.8949366851122855 0
          3.8652895631851916 7.9000844293193948 0
          3.8592065126841102 7.9050849684300513 0
          3.8529985914853691 7.909929682232745 0
          3.8466664226772562 7.9146109050532152 0
          3.8402096706254865 7.9191188144968967 0
          3.8336294854162691 7.9234446404187571 0
          3.8269273426075272 7.9275790845366565 0
          3.8201040158663346 7.9315104082687498 0
          3.8131619084356707 7.9352280700522062 0
          3.8061039724009671 7.9387209478992506 0
          3.7989337752495693 7.9419772864299594 0
          3.7916547412635606 7.944982605012223 0
          3.7842721460284316 7.9477238424890455 0
          3.7770201664544647 7.950793326071576 0
          3.7699095724870371 7.9541769380037879 0
          3.762957449646283 7.9578748410179925 0
          3.7561639213312028 7.9618563064295476 0
          3.7495336309010097 7.9661038360658276 0
          3.7430682461363283 7.9705982535403503 0
          3.7367683134152001 7.9753217196783863 0
          3.7306214131533726 7.9802426709900809 0
          3.7246132701776036 7.9853321534163069 0
          3.7187089737627708 7.9905418634834104 0
          3.7127327761649913 7.9956692182244291 0
        </DataArray>
      </Points>
      <Cells>
        <DataArray type="Int32" Name="connectivity" format="ascii">
          0 1 1 2 2 3 3 4 4 5 5 6 6 7 7 8 8 9 9 10 10 11 11 12 12 13 13 14 14 15 15 16 16 17 17 18 18 19 19 20 20 21 21 22 22 23 23 24 24 25 25 26 26 27 27 28 28 29 29 30 30 31 31 32 32 33 33 34 34 35 35 36 36 37 37 38 38 39 39 40 40 41 41 42 42 43 43 44 44 45 45 46 46 47 47 48 48 49 49 50 50 51 51 52 52 53 53 54 54 55 55 56 56 57 57 58 58 59 59 60 60 61 61 62 62 63 63 64 64 65 65 66 66 67 67 68 68 69 69 70 70 71 71 72 72 73 73 74 74 75 75 76 76 77 77 78 78 79 79 80 80 81 81 82 82 83 83 84 84 85 85 86 86 87 87 88 88 89 89 90 90 91 91 92 92 93 93 94 94 95 95 96 96 97 97 98 98 99 99 100 100 101 101 102 102 103 103 104 104 105 105 106 106 107 107 108 108 109 109 110 110 111 111 112 112 113 113 114 114 115 115 116 116 117 117 118 118 119 119 120 120 121 121 122 122 123 123 124 124 125 125 126 126 127 
        </DataArray>
        <DataArray type="Int32" Name="offsets" format="ascii">
          2 4 6 8 10 12 14 16 18 20 22 24 26 28 30 32 34 36 38 40 42 44 46 48 50 52 54 56 58 60 62 64 66 68 70 72 74 76 78 80 82 84 86 88 90 92 94 96 98 100 102 104 106 108 110 112 114 116 118 120 122 124 126 128 130 132 134 136 138 140 142 144 146 148 150 152 154 156 158 160 162 164 166 168 170 172 174 176 178 180 182 184 186 188 190 192 194 196 198 200 202 204 206 208 210 212 214 216 218 220 222 224 226 228 230 232 234 236 238 240 242 244 246 248 250 252 254 
        </DataArray>
        <DataArray type="Int32" Name="types" format="ascii">
          3 3 3 3 3 3 3 3 3 3 3 3 3 3 3 3 3 3 3 3 3 3 3 3 3 3 3 3 3 3 3 3 3 3 3 3 3 3 3 3 3 3 3 3 3 3 3 3 3 3 3 3 3 3 3 3 3 3 3 3 3 3 3 3 3 3 3 3 3 3 3 3 3 3 3 3 3 3 3 3 3 3 3 3 3 3 3 3 3 3 3 3 3 3 3 3 3 3 3 3 3 3 3 3 3 3 3 3 3 3 3 3 3 3 3 3 3 3 3 3 3 3 3 3 3 3 3         </DataArray>
      </Cells>
    </Piece>
  </UnstructuredGrid>
</VTKFile>
