<?xml version="1.0"?>
<VTKFile type="UnstructuredGrid" version="0.1" byte_order="LittleEndian">
  <UnstructuredGrid>
    <Piece NumberOfPoints="128" NumberOfCells="127">
      <PointData Scalars="W">
        <DataArray type="Float32" Name="W" NumberOfComponents="2">
          0 0 -0.0090196947017485377 0.067459756620267944 -0.021653604006963163 0.1608402196668676 -0.032232031809279936 0.23658966466490927 -0.042141619710673657 0.30443294609114868 -0.051967256336660737 0.36816345069520212 -0.062001777782072713 0.42940707006408807 -0.072420823353111924 0.48892857284874869 -0.08334406010328288 0.5470950641078528 -0.094879333957509471 0.60418978806654178 -0.10711018179420939 0.66033553197720629 -0.12011174172433974 0.71560798289229843 -0.13395295476500851 0.77005231712580002 -0.14871016612117363 0.82375999217843632 -0.1644667754171445 0.8768536617524687 -0.18130422905886173 0.92943034926491064 -0.19929061816677926 0.98150725357453039 -0.21850550527309257 1.0331517149897491 -0.23902925886809034 1.0844197935277859 -0.26093259038006028 1.1353110868706542 -0.28429482907971404 1.1858543330326103 -0.30920322568733211 1.2360958893966978 -0.33574218847512588 1.286052486473757 -0.36398967433555318 1.3357026690839431 -0.39403981611672917 1.3850719216385208 -0.42596196884260001 1.4340843147603251 -0.45984314905515805 1.482719240451172 -0.49579614643843101 1.5310214891935774 -0.53391877615540251 1.5789646641283293 -0.57417933869040072 1.6261477515046703 -0.61676974907349924 1.6728253073608439 -0.66177455018084008 1.7189068535995493 -0.70928334746518518 1.764308305285069 -0.75937468918272877 1.8089113603201721 -0.81213552197765215 1.8526138204738665 -0.86763723847003626 1.8952731251498638 -0.92598757666452625 1.9368210354225361 -0.98722941524703312 1.977045289837509 -1.0513917580236638 2.0157187659709401 -1.1185715781618135 2.0527506364208925 -1.1888324834887158 2.0879777635006991 -1.2622214898271589 2.1212074745045308 -7.0537955336148723 10.39990127222484 -8.0899845043992737 9.6984572823069506 -9.0612760106622972 8.8896078037612121 -9.9538035686760917 7.9770395340316984 -10.757997674946917 6.9696728515125876 -11.460475863127094 5.8743651260616749 -12.053343664231893 4.7024440609333169 -12.524552767121918 3.4640005571071839 -12.868571920541765 2.1725034694357133 -13.075499006776701 0.84105539053543155 -13.142888791757283 -0.51519862161024654 -13.063917552950787 -1.8806149902604881 -12.834944836410639 -3.2376375244845557 1.8706186252070749 0.56136628026502589 2.3398153105082167 0.65837295635639392 2.3039682502113545 0.60142526276238151 3.3310459527012948 0.78868487933778153 4.4427873759892638 0.9059291060482435 6.2982408926067617 1.0046415751748303 6.2631659397193609 0.68064517799678725 5.421089521176599 0.33679972678145537 5.2881459116398828 0.10486942035524545 5.1383721088182988 -0.10915787543813067 5.0387652067746522 -0.3095675101922013 4.9294868347610983 -0.4983374705630188 4.8119033049003361 -0.67513877084328566 4.6558034590201913 -0.83353928702735625 4.5261022817177885 -0.98374007269245267 4.3920403216426855 -1.1219787998765305 4.2547553457511667 -1.2484730688061076 4.1153099983146557 -1.3635393372730051 3.9735307850373092 -1.4671301206000427 3.8020640556962535 -1.5475032804180129 3.6626476474523799 -1.6289974966854757 3.5245510988465698 -1.7011645120974905 3.388436816526438 -1.7646287355347516 3.2548720494587657 -1.8200354143609461 3.0940521829244991 -1.8493455443061777 2.9680752178165597 -1.8889809827394344 2.8459456803817549 -1.9226865555308252 2.7279509060172118 -1.9511403170915151 2.6143219079748823 -1.9750164565963984 2.5043538836709933 -1.9942596854121071 2.39998227496074 -2.0109285789064395 2.2739456303575656 -2.0011610850285662 2.1802896161156227 -2.0120263129701521 2.0914637955456938 -2.0216103271131574 2.0066657490045539 -2.0297051074395429 1.9274530378173917 -2.0384904291030117 1.8285033517122751 -2.0201858679816707 1.7597112503779588 -2.0294489166494296 1.6946860608524839 -2.0395149184265335 1.6346842052234305 -2.0525788670728748 1.5788253840781177 -2.0683747461647979 1.5047283177077266 -2.0564538754466253 1.457173201406508 -2.0775014406870009 1.4137466899591395 -2.103727682817004 1.3735566250979938 -2.1348205077174929 1.3363091359157286 -2.1713160215939777 1.2820597470932757 -2.1796254571448861 1.2505791799615333 -2.2269086185866369 1.2214999525476407 -2.2821548013892659 1.1757528710046532 -2.3086321558026244 1.1505476012573512 -2.3791248503942688 1.125761735083028 -2.4586188984479667 1.0844504940000002 -2.5089426066270462 1.060164997454458 -2.6077394494078687 1.034136854794844 -2.7176765774063867 0.9916572728515165 -2.7992700842712352 0.96102816153443804 -2.9332206920864845 0.92538345987759407 -3.080838007388977 0.87220569940923287 -3.2004374590143954 0.82409494644471903 -3.3775825114972906 0.75692728504153606 -3.5266996266422588 0.68038306839387619 -3.687673910249142 0.62230002366983928 -4.0777606005107403 0.51430875235531881 -4.3386387705421665 0.37928014236963575 -4.5754557516248209 0.22159586987334032 -4.8782747086883402 -0.29200748028181001 5.902098282428204 -0.56409763998332441 5.8637409734865722 -0.82162610223062094 5.7483312185866513 -0.94641410376639823 5.0547735087825361 -0.8894000398341102 3.9532531197332892 0.22125588117933609 -0.93034111086487592 0 0
        </DataArray>
        <DataArray type="Float32" Name="u" NumberOfComponents="1">
          0 0.007874015748031496 0.015748031496062992 0.023622047244094488 0.031496062992125984 0.03937007874015748 0.047244094488188976 0.055118110236220472 0.062992125984251968 0.070866141732283464 0.07874015748031496 0.086614173228346455 0.094488188976377951 0.10236220472440945 0.11023622047244094 0.11811023622047244 0.12598425196850394 0.13385826771653545 0.14173228346456693 0.14960629921259844 0.15748031496062992 0.16535433070866143 0.17322834645669291 0.18110236220472442 0.1889763779527559 0.19685039370078741 0.20472440944881889 0.2125984251968504 0.22047244094488189 0.2283464566929134 0.23622047244094488 0.24409448818897639 0.25196850393700787 0.25984251968503935 0.26771653543307089 0.27559055118110237 0.28346456692913385 0.29133858267716534 0.29921259842519687 0.30708661417322836 0.31496062992125984 0.32283464566929132 0.33070866141732286 0.33858267716535434 0.34645669291338582 0.3543307086614173 0.36220472440944884 0.37007874015748032 0.37795275590551181 0.38582677165354329 0.39370078740157483 0.40157480314960631 0.40944881889763779 0.41732283464566927 0.42519685039370081 0.43307086614173229 0.44094488188976377 0.44881889763779526 0.45669291338582679 0.46456692913385828 0.47244094488188976 0.48031496062992124 0.48818897637795278 0.49606299212598426 0.50393700787401574 0.51181102362204722 0.51968503937007871 0.52755905511811019 0.53543307086614178 0.54330708661417326 0.55118110236220474 0.55905511811023623 0.56692913385826771 0.57480314960629919 0.58267716535433067 0.59055118110236215 0.59842519685039375 0.60629921259842523 0.61417322834645671 0.62204724409448819 0.62992125984251968 0.63779527559055116 0.64566929133858264 0.65354330708661412 0.66141732283464572 0.6692913385826772 0.67716535433070868 0.68503937007874016 0.69291338582677164 0.70078740157480313 0.70866141732283461 0.71653543307086609 0.72440944881889768 0.73228346456692917 0.74015748031496065 0.74803149606299213 0.75590551181102361 0.76377952755905509 0.77165354330708658 0.77952755905511806 0.78740157480314965 0.79527559055118113 0.80314960629921262 0.8110236220472441 0.81889763779527558 0.82677165354330706 0.83464566929133854 0.84251968503937003 0.85039370078740162 0.8582677165354331 0.86614173228346458 0.87401574803149606 0.88188976377952755 0.88976377952755903 0.89763779527559051 0.90551181102362199 0.91338582677165359 0.92125984251968507 0.92913385826771655 0.93700787401574803 0.94488188976377951 0.952755905511811 0.96062992125984248 0.96850393700787396 0.97637795275590555 0.98425196850393704 0.99212598425196852 1
        </DataArray>
      </PointData>
      <CellData Scalars="P">
        <DataArray type="Float32" Name="P" NumberOfComponents="1">
          -0.0072185813099698735 -0.021613510289880317 -0.035832319177500134 -0.049766293870704074 -0.063307886261953786 -0.076344932016026809 -0.088759624639485502 -0.10042868186647694 -0.11122398291065887 -0.1210124846161011 -0.1296571225580346 -0.13701733807159425 -0.14294961926513688 -0.14730720846061099 -0.14993967636948219 -0.15069306973659946 -0.14941100994066578 -0.14593395897490874 -0.14009923844714745 -0.13174195271511346 -0.12069437773076314 -0.10678533307077477 -0.089840491560910396 -0.069683034143426678 -0.046132171140490771 -0.019005499476633936 0.011882716112366581 0.046724108728363564 0.085714827216207351 0.12904299277868903 0.17691109752620063 0.22952545746343275 0.28709701876803773 0.34984061841499881 0.41797625879341793 0.49172805181913759 0.57132838081640547 0.6570120353881016 0.74901567232583366 0.84758537664901568 0.95297407778730769 1.0654407865314464 1.7021655392320068 2.3512970569171849 3.0105097125244229 3.6768572244570867 4.3470503030573839 5.0171382220898977 5.6828166387836108 6.339126598462788 6.9807873555028142 7.6019222350332614 8.1964170066399209 8.7576858475529438 9.2788533987525135 9.181873852558498 9.0488728223428243 8.9022881284643436 8.6788834168351183 8.3610362029843017 7.9293723905456224 7.4676016698200138 7.0458255980519331 6.614387460087956 6.1782040712290609 5.7358402998201834 5.2907695015211731 4.8462061101073193 4.4082367079525016 3.9764386106749385 3.5531699117225748 3.140512292521354 2.7402769021508453 2.3541327828926528 1.9864098594762354 1.6349616528133215 1.3006108362165376 0.98397404645565112 0.68548060978281999 0.40830359234460101 0.14951216138351184 -0.090934111016869767 -0.3131924289351582 -0.51752022249186169 -0.7041875934611499 -0.87368219381096901 -1.0245465579087774 -1.1593817832359403 -1.2787271790568244 -1.3830932061085863 -1.473093150488612 -1.5481409844011407 -1.610110230717426 -1.6595027902625146 -1.6968469660498819 -1.7226105996774637 -1.7369105542417309 -1.7406289282278788 -1.7341217929051422 -1.7176943275115626 -1.6916104175361732 -1.6565724913874549 -1.6124610548113985 -1.5594118737062956 -1.4984567866573797 -1.4289237294112291 -1.3508985184587132 -1.26575392766226 -1.1724200782391174 -1.0710302892054635 -0.96330443341238681 -0.84804398192531916 -0.7256136586175268 -0.59820686026433634 -0.46483155874265464 -0.32810418400353808 -0.18930332270516365 -0.042179209399414996 0.10565399701216938 0.25027690737702457 0.39011527743299351 0.25874948346406029 0.14769962776925527 0.059772965919913788 0.0037161168105748657 -0.021040738110503845 -0.0048918096704454721
        </DataArray>
      </CellData>
      <Points>
        <DataArray type="Float32" NumberOfComponents="3" format="ascii">
          4.5494068909722731 10.036296799502015 0
          4.5572117496933737 10.037338218093559 0
          4.5650160480584638 10.038383819063215 0
          4.5728190022695063 10.039439391962881 0
          4.580619956220513 10.040509633242053 0
          4.5884182954365498 10.041598749181279 0
          4.5962134107660431 10.042710691078879 0
          4.6040046801954873 10.043849256054433 0
          4.6117914579375929 10.045018134463458 0
          4.6195730669939152 10.046220932657402 0
          4.6273487924532697 10.047461190544546 0
          4.6351178762994847 10.048742389202683 0
          4.6428795127416365 10.050067955571601 0
          4.6506328439300377 10.051441265253864 0
          4.6583769552145071 10.052865648184916 0
          4.666110869966503 10.05434439623723 0
          4.6738335445234824 10.055880769235211 0
          4.6815438639623395 10.057477996020808 0
          4.6892406371626194 10.05913927862775 0
          4.6969225918206705 10.060867795756245 0
          4.7045883700634139 10.062666702746871 0
          4.7122365235286106 10.064539133361052 0
          4.7198655079547533 10.066488202653851 0
          4.7274736779478941 10.068517008009824 0
          4.7350592821491126 10.070628627811324 0
          4.74262045739966 10.072826123017057 0
          4.7501552244428673 10.075112532452987 0
          4.7576614825315291 10.077490871533243 0
          4.7651370024377613 10.079964135035858 0
          4.7725794203916605 10.082535295464998 0
          4.7799862400502304 10.085207278186918 0
          4.7873548206023804 10.087982977211741 0
          4.7946823715312261 10.090865249583189 0
          4.8019659470626443 10.093856910164929 0
          4.8092024412994663 10.096960724305724 0
          4.816388582834974 10.100179401503301 0
          4.8235209303307194 10.103515586566038 0
          4.8305958658408095 10.106971855382973 0
          4.8376095921573521 10.110550701764636 0
          4.8445581310159307 10.114254523362847 0
          4.8514373170866678 10.118085616041189 0
          4.8582427940336466 10.12204616376253 0
          4.8649700116026642 10.126138226645663 0
          4.8712598898075443 10.130875087118827 0
          4.8770481846168332 10.136213254950643 0
          4.8822746757799989 10.142102580739717 0
          4.8868840265581399 10.148486484529593 0
          4.8908263770161193 10.155302508895543 0
          4.894058173726842 10.162482744138059 0
          4.8965426591997741 10.169954530614984 0
          4.8982506188536652 10.17764108440254 0
          4.8991607239198549 10.185462332364763 0
          4.8992601453445968 10.193335724522708 0
          4.8985447053616875 10.201177173032551 0
          4.8970193005374361 10.208902022077989 0
          4.8946981274565866 10.216426136331243 0
          4.8924929122964889 10.223985128395411 0
          4.8904327169544866 10.231585139265723 0
          4.8885152999819219 10.239222765551649 0
          4.886804338749668 10.246909786491656 0
          4.8853687943357382 10.254653677027848 0
          4.8843239259475837 10.262459839988159 0
          4.8836675515168446 10.270308175331694 0
          4.8833474336631459 10.278177318476205 0
          4.8833553158914018 10.286052880484794 0
          4.8836818978399519 10.293921583952182 0
          4.8843209910226717 10.301770999771472 0
          4.8852658075881097 10.30958942173408 0
          4.8865090451574948 10.317365886853574 0
          4.8880410130297074 10.325090573063799 0
          4.8898536586016723 10.332754168814626 0
          4.8919386595911414 10.340348105085324 0
          4.8942874946366439 10.347864541789042 0
          4.896891509223912 10.35529634804764 0
          4.899741904929849 10.362637105004907 0
          4.9028280428718514 10.36988183311151 0
          4.9061412728381359 10.377025484495723 0
          4.909673027284815 10.384063589850706 0
          4.9134148623865572 10.390992219638969 0
          4.9173584931795968 10.397807944011717 0
          4.9214939450952935 10.40450895067549 0
          4.9258134051493521 10.411092787751913 0
          4.930309299587325 10.417557370948179 0
          4.9349743116557754 10.423900941472406 0
          4.9398013958803704 10.430122024195454 0
          4.9447837343125007 10.436219431037856 0
          4.9499148565058677 10.442192133332133 0
          4.9551869490062259 10.448040741039405 0
          4.9605942067067144 10.453764584926249 0
          4.9661311243639821 10.459363074929701 0
          4.9717924468071999 10.464835713041996 0
          4.9775732654818619 10.470181958165076 0
          4.9834674484033323 10.475402948471352 0
          4.989470733730637 10.480498112739751 0
          4.9955790934090354 10.485466829668184 0
          5.0017888110439159 10.490308291778609 0
          5.0080964273011883 10.495021521904961 0
          5.0144973524585748 10.4996072611874 0
          5.0209886424542631 10.504064206296711 0
          5.0275676093459039 10.508390732486166 0
          5.0342317659904756 10.512584912932304 0
          5.0409788078153648 10.516644485479606 0
          5.0478053767148783 10.520568935526187 0
          5.0547095260318589 10.524355331362472 0
          5.0616894580953797 10.528000247114564 0
          5.0687423425723006 10.53150204064908 0
          5.0758666223086903 10.534856339858489 0
          5.083060766245473 10.538058213963826 0
          5.0903222196668914 10.541104540827568 0
          5.0976494828169949 10.543989191588341 0
          5.1050409479341852 10.546705345879023 0
          5.1124939883160749 10.549247940627938 0
          5.1200067110589433 10.551608664770912 0
          5.1275769121892516 10.553778358772554 0
          5.1352013018085296 10.55574960001584 0
          5.1428769027433336 10.557511395589403 0
          5.1505995573891106 10.559054489939763 0
          5.1583645266497848 10.560368890797852 0
          5.1661682073387505 10.561430392900293 0
          5.1740039057158409 10.562222804215683 0
          5.1818632518665799 10.562731423632712 0
          5.1897364671275312 10.562937454210857 0
          5.1975912909023192 10.563509564967795 0
          5.2054108805597759 10.56444534239759 0
          5.2131792944583975 10.565737599643185 0
          5.220888804873316 10.567343296889314 0
          5.2285429519507884 10.569194100739979 0
          5.2362105331039279 10.57098714697703 0
        </DataArray>
      </Points>
      <Cells>
        <DataArray type="Int32" Name="connectivity" format="ascii">
          0 1 1 2 2 3 3 4 4 5 5 6 6 7 7 8 8 9 9 10 10 11 11 12 12 13 13 14 14 15 15 16 16 17 17 18 18 19 19 20 20 21 21 22 22 23 23 24 24 25 25 26 26 27 27 28 28 29 29 30 30 31 31 32 32 33 33 34 34 35 35 36 36 37 37 38 38 39 39 40 40 41 41 42 42 43 43 44 44 45 45 46 46 47 47 48 48 49 49 50 50 51 51 52 52 53 53 54 54 55 55 56 56 57 57 58 58 59 59 60 60 61 61 62 62 63 63 64 64 65 65 66 66 67 67 68 68 69 69 70 70 71 71 72 72 73 73 74 74 75 75 76 76 77 77 78 78 79 79 80 80 81 81 82 82 83 83 84 84 85 85 86 86 87 87 88 88 89 89 90 90 91 91 92 92 93 93 94 94 95 95 96 96 97 97 98 98 99 99 100 100 101 101 102 102 103 103 104 104 105 105 106 106 107 107 108 108 109 109 110 110 111 111 112 112 113 113 114 114 115 115 116 116 117 117 118 118 119 119 120 120 121 121 122 122 123 123 124 124 125 125 126 126 127 
        </DataArray>
        <DataArray type="Int32" Name="offsets" format="ascii">
          2 4 6 8 10 12 14 16 18 20 22 24 26 28 30 32 34 36 38 40 42 44 46 48 50 52 54 56 58 60 62 64 66 68 70 72 74 76 78 80 82 84 86 88 90 92 94 96 98 100 102 104 106 108 110 112 114 116 118 120 122 124 126 128 130 132 134 136 138 140 142 144 146 148 150 152 154 156 158 160 162 164 166 168 170 172 174 176 178 180 182 184 186 188 190 192 194 196 198 200 202 204 206 208 210 212 214 216 218 220 222 224 226 228 230 232 234 236 238 240 242 244 246 248 250 252 254 
        </DataArray>
        <DataArray type="Int32" Name="types" format="ascii">
          3 3 3 3 3 3 3 3 3 3 3 3 3 3 3 3 3 3 3 3 3 3 3 3 3 3 3 3 3 3 3 3 3 3 3 3 3 3 3 3 3 3 3 3 3 3 3 3 3 3 3 3 3 3 3 3 3 3 3 3 3 3 3 3 3 3 3 3 3 3 3 3 3 3 3 3 3 3 3 3 3 3 3 3 3 3 3 3 3 3 3 3 3 3 3 3 3 3 3 3 3 3 3 3 3 3 3 3 3 3 3 3 3 3 3 3 3 3 3 3 3 3 3 3 3 3 3         </DataArray>
      </Cells>
    </Piece>
  </UnstructuredGrid>
</VTKFile>
