<?xml version="1.0"?>
<VTKFile type="UnstructuredGrid" version="0.1" byte_order="LittleEndian">
  <UnstructuredGrid>
    <Piece NumberOfPoints="128" NumberOfCells="127">
      <PointData Scalars="W">
        <DataArray type="Float32" Name="W" NumberOfComponents="2">
          0 0 0.16278047109013302 0.18788493495410175 0.2960861723386678 0.34366463275349834 0.40223146366761475 0.47087424111737741 0.49434434703986924 0.58513874408103073 0.57752119242602695 0.69276963331758579 0.65405589401506026 0.79682815896560577 0.72505669019204322 0.89899276052509125 0.79108301132511838 1.0002947537075693 0.85244856706281757 1.101474902391447 0.90925965440867185 1.2030204303918861 0.9615199805809117 1.3052883179790775 1.0091560013449712 1.4085318820061605 1.0520847065987111 1.5129905511349377 1.0902211163821229 1.6189065004003886 1.1234278030432088 1.7264541742765007 1.1514960269146937 1.8357019263823144 1.1742313295686544 1.9467375092323784 1.1914151508718429 2.059610993413711 1.2027899103088506 2.1743029097006241 1.2080947743392711 2.2907790664060079 1.2070659425886838 2.4089924292972928 1.1994080275913939 2.5288232681465708 1.1848099135456447 2.6500957095874256 1.1629896512543421 2.7726729068429452 1.1336129772712362 2.8962667046689798 1.0963738169658073 3.020604222875269 1.0509932710784577 3.1454423919632721 0.99716752144449317 3.2704183315252111 0.93450922559363858 3.3947568949117688 0.86286351960439278 3.5183335665443622 0.78197940969648472 3.6406329863763918 0.69163249606459065 3.7610768169276065 0.59163549023957074 3.8790361751100852 0.48184886967430107 3.9938669533821609 0.36217617489958454 4.1048365033964194 0.23258537567227669 4.2112765824633414 0.093093281883313297 4.3123197282950994 -0.056200232089178237 4.4070871400244487 -0.21511738366925542 4.4948199895367056 -0.38340688406799872 4.5746861065525293 -0.56073184643585994 4.6458216002832815 0.53816533416027412 -4.4265575489979021 0.3751131565601733 -4.3364108562775971 0.22246802900916499 -4.23844198545277 0.080412843033104364 -4.1335939498914005 -0.051957708793008088 -4.0576173605874439 -0.17485825267095764 -3.9427468615469583 -0.28958049867000718 -3.8506001681549611 -0.39629583296200349 -3.7555125952855035 -0.49110374079947783 -3.6311941293240739 -0.58068028137640015 -3.5319547049277635 -0.66280337901255415 -3.431501175177031 -0.74397011036931737 -3.3568732265455004 -0.81334665925022098 -3.2551885859423488 -0.86052470857449825 -3.1005250109713374 -0.8964183155457478 -2.9445890956983809 -0.93155811629482121 -2.8175064562486534 -0.9588969537218055 -2.6914826993830054 -0.9662203912640509 -2.5347962126657078 -0.97736727854954664 -2.4112100079084366 -0.98191102393631446 -2.2894579248179023 -0.96370845891194934 -2.1339944919205345 -0.95411865639051596 -2.0152627440492163 -0.91999549428952876 -1.860953050320268 -0.8977125949429009 -1.7454579002462924 -0.89292486924594583 -1.6731465435293558 -0.88656588085218069 -1.6040786642550511 -0.85491146197082124 -1.4969067377987824 -0.84451241119529541 -1.4339405961266001 -0.83272556057031233 -1.3731852381653959 -0.79437215646573134 -1.2745031953259782 -0.78054221573051663 -1.2204983547654149 -0.76600199060866603 -1.1687008432309922 -0.72334145218830659 -1.078469584960106 -0.70827135777406625 -1.0334082794599535 -0.69310073883432788 -0.99054741131818247 -0.67840110859942837 -0.9504802249393749 -0.63430662110741065 -0.87228312572028466 -0.62039485790216276 -0.83834091227980223 -0.60750356743835421 -0.80719270328235082 -0.59628207483692786 -0.77948560669367817 -0.5531423309952691 -0.71208912530407142 -0.54376317595981927 -0.68997830651246894 -0.53609653633414489 -0.6707624168753048 -0.53079420217850093 -0.65508008593572786 -0.52704556302698846 -0.64176231457080679 -0.49013752324594689 -0.58922855123457629 -0.49094431642352487 -0.58302557055802406 -0.4938059112938839 -0.57933563347792605 -0.49940012419965585 -0.57881989291842384 -0.50791581067665503 -0.58153946606112428 -0.48224769645518017 -0.54561217605974488 -0.49670303698256585 -0.5554404905320528 -0.51469716872214999 -0.5687119924664672 -0.53705207092000407 -0.58612738202262782 -0.56287077933568574 -0.60648208824171945 -0.55249827185684319 -0.5876777638776759 -0.58728272892540423 -0.61656186149922143 -0.62638065527473819 -0.64858537484196488 -0.67076552806863288 -0.68444160394724618 -0.67835260637650807 -0.68179582298309582 -0.73385662853076838 -0.72609011827809122 -0.79592949566190274 -0.77432731441591596 -0.82004568699452574 -0.78380130506561052 -0.89610937540473945 -0.84068903195377065 -0.98121786022783686 -0.90210133276761728 -1.0259952779718178 -0.92324031715698096 -1.1283315880144498 -0.99238261635026614 -1.1907865328024012 -1.0220360824826766 -1.3144869149933418 -1.0990227054201678 -1.4518446863273837 -1.1794589092508545 -1.5475113835723817 -1.2188004499052145 -1.7132749823062128 -1.3048461851481747 -1.8378001175455931 -1.3496489791086139 -1.976869051983962 -1.3962044891711793 -2.1320804451992754 -1.4438207435582684 -2.3726807474409064 -1.5341877559594339 -2.841332691037616 -1.7410009304526968 0.54218330269555437 0.32433788116861095 0.6932137381810719 0.42004974081244956 0.43703022817168619 0.26793939943399542 0.23314974231494479 0.14393751691005988 -0.081392137635651146 -0.050327271884151009 -0.74325018927676967 -0.45567011935347357 -1.9551078246170988 -1.1655438059738805 -4.8368093248597175 -2.6854942654072969 0 0
        </DataArray>
        <DataArray type="Float32" Name="u" NumberOfComponents="1">
          0 0.007874015748031496 0.015748031496062992 0.023622047244094488 0.031496062992125984 0.03937007874015748 0.047244094488188976 0.055118110236220472 0.062992125984251968 0.070866141732283464 0.07874015748031496 0.086614173228346455 0.094488188976377951 0.10236220472440945 0.11023622047244094 0.11811023622047244 0.12598425196850394 0.13385826771653545 0.14173228346456693 0.14960629921259844 0.15748031496062992 0.16535433070866143 0.17322834645669291 0.18110236220472442 0.1889763779527559 0.19685039370078741 0.20472440944881889 0.2125984251968504 0.22047244094488189 0.2283464566929134 0.23622047244094488 0.24409448818897639 0.25196850393700787 0.25984251968503935 0.26771653543307089 0.27559055118110237 0.28346456692913385 0.29133858267716534 0.29921259842519687 0.30708661417322836 0.31496062992125984 0.32283464566929132 0.33070866141732286 0.33858267716535434 0.34645669291338582 0.3543307086614173 0.36220472440944884 0.37007874015748032 0.37795275590551181 0.38582677165354329 0.39370078740157483 0.40157480314960631 0.40944881889763779 0.41732283464566927 0.42519685039370081 0.43307086614173229 0.44094488188976377 0.44881889763779526 0.45669291338582679 0.46456692913385828 0.47244094488188976 0.48031496062992124 0.48818897637795278 0.49606299212598426 0.50393700787401574 0.51181102362204722 0.51968503937007871 0.52755905511811019 0.53543307086614178 0.54330708661417326 0.55118110236220474 0.55905511811023623 0.56692913385826771 0.57480314960629919 0.58267716535433067 0.59055118110236215 0.59842519685039375 0.60629921259842523 0.61417322834645671 0.62204724409448819 0.62992125984251968 0.63779527559055116 0.64566929133858264 0.65354330708661412 0.66141732283464572 0.6692913385826772 0.67716535433070868 0.68503937007874016 0.69291338582677164 0.70078740157480313 0.70866141732283461 0.71653543307086609 0.72440944881889768 0.73228346456692917 0.74015748031496065 0.74803149606299213 0.75590551181102361 0.76377952755905509 0.77165354330708658 0.77952755905511806 0.78740157480314965 0.79527559055118113 0.80314960629921262 0.8110236220472441 0.81889763779527558 0.82677165354330706 0.83464566929133854 0.84251968503937003 0.85039370078740162 0.8582677165354331 0.86614173228346458 0.87401574803149606 0.88188976377952755 0.88976377952755903 0.89763779527559051 0.90551181102362199 0.91338582677165359 0.92125984251968507 0.92913385826771655 0.93700787401574803 0.94488188976377951 0.952755905511811 0.96062992125984248 0.96850393700787396 0.97637795275590555 0.98425196850393704 0.99212598425196852 1
        </DataArray>
      </PointData>
      <CellData Scalars="P">
        <DataArray type="Float32" Name="P" NumberOfComponents="1">
          -0.0021918548848568658 -0.0062194041564265804 -0.0092617904302356516 -0.010821983740746357 -0.010427315997550948 -0.0076038924968931535 -0.0018695080770320066 0.0072676055390141509 0.020308211388940536 0.037761691579921375 0.06014346277046656 0.087972692917471465 0.12176938654827517 0.16205305386947436 0.20934187972182794 0.26414960785301411 0.32698033217708239 0.39832706088969805 0.47866824957547938 0.56846264378590505 0.66814598503369216 0.77812777089831209 0.89878506233379596 1.030456595220812 1.1734415732099492 1.327988593323268 1.4942928895168663 1.6724947416766704 1.8626694646532354 2.0647992843485166 2.2788084232827686 2.5045369143633378 2.7417334923168419 2.9900493793542715 3.2490345783669823 3.5181297269750886 3.7966683081708044 4.083861890262388 4.3787982453967143 4.6804489308213375 4.9876645131881405 5.299173262755474 4.9979185615716588 4.6944257373677649 4.3902735198244507 4.0869518027840321 3.7831370877357 3.4826809393512912 3.1846089237807576 2.8898936101765984 2.6016532691698626 2.3185319891155185 2.04126318116049 1.7682574700634277 1.5023351428343885 1.2485488935903362 1.0075601412978084 0.77739851486185219 0.55838866434304868 0.35348498430378933 0.16020375073268758 -0.021358945427396837 -0.18823929017645605 -0.34333318283586006 -0.48373205156085181 -0.61254542009452817 -0.73312353033281841 -0.84567684960148992 -0.94743265992224357 -1.0416834677576847 -1.1286253339796835 -1.2058414721996398 -1.2764327258228829 -1.340635695564421 -1.3963791606290481 -1.4464804714317288 -1.4911918556466517 -1.530795771299833 -1.563780566572599 -1.5923714317576929 -1.6168273499086714 -1.6374141561300259 -1.6531473720633088 -1.6656149992830227 -1.6750079092454484 -1.681503005040025 -1.6852292631039514 -1.6859852807480891 -1.6843640422064512 -1.6804114361331868 -1.6741441070830747 -1.6655433793967005 -1.6551607805753137 -1.6424848127522376 -1.6273817634031782 -1.609662172181284 -1.58913053164606 -1.5670756417615228 -1.541826034942883 -1.5130822863453566 -1.4804913079533948 -1.4458598312070066 -1.4067434608075096 -1.3627163953106598 -1.3159896534250441 -1.2635997071372789 -1.2050700437891408 -1.1430973118439522 -1.0743308808229373 -1.0016738212478542 -0.92170008484708821 -0.83420960503476105 -0.74263943412382993 -0.64366678559081358 -0.5410405680300262 -0.43529370408373258 -0.32717784429296892 -0.21438999235965653 -0.089421818976050615 -0.093039885689684187 -0.10188380145792574 -0.10099844285950732 -0.094205738063509653 -0.081078161810205551 -0.05916916126645004 -0.029896713181235369 -0.001283711650732501
        </DataArray>
      </CellData>
      <Points>
        <DataArray type="Float32" NumberOfComponents="3" format="ascii">
          5.9078567898332786 10.547814247434879 0
          5.9138029235640701 10.542652416732915 0
          5.9197591479293479 10.537502236740369 0
          5.9257337270357286 10.532373366754948 0
          5.9317332413790931 10.527273694338444 0
          5.9377634016551459 10.522210304204773 0
          5.9438293646786713 10.517189869597349 0
          5.9499358755728 10.512218842127032 0
          5.956087336458487 10.507303555865112 0
          5.9622878411239233 10.502450291308946 0
          5.9685411944629667 10.497665321329974 0
          5.9748509190563865 10.492954941399859 0
          5.9812202553941782 10.488325491739761 0
          5.9876521573094035 10.483783373041005 0
          5.9941492868259321 10.479335061323427 0
          6.0007140088845405 10.474987122962863 0
          6.0073483828175691 10.47074622551826 0
          6.0140541494024022 10.466619141980116 0
          6.0208327188004622 10.462612756220704 0
          6.027685157001887 10.458734066107056 0
          6.0346121698508881 10.454990182301557 0
          6.0416140868693269 10.451388326148843 0
          6.0486908448962433 10.447935826765589 0
          6.0558419697688608 10.444640113622269 0
          6.0630665570283195 10.441508705643177 0
          6.0703632544336639 10.438549202725305 0
          6.0777302412322403 10.435769267875255 0
          6.0851652091777773 10.433176610292435 0
          6.0926653452333444 10.430778970299828 0
          6.1002273127293556 10.428584096845766 0
          6.1078472273430524 10.426599699444195 0
          6.1155206474919401 10.424833440453979 0
          6.1232425587672417 10.423292903125098 0
          6.1310073600163779 10.421985555739704 0
          6.1388088517265826 10.420918712618937 0
          6.1466402273702752 10.420099494185509 0
          6.1544940674206288 10.419534781536438 0
          6.16236233736206 10.419231175008935 0
          6.1702363887290854 10.419194940394339 0
          6.178106965295532 10.419431954449072 0
          6.1859642140943158 10.419947657844322 0
          6.1937977009948488 10.420747003568662 0
          6.2015964315877365 10.421834403364315 0
          6.2094285312865418 10.422647345041943 0
          6.2172838901063194 10.423191417769891 0
          6.2251530433270972 10.42347269576206 0
          6.2330271828339336 10.423497679804919 0
          6.2408981014608216 10.423271080598742 0
          6.2487581787457405 10.422800020387305 0
          6.2566003016692582 10.422090212476183 0
          6.2644178536651882 10.421147552505381 0
          6.2722049560909401 10.419979748563073 0
          6.2799560550274132 10.418592953733054 0
          6.2876660586826656 10.416993396370701 0
          6.2953299349170972 10.415185703478764 0
          6.3029433822340053 10.413176179708081 0
          6.31050347475857 10.410974414774691 0
          6.3180079862470757 10.408590077372413 0
          6.3254547375708228 10.406031047154663 0
          6.3328420332702979 10.403305138161162 0
          6.3401694184509703 10.40042206581847 0
          6.3474362015820596 10.39738949313579 0
          6.3546421005409384 10.394214969434151 0
          6.3617882430652442 10.390908134474106 0
          6.3688752233504147 10.387476350386452 0
          6.3759051562497353 10.383929185479435 0
          6.3828794229868153 10.380273801248741 0
          6.3897983205558537 10.376514681427217 0
          6.3966622433686986 10.372656108627702 0
          6.4034731537318814 10.368704728246378 0
          6.4102316965681849 10.364664444543296 0
          6.4169386028359829 10.360539024691711 0
          6.4235962502474155 10.356334587625359 0
          6.4302054964801343 10.352054481916541 0
          6.436767243249581 10.347701919258045 0
          6.4432841354115586 10.343282494502718 0
          6.4497571076034808 10.338799001603073 0
          6.4561871007077025 10.334254098048319 0
          6.4625750264271096 10.3296502680756 0
          6.468923618724534 10.324992360160742 0
          6.4752337405633602 10.320282478655876 0
          6.4815061916761669 10.315522554624978 0
          6.4877416683151221 10.310714305715404 0
          6.4939428455571697 10.305861910394523 0
          6.5001103055938234 10.300966739145085 0
          6.5062445245061049 10.296029982876938 0
          6.5123458318608929 10.291052613323757 0
          6.5184144609723802 10.286035455515639 0
          6.5244527011323639 10.280981765763261 0
          6.5304605034698202 10.275891927682933 0
          6.53643769181505 10.270766168948624 0
          6.5423839206800807 10.265604520289036 0
          6.5482986635532026 10.260406811686423 0
          6.5541835136631761 10.255175268883296 0
          6.5600375765602887 10.249909280687749 0
          6.5658597385044128 10.244608022227702 0
          6.5716486154923563 10.239270411495271 0
          6.5774026088734754 10.233895184004576 0
          6.5831223645019268 10.228483502489842 0
          6.5888057281460464 10.223033573021256 0
          6.5944502782126548 10.217543406715439 0
          6.6000532653586355 10.212010776730951 0
          6.6056142225991179 10.206435842436795 0
          6.6111297113404701 10.200815852985038 0
          6.6165958856467295 10.195147812647972 0
          6.6220112539781324 10.18943112785445 0
          6.627371102814549 10.183662265488062 0
          6.6326701575505105 10.177837411396945 0
          6.6379056453804308 10.17195524691493 0
          6.6430712229157969 10.166011477331175 0
          6.6481630207205162 10.160004254601603 0
          6.6531733696198891 10.153928796228241 0
          6.6580937526539108 10.147780105177208 0
          6.6629182390618116 10.141555730336814 0
          6.6676365482973514 10.135250325333963 0
          6.6722409578252861 10.128861098768278 0
          6.6767228418837243 10.122385149608903 0
          6.6810725720289215 10.115819510129082 0
          6.685275219491098 10.109158563112079 0
          6.6893017005648865 10.102389477577436 0
          6.6933615260217483 10.09564098926856 0
          6.6974641085151001 10.088918943117092 0
          6.7015935960713673 10.082213834284707 0
          6.7057373859263532 10.075517901988212 0
          6.7098760155120631 10.068819032824207 0
          6.7139684898527063 10.062092029019867 0
          6.7179397203917279 10.055292804650717 0
          6.7216110698681915 10.048327075870214 0
        </DataArray>
      </Points>
      <Cells>
        <DataArray type="Int32" Name="connectivity" format="ascii">
          0 1 1 2 2 3 3 4 4 5 5 6 6 7 7 8 8 9 9 10 10 11 11 12 12 13 13 14 14 15 15 16 16 17 17 18 18 19 19 20 20 21 21 22 22 23 23 24 24 25 25 26 26 27 27 28 28 29 29 30 30 31 31 32 32 33 33 34 34 35 35 36 36 37 37 38 38 39 39 40 40 41 41 42 42 43 43 44 44 45 45 46 46 47 47 48 48 49 49 50 50 51 51 52 52 53 53 54 54 55 55 56 56 57 57 58 58 59 59 60 60 61 61 62 62 63 63 64 64 65 65 66 66 67 67 68 68 69 69 70 70 71 71 72 72 73 73 74 74 75 75 76 76 77 77 78 78 79 79 80 80 81 81 82 82 83 83 84 84 85 85 86 86 87 87 88 88 89 89 90 90 91 91 92 92 93 93 94 94 95 95 96 96 97 97 98 98 99 99 100 100 101 101 102 102 103 103 104 104 105 105 106 106 107 107 108 108 109 109 110 110 111 111 112 112 113 113 114 114 115 115 116 116 117 117 118 118 119 119 120 120 121 121 122 122 123 123 124 124 125 125 126 126 127 
        </DataArray>
        <DataArray type="Int32" Name="offsets" format="ascii">
          2 4 6 8 10 12 14 16 18 20 22 24 26 28 30 32 34 36 38 40 42 44 46 48 50 52 54 56 58 60 62 64 66 68 70 72 74 76 78 80 82 84 86 88 90 92 94 96 98 100 102 104 106 108 110 112 114 116 118 120 122 124 126 128 130 132 134 136 138 140 142 144 146 148 150 152 154 156 158 160 162 164 166 168 170 172 174 176 178 180 182 184 186 188 190 192 194 196 198 200 202 204 206 208 210 212 214 216 218 220 222 224 226 228 230 232 234 236 238 240 242 244 246 248 250 252 254 
        </DataArray>
        <DataArray type="Int32" Name="types" format="ascii">
          3 3 3 3 3 3 3 3 3 3 3 3 3 3 3 3 3 3 3 3 3 3 3 3 3 3 3 3 3 3 3 3 3 3 3 3 3 3 3 3 3 3 3 3 3 3 3 3 3 3 3 3 3 3 3 3 3 3 3 3 3 3 3 3 3 3 3 3 3 3 3 3 3 3 3 3 3 3 3 3 3 3 3 3 3 3 3 3 3 3 3 3 3 3 3 3 3 3 3 3 3 3 3 3 3 3 3 3 3 3 3 3 3 3 3 3 3 3 3 3 3 3 3 3 3 3 3         </DataArray>
      </Cells>
    </Piece>
  </UnstructuredGrid>
</VTKFile>
