 9.096 -10.2784
 9.101 -10.4202
 9.106 -10.4618
 9.111 -10.3514
 9.116 -10.0549
 9.121 -9.57147
 9.126 -8.94018
 9.131 -8.29478
 9.136 -7.79299
 9.141 -7.44867
 9.146 -7.21323
 9.151 -7.04561
 9.156 -6.91349
 9.161 -6.79907
 9.166 -6.69377
 9.171 -6.59429
 9.176 -6.49934
 9.181 -6.40863
 9.186 -6.32231
 9.191 -6.24065
 9.196 -6.14355
 9.201 -6.01384
 9.206 -5.94073
 9.211 -5.90674
 9.216 -5.8956
 9.221 -5.90839
 9.226 -5.95085
 9.231 -6.02754
 9.236 -6.14185
 9.241 -6.2984
 9.246 -6.51112
 9.251 -6.76578
 9.256 -7.0205
 9.261 -7.24775
 9.266 -7.44134
 9.271 -7.60456
 9.276 -7.75279
 9.281 -7.89832
 9.286 -8.04724
 9.291 -8.20225
 9.296 -8.36437
 9.301 -8.5305
 9.306 -8.6484
 9.311 -8.67159
 9.316 -8.71855
 9.321 -8.84879
 9.326 -9.04552
 9.331 -9.28814
 9.336 -9.55328
 9.341 -9.80451
 9.346 -9.99194
 9.351 -10.0631
 9.356 -9.98449
 9.361 -9.75947
 9.366 -9.42912
 9.371 -9.04678
 9.376 -8.67485
 9.381 -8.34912
 9.386 -8.07326
 9.391 -7.83898
 9.396 -7.63781
 9.401 -7.4635
 9.406 -7.30884
 9.411 -7.18664
 9.416 -7.1687
 9.421 -7.20951
 9.426 -7.34236
 9.431 -7.62711
 9.436 -7.85531
 9.441 -8.07182
 9.446 -8.32139
 9.451 -8.61278
 9.456 -8.91275
 9.461 -9.16529
 9.466 -9.3315
 9.471 -9.4111
 9.476 -9.43105
 9.481 -9.42308
 9.486 -9.41119
 9.491 -9.4094
 9.496 -9.43651
 9.501 -9.48877
 9.506 -9.50597
 9.511 -9.41715
 9.516 -9.23547
 9.521 -9.01728
 9.526 -8.78468
 9.531 -8.51689
 9.536 -8.14897
 9.541 -7.75635
 9.546 -7.50981
 9.551 -7.34677
 9.556 -7.21555
 9.561 -7.09659
 9.566 -6.9862
 9.571 -6.89062
 9.576 -6.81383
 9.581 -6.75432
 9.586 -6.7067
 9.591 -6.6648
 9.596 -6.62353
 9.601 -6.57947
 9.606 -6.53083
 9.611 -6.47595
 9.616 -6.41104
 9.621 -6.34208
 9.626 -6.27311
 9.631 -6.20639
 9.636 -6.14472
 9.641 -6.09255
 9.646 -6.09326
 9.651 -6.152
 9.656 -6.24037
 9.661 -6.35594
 9.666 -6.53097
 9.671 -6.78378
 9.676 -6.96304
 9.681 -7.09641
 9.686 -7.22349
 9.691 -7.36237
 9.696 -7.51046
 9.701 -7.65429
 9.706 -7.7804
 9.711 -7.88273
 9.716 -7.96415
 9.721 -8.033
 9.726 -8.09872
 9.731 -8.16843
 9.736 -8.25065
 9.741 -8.351
 9.746 -8.4671
 9.751 -8.59603
 9.756 -8.73459
 9.761 -8.87767
 9.766 -9.02001
 9.771 -9.16219
 9.776 -9.30167
 9.781 -9.30702
 9.786 -9.113
 9.791 -8.8127
 9.796 -8.41315
 9.801 -8.15949
 9.806 -7.99916
 9.811 -7.86953
 9.816 -7.74327
 9.821 -7.61509
 9.826 -7.49021
 9.831 -7.37568
 9.836 -7.27572
 9.841 -7.18995
 9.846 -7.11437
 9.851 -7.04344
 9.856 -6.97256
 9.861 -6.89636
 9.866 -6.81321
 9.871 -6.72586
 9.876 -6.63701
 9.881 -6.54919
 9.886 -6.46463
 9.891 -6.38563
 9.896 -6.31181
 9.901 -6.24231
 9.906 -6.17651
 9.911 -6.11395
 9.916 -6.08222
 9.921 -6.13982
 9.926 -6.17088
 9.931 -6.19638
 9.936 -6.21621
 9.941 -6.23065
 9.946 -6.24193
 9.951 -6.25313
 9.956 -6.26833
 9.961 -6.29229
 9.966 -6.33053
 9.971 -6.38927
 9.976 -6.47531
 9.981 -6.59595
 9.986 -6.75703
 9.991 -6.94589
 9.996 -7.14557
 10.001 -7.34306
 10.006 -7.53175
 10.011 -7.7096
 10.016 -7.88048
 10.021 -8.04934
 10.026 -8.21978
 10.031 -8.39369
 10.036 -8.57216
 10.041 -8.75547
 10.046 -8.94318
 10.051 -9.21904
 10.056 -9.65077
 10.061 -9.97843
 10.066 -10.1981
 10.071 -10.3575
 10.076 -10.4408
 10.081 -10.407
 10.086 -10.219
 10.091 -9.86283
 10.096 -9.35824
 10.101 -8.75737
 10.106 -8.14365
 10.111 -7.65791
 10.116 -7.32107
 10.121 -7.09013
 10.126 -6.93206
 10.131 -6.81266
 10.136 -6.71078
 10.141 -6.6167
 10.146 -6.52696
 10.151 -6.44044
 10.156 -6.35709
 10.161 -6.28766
 10.166 -6.25808
 10.171 -6.23742
 10.176 -6.16385
 10.181 -6.06397
 10.186 -5.9809
 10.191 -5.92337
 10.196 -5.88857
 10.201 -5.88106
 10.206 -5.90801
 10.211 -5.97544
 10.216 -6.08661
 10.221 -6.24453
 10.226 -6.45214
 10.231 -6.68756
 10.236 -6.92143
 10.241 -7.13631
 10.246 -7.32844
 10.251 -7.50187
 10.256 -7.66687
 10.261 -7.83138
 10.266 -7.99982
 10.271 -8.17391
 10.276 -8.35443
 10.281 -8.52779
 10.286 -8.62882
 10.291 -8.71217
 10.296 -8.85817
 10.301 -9.07653
 10.306 -9.35423
 10.311 -9.66739
 10.316 -9.9534
 10.321 -10.1706
 10.326 -10.2736
 10.331 -10.2177
 10.336 -9.99331
 10.341 -9.63266
 10.346 -9.19547
 10.351 -8.7514
 10.356 -8.36105
 10.361 -8.03883
 10.366 -7.77481
 10.371 -7.55528
 10.376 -7.37003
 10.381 -7.20966
 10.386 -7.06673
 10.391 -6.99467
 10.396 -6.99471
 10.401 -7.0498
 10.406 -7.2559
 10.411 -7.46681
 10.416 -7.64445
 10.421 -7.8414
 10.426 -8.08405
 10.431 -8.35787
 10.436 -8.61269
 10.441 -8.79829
 10.446 -8.89963
 10.451 -8.93627
 10.456 -8.93898
 10.461 -8.93295
 10.466 -8.93266
 10.471 -8.9557
 10.476 -9.00362
 10.481 -9.02576
 10.486 -8.94759
 10.491 -8.81031
 10.496 -8.65147
 10.501 -8.4801
 10.506 -8.269
 10.511 -7.96335
 10.516 -7.60115
 10.521 -7.35999
 10.526 -7.20051
 10.531 -7.07275
 10.536 -6.957
 10.541 -6.84922
 10.546 -6.75618
 10.551 -6.68321
 10.556 -6.62882
 10.561 -6.58735
 10.566 -6.55229
 10.571 -6.51831
 10.576 -6.48189
 10.581 -6.44117
 10.586 -6.39564
 10.591 -6.33714
 10.596 -6.27028
 10.601 -6.20191
 10.606 -6.13555
 10.611 -6.08017
 10.616 -6.10079
 10.621 -6.15144
 10.626 -6.22306
 10.631 -6.31441
 10.636 -6.4325
 10.641 -6.62824
 10.646 -6.9065
 10.651 -7.11104
 10.656 -7.26014
 10.661 -7.39446
 10.666 -7.5388
 10.671 -7.69132
 10.676 -7.83706
 10.681 -7.96113
 10.686 -8.05797
 10.691 -8.13202
 10.696 -8.19306
 10.701 -8.25127
 10.706 -8.31475
 10.711 -8.38894
 10.716 -8.48498
 10.721 -8.5991
 10.726 -8.72729
 10.731 -8.86555
 10.736 -9.00729
 10.741 -9.14553
 10.746 -9.28136
 10.751 -9.33551
 10.756 -9.18717
 10.761 -8.93519
 10.766 -8.6151
 10.771 -8.19757
 10.776 -7.94547
 10.781 -7.78846
 10.786 -7.65839
 10.791 -7.52895
 10.796 -7.39826
 10.801 -7.27426
 10.806 -7.1649
 10.811 -7.07361
 10.816 -6.99852
 10.821 -6.93432
 10.826 -6.87485
 10.831 -6.81527
 10.836 -6.75066
 10.841 -6.67798
 10.846 -6.60056
 10.851 -6.52122
 10.856 -6.44251
 10.861 -6.36754
 10.866 -6.29809
 10.871 -6.2332
 10.876 -6.17188
 10.881 -6.1135
 10.886 -6.0805
 10.891 -6.13723
 10.896 -6.2412
 10.901 -6.32744
 10.906 -6.39052
 10.911 -6.44028
 10.916 -6.48616
 10.921 -6.53265
 10.926 -6.58137
 10.931 -6.63261
 10.936 -6.68662
 10.941 -6.74466
 10.946 -6.80933
 10.951 -6.88439
 10.956 -6.97357
 10.961 -7.08334
 10.966 -7.21262
 10.971 -7.35669
 10.976 -7.51106
 10.981 -7.67161
 10.986 -7.83458
 10.991 -7.99787
 10.996 -8.16229
 11.001 -8.32951
 11.006 -8.50053
 11.011 -8.67599
 11.016 -8.85605
 11.021 -9.04036
 11.026 -9.33973
 11.031 -9.74556
 11.036 -10.0253
 11.041 -10.2307
 11.046 -10.3937
 11.051 -10.4874
 11.056 -10.4625
 11.061 -10.2755
 11.066 -9.90842
 11.071 -9.38053
 11.076 -8.7519
 11.081 -8.11666
 11.086 -7.61728
 11.091 -7.27447
 11.096 -7.04043
 11.101 -6.87659
 11.106 -6.75396
 11.111 -6.65144
 11.116 -6.55896
 11.121 -6.4721
 11.126 -6.3894
 11.131 -6.31031
 11.136 -6.23745
 11.141 -6.18723
 11.146 -6.15191
 11.151 -6.07783
 11.156 -6.00012
 11.161 -5.94006
 11.166 -5.89332
 11.171 -5.86396
 11.176 -5.85918
 11.181 -5.88603
 11.186 -5.94978
 11.191 -6.05472
 11.196 -6.20677
 11.201 -6.41793
 11.206 -6.66976
 11.211 -6.92343
 11.216 -7.15008
 11.221 -7.34227
 11.226 -7.5094
 11.231 -7.66468
 11.236 -7.81767
 11.241 -7.97406
 11.246 -8.13652
 11.251 -8.30623
 11.256 -8.48342
 11.261 -8.66744
 11.266 -8.8572
 11.271 -9.16023
 11.276 -9.61386
 11.281 -9.98547
 11.286 -10.1992
 11.291 -10.3234
 11.296 -10.3545
 11.301 -10.2761
 11.306 -10.0808
 11.311 -9.77555
 11.316 -9.3826
 11.321 -8.91669
 11.326 -8.45383
 11.331 -8.06009
 11.336 -7.74617
 11.341 -7.50275
 11.346 -7.3189
 11.351 -7.16849
 11.356 -7.03414
 11.361 -6.90872
 11.366 -6.79087
 11.371 -6.69404
 11.376 -6.68503
 11.381 -6.79079
 11.386 -6.8267
 11.391 -6.80799
 11.396 -6.77432
 11.401 -6.74524
 11.406 -6.72718
 11.411 -6.72151
 11.416 -6.72816
 11.421 -6.74739
 11.426 -6.77968
 11.431 -6.82486
 11.436 -6.88175
 11.441 -6.94784
 11.446 -7.02383
 11.451 -7.10541
 11.456 -7.1842
 11.461 -7.22959
 11.466 -7.24964
 11.471 -7.24021
 11.476 -7.17901
 11.481 -7.02937
 11.486 -6.80379
 11.491 -6.64542
 11.496 -6.53598
 11.501 -6.43682
 11.506 -6.33523
 11.511 -6.23583
 11.516 -6.15186
 11.521 -6.09251
 11.526 -6.05648
 11.531 -6.03588
 11.536 -6.02302
 11.541 -6.01341
 11.546 -6.01348
 11.551 -6.02645
 11.556 -6.05842
 11.561 -6.12095
 11.566 -6.22715
 11.571 -6.33691
 11.576 -6.40988
 11.581 -6.46322
 11.586 -6.51297
 11.591 -6.56507
 11.596 -6.62104
 11.601 -6.68038
 11.606 -6.74233
 11.611 -6.80695
 11.616 -6.8758
 11.621 -6.95192
 11.626 -7.03889
 11.631 -7.14364
 11.636 -7.2648
 11.641 -7.39958
 11.646 -7.54496
 11.651 -7.69769
 11.656 -7.854
 11.661 -8.01215
 11.666 -8.1732
 11.671 -8.33827
 11.676 -8.5081
 11.681 -8.68307
 11.686 -8.8631
 11.691 -9.07793
 11.696 -9.41934
 11.701 -9.85016
 11.706 -10.1279
 11.711 -10.3272
 11.716 -10.4609
 11.721 -10.4993
 11.726 -10.4011
 11.731 -10.1389
 11.736 -9.71334
 11.741 -9.16014
 11.746 -8.54201
 11.751 -7.95673
 11.756 -7.51236
 11.761 -7.20468
 11.766 -6.98961
 11.771 -6.83715
 11.776 -6.72059
 11.781 -6.62129
 11.786 -6.53053
 11.791 -6.44483
 11.796 -6.36307
 11.801 -6.29336
 11.806 -6.24971
 11.811 -6.26125
 11.816 -6.24563
 11.821 -6.17398
 11.826 -6.07562
 11.831 -5.992
 11.836 -5.93102
 11.841 -5.89048
 11.846 -5.87589
 11.851 -5.89543
 11.856 -5.95618
 11.861 -6.06214
 11.866 -6.216
 11.871 -6.41971
 11.876 -6.65155
 11.881 -6.88298
 11.886 -7.09642
 11.891 -7.28785
 11.896 -7.4611
 11.901 -7.62618
 11.906 -7.79096
 11.911 -7.95986
 11.916 -8.13463
 11.921 -8.31606
 11.926 -8.49794
 11.931 -8.61579
 11.936 -8.70055
 11.941 -8.84499
 11.946 -9.06107
 11.951 -9.33697
 11.956 -9.64981
 11.961 -9.93834
 11.966 -10.1612
 11.971 -10.2726
 11.976 -10.2258
 11.981 -10.0087
 11.986 -9.65131
 11.991 -9.21451
 11.996 -8.76449
 12.001 -8.36941
 12.006 -8.04684
 12.011 -7.78519
 12.016 -7.56925
 12.021 -7.38852
 12.026 -7.23212
 12.031 -7.09213
 12.036 -6.99985
 12.041 -6.98209
 12.046 -7.01397
 12.051 -7.15714
 12.056 -7.40829
 12.061 -7.59923
 12.066 -7.78506
 12.071 -8.00837
 12.076 -8.27425
 12.081 -8.54451
 12.086 -8.76337
 12.091 -8.89863
 12.096 -8.95759
 12.101 -8.96928
 12.106 -8.96251
 12.111 -8.95592
 12.116 -8.96678
 12.121 -9.00574
 12.126 -9.0351
 12.131 -8.98895
 12.136 -8.86537
 12.141 -8.71379
 12.146 -8.54495
 12.151 -8.35325
 12.156 -8.08233
 12.161 -7.7143
 12.166 -7.43461
 12.171 -7.25676
 12.176 -7.12072
 12.181 -7.00267
 12.186 -6.89276
 12.191 -6.79517
 12.196 -6.71642
 12.201 -6.65703
 12.206 -6.61224
 12.211 -6.57549
 12.216 -6.54104
 12.221 -6.50485
 12.226 -6.46465
 12.231 -6.41978
 12.236 -6.36526
 12.241 -6.30159
 12.246 -6.23533
 12.251 -6.1701
 12.256 -6.10813
 12.261 -6.08077
 12.266 -6.12305
 12.271 -6.19129
 12.276 -6.28052
 12.281 -6.39082
 12.286 -6.56039
 12.291 -6.83302
 12.296 -7.04724
 12.301 -7.20315
 12.306 -7.33952
 12.311 -7.48475
 12.316 -7.64047
 12.321 -7.79255
 12.326 -7.92488
 12.331 -8.02966
 12.336 -8.10965
 12.341 -8.17405
 12.346 -8.2333
 12.351 -8.29609
 12.356 -8.36768
 12.361 -8.45996
 12.366 -8.57107
 12.371 -8.69695
 12.376 -8.83363
 12.381 -8.97562
 12.386 -9.11463
 12.391 -9.2507
 12.396 -9.34052
 12.401 -9.22378
 12.406 -8.98902
 12.411 -8.68661
 12.416 -8.26926
 12.421 -7.98658
 12.426 -7.81813
 12.431 -7.68712
 12.436 -7.55967
 12.441 -7.43033
 12.446 -7.30587
 12.451 -7.19446
 12.456 -7.10047
 12.461 -7.02291
 12.466 -6.95699
 12.471 -6.89662
 12.476 -6.83646
 12.481 -6.77272
 12.486 -6.70037
 12.491 -6.62268
 12.496 -6.54266
 12.501 -6.46292
 12.506 -6.38601
 12.511 -6.31491
 12.516 -6.24878
 12.521 -6.18648
 12.526 -6.12729
 12.531 -6.08101
 12.536 -6.11779
 12.541 -6.21779
 12.546 -6.33559
 12.551 -6.42178
 12.556 -6.48768
 12.561 -6.54676
 12.566 -6.60687
 12.571 -6.67058
 12.576 -6.7376
 12.581 -6.80647
 12.586 -6.87625
 12.591 -6.94763
 12.596 -7.02312
 12.601 -7.1065
 12.606 -7.20139
 12.611 -7.31441
 12.616 -7.44338
 12.621 -7.58498
 12.626 -7.73587
 12.631 -7.89291
 12.636 -8.0524
 12.641 -8.21283
 12.646 -8.37534
 12.651 -8.54112
 12.656 -8.71079
 12.661 -8.88476
 12.666 -9.06299
 12.671 -9.29292
 12.676 -9.64297
 12.681 -9.91037
 12.686 -10.0997
 12.691 -10.2645
 12.696 -10.3959
 12.701 -10.452
 12.706 -10.3821
 12.711 -10.1477
 12.716 -9.73691
 12.721 -9.17705
 12.726 -8.53078
 12.731 -7.92842
 12.736 -7.48738
 12.741 -7.1912
 12.746 -6.98885
 12.751 -6.84509
 12.756 -6.73233
 12.761 -6.63462
 12.766 -6.54483
 12.771 -6.45996
 12.776 -6.37883
 12.781 -6.3011
 12.786 -6.22681
 12.791 -6.15611
 12.796 -6.07893
 12.801 -5.99597
 12.806 -5.96827
 12.811 -5.95765
 12.816 -5.95773
 12.821 -5.97031
 12.826 -6.00085
 12.831 -6.05627
 12.836 -6.14383
 12.841 -6.27177
 12.846 -6.45752
 12.851 -6.70086
 12.856 -6.96268
 12.861 -7.20346
 12.866 -7.40643
 12.871 -7.57466
 12.876 -7.72442
 12.881 -7.86817
 12.886 -8.01385
 12.891 -8.16497
 12.896 -8.32329
 12.901 -8.48934
 12.906 -8.66273
 12.911 -8.84255
 12.916 -9.08334
 12.921 -9.47118
 12.926 -9.88269
 12.931 -10.1176
 12.936 -10.2633
 12.941 -10.3235
 12.946 -10.2827
 12.951 -10.1293
 12.956 -9.86447
 12.961 -9.50429
 12.966 -9.06272
 12.971 -8.59615
 12.976 -8.18358
 12.981 -7.84854
 12.986 -7.58551
 12.991 -7.38719
 12.996 -7.22791
 13.001 -7.08716
 13.006 -6.95635
 13.011 -6.83235
 13.016 -6.71851
 13.021 -6.66889
 13.026 -6.75209
 13.031 -6.77871
 13.036 -6.74693
 13.041 -6.69479
 13.046 -6.64422
 13.051 -6.60432
 13.056 -6.57916
 13.061 -6.57081
 13.066 -6.58043
 13.071 -6.60797
 13.076 -6.65187
 13.081 -6.7093
 13.086 -6.77641
 13.091 -6.85284
 13.096 -6.934
 13.101 -7.01387
 13.106 -7.06841
 13.111 -7.09951
 13.116 -7.10168
 13.121 -7.05214
 13.126 -6.91961
 13.131 -6.71119
 13.136 -6.55793
 13.141 -6.4555
 13.146 -6.36302
 13.151 -6.26656
 13.156 -6.17021
 13.161 -6.08689
 13.166 -6.02743
 13.171 -5.99142
 13.176 -5.97176
 13.181 -5.96938
 13.186 -5.98051
 13.191 -6.00726
 13.196 -6.05663
 13.201 -6.13628
 13.206 -6.25298
 13.211 -6.41747
 13.216 -6.61298
 13.221 -6.73031
 13.226 -6.81982
 13.231 -6.90789
 13.236 -7.00272
 13.241 -7.10327
 13.246 -7.20437
 13.251 -7.30054
 13.256 -7.38893
 13.261 -7.47051
 13.266 -7.54929
 13.271 -7.63009
 13.276 -7.71992
 13.281 -7.82388
 13.286 -7.94125
 13.291 -8.07078
 13.296 -8.2103
 13.301 -8.35662
 13.306 -8.50584
 13.311 -8.65772
 13.316 -8.81296
 13.321 -8.97195
 13.326 -9.13499
 13.331 -9.29814
 13.336 -9.33847
 13.341 -9.38236
 13.346 -9.42169
 13.351 -9.46874
 13.356 -9.53251
 13.361 -9.60618
 13.366 -9.67028
 13.371 -9.69588
 13.376 -9.64899
 13.381 -9.49732
 13.386 -9.22086
 13.391 -8.82616
 13.396 -8.34828
 13.401 -7.89765
 13.406 -7.54303
 13.411 -7.28067
 13.416 -7.08523
 13.421 -6.93437
 13.426 -6.80906
 13.431 -6.69838
 13.436 -6.59659
 13.441 -6.50126
 13.446 -6.41122
 13.451 -6.32603
 13.456 -6.24554
 13.461 -6.16508
 13.466 -6.05795
 13.471 -5.95291
 13.476 -5.91878
 13.481 -5.90998
 13.486 -5.91893
 13.491 -5.94858
 13.496 -6.00452
 13.501 -6.09277
 13.506 -6.22
 13.511 -6.39799
 13.516 -6.6475
 13.521 -6.93916
 13.526 -7.21867
 13.531 -7.45787
 13.536 -7.65195
 13.541 -7.81209
 13.546 -7.95748
 13.551 -8.1002
 13.556 -8.24655
 13.561 -8.39927
 13.566 -8.5594
 13.571 -8.727
 13.576 -8.90134
 13.581 -9.08927
 13.586 -9.42233
 13.591 -9.7652
 13.596 -10.0078
 13.601 -10.2145
 13.606 -10.3753
 13.611 -10.449
 13.616 -10.3836
 13.621 -10.1386
 13.626 -9.70308
 13.631 -9.10765
 13.636 -8.43808
 13.641 -7.88077
 13.646 -7.49526
 13.651 -7.23755
 13.656 -7.06124
 13.661 -6.9286
 13.666 -6.81633
 13.671 -6.71387
 13.676 -6.61687
 13.681 -6.52372
 13.686 -6.43412
 13.691 -6.34824
 13.696 -6.26648
 13.701 -6.18186
 13.706 -6.05433
 13.711 -5.95714
 13.716 -5.91443
 13.721 -5.899
 13.726 -5.90519
 13.731 -5.93755
 13.736 -6.00099
 13.741 -6.09928
 13.746 -6.23648
 13.751 -6.42397
 13.756 -6.66736
 13.761 -6.92826
 13.766 -7.16826
 13.771 -7.37324
 13.776 -7.54016
 13.781 -7.68486
 13.786 -7.82332
 13.791 -7.96432
 13.796 -8.11192
 13.801 -8.26783
 13.806 -8.4324
 13.811 -8.60347
 13.816 -8.72923
 13.821 -8.8202
 13.826 -8.99673
 13.831 -9.2604
 13.836 -9.57826
 13.841 -9.88336
 13.846 -10.1399
 13.851 -10.3134
 13.856 -10.3498
 13.861 -10.2104
 13.866 -9.89606
 13.871 -9.45259
 13.876 -8.94552
 13.881 -8.47602
 13.886 -8.09716
 13.891 -7.8021
 13.896 -7.56895
 13.901 -7.38117
 13.906 -7.22157
 13.911 -7.07917
 13.916 -6.94847
 13.921 -6.83973
 13.926 -6.79629
 13.931 -6.80631
 13.936 -6.92404
 13.941 -7.08501
 13.946 -7.19962
 13.951 -7.31452
 13.956 -7.46413
 13.961 -7.65315
 13.966 -7.86
 13.971 -8.04778
 13.976 -8.1868
 13.981 -8.27144
 13.986 -8.31596
 13.991 -8.34032
 13.996 -8.35955
 14.001 -8.39236
 14.006 -8.44647
 14.011 -8.52078
 14.016 -8.56859
 14.021 -8.52547
 14.026 -8.43659
 14.031 -8.32023
 14.036 -8.17944
 14.041 -7.97064
 14.046 -7.64659
 14.051 -7.37327
 14.056 -7.21074
 14.061 -7.08868
 14.066 -6.9787
 14.071 -6.87057
 14.076 -6.77047
 14.081 -6.68729
 14.086 -6.62418
 14.091 -6.57783
 14.096 -6.54196
 14.101 -6.51023
 14.106 -6.47782
 14.111 -6.44172
 14.116 -6.39933
 14.121 -6.34622
 14.126 -6.28738
 14.131 -6.2265
 14.136 -6.16603
 14.141 -6.1096
 14.146 -6.07731
 14.151 -6.11471
 14.156 -6.18797
 14.161 -6.28784
 14.166 -6.41807
 14.171 -6.63592
 14.176 -6.88035
 14.181 -7.04874
 14.186 -7.18285
 14.191 -7.31928
 14.196 -7.46966
 14.201 -7.62615
 14.206 -7.77253
 14.211 -7.89586
 14.216 -7.99281
 14.221 -8.06894
 14.226 -8.134
 14.231 -8.19768
 14.236 -8.26644
 14.241 -8.35092
 14.246 -8.45537
 14.251 -8.57602
 14.256 -8.70911
 14.261 -8.85057
 14.266 -8.99236
 14.271 -9.13051
 14.276 -9.2674
 14.281 -9.32885
 14.286 -9.18283
 14.291 -8.93232
 14.296 -8.60464
 14.301 -8.1993
 14.306 -7.963
 14.311 -7.81129
 14.316 -7.68378
 14.321 -7.55698
 14.326 -7.42989
 14.331 -7.30995
 14.336 -7.20417
 14.341 -7.11515
 14.346 -7.04058
 14.351 -6.97516
 14.356 -6.91301
 14.361 -6.84992
 14.366 -6.78011
 14.371 -6.70274
 14.376 -6.62128
 14.381 -6.53864
 14.386 -6.4573
 14.391 -6.38048
 14.396 -6.30951
 14.401 -6.24322
 14.406 -6.18054
 14.411 -6.12089
 14.416 -6.07841
 14.421 -6.12749
 14.426 -6.228
 14.431 -6.31413
 14.436 -6.37792
 14.441 -6.42901
 14.446 -6.47602
 14.451 -6.52352
 14.456 -6.57322
 14.461 -6.62539
 14.466 -6.68012
 14.471 -6.73842
 14.476 -6.80267
 14.481 -6.87648
 14.486 -6.96363
 14.491 -7.07013
 14.496 -7.197
 14.501 -7.33945
 14.506 -7.49288
 14.511 -7.65289
 14.516 -7.81588
 14.521 -7.97896
 14.526 -8.14305
 14.531 -8.30996
 14.536 -8.48078
 14.541 -8.65623
 14.546 -8.83647
 14.551 -9.02117
 14.556 -9.32091
 14.561 -9.74237
 14.566 -10.0319
 14.571 -10.2415
 14.576 -10.4021
 14.581 -10.4874
 14.586 -10.4484
 14.591 -10.244
 14.596 -9.85948
 14.601 -9.31847
 14.606 -8.68506
 14.611 -8.05638
 14.616 -7.56864
 14.621 -7.23529
 14.626 -7.00747
 14.631 -6.84761
 14.636 -6.7277
 14.641 -6.62727
 14.646 -6.53661
 14.651 -6.45144
 14.656 -6.37037
 14.661 -6.29287
 14.666 -6.22369
 14.671 -6.17798
 14.676 -6.1472
 14.681 -6.0768
 14.686 -5.99923
 14.691 -5.93932
 14.696 -5.89196
 14.701 -5.86148
 14.706 -5.85514
 14.711 -5.88005
 14.716 -5.94155
 14.721 -6.04388
 14.726 -6.19246
 14.731 -6.39924
 14.736 -6.64761
 14.741 -6.9002
 14.746 -7.12728
 14.751 -7.31992
 14.756 -7.48738
 14.761 -7.64304
 14.766 -7.79639
 14.771 -7.95315
 14.776 -8.11602
 14.781 -8.28623
 14.786 -8.46404
 14.791 -8.64882
 14.796 -8.83948
 14.801 -9.14635
 14.806 -9.5994
 14.811 -9.98002
 14.816 -10.1977
 14.821 -10.3214
 14.826 -10.3511
 14.831 -10.2758
 14.836 -10.0925
 14.841 -9.8103
 14.846 -9.44979
 14.851 -9.02013
 14.856 -8.58406
 14.861 -8.20171
 14.866 -7.88711
 14.871 -7.63693
 14.876 -7.44464
 14.881 -7.2868
 14.886 -7.14585
 14.891 -7.01426
 14.896 -6.89062
 14.901 -6.79806
 14.906 -6.84304
 14.911 -6.96371
 14.916 -7.00975
 14.921 -7.01201
 14.926 -7.00955
 14.931 -7.01856
 14.936 -7.03982
 14.941 -7.06823
 14.946 -7.09911
 14.951 -7.13102
 14.956 -7.16521
 14.961 -7.20367
 14.966 -7.24751
 14.971 -7.29765
 14.976 -7.35816
 14.981 -7.40659
 14.986 -7.43001
 14.991 -7.43007
 14.996 -7.40461
 15.001 -7.32801
 15.006 -7.17258
 15.011 -6.93864
 15.016 -6.75426
 15.021 -6.63685
 15.026 -6.54093
 15.031 -6.44667
 15.036 -6.35356
 15.041 -6.2709
 15.046 -6.20877
 15.051 -6.1683
 15.056 -6.14342
 15.061 -6.12618
 15.066 -6.11112
 15.071 -6.09467
 15.076 -6.07545
 15.081 -6.05437
 15.086 -6.0434
 15.091 -6.0555
 15.096 -6.10768
 15.101 -6.14981
 15.106 -6.17363
 15.111 -6.19602
 15.116 -6.21973
 15.121 -6.2446
 15.126 -6.27114
 15.131 -6.30094
 15.136 -6.33704
 15.141 -6.38407
 15.146 -6.44813
 15.151 -6.53601
